<?xml version="1.0" encoding="UTF-8" standalone="no"?>
<!-- Created with Inkscape (http://www.inkscape.org/) -->

<svg
   xmlns:dc="http://purl.org/dc/elements/1.1/"
   xmlns:cc="http://creativecommons.org/ns#"
   xmlns:rdf="http://www.w3.org/1999/02/22-rdf-syntax-ns#"
   xmlns:svg="http://www.w3.org/2000/svg"
   xmlns="http://www.w3.org/2000/svg"
   xmlns:xlink="http://www.w3.org/1999/xlink"
   xmlns:sodipodi="http://sodipodi.sourceforge.net/DTD/sodipodi-0.dtd"
   xmlns:inkscape="http://www.inkscape.org/namespaces/inkscape"
   id="svg2"
   version="1.1"
   inkscape:version="0.92.2 (5c3e80d, 2017-08-06)"
   width="2481"
   height="3503"
   sodipodi:docname="E22P03.svg"
   inkscape:export-filename="E:\Users\jamesmichael\Downloads\Compressed\eps\ep22_The-Voting-System_lang-pack\lang\ph\E22P03.png"
   inkscape:export-xdpi="90"
   inkscape:export-ydpi="90">
  <sodipodi:namedview
     pagecolor="#ffffff"
     bordercolor="#666666"
     inkscape:pageopacity="0"
     inkscape:pageshadow="2"
     inkscape:window-width="1813"
     inkscape:window-height="955"
     id="namedview70"
     showgrid="false"
     inkscape:zoom="0.16701571"
     inkscape:cx="339.87739"
     inkscape:cy="1473.9826"
     inkscape:current-layer="layer4"
     inkscape:snap-grids="false"
     inkscape:snap-others="false"
     inkscape:snap-to-guides="false" />
  <metadata
     id="metadata8">
    <rdf:RDF>
      <cc:Work
         rdf:about="">
        <dc:format>image/svg+xml</dc:format>
        <dc:type
           rdf:resource="http://purl.org/dc/dcmitype/StillImage" />
        <dc:title />
      </cc:Work>
    </rdf:RDF>
  </metadata>
  <defs
     id="defs6">
    <filter
       style="color-interpolation-filters:sRGB;"
       inkscape:label="OSD glow"
       id="filter4610">
      <feFlood
         flood-opacity="1"
         flood-color="rgb(155,255,249)"
         result="flood"
         id="feFlood4612" />
      <feComposite
         in="flood"
         in2="SourceGraphic"
         operator="in"
         result="composite1"
         id="feComposite4614" />
      <feGaussianBlur
         in="composite1"
         stdDeviation="6.5"
         result="blur"
         id="feGaussianBlur4616" />
      <feOffset
         dx="0"
         dy="0"
         result="offset"
         id="feOffset4618" />
      <feComposite
         in="SourceGraphic"
         in2="offset"
         operator="over"
         result="composite2"
         id="feComposite4620" />
    </filter>
    <filter
       id="filter4761"
       inkscape:label="thumb-glow"
       style="color-interpolation-filters:sRGB;">
      <feFlood
         id="feFlood4763"
         result="flood"
         flood-color="rgb(255,255,255)"
         flood-opacity="1" />
      <feComposite
         id="feComposite4765"
         result="composite1"
         operator="in"
         in2="SourceGraphic"
         in="flood" />
      <feGaussianBlur
         id="feGaussianBlur4767"
         result="blur"
         stdDeviation="6.5"
         in="composite1" />
      <feOffset
         id="feOffset4769"
         result="offset"
         dy="0"
         dx="0" />
      <feComposite
         id="feComposite4771"
         result="composite2"
         operator="over"
         in2="offset"
         in="SourceGraphic" />
    </filter>
    <filter
       style="color-interpolation-filters:sRGB"
       id="filter4375-4-1-1-1-9-5-8-8"
       inkscape:label="fx-green">
      <feFlood
         id="feFlood4377-7-9-0-8-1-7-3-1"
         flood-opacity="1"
         flood-color="rgb(104,199,61)"
         result="flood" />
      <feComposite
         id="feComposite4379-3-8-8-2-77-4-1-0"
         in2="SourceGraphic"
         in="flood"
         operator="in"
         result="composite1"
         baseFrequency="0.053999999999999999 0.053999999999999999" />
      <feMorphology
         id="feMorphology4393-1-0-49-8-9-3-0-1"
         operator="dilate"
         radius="5"
         result="result3" />
      <feComposite
         id="feComposite4385-9-5-7-0-8-8-7-5"
         in2="result3"
         in="SourceGraphic"
         operator="over"
         result="fbSourceGraphic" />
      <feColorMatrix
         result="fbSourceGraphicAlpha"
         in="fbSourceGraphic"
         values="0 0 0 -1 0 0 0 0 -1 0 0 0 0 -1 0 0 0 0 1 0"
         id="feColorMatrix4544-9" />
      <feTurbulence
         id="feTurbulence4546-3"
         type="fractalNoise"
         numOctaves="5"
         seed="174"
         baseFrequency="0 0"
         result="turbulence" />
      <feDisplacementMap
         id="feDisplacementMap4548-8"
         in2="turbulence"
         in="fbSourceGraphic"
         scale="0"
         yChannelSelector="G"
         xChannelSelector="R"
         result="fbSourceGraphic" />
      <feColorMatrix
         result="fbSourceGraphicAlpha"
         in="fbSourceGraphic"
         values="0 0 0 -1 0 0 0 0 -1 0 0 0 0 -1 0 0 0 0 1 0"
         id="feColorMatrix4670-7" />
      <feFlood
         id="feFlood4672-4"
         flood-opacity="1"
         flood-color="rgb(255,255,255)"
         result="flood"
         in="fbSourceGraphic"
         stdDeviation="2.7999999999999998" />
      <feComposite
         id="feComposite4674-8"
         in2="fbSourceGraphic"
         in="flood"
         operator="in"
         result="composite1" />
      <feGaussianBlur
         id="feGaussianBlur4676-3"
         in="composite1"
         stdDeviation="0.90000000000000002"
         result="blur" />
      <feOffset
         id="feOffset4678-6"
         dx="0"
         dy="0"
         result="offset" />
      <feComposite
         id="feComposite4680-4"
         in2="offset"
         in="fbSourceGraphic"
         operator="over"
         result="composite2" />
    </filter>
    <filter
       style="color-interpolation-filters:sRGB"
       id="filter4375-4-1-1-1-9-5-8-8-0"
       inkscape:label="fx-red">
      <feFlood
         id="feFlood4377-7-9-0-8-1-7-3-1-4"
         flood-opacity="1"
         flood-color="rgb(198,65,60)"
         result="flood" />
      <feComposite
         id="feComposite4379-3-8-8-2-77-4-1-0-1"
         in2="SourceGraphic"
         in="flood"
         operator="in"
         result="composite1"
         baseFrequency="0.053999999999999999 0.053999999999999999" />
      <feMorphology
         id="feMorphology4393-1-0-49-8-9-3-0-1-3"
         operator="dilate"
         radius="5"
         result="result3" />
      <feComposite
         id="feComposite4385-9-5-7-0-8-8-7-5-02"
         in2="result3"
         in="SourceGraphic"
         operator="over"
         result="fbSourceGraphic" />
      <feColorMatrix
         result="fbSourceGraphicAlpha"
         in="fbSourceGraphic"
         values="0 0 0 -1 0 0 0 0 -1 0 0 0 0 -1 0 0 0 0 1 0"
         id="feColorMatrix4544-9-9" />
      <feTurbulence
         id="feTurbulence4546-3-6"
         type="fractalNoise"
         numOctaves="5"
         seed="174"
         baseFrequency="0 0"
         result="turbulence" />
      <feDisplacementMap
         id="feDisplacementMap4548-8-0"
         in2="turbulence"
         in="fbSourceGraphic"
         scale="0"
         yChannelSelector="G"
         xChannelSelector="R"
         result="fbSourceGraphic" />
      <feColorMatrix
         result="fbSourceGraphicAlpha"
         in="fbSourceGraphic"
         values="0 0 0 -1 0 0 0 0 -1 0 0 0 0 -1 0 0 0 0 1 0"
         id="feColorMatrix4670-7-93" />
      <feFlood
         id="feFlood4672-4-5"
         flood-opacity="1"
         flood-color="rgb(255,255,255)"
         result="flood"
         in="fbSourceGraphic"
         stdDeviation="2.7999999999999998" />
      <feComposite
         id="feComposite4674-8-4"
         in2="fbSourceGraphic"
         in="flood"
         operator="in"
         result="composite1" />
      <feGaussianBlur
         id="feGaussianBlur4676-3-3"
         in="composite1"
         stdDeviation="0.90000000000000002"
         result="blur" />
      <feOffset
         id="feOffset4678-6-6"
         dx="0"
         dy="0"
         result="offset" />
      <feComposite
         id="feComposite4680-4-4"
         in2="offset"
         in="fbSourceGraphic"
         operator="over"
         result="composite2" />
    </filter>
    <filter
       style="color-interpolation-filters:sRGB"
       id="filter4375-4-1-1-1-9-6-9-2-1"
       inkscape:label="deevad outline effect">
      <feFlood
         id="feFlood4377-7-9-0-8-1-0-2-2-06"
         flood-opacity="1"
         flood-color="rgb(133,98,0)"
         result="flood" />
      <feComposite
         id="feComposite4379-3-8-8-2-77-6-0-8-3"
         in2="SourceGraphic"
         in="flood"
         operator="in"
         result="composite1" />
      <feMorphology
         id="feMorphology4393-1-0-49-8-9-2-2-9-2"
         operator="dilate"
         radius="4"
         result="result3" />
      <feComposite
         id="feComposite4385-9-5-7-0-8-6-3-7-0"
         in2="result3"
         in="SourceGraphic"
         operator="over"
         result="composite2" />
    </filter>
    <linearGradient
       inkscape:collect="always"
       xlink:href="#linearGradient4197"
       id="linearGradient4203"
       x1="1294.5955"
       y1="356.86307"
       x2="1292.6337"
       y2="414.89822"
       gradientUnits="userSpaceOnUse" />
    <linearGradient
       inkscape:collect="always"
       id="linearGradient4197">
      <stop
         style="stop-color:#ffd005;stop-opacity:1"
         offset="0"
         id="stop4199" />
      <stop
         style="stop-color:#fff798;stop-opacity:1"
         offset="1"
         id="stop4201" />
    </linearGradient>
    <filter
       style="color-interpolation-filters:sRGB"
       id="filter4375-4-1-1-1-9-5-8-8-8"
       inkscape:label="Score-style">
      <feFlood
         id="feFlood4377-7-9-0-8-1-7-3-1-45"
         flood-opacity="1"
         flood-color="rgb(210,55,0)"
         result="flood" />
      <feComposite
         id="feComposite4379-3-8-8-2-77-4-1-0-0"
         in2="SourceGraphic"
         in="flood"
         operator="in"
         result="composite1"
         baseFrequency="0.053999999999999999 0.053999999999999999" />
      <feMorphology
         id="feMorphology4393-1-0-49-8-9-3-0-1-36"
         operator="dilate"
         radius="3.7999999999999998"
         result="result3" />
      <feComposite
         id="feComposite4385-9-5-7-0-8-8-7-5-1"
         in2="result3"
         in="SourceGraphic"
         operator="over"
         result="fbSourceGraphic" />
      <feColorMatrix
         result="fbSourceGraphicAlpha"
         in="fbSourceGraphic"
         values="0 0 0 -1 0 0 0 0 -1 0 0 0 0 -1 0 0 0 0 1 0"
         id="feColorMatrix4544-9-0" />
      <feTurbulence
         id="feTurbulence4546-3-63"
         type="fractalNoise"
         numOctaves="5"
         seed="174"
         baseFrequency="0 0"
         result="turbulence" />
      <feDisplacementMap
         id="feDisplacementMap4548-8-2"
         in2="turbulence"
         in="fbSourceGraphic"
         scale="0"
         yChannelSelector="G"
         xChannelSelector="R"
         result="fbSourceGraphic" />
      <feColorMatrix
         result="fbSourceGraphicAlpha"
         in="fbSourceGraphic"
         values="0 0 0 -1 0 0 0 0 -1 0 0 0 0 -1 0 0 0 0 1 0"
         id="feColorMatrix4670-7-0" />
      <feFlood
         id="feFlood4672-4-6"
         flood-opacity="1"
         flood-color="rgb(255,255,255)"
         result="flood"
         in="fbSourceGraphic"
         stdDeviation="2.7999999999999998" />
      <feComposite
         id="feComposite4674-8-1"
         in2="fbSourceGraphic"
         in="flood"
         operator="in"
         result="composite1" />
      <feGaussianBlur
         id="feGaussianBlur4676-3-5"
         in="composite1"
         stdDeviation="0.01"
         result="blur" />
      <feOffset
         id="feOffset4678-6-5"
         dx="0"
         dy="0"
         result="offset"
         stdDeviation="4.7000000000000002" />
      <feComposite
         id="feComposite4680-4-47"
         in2="offset"
         in="fbSourceGraphic"
         operator="over"
         result="composite2" />
    </filter>
    <linearGradient
       inkscape:collect="always"
       xlink:href="#linearGradient4197"
       id="linearGradient4203-3"
       x1="1294.5955"
       y1="356.86307"
       x2="1292.6337"
       y2="414.89822"
       gradientUnits="userSpaceOnUse" />
    <filter
       style="color-interpolation-filters:sRGB"
       id="filter4375-4-1-1-1-9-5-8-8-8-5"
       inkscape:label="Score-style">
      <feFlood
         id="feFlood4377-7-9-0-8-1-7-3-1-45-3"
         flood-opacity="1"
         flood-color="rgb(210,55,0)"
         result="flood" />
      <feComposite
         id="feComposite4379-3-8-8-2-77-4-1-0-0-5"
         in2="SourceGraphic"
         in="flood"
         operator="in"
         result="composite1"
         baseFrequency="0.053999999999999999 0.053999999999999999" />
      <feMorphology
         id="feMorphology4393-1-0-49-8-9-3-0-1-36-6"
         operator="dilate"
         radius="3.7999999999999998"
         result="result3" />
      <feComposite
         id="feComposite4385-9-5-7-0-8-8-7-5-1-2"
         in2="result3"
         in="SourceGraphic"
         operator="over"
         result="fbSourceGraphic" />
      <feColorMatrix
         result="fbSourceGraphicAlpha"
         in="fbSourceGraphic"
         values="0 0 0 -1 0 0 0 0 -1 0 0 0 0 -1 0 0 0 0 1 0"
         id="feColorMatrix4544-9-0-9" />
      <feTurbulence
         id="feTurbulence4546-3-63-1"
         type="fractalNoise"
         numOctaves="5"
         seed="174"
         baseFrequency="0 0"
         result="turbulence" />
      <feDisplacementMap
         id="feDisplacementMap4548-8-2-2"
         in2="turbulence"
         in="fbSourceGraphic"
         scale="0"
         yChannelSelector="G"
         xChannelSelector="R"
         result="fbSourceGraphic" />
      <feColorMatrix
         result="fbSourceGraphicAlpha"
         in="fbSourceGraphic"
         values="0 0 0 -1 0 0 0 0 -1 0 0 0 0 -1 0 0 0 0 1 0"
         id="feColorMatrix4670-7-0-7" />
      <feFlood
         id="feFlood4672-4-6-0"
         flood-opacity="1"
         flood-color="rgb(255,255,255)"
         result="flood"
         in="fbSourceGraphic"
         stdDeviation="2.7999999999999998" />
      <feComposite
         id="feComposite4674-8-1-9"
         in2="fbSourceGraphic"
         in="flood"
         operator="in"
         result="composite1" />
      <feGaussianBlur
         id="feGaussianBlur4676-3-5-3"
         in="composite1"
         stdDeviation="0.01"
         result="blur" />
      <feOffset
         id="feOffset4678-6-5-6"
         dx="0"
         dy="0"
         result="offset"
         stdDeviation="4.7000000000000002" />
      <feComposite
         id="feComposite4680-4-47-0"
         in2="offset"
         in="fbSourceGraphic"
         operator="over"
         result="composite2" />
    </filter>
    <linearGradient
       inkscape:collect="always"
       xlink:href="#linearGradient4197"
       id="linearGradient4317"
       x1="1294.5955"
       y1="356.86307"
       x2="1292.6337"
       y2="414.89822"
       gradientUnits="userSpaceOnUse" />
    <linearGradient
       inkscape:collect="always"
       xlink:href="#linearGradient4197"
       id="linearGradient4325"
       x1="1294.5955"
       y1="356.86307"
       x2="1292.6337"
       y2="414.89822"
       gradientUnits="userSpaceOnUse" />
  </defs>
  <sodipodi:namedview
     pagecolor="#ffffff"
     bordercolor="#666666"
     borderopacity="1"
     objecttolerance="10"
     gridtolerance="10"
     guidetolerance="10"
     inkscape:pageopacity="0"
     inkscape:pageshadow="2"
     inkscape:window-width="1920"
     inkscape:window-height="1025"
     id="namedview4"
     showgrid="false"
     inkscape:zoom="0.45406944"
     inkscape:cx="1519.6375"
     inkscape:cy="1432.5443"
     inkscape:window-x="0"
     inkscape:window-y="26"
     inkscape:window-maximized="1"
     inkscape:current-layer="layer1" />
  <g
     inkscape:groupmode="layer"
     id="layer2"
     inkscape:label="artwork"
     sodipodi:insensitive="true">
    <image
       sodipodi:absref="E:\Users\jamesmichael\Downloads\Compressed\eps\ep22_The-Voting-System_lang-pack\lang\ph\../gfx_Pepper-and-Carrot_by-David-Revoy_E22P03.png"
       xlink:href="../gfx_Pepper-and-Carrot_by-David-Revoy_E22P03.png"
       y="0"
       x="0"
       id="image10"
       height="3503"
       width="2481" />
  </g>
  <g
     inkscape:groupmode="layer"
     id="layer3"
     inkscape:label="speechbubbles">
    <rect
       style="color:#000000;clip-rule:nonzero;display:inline;overflow:visible;visibility:visible;opacity:1;isolation:auto;mix-blend-mode:normal;color-interpolation:sRGB;color-interpolation-filters:linearRGB;solid-color:#000000;solid-opacity:1;fill:#550000;fill-opacity:1;fill-rule:nonzero;stroke:none;stroke-width:2.5999999;stroke-linecap:butt;stroke-linejoin:miter;stroke-miterlimit:4;stroke-dasharray:none;stroke-dashoffset:0;stroke-opacity:1;marker:none;color-rendering:auto;image-rendering:auto;shape-rendering:auto;text-rendering:auto;enable-background:accumulate"
       id="rect4632-8-6-1-3-6"
       width="615.6181"
       height="322.3533"
       x="141.24016"
       y="-726.06427"
       ry="11.113657"
       rx="10.363638"
       transform="rotate(90)" />
    <path
       style="color:#000000;display:inline;overflow:visible;visibility:visible;fill:#800000;fill-opacity:1;fill-rule:nonzero;stroke:none;stroke-width:1px;marker:none;enable-background:accumulate"
       d="m 503.12792,788.95255 57.97866,-30.57632 5.23833,24.66198 38.10583,-6.50063 -51.92909,28.03487 -4.06567,-24.84524 z"
       id="path4456"
       inkscape:connector-curvature="0"
       sodipodi:nodetypes="ccccccc"
       inkscape:transform-center-x="-137.7116"
       inkscape:transform-center-y="122.74295" />
    <rect
       style="color:#000000;clip-rule:nonzero;display:inline;overflow:visible;visibility:visible;opacity:1;isolation:auto;mix-blend-mode:normal;color-interpolation:sRGB;color-interpolation-filters:linearRGB;solid-color:#000000;solid-opacity:1;fill:#550000;fill-opacity:1;fill-rule:nonzero;stroke:none;stroke-width:2.5999999;stroke-linecap:butt;stroke-linejoin:miter;stroke-miterlimit:4;stroke-dasharray:none;stroke-dashoffset:0;stroke-opacity:1;marker:none;color-rendering:auto;image-rendering:auto;shape-rendering:auto;text-rendering:auto;enable-background:accumulate"
       id="rect4632-8-6-1-3-6-1"
       width="590.16455"
       height="422.74438"
       x="1163.2817"
       y="-2180.5171"
       ry="16.714243"
       rx="18.831129"
       transform="rotate(90)" />
    <path
       style="color:#000000;display:inline;overflow:visible;visibility:visible;fill:#800000;fill-opacity:1;fill-rule:nonzero;stroke:none;stroke-width:1px;marker:none;enable-background:accumulate"
       d="m 1914.6163,1779.1371 57.9786,-30.5763 5.2383,24.6619 38.1059,-6.5006 -51.9291,28.0349 -4.0657,-24.8453 z"
       id="path4456-8"
       inkscape:connector-curvature="0"
       sodipodi:nodetypes="ccccccc"
       inkscape:transform-center-x="-137.7116"
       inkscape:transform-center-y="122.74295" />
    <rect
       transform="rotate(75.052042)"
       rx="21.268812"
       ry="18.877895"
       y="-1558.9546"
       x="2465.9397"
       height="455.3569"
       width="174.06474"
       id="rect4982"
       style="color:#000000;clip-rule:nonzero;display:inline;overflow:visible;visibility:visible;opacity:1;isolation:auto;mix-blend-mode:normal;color-interpolation:sRGB;color-interpolation-filters:linearRGB;solid-color:#000000;solid-opacity:1;fill:#550000;fill-opacity:1;fill-rule:nonzero;stroke:none;stroke-width:2.93656898;stroke-linecap:butt;stroke-linejoin:miter;stroke-miterlimit:4;stroke-dasharray:none;stroke-dashoffset:0;stroke-opacity:1;marker:none;color-rendering:auto;image-rendering:auto;shape-rendering:auto;text-rendering:auto;enable-background:accumulate"
       inkscape:transform-center-x="-250.29815"
       inkscape:transform-center-y="-132.40192" />
    <rect
       style="color:#000000;clip-rule:nonzero;display:inline;overflow:visible;visibility:visible;opacity:1;isolation:auto;mix-blend-mode:normal;color-interpolation:sRGB;color-interpolation-filters:linearRGB;solid-color:#000000;solid-opacity:1;fill:#550000;fill-opacity:1;fill-rule:nonzero;stroke:none;stroke-width:2.5999999;stroke-linecap:butt;stroke-linejoin:miter;stroke-miterlimit:4;stroke-dasharray:none;stroke-dashoffset:0;stroke-opacity:1;marker:none;color-rendering:auto;image-rendering:auto;shape-rendering:auto;text-rendering:auto;enable-background:accumulate"
       id="rect4986"
       width="568.99554"
       height="401.5755"
       x="1832.2181"
       y="-599.20239"
       ry="16.714243"
       rx="18.831129"
       transform="rotate(90)" />
    <path
       inkscape:transform-center-y="-57.953113"
       inkscape:transform-center-x="-6.1679557"
       sodipodi:nodetypes="ccccccc"
       inkscape:connector-curvature="0"
       id="path4992"
       d="m 1647.139,2221.4389 54.3602,-50.2567 12.9009,25.3857 39.6885,-18.1951 -48.4991,45.721 -11.6749,-25.9274 z"
       style="color:#000000;display:inline;overflow:visible;visibility:visible;fill:#800000;fill-opacity:1;fill-rule:nonzero;stroke:none;stroke-width:1.12944961px;marker:none;enable-background:accumulate" />
    <path
       style="color:#000000;display:inline;overflow:visible;visibility:visible;fill:#800000;fill-opacity:1;fill-rule:nonzero;stroke:none;stroke-width:1.12944961px;marker:none;enable-background:accumulate"
       d="m 2145.9443,2078.3712 54.3602,-50.2568 12.9009,25.3858 39.6885,-18.1951 -48.4991,45.7211 -11.6749,-25.9275 z"
       id="path4994"
       inkscape:connector-curvature="0"
       sodipodi:nodetypes="ccccccc"
       inkscape:transform-center-x="-504.97326"
       inkscape:transform-center-y="-201.02082" />
  </g>
  <g
     inkscape:groupmode="layer"
     id="layer1"
     inkscape:label="txt">
    <text
       xml:space="preserve"
       style="font-style:normal;font-variant:normal;font-weight:normal;font-stretch:normal;line-height:1;font-family:Lavi;-inkscape-font-specification:Lavi;text-align:center;letter-spacing:0px;word-spacing:0px;text-anchor:middle;display:inline;fill:#ffffff;fill-opacity:1;stroke:none"
       x="568.72833"
       y="277.93073"
       id="text4246-2-3-1-3-9"><tspan
         sodipodi:role="line"
         style="font-size:45px;line-height:1;fill:#ffffff"
         x="576.63849"
         y="277.93073"
         id="tspan4945">at hindi </tspan><tspan
         sodipodi:role="line"
         style="font-size:45px;line-height:1;fill:#ffffff"
         x="568.72833"
         y="322.93073"
         id="tspan4950">lang yan</tspan><tspan
         sodipodi:role="line"
         style="font-size:45px;line-height:1;fill:#ffffff"
         x="576.63849"
         y="367.93073"
         id="tspan4893"><tspan
   dy="2.5"
   id="tspan4953"
   style="font-size:45px;line-height:1;fill:#ffffff">Lilitaw </tspan>din </tspan><tspan
         sodipodi:role="line"
         style="font-size:45px;line-height:1;fill:#ffffff"
         x="576.63849"
         y="412.93073"
         id="tspan4955">directa sa </tspan><tspan
         sodipodi:role="line"
         style="font-size:45px;line-height:1;fill:#ffffff"
         x="568.72833"
         y="457.93073"
         id="tspan4895">taas ng mga</tspan><tspan
         sodipodi:role="line"
         style="font-size:45px;line-height:1;fill:#ffffff"
         x="576.63849"
         y="502.93073"
         id="tspan4897">kalahok ang </tspan><tspan
         sodipodi:role="line"
         style="font-size:45px;line-height:1;fill:#ffffff"
         x="576.63849"
         y="547.93073"
         id="tspan4959">kani-kanyang </tspan><tspan
         sodipodi:role="line"
         style="font-size:45px;line-height:1;fill:#ffffff"
         x="576.63849"
         y="592.93073"
         id="tspan4899">kabuuang </tspan><tspan
         sodipodi:role="line"
         style="font-size:45px;line-height:1;fill:#ffffff"
         x="568.72833"
         y="637.93073"
         id="tspan4901">score</tspan><tspan
         sodipodi:role="line"
         style="font-size:45px;line-height:1;fill:#ffffff"
         x="568.72833"
         y="656.83923"
         id="tspan4903" /></text>
    <text
       xml:space="preserve"
       style="font-style:normal;font-variant:normal;font-weight:normal;font-stretch:normal;line-height:0%;font-family:Lavi;-inkscape-font-specification:Lavi;text-align:center;letter-spacing:0px;word-spacing:0px;text-anchor:middle;display:inline;fill:#ffffff;fill-opacity:1;stroke:none"
       x="1969.2062"
       y="1278.6033"
       id="text4246-2-3-1-3-9-0"><tspan
         sodipodi:role="line"
         style="font-size:45px;line-height:1;fill:#ffffff"
         x="1977.1163"
         y="1278.6033"
         id="tspan4952">Ang </tspan><tspan
         sodipodi:role="line"
         style="font-size:45px;line-height:1;fill:#ffffff"
         x="1977.1163"
         y="1323.6033"
         id="tspan4912">tatlong witch </tspan><tspan
         sodipodi:role="line"
         style="font-size:45px;line-height:1;fill:#ffffff"
         x="1977.1163"
         y="1368.6033"
         id="tspan4914">na makakakuha ng </tspan><tspan
         sodipodi:role="line"
         style="font-size:45px;line-height:1;fill:#ffffff"
         x="1969.2062"
         y="1413.6033"
         id="tspan4916">pinakamagandang</tspan><tspan
         sodipodi:role="line"
         style="font-size:45px;line-height:1;fill:#ffffff"
         x="1977.1163"
         y="1458.6033"
         id="tspan4918">Numero ang </tspan><tspan
         sodipodi:role="line"
         style="font-size:45px;line-height:1;fill:#ffffff"
         x="1977.1163"
         y="1503.6033"
         id="tspan4978">maghaharap- </tspan><tspan
         sodipodi:role="line"
         style="font-size:45px;line-height:1.25;fill:#ffffff"
         x="1969.2062"
         y="1548.6033"
         id="tspan4920"><tspan
   style="line-height:1"
   id="tspan4998">harap sa</tspan></tspan><tspan
         sodipodi:role="line"
         style="font-size:45px;line-height:1.25;fill:#ffffff"
         x="1977.1163"
         y="1599.2283"
         id="tspan5000"> </tspan><tspan
         sodipodi:role="line"
         style="font-size:45px;line-height:1;fill:#ffffff"
         x="1969.2062"
         y="1649.8533"
         id="tspan4980">SUDDEN DEATH</tspan><tspan
         sodipodi:role="line"
         style="font-size:45px;line-height:1;fill:#ffffff"
         x="1969.2062"
         y="1694.8533"
         id="tspan4996">FINAL ROUND!</tspan></text>
    <text
       xml:space="preserve"
       style="font-style:normal;font-variant:normal;font-weight:normal;font-stretch:normal;line-height:0%;font-family:Lavi;-inkscape-font-specification:Lavi;text-align:center;letter-spacing:0px;word-spacing:0px;text-anchor:middle;display:inline;fill:#ffffff;fill-opacity:1;stroke:none"
       x="407.45877"
       y="1948.0242"
       id="text4246-2-3-1-3-9-0-5"><tspan
         sodipodi:role="line"
         style="font-size:45px;line-height:1.25;fill:#ffffff"
         x="415.36893"
         y="1948.0242"
         id="tspan4931">&quot;Gaya ng </tspan><tspan
         sodipodi:role="line"
         style="font-size:45px;line-height:1.25;fill:#ffffff"
         x="407.45877"
         y="2004.2742"
         id="tspan4943">Napagkasunduan</tspan><tspan
         sodipodi:role="line"
         style="font-size:45px;line-height:1.25;fill:#ffffff"
         x="415.36893"
         y="2060.5242"
         id="tspan4933">Ang Grand winner </tspan><tspan
         sodipodi:role="line"
         style="font-size:45px;line-height:1.25;fill:#ffffff"
         x="407.45877"
         y="2116.7742"
         id="tspan4946">ang maguuwi</tspan><tspan
         sodipodi:role="line"
         style="font-size:45px;line-height:1.25;fill:#ffffff"
         x="415.36893"
         y="2173.0242"
         id="tspan4935">ng Grand prize </tspan><tspan
         sodipodi:role="line"
         style="font-size:45px;line-height:1.25;fill:#ffffff"
         x="407.45877"
         y="2229.2742"
         id="tspan4948">na tumataginting</tspan><tspan
         sodipodi:role="line"
         style="font-size:45px;line-height:1.25;fill:#ffffff"
         x="407.45877"
         y="2285.5242"
         id="tspan4937">na...</tspan><tspan
         sodipodi:role="line"
         style="font-size:45px;line-height:1.25;fill:#ffffff"
         x="407.45877"
         y="2304.0576"
         id="tspan4939" /></text>
    <g
       id="g3512"
       style="fill:#ffffff;stroke:#ffffff"
       transform="matrix(1.1967127,-0.31949347,0.31949347,1.1967127,-1205.3308,-34.764143)"
       inkscape:transform-center-x="-194.77987"
       inkscape:transform-center-y="-97.508467">
      <text
         id="text4246-2-3-1-3-9-0-5-4"
         y="2298.6069"
         x="2010.9335"
         style="font-variant:normal;font-weight:normal;font-stretch:normal;line-height:0%;font-family:Lavi;-inkscape-font-specification:Lavi;text-align:center;letter-spacing:0px;word-spacing:0px;text-anchor:middle;display:inline;fill:#ffffff;fill-opacity:1;stroke:#ffffff"
         xml:space="preserve"><tspan
           id="tspan5800-1"
           y="2298.6069"
           x="2010.9335"
           style="font-size:45px;line-height:1.25;fill:#ffffff;stroke:#ffffff"
           sodipodi:role="line"><tspan
             style="fill:#ffffff;stroke:#ffffff;stroke-width:2.9000001;stroke-miterlimit:4;stroke-dasharray:none;stroke-opacity:1"
             id="tspan4277">…</tspan></tspan><tspan
           y="2354.8569"
           x="2010.9335"
           style="font-size:45px;line-height:1.25;fill:#ffffff;stroke:#ffffff"
           sodipodi:role="line"
           id="tspan4988"><tspan
             style="fill:#ffffff;stroke:#ffffff;stroke-width:2.9000001;stroke-miterlimit:4;stroke-dasharray:none;stroke-opacity:1"
             id="tspan4990">50,000 Ko!</tspan></tspan></text>
    </g>
    <use
       x="0"
       y="0"
       xlink:href="#text4580-1-7-3-6"
       id="use5937"
       transform="matrix(0.65135294,0,0,0.61659277,840.45299,876.5241)"
       width="100%"
       height="100%" />
    <use
       x="0"
       y="0"
       xlink:href="#use5937"
       id="use5939"
       transform="matrix(0.84445682,0,0,0.79913521,-268.83141,592.24868)"
       width="100%"
       height="100%" />
    <use
       x="0"
       y="0"
       xlink:href="#use5939"
       id="use5941"
       transform="translate(97.499995,-49.999998)"
       width="100%"
       height="100%" />
    <use
       x="0"
       y="0"
       xlink:href="#use5941"
       id="use5943"
       transform="matrix(0.96302455,0,0,1.0006295,93.48588,18.257003)"
       width="100%"
       height="100%" />
    <use
       x="0"
       y="0"
       xlink:href="#use5943"
       id="use5945"
       transform="matrix(1.1456279,0,0,1.2221187,-191.66967,-475.78203)"
       width="100%"
       height="100%" />
    <use
       x="0"
       y="0"
       xlink:href="#use5945"
       id="use5947"
       transform="matrix(1.0638099,0,0,1.0523006,1577.4887,-458.39478)"
       width="100%"
       height="100%" />
    <use
       x="0"
       y="0"
       xlink:href="#use5947"
       id="use5949"
       transform="translate(-92.499996,-27.499999)"
       width="100%"
       height="100%" />
    <use
       x="0"
       y="0"
       xlink:href="#use5949"
       id="use5951"
       transform="translate(207.49999,44.999999)"
       width="100%"
       height="100%" />
    <use
       x="0"
       y="0"
       xlink:href="#use5951"
       id="use5953"
       transform="translate(12.499998,-82.499996)"
       width="100%"
       height="100%" />
    <use
       x="0"
       y="0"
       xlink:href="#use5953"
       id="use5955"
       transform="matrix(0.827051,0,0,0.82725665,48.76766,558.81116)"
       width="100%"
       height="100%" />
    <use
       x="0"
       y="0"
       xlink:href="#use5955"
       id="use5957"
       transform="translate(-80.000001,-15)"
       width="100%"
       height="100%" />
    <use
       x="0"
       y="0"
       xlink:href="#use5951"
       id="use5959"
       transform="matrix(1.201717,0.01168289,-0.01203041,1.2374636,-257.7671,-728.53323)"
       width="100%"
       height="100%" />
    <text
       xml:space="preserve"
       style="font-style:normal;font-variant:normal;font-weight:normal;font-stretch:normal;line-height:0%;font-family:Lavi;-inkscape-font-specification:Lavi;text-align:center;letter-spacing:0px;word-spacing:0px;text-anchor:middle;opacity:0.70200004;fill:url(#linearGradient4203);fill-opacity:1;stroke:#ffffff;stroke-width:2.68882608;stroke-linecap:round;stroke-miterlimit:4;stroke-dasharray:none;stroke-opacity:1;filter:url(#filter4375-4-1-1-1-9-5-8-8-8)"
       x="1276.0023"
       y="286.89603"
       id="text4246-3-8"
       transform="matrix(1.6804587,0,0,1.6667549,-871.15851,-362.88688)"><tspan
         sodipodi:role="line"
         style="font-style:normal;font-variant:normal;font-weight:normal;font-stretch:normal;font-size:91.25513458px;line-height:1.25;font-family:Fondamento;-inkscape-font-specification:Fondamento;letter-spacing:17.77999878px;fill:url(#linearGradient4203);fill-opacity:1;stroke:#ffffff;stroke-width:2.68882608;stroke-linecap:round;stroke-miterlimit:4;stroke-dasharray:none;stroke-opacity:1"
         x="1304.9219"
         y="286.89603"
         id="tspan4252-5-6"> </tspan><tspan
         sodipodi:role="line"
         style="font-style:normal;font-variant:normal;font-weight:normal;font-stretch:normal;font-size:91.25513458px;line-height:1.25;font-family:Combat;-inkscape-font-specification:Combat;letter-spacing:8.96275425px;fill:url(#linearGradient4203);fill-opacity:1;stroke:#ffffff;stroke-width:2.68882608;stroke-linecap:round;stroke-miterlimit:4;stroke-dasharray:none;stroke-opacity:1"
         x="1280.4836"
         y="406.48062"
         id="tspan5535-8">1337</tspan></text>
    <use
       x="0"
       y="0"
       xlink:href="#use5941"
       id="use4405"
       transform="translate(1052.4999,-94.999995)"
       width="100%"
       height="100%" />
    <use
       x="0"
       y="0"
       xlink:href="#use4405"
       id="use4407"
       transform="translate(97.499995,-4.9999997)"
       width="100%"
       height="100%" />
    <use
       x="0"
       y="0"
       xlink:href="#use4407"
       id="use4409"
       transform="translate(-132.49999,214.99999)"
       width="100%"
       height="100%" />
    <use
       x="0"
       y="0"
       xlink:href="#use4409"
       id="use4411"
       transform="translate(144.99999,-7.4999995)"
       width="100%"
       height="100%" />
    <use
       x="0"
       y="0"
       xlink:href="#use4411"
       id="use4413"
       transform="translate(-1457.4999,-67.499997)"
       width="100%"
       height="100%" />
  </g>
  <g
     inkscape:groupmode="layer"
     id="layer4"
     inkscape:label="notes">
    <path
       style="color:#000000;clip-rule:nonzero;display:inline;overflow:visible;visibility:visible;opacity:0.481;isolation:auto;mix-blend-mode:normal;color-interpolation:sRGB;color-interpolation-filters:linearRGB;solid-color:#000000;solid-opacity:1;fill:#ffe680;fill-opacity:1;fill-rule:nonzero;stroke:#565656;stroke-width:1.20000005;stroke-linecap:butt;stroke-linejoin:miter;stroke-miterlimit:4;stroke-dasharray:none;stroke-dashoffset:0;stroke-opacity:1;marker:none;color-rendering:auto;image-rendering:auto;shape-rendering:auto;text-rendering:auto;enable-background:accumulate"
       d="m -468.82553,3026.57 v 189.0351 h 203.83 v -90.9805 h 10 v 15.6308 l 30.9825,-26.9824 -30.9825,-26.9804 v 16.6171 h -10 V 3026.57 Z"
       id="rect4191-6"
       inkscape:connector-curvature="0" />
    <text
       xml:space="preserve"
       style="font-style:normal;font-variant:normal;font-weight:normal;font-stretch:normal;line-height:0%;font-family:Lavi;-inkscape-font-specification:Lavi;letter-spacing:0px;word-spacing:0px;display:inline;fill:#000000;fill-opacity:1;stroke:#ffffff;stroke-width:0.99236238;stroke-miterlimit:4;stroke-dasharray:none;stroke-opacity:1;filter:url(#filter4375-4-1-1-1-9-6-9-2-1);"
       x="787.65729"
       y="1584.5073"
       id="text4580-1-7-3-6"
       transform="matrix(0.96380061,-0.56217228,-0.1779318,1.4896521,-681.73754,1251.3277)"><tspan
         sodipodi:role="line"
         id="tspan4582-8-5-6-1"
         x="787.65729"
         y="1584.5073"
         style="font-size:70px;line-height:1.25;fill:#ffffff;stroke:#ffffff;stroke-opacity:1;">Clap</tspan></text>
    <flowRoot
       xml:space="preserve"
       id="flowRoot4212-7"
       style="font-style:normal;font-variant:normal;font-weight:normal;font-stretch:normal;line-height:0.01%;font-family:Lavi;-inkscape-font-specification:'Lavi, Normal';text-align:center;letter-spacing:0px;word-spacing:0px;writing-mode:lr-tb;text-anchor:middle;display:inline;opacity:0.481;fill:#000000;fill-opacity:1;stroke:none;stroke-width:1px;stroke-linecap:butt;stroke-linejoin:miter;stroke-opacity:1"
       transform="translate(-239.21291,2010.678)"><flowRegion
         id="flowRegion4214-5"><rect
           id="rect4216-3"
           width="291.95547"
           height="247.52747"
           x="-275.14545"
           y="1061.6674" /></flowRegion><flowPara
         id="flowPara4218-5"
         style="font-size:25.3241539px;line-height:1.25">Edit this one,</flowPara><flowPara
         id="flowPara4562"
         style="font-size:25.3241539px;line-height:1.25">all others</flowPara><flowPara
         id="flowPara4564"
         style="font-size:25.3241539px;line-height:1.25">are linked</flowPara></flowRoot>  </g>
</svg>
