<?xml version="1.0" encoding="UTF-8" standalone="no"?>
<!-- Created with Inkscape (http://www.inkscape.org/) -->

<svg
   xmlns:dc="http://purl.org/dc/elements/1.1/"
   xmlns:cc="http://creativecommons.org/ns#"
   xmlns:rdf="http://www.w3.org/1999/02/22-rdf-syntax-ns#"
   xmlns:svg="http://www.w3.org/2000/svg"
   xmlns="http://www.w3.org/2000/svg"
   xmlns:xlink="http://www.w3.org/1999/xlink"
   xmlns:sodipodi="http://sodipodi.sourceforge.net/DTD/sodipodi-0.dtd"
   xmlns:inkscape="http://www.inkscape.org/namespaces/inkscape"
   id="svg2"
   version="1.1"
   inkscape:version="0.92.4 (5da689c313, 2019-01-14)"
   width="2481"
   height="3503"
   sodipodi:docname="E32P07.svg">
  <metadata
     id="metadata8">
    <rdf:RDF>
      <cc:Work
         rdf:about="">
        <dc:format>image/svg+xml</dc:format>
        <dc:type
           rdf:resource="http://purl.org/dc/dcmitype/StillImage" />
        <dc:title />
      </cc:Work>
    </rdf:RDF>
  </metadata>
  <defs
     id="defs6" />
  <sodipodi:namedview
     pagecolor="#ffffff"
     bordercolor="#666666"
     borderopacity="1"
     objecttolerance="10"
     gridtolerance="10"
     guidetolerance="10"
     inkscape:pageopacity="0"
     inkscape:pageshadow="2"
     inkscape:window-width="1920"
     inkscape:window-height="1001"
     id="namedview4"
     showgrid="false"
     inkscape:zoom="0.32526913"
     inkscape:cx="1607.655"
     inkscape:cy="1479.6939"
     inkscape:window-x="-4"
     inkscape:window-y="-4"
     inkscape:window-maximized="1"
     inkscape:current-layer="layer1" />
  <g
     inkscape:groupmode="layer"
     id="layer2"
     inkscape:label="artwork"
     sodipodi:insensitive="true">
    <image
       sodipodi:absref="C:\Users\Thomas\Downloads\webcomics-master-ep32_The-Battlefield-lang\webcomics-master-ep32_The-Battlefield-lang\ep32_The-Battlefield\lang\no\../gfx_Pepper-and-Carrot_by-David-Revoy_E32P07.png"
       xlink:href="../gfx_Pepper-and-Carrot_by-David-Revoy_E32P07.png"
       width="2481"
       height="3503"
       id="image10"
       x="0"
       y="0" />
  </g>
  <g
     inkscape:groupmode="layer"
     id="layer3"
     inkscape:label="speechbubbles" />
  <g
     inkscape:groupmode="layer"
     id="layer1"
     inkscape:label="txt">
    <path
       style="color:#000000;display:inline;overflow:visible;visibility:visible;opacity:1;fill:#ffffff;fill-opacity:1;fill-rule:nonzero;stroke:none;stroke-width:1px;marker:none;enable-background:accumulate"
       d="m 1056.8386,2202.0169 c -10.399,3.1097 -19.0647,10.6359 -24.862,19.6711 -4.6138,7.2893 -17.2509,15.4965 -15.9508,24.1556 0.9045,6.2645 3.4885,12.2114 7.0602,17.4088 4.9823,4.1786 10.7717,7.2309 16.4747,10.2898 13.956,7.1808 39.0329,12.0634 54.1262,16.1118 11.6919,3.244 23.3837,6.488 35.0756,9.732 5.0949,3.3041 6.8782,10.3837 4.7324,15.9258 -2.5523,8.028 -5.7927,15.981 -6.4238,24.4649 0.469,8.3691 7.2362,15.6672 15.3278,17.4183 23.1263,6.8834 46.95,10.9935 70.7295,14.8666 16.8553,2.5917 33.8211,4.4192 50.6435,7.2326 8.6937,1.344 17.4528,2.335 26.2503,2.6075 -14.7027,-2.9835 -29.0454,-7.4415 -43.6031,-11.0191 -17.5491,-3.9894 -35.2233,-7.6141 -52.357,-13.1989 -12.1385,-3.8263 -24.3458,-7.4273 -36.5828,-10.9238 -2.1361,-0.6181 -4.2722,-1.2362 -6.4082,-1.8543 -3.8086,-2.8565 -4.791,-8.4047 -3.0215,-12.6797 3.1112,-10.0301 7.2356,-19.7537 9.5683,-30.0176 0.1907,-7.1989 -5.0046,-13.8258 -11.6328,-16.2568 -8.1859,-3.2713 -16.7215,-5.5386 -25.1516,-8.0754 -10.6728,-3.1009 -17.6074,-6.3044 -28.2511,-9.5031 -1.634,-0.5123 -3.3158,-0.9349 -4.8985,-1.5745 -6.4463,-4.0275 -11.4798,-10.04 -14.9988,-16.7269 -0.6308,-10.1283 2.4237,-19.9428 4.0156,-29.8414 0.7111,-3.8042 0.5769,-8.0798 -1.8053,-11.3085 -2.8415,-4.4602 -11.7784,-7.3612 -17.0919,-7.1782 -0.3216,0.091 -0.6432,0.1823 -0.9649,0.2734 z m 241.4961,179.3652 c 1.4323,-0.5267 2.8646,-1.0533 4.2969,-1.58 -1.4323,0.5267 -2.8646,1.0533 -4.2969,1.58 z"
       id="path4496-04"
       inkscape:connector-curvature="0"
       sodipodi:nodetypes="ccccccccccccccccccccccccccccccc" />
    <path
       style="display:inline;fill:#ffffff;stroke:none;stroke-width:0.87079054"
       d="m 695.72112,1896.7132 c -41.56623,0.5569 -83.65128,3.3394 -123.78103,17.9772 -19.59195,7.1153 -38.73561,19.7244 -51.34724,40.3122 -9.26362,15.33 -11.65868,35.2882 -11.19424,54.0443 0.375,16.1789 1.60149,33.1776 8.58726,47.2539 5.30054,10.9962 13.66833,19.0868 22.38383,25.5445 16.22277,11.5738 34.71605,16.4796 52.78326,21.3671 45.37643,11.4828 91.86815,12.7962 138.00974,13.0235 46.93429,-0.028 93.95201,-1.2823 140.66177,-7.4028 24.17608,-3.6274 48.7324,-10.5426 69.54131,-27.0423 15.73258,-12.7557 27.6645,-33.8801 29.5737,-57.5392 1.4626,-16.5419 -0.2076,-33.5129 -4.5775,-49.2128 -5.9128,-20.5172 -17.72027,-38.5949 -33.38026,-48.5056 -18.47243,-12.3978 -39.56514,-16.1939 -60.10521,-19.2948 -27.75184,-3.7975 -55.68052,-4.7511 -83.5207,-7.0869 -31.18338,-2.065 -62.40288,-3.5466 -93.63469,-3.4383 z"
       id="path3280-8-1"
       inkscape:connector-curvature="0"
       sodipodi:nodetypes="csssc" />
    <path
       style="color:#000000;display:inline;overflow:visible;visibility:visible;fill:#ffffff;fill-opacity:1;fill-rule:nonzero;stroke:none;stroke-width:0.97895557px;marker:none;enable-background:accumulate"
       d="m 946.75346,2069.8299 c -52.7989,0.6012 -106.11291,8.1637 -155.77121,28.6951 -16.58042,7.0516 -33.32826,15.9578 -45.01636,31.2205 -21.2782,27.4159 -27.17631,68.7752 -12.99768,101.578 13.19861,31.9903 41.38108,55.2156 72.43737,61.9464 51.27733,15.7207 104.75358,21.0358 157.8383,20.3302 32.6521,0.1026 65.96082,-0.1218 97.44762,-10.8761 22.2131,-7.4828 43.7373,-19.4147 60.1921,-37.8161 22.4087,-25.423 34.3839,-62.3989 29.5026,-97.7125 -2.536,-17.7397 -10.7884,-34.3552 -22.9812,-46.2449 -12.6395,-12.8362 -28.5875,-20.7994 -44.7744,-26.5567 -30.4794,-11.5244 -62.3028,-18.1655 -94.23322,-22.4062 -13.8316,-1.568 -27.7404,-2.2718 -41.64392,-2.1577 z"
       id="path4546-1"
       inkscape:connector-curvature="0"
       sodipodi:nodetypes="cssssc" />
    <text
       xml:space="preserve"
       style="font-style:normal;font-variant:normal;font-weight:normal;font-stretch:normal;line-height:0%;font-family:Lavi;-inkscape-font-specification:Lavi;text-align:center;letter-spacing:0px;word-spacing:0px;text-anchor:middle;display:inline;fill:#000000;fill-opacity:1;stroke:none"
       x="739.24084"
       y="1952.4355"
       id="text4246-7-6-1-7-6-3-5-6"><tspan
         sodipodi:role="line"
         style="font-size:45px;line-height:1.25"
         x="739.24084"
         y="1952.4355"
         id="tspan848">Ved nærmere</tspan><tspan
         sodipodi:role="line"
         style="font-size:45px;line-height:1.25"
         x="739.24084"
         y="2008.6855"
         id="tspan855">ettertanke. Få den</tspan><tspan
         sodipodi:role="line"
         style="font-size:45px;line-height:1.25"
         x="739.24084"
         y="2064.9355"
         id="tspan857">ungen tilbake igjen.</tspan></text>
    <text
       xml:space="preserve"
       style="font-style:normal;font-variant:normal;font-weight:normal;font-stretch:normal;line-height:0%;font-family:Lavi;-inkscape-font-specification:Lavi;text-align:center;letter-spacing:0px;word-spacing:0px;text-anchor:middle;display:inline;fill:#000000;fill-opacity:1;stroke:none"
       x="937.0614"
       y="2141.3"
       id="text4246-7-6-1-7-6-3-5-6-4"><tspan
         sodipodi:role="line"
         style="font-size:45px;line-height:1.25"
         x="937.0614"
         y="2141.3"
         id="tspan836">Denne heksa</tspan><tspan
         sodipodi:role="line"
         style="font-size:45px;line-height:1.25"
         x="937.0614"
         y="2197.55"
         id="tspan846">er neppe av det</tspan><tspan
         sodipodi:role="line"
         style="font-size:45px;line-height:1.25"
         x="937.0614"
         y="2253.8"
         id="tspan851">rimelige slaget...</tspan></text>
    <text
       xml:space="preserve"
       style="font-style:normal;font-variant:normal;font-weight:normal;font-stretch:normal;font-size:43.85733414px;line-height:0%;font-family:Lavi;-inkscape-font-specification:'Lavi, Normal';font-variant-ligatures:normal;font-variant-caps:normal;font-variant-numeric:normal;font-feature-settings:normal;text-align:end;letter-spacing:0px;word-spacing:0px;writing-mode:lr-tb;text-anchor:end;display:inline;fill:#241c1c;fill-opacity:1;stroke:#000000;stroke-width:0.82200003;stroke-miterlimit:4;stroke-dasharray:none;stroke-opacity:1"
       x="3598.6707"
       y="3317.343"
       id="text4213"
       transform="matrix(0.96049651,0,-0.32716292,1.0411282,0,0)"><tspan
         sodipodi:role="line"
         id="tspan3562"
         x="3598.6707"
         y="3317.343"
         style="font-style:normal;font-variant:normal;font-weight:normal;font-stretch:normal;font-size:43.85733414px;line-height:1.25;font-family:Lavi;-inkscape-font-specification:'Lavi, Normal';font-variant-ligatures:normal;font-variant-caps:normal;font-variant-numeric:normal;font-feature-settings:normal;text-align:end;writing-mode:lr-tb;text-anchor:end;stroke-width:0.82200003">FORTSETTELSE FØLGER…</tspan><tspan
         sodipodi:role="line"
         x="3598.6707"
         y="3344.7539"
         style="font-style:normal;font-variant:normal;font-weight:normal;font-stretch:normal;font-size:43.85733414px;line-height:1.25;font-family:Lavi;-inkscape-font-specification:'Lavi, Normal';font-variant-ligatures:normal;font-variant-caps:normal;font-variant-numeric:normal;font-feature-settings:normal;text-align:end;writing-mode:lr-tb;text-anchor:end;stroke-width:0.82200003"
         id="tspan856" /><tspan
         sodipodi:role="line"
         x="3598.6707"
         y="3344.7539"
         style="font-style:normal;font-variant:normal;font-weight:normal;font-stretch:normal;font-size:43.85733414px;line-height:1.25;font-family:Lavi;-inkscape-font-specification:'Lavi, Normal';font-variant-ligatures:normal;font-variant-caps:normal;font-variant-numeric:normal;font-feature-settings:normal;text-align:end;writing-mode:lr-tb;text-anchor:end;stroke-width:0.82200003"
         id="tspan858" /></text>
  </g>
</svg>
