<?xml version="1.0" encoding="UTF-8" standalone="no"?>
<!-- Created with Inkscape (http://www.inkscape.org/) -->

<svg
   xmlns:dc="http://purl.org/dc/elements/1.1/"
   xmlns:cc="http://creativecommons.org/ns#"
   xmlns:rdf="http://www.w3.org/1999/02/22-rdf-syntax-ns#"
   xmlns:svg="http://www.w3.org/2000/svg"
   xmlns="http://www.w3.org/2000/svg"
   xmlns:xlink="http://www.w3.org/1999/xlink"
   xmlns:sodipodi="http://sodipodi.sourceforge.net/DTD/sodipodi-0.dtd"
   xmlns:inkscape="http://www.inkscape.org/namespaces/inkscape"
   id="svg2"
   version="1.1"
   inkscape:version="0.92.3 (2405546, 2018-03-11)"
   width="2481"
   height="663"
   sodipodi:docname="E06P00_092.svg">
  <sodipodi:namedview pagecolor="#ffffff" bordercolor="#666666" inkscape:pageopacity="0" inkscape:pageshadow="2" inkscape:window-width="1813" inkscape:window-height="955" id="namedview70" showgrid="false" inkscape:zoom="0.4" inkscape:cx="1284.4231" inkscape:cy="2618.6204" inkscape:current-layer="layer1" /><metadata
     id="metadata8">
    <rdf:RDF>
      <cc:Work
         rdf:about="">
        <dc:format>image/svg+xml</dc:format>
        <dc:type
           rdf:resource="http://purl.org/dc/dcmitype/StillImage" />
        <dc:title />
      </cc:Work>
    </rdf:RDF>
  </metadata>
  <defs
     id="defs6" />
  <sodipodi:namedview
     pagecolor="#ffffff"
     bordercolor="#666666"
     borderopacity="1"
     objecttolerance="10"
     gridtolerance="10"
     guidetolerance="10"
     inkscape:pageopacity="0"
     inkscape:pageshadow="2"
     inkscape:window-width="1920"
     inkscape:window-height="1025"
     id="namedview4"
     showgrid="false"
     inkscape:zoom="0.30472132"
     inkscape:cx="1196.9418"
     inkscape:cy="386.50918"
     inkscape:window-x="0"
     inkscape:window-y="26"
     inkscape:window-maximized="1"
     inkscape:current-layer="layer1" />
  <g
     inkscape:groupmode="layer"
     id="layer2"
     inkscape:label="artwork"
     sodipodi:insensitive="true">
    <image
       sodipodi:absref="/home/deevad/peppercarrot/webcomics/ep06_The-Potion-Contest/lang/vi/../gfx_Pepper-and-Carrot_by-David-Revoy_E06P00.png"
       xlink:href="../gfx_Pepper-and-Carrot_by-David-Revoy_E06P00.png"
       width="2481"
       height="663"
       id="image10"
       x="0"
       y="0" />
  </g>
  <g
     inkscape:groupmode="layer"
     id="layer1"
     inkscape:label="txt"
     style="display:inline">
    <flowRoot
       xml:space="preserve"
       id="episode-title"
       style="font-style:normal;font-variant:normal;font-weight:normal;font-stretch:normal;line-height:0.01%;font-family:Arial;-inkscape-font-specification:Arial;letter-spacing:0px;word-spacing:0px;fill:#301b0b;fill-opacity:1;stroke:none"
       transform="translate(-748.4491,-120.8471)"><flowRegion
         id="flowRegion2989"><rect
           id="rect2991"
           width="2405.8"
           height="107.55731"
           x="739.22333"
           y="644.36664"
           style="fill:#301b0b;fill-opacity:1" /></flowRegion><flowPara
         id="flowPara2993"
         style="font-style:normal;font-variant:normal;font-weight:500;font-stretch:normal;font-size:72px;line-height:1.25;font-family:ComicSpice;-inkscape-font-specification:'ComicSpice Medium';text-align:center;text-anchor:middle;fill:#301b0b;fill-opacity:1">Tập 6: Cuộc Thi Thần Dược</flowPara></flowRoot>    <image
       y="-225.78331"
       x="124.63745"
       id="image4159"
       xlink:href="data:image/png;base64,iVBORw0KGgoAAAANSUhEUgAAB9AAAAPoCAYAAACGXmWqAAAAGXRFWHRTb2Z0d2FyZQBBZG9iZSBJ bWFnZVJlYWR5ccllPAAAA2ZpVFh0WE1MOmNvbS5hZG9iZS54bXAAAAAAADw/eHBhY2tldCBiZWdp bj0i77u/IiBpZD0iVzVNME1wQ2VoaUh6cmVTek5UY3prYzlkIj8+IDx4OnhtcG1ldGEgeG1sbnM6 eD0iYWRvYmU6bnM6bWV0YS8iIHg6eG1wdGs9IkFkb2JlIFhNUCBDb3JlIDUuMy1jMDExIDY2LjE0 NTY2MSwgMjAxMi8wMi8wNi0xNDo1NjoyNyAgICAgICAgIj4gPHJkZjpSREYgeG1sbnM6cmRmPSJo dHRwOi8vd3d3LnczLm9yZy8xOTk5LzAyLzIyLXJkZi1zeW50YXgtbnMjIj4gPHJkZjpEZXNjcmlw dGlvbiByZGY6YWJvdXQ9IiIgeG1sbnM6eG1wTU09Imh0dHA6Ly9ucy5hZG9iZS5jb20veGFwLzEu MC9tbS8iIHhtbG5zOnN0UmVmPSJodHRwOi8vbnMuYWRvYmUuY29tL3hhcC8xLjAvc1R5cGUvUmVz b3VyY2VSZWYjIiB4bWxuczp4bXA9Imh0dHA6Ly9ucy5hZG9iZS5jb20veGFwLzEuMC8iIHhtcE1N Ok9yaWdpbmFsRG9jdW1lbnRJRD0ieG1wLmRpZDpCQjYwQzBBOTVGMTVFNTExQkJFQTkwQTBCRTA0 NzBBNyIgeG1wTU06RG9jdW1lbnRJRD0ieG1wLmRpZDpBNUU0QTZBQTE2RjcxMUU1ODdFQkZENUJE NUJFRDI5RCIgeG1wTU06SW5zdGFuY2VJRD0ieG1wLmlpZDpBNUU0QTZBOTE2RjcxMUU1ODdFQkZE NUJENUJFRDI5RCIgeG1wOkNyZWF0b3JUb29sPSJBZG9iZSBQaG90b3Nob3AgQ1M2IChXaW5kb3dz KSI+IDx4bXBNTTpEZXJpdmVkRnJvbSBzdFJlZjppbnN0YW5jZUlEPSJ4bXAuaWlkOkNCMTUyMTVD MjkxNkU1MTFBNjU4RTk4NUEzRjMxQjVFIiBzdFJlZjpkb2N1bWVudElEPSJ4bXAuZGlkOkJCNjBD MEE5NUYxNUU1MTFCQkVBOTBBMEJFMDQ3MEE3Ii8+IDwvcmRmOkRlc2NyaXB0aW9uPiA8L3JkZjpS REY+IDwveDp4bXBtZXRhPiA8P3hwYWNrZXQgZW5kPSJyIj8+Qq3fWgAApRRJREFUeNrs3Q2QZWV5 J/AHEFEEGROigI4iYAjZkAzErIruMhpDKlE3QvxIzCZqDLuJZSBVmiplq9bSZMFsNrtCUhUT3IAk JWWGBdzERA3CaBS/EFAqURSVDwWMGED5EBim933ec3pphumZ7nvvufeec3+/qqeGYbpv93373Nvn ff/vxx5LS0sBAAAAAAAAAItuT00AAAAAAAAAAAJ0AAAAAAAAAKgE6AAAAAAAAAAQAnQAAAAAAAAA qAToAAAAAAAAABACdAAAAAAAAACoBOgAAAAAAAAAEAJ0AAAAAAAAAKgE6AAAAAAAAAAQAnQAAAAA AAAAqAToAAAAAAAAABACdAAAAAAAAACoBOgAAAAAAAAAEAJ0AAAAAAAAAKgE6AAAAAAAAAAQAnQA AAAAAAAAqAToAAAAAAAAABACdAAAAAAAAACoBOgAAAAAAAAAEAJ0AAAAAAAAAKgE6AAAAAAAAAAQ AnQAAAAAAAAAqAToAAAAAAAAABACdAAAAAAAAACoBOgAAAAAAAAAEAJ0AAAAAAAAAKgE6AAAAAAA AAAQAnQAAAAAAAAAqAToAAAAAAAAABACdAAAAAAAAACoBOgAAAAAAAAAEAJ0AAAAAAAAAKgE6AAA AAAAAAAQAnQAAAAAAAAAqAToAAAAAAAAABACdAAAAAAAAACoBOgAAAAAAAAAEAJ0AAAAAAAAAKgE 6AAAAAAAAAAQAnQAAAAAAAAAqAToAAAAAAAAABACdAAAAAAAAACoBOgAAAAAAAAAEAJ0AAAAAAAA AKgE6AAAAAAAAAAQAnQAAAAAAAAAqAToAAAAAAAAABACdAAAAAAAAACoBOgAAAAAAAAAEAJ0AAAA AAAAAKgE6AAAAAAAAAAQAnQAAAAAAAAAqAToAAAAAAAAABACdAAAAAAAAACoBOgAAAAAAAAAEAJ0 AAAAAAAAAKgE6AAAAAAAAAAQAnQAAAAAAAAAqAToAAAAAAAAABACdAAAAAAAAACoBOgAAAAAAAAA EAJ0AAAAAAAAAKgE6AAAAAAAAAAQAnQAAAAAAAAAqAToAAAAAAAAABACdAAAAAAAAACoBOgAAAAA AAAAEAJ0AAAAAAAAAKgE6AAAAAAAAAAQAnQAAAAAAAAAqAToAAAAAAAAABACdAAAAAAAAACoBOgA AAAAAAAAEAJ0AAAAAAAAAKgE6AAAAAAAAAAQAnQAAAAAAAAAqAToAAAAAAAAABACdAAAAAAAAACo BOgAAAAAAAAAEAJ0AAAAAAAAAKgE6AAAAAAAAAAQAnQAAAAAAAAAqAToAAAAAAAAABACdAAAAAAA AACoBOgAAAAAAAAAEAJ0AAAAAAAAAKgE6AAAAAAAAAAQAnQAAAAAAAAAqAToAAAAAAAAABACdAAA AAAAAACoBOgAAAAAAAAAEAJ0AAAAAAAAAKgE6AAAAAAAAAAQAnQAAAAAAAAAqAToAAAAAAAAABAC dAAAAAAAAACoBOgAAAAAAAAAEAJ0AAAAAAAAAKgE6AAAAAAAAAAQAnQAAAAAAAAAqAToAAAAAAAA ABACdAAAAAAAAACoBOgAAAAAAAAAEAJ0AAAAAAAAAKgE6AAAAAAAAAAQAnQAAAAAAAAAqAToAAAA AAAAABACdAAAAAAAAACoBOgAAAAAAAAAEAJ0AAAAAAAAAKgE6AAAAAAAAAAQAnQAAAAAAAAAqATo AAAAAAAAABACdAAAAAAAAACoBOgAAAAAAAAAEAJ0AAAAAAAAAKgE6AAAAAAAAAAQAnQAAAAAAAAA qAToAAAAAAAAABACdAAAAAAAAACoBOgAAAAAAAAAEAJ0AAAAAAAAAKgE6AAAAAAAAAAQAnQAAAAA AAAAqAToAAAAAAAAABACdAAAAAAAAACoBOgAAAAAAAAAEAJ0AAAAAAAAAKgE6AAAAAAAAAAQAnQA AAAAAAAAqAToAAAAAAAAABACdAAAAAAAAACoBOgAAAAAAAAAEAJ0AAAAAAAAAKgE6AAAAAAAAAAQ AnQAAAAAAAAAqAToAAAAAAAAABACdAAAAAAAAACoBOgAAAAAAAAAEAJ0AAAAAAAAAKgE6AAAAAAA AAAQAnQAAAAAAAAAqAToAAAAAAAAABACdAAAAAAAAACoBOgAAAAAAAAAEAJ0AAAAAAAAAKgE6AAA AAAAAAAQAnQAAAAAAAAAqAToAAAAAAAAABACdAAAAAAAAACoBOgAAAAAAAAAEAJ0AAAAAAAAAKgE 6AAAAAAAAAAQAnQAAAAAAAAAqAToAAAAAAAAABACdAAAAAAAAACoBOgAAAAAAAAAEAJ0AAAAAAAA AKgE6AAAAAAAAAAQAnQAAAAAAAAAqAToAAAAAAAAABACdAAAAAAAAACoBOgAAAAAAAAAEAJ0AAAA AAAAAKgE6AAAAAAAAAAQAnQAAAAAAAAAqAToAAAAAAAAABACdAAAAAAAAACoBOgAAAAAAAAAEAJ0 AAAAAAAAAKgE6AAAAAAAAAAQAnQAAAAAAAAAqAToAAAAAAAAABACdAAAAAAAAACoBOgAAAAAAAAA EAJ0AAAAAAAAAKgE6AAAAAAAAAAQAnQAAAAAAAAAqAToAAAAAAAAABACdAAAAAAAAACoBOgAAAAA AAAAEAJ0AAAAAAAAAKgE6AAAAAAAAAAQAnQAAAAAAAAAqAToAAAAAAAAABACdAAAAAAAAACoBOgA AAAAAAAAEAJ0AAAAAAAAAKgE6AAAAAAAAAAQAnQAAAAAAAAAqAToAAAAAAAAABACdAAAAAAAAACo BOgAAAAAAAAAEAJ0AAAAAAAAAKgE6AAAAAAAAAAQAnQAAAAAAAAAqAToAAAAAAAAABACdAAAAAAA AACoBOgAAAAAAAAAEAJ0AAAAAAAAAKgE6AAAAAAAAAAQAnQAAAAAAAAAqAToAAAAAAAAABACdAAA AAAAAACoBOgAAAAAAAAAEAJ0AAAAAAAAAKgE6AAAAAAAAAAQAnQAAAAAAAAAqAToAAAAAAAAABAC dAAAAAAAAACoBOgAAAAAAAAAEAJ0AAAAAAAAAKgE6AAAAAAAAAAQAnQAAAAAAAAAqAToAAAAAAAA ABACdAAAAAAAAACoBOgAAAAAAAAAEAJ0AAAAAAAAAKgE6AAAAAAAAAAQAnQAAAAAAAAAqAToAAAA AAAAABACdAAAAAAAAACoBOgAAAAAAAAAEAJ0AAAAAAAAAKgE6AAAAAAAAAAQAnQAAAAAAAAAqATo AAAAAAAAABACdAAAAAAAAACoBOgAAAAAAAAAEAJ0AAAAAAAAAKgE6AAAAAAAAAAQAnQAAAAAAAAA qAToAAAAAAAAABACdAAAAAAAAACoBOgAAAAAAAAAEAJ0AAAAAAAAAKgE6AAAAAAAAAAQAnQAAAAA AAAAqAToAAAAAAAAABACdAAAAAAAAACoBOgAAAAAAAAAEAJ0AAAAAAAAAKgE6AAAAAAAAAAQAnQA AAAAAAAAqAToAAAAAAAAABACdAAAAAAAAACoBOgAAAAAAAAAEAJ0AAAAAAAAAKgE6AAAAAAAAAAQ AnQAAAAAAAAAqAToAAAAAAAAABACdAAAAAAAAACoBOgAAAAAAAAAEAJ0AAAAAAAAAKgE6AAAAAAA AAAQAnQAAAAAAAAAqAToAAAAAAAAABACdAAAAAAAAACoBOgAAAAAAAAAEAJ0AAAAAAAAAKgE6AAA AAAAAAAQAnQAAAAAAAAAqAToAAAAAAAAABACdAAAAAAAAACoBOgAAAAAAAAAEAJ0AAAAAAAAAKgE 6AAAAAAAAAAQAnQAAAAAAAAAqAToAAAAAAAAABACdAAAAAAAAACoBOgAAAAAAAAAEAJ0AAAAAAAA AKgE6AAAAAAAAAAQAnQAAAAAAAAAqAToAAAAAAAAABACdAAAAAAAAACoBOgAAAAAAAAAEAJ0AAAA AAAAAKgE6AAAAAAAAAAQAnQAAAAAAAAAqAToAAAAAAAAABACdAAAAAAAAACoBOgAAAAAAAAAEAJ0 AAAAAAAAAKgE6AAAAAAAAAAQAnQAAAAAAAAAqAToAAAAAAAAABACdAAAAAAAAACoBOgAAAAAAAAA EAJ0AAAAAAAAAKgE6AAAAAAAAAAQAnQAAAAAAAAAqAToAAAAAAAAABACdAAAAAAAAACoBOgAAAAA AAAAEAJ0AAAAAAAAAKgE6AAAAAAAAAAQAnQAAAAAAAAAqAToAAAAAAAAABACdAAAAAAAAACoBOgA AAAAAAAAEAJ0AAAAAAAAAKgE6AAAAAAAAAAQAnQAAAAAAAAAqAToAAAAAAAAABACdAAAAAAAAACo BOgAAAAAAAAAEAJ0AAAAAAAAAKgE6AAAAAAAAAAQAnQAAAAAAAAAqAToAAAAAAAAABACdAAAAAAA AACoBOgAAAAAAAAAEAJ0AAAAAAAAAKgE6AAAAAAAAAAQAnQAAAAAAAAAqAToAAAAAAAAABACdAAA AAAAAACoBOgAAAAAAAAAEAJ0AAAAAAAAAKgE6AAAAAAAAAAQAnQAAAAAAAAAqAToAAAAAAAAABAC dAAAAAAAAACoBOgAAAAAAAAAEAJ0AAAAAAAAAKgE6AAAAAAAAAAQAnQAAAAAAAAAqAToAAAAAAAA ABACdAAAAAAAAACoBOgAAAAAAAAAEAJ0AAAAAAAAAKgE6AAAAAAAAAAQAnQAAAAAAAAAqAToAAAA AAAAABACdAAAAAAAAACoBOgAAAAAAAAAEAJ0AAAAAAAAAKgE6AAAAAAAAAAQAnQAAAAAAAAAqATo AAAAAAAAABACdAAAAAAAAACoBOgAAAAAAAAAEAJ0AAAAAAAAAKgE6AAAAAAAAAAQAnQAAAAAAAAA qAToAAAAAAAAABACdAAAAAAAAACoBOgAAAAAAAAAEAJ0AAAAAAAAAKgE6AAAAAAAAAAQAnQAAAAA AAAAqAToAAAAAAAAABACdAAAAAAAAACoBOgAAAAAAAAAEAJ0AAAAAAAAAKgE6AAAAAAAAAAQAnQA AAAAAAAAqAToAAAAAAAAABACdAAAAAAAAACoBOgAAAAAAAAAEAJ0AAAAAAAAAKgE6AAAAAAAAAAQ AnQAAAAAAAAAqAToAAAAAAAAABACdAAAAAAAAACoBOgAAAAAAAAAEAJ0AAAAAAAAAKgE6AAAAAAA AAAQAnQAAAAAAAAAqAToAAAAAAAAABACdAAAAAAAAACoBOgAAAAAAAAAEAJ0AAAAAAAAAKgE6AAA AAAAAAAQAnQAAAAAAAAAqAToAAAAAAAAABACdAAAAAAAAACoBOgAAAAAAAAAEAJ0AAAAAAAAAKgE 6AAAAAAAAABQPEoTAAAAAOzapo0bNAKrWb44NrV/PqfUQe1/H1zq5et8vJtKXbTi71tL3V7qzlJf L3VfqXs1OwzyfWR3vP5hiq6+6Q6NAAtqj6WlJa0AAAAAsAsCdKIJuJ5e6tBSm0udWGrjDL+fy0td EU3Y/o1S3wzBGszj+0b9NdL+uTzBZpTJNTtanmxza6lPtu8Dt5WS+MGECNBhcQnQAQAAAHZDgL5w 9ogm5Hp2qV+O8YOuaTormlXrn4omWDP4x1DlG3MG00eUOnoXH3dNqeva/742mokmd07otbFjQH5i ++cpM26bLaU+3L4XXF9qm8sF1k+ADgvcGRCgw/zZtHFDdtQPL/WUnfzz8mzSNIvf4Pm9HbDKv901 sBvyDSs6QI+4f5rxc15t9M5WXgA60AB000/TCMP32FLPKvX66FdgvjsZpJ1f6rKwMpVh2FzqvJjM DhBntX9ujeaohLRy7K3+Cmj/fEL7tdMpPWuz3LHinFIfKHWLSwj0/4FdE6DDHGmD85eWunCEm/0d t2sadSbto0rtF822dBmUr3fmbN6QvzoemtnbRxvaDsVx6+yIXNF2uPJMui+XumfU9+a27Q+MZhLF 8vZea90eMLfw+rVSHw0rDWBnr68c/HiNppiai4b2fqQDDbCw/TWNMEz5g31Zqdeusw/YV9lffHsI 0ehvf+59MawJLrN8H7ggTKoB/X9g5zcdAnSYD2143kUnYMuKTvHWeGg2bVq5xdUzJzxYcFI0oUnf ZJt8ZczH2F7qI6VeGc1Ehu2rfNyepX6q/bi9YjLnX62UEytO9eqC/y9XFF0SizEwOm8+UepnYiA7 ZOhAAyxsn00jDEdOHH9JqTct+L2hMJ2+2RzNTgpMTi4IeUM0Oy0KCkD/H2gJ0GFObNq44TfKH2cP 7GntHf3a0j0HUR6Y0GPlKvSTS32sbYMd32wzPM+tAd9d6qhoZlF34RnR790AYGL3PKVuiMls8cf6 5CSi3BnlT0r9fgxgUEYHGmBh+2waof9ywvRvR/+2Xp6GDNNzAvbfhLOSmV836tN1+h5gN0PQ/wda e2oCmBtnD/A5Hd2z7/d5E3ysQ0r9VqmnRjORYI8VlX/P1eZ5rt6h0V14nmxrBo03h4GWWciBl2+V urjUP0YzUQkAYJqyv3VMNDvi5G5jwvOdy3vlPE4uJ5WfGc1kA5jH65Tu2jZX9+fE883R7VgVAMw9 ATrQpQMW+LnvU+qEUv+97Xg8sW2PH4xmi8A/KPXzpfbt+Ps4yGUI9VzL0zXDTNwTzQqGnCT28Zjc Lh8AALuzR9sXyzDoynCMz3rkJIOcbJCTDo4IQRoskpVBuok0ACwsq4BgftwUZtIOzf6lXlTq2Gi2 Uc/z5zNEPzyaFeqP1UQwFS/TBDORq8+/XepDpb4ctgIFAKYjw97jS52njz22nHSQQbqtnZkXW8JO e9OysX39n1XqjfpzACwaK9BhfvzpAJ/TnT37fj/dwWPmSvRDS/10qZNKvTCaAF14DtORA6hna4aZ +ZdSXy91l6YAAKYgV0vmqslcPSk8n5zlFakfDytSma1TNcHU5Y4UX4vmKAwAWBhWoMP8yAB9aFsM f6ln3++90d1s5gzx9prBczrXS4sFd7gmmJlcnZRbtm8LK5UAgG7lkT1/HvO7MvWsFf99TTQ7lO3M iTv8fd7Oa19ekZ795v9U6g6XHlN2S6lntNch05OTaPIojNNKvUP/DoBFsMfSkt93MC82bdxwxIA6 ASeXencPv+9cGX5tDGO1Qm6z9zQdGxbcW8L557OS7z3/3P4MPlzqvqE8satvMlYMsKD9NY0wf3Ki 8ktLXTgH30uGyleV+mTeLrT3PvdOsJ+au5ttimYF+AkxH5MFcpe1i/U5mYFcFPaaUv81+jF+c3mp c0p9LpodutKdO3nt5PPar/3vA0s9pdRzSr04mgks8/JcXjjB9zfQ/wfms6MhQIf5smnjhhyVeVvM 30zztVo+G21rzztif9Tjn0HKWcF/GM6oghvD9p2z9J1SfxbNhKrcTnW7DjQAPe6raYT5cnA0x3DN 6l4vA/PzS32q1K0xmxA5L8oM1V8fswvU/6b92ve5JJmRnGDy5GjC5pSTTI4u9cyYfeicYzPvjMmE zTlh6KBSzy71phk/txz7e0GsvpsGDIb+PywuATrMqU0bN2SI+7wZd4TXc+P89mhC86/GcGafZyfs V6IfM5qXZzPnz+D6EJzD8mv4Hs0wUw9Gs03pu0p9MJotFx9o/623vyt0oAEWto+mEeZDhkivK3X2 DL52huZntPc32+awXQ5vxw+mtQNT3td9qNSbo9l5yCAj4XVR5TjZs9r+T5f93VmPWeV2+kJ0Bk3/ Hxb4JkKADvOvDdMPncEN/66c1g4eXB+LEdbm6oZ5mOW7sjOWkxY+0HGHDPrs6aW+HM2uEl2+Fi/a 4f+doukfJlcjfTGa1UmfKHVbqT2jObKklz1RHWiAhe2XaYTZy8Dokin3yfJ+79T2XqYvfd+8/80V uH/ScVvlbkO/F81k7u+6POnB6+J3YzrjavvG9LY4z0kCm6bwel+NEJ1B0/+HxSVAh55ZsTL9vJjN DFNbgzdhes6wn1VI5pw5WJunt6+VI6M5M3IS73+5ijrPrLtzDa/BHODNkfZ5mnyzo5wIlZNwchXV ykGPPGcvtwc8cUK/a7a1bXZzqX8ttXepv4xmZboONAB96YtphNk6ptSVU/x6ucvXq6P/wVBuZ/2e ju5FvxTNbgCfjYd2GYI+vCa+0uHjnxzNEVbTlkH68TGb8UIhOoOl/w+LS4AOPdUG6dM8p9v5Ro+U I2h/HtPbYj9/Bj8ePV2xCTPwA6VeUeq17WvnMSM8xvLA6SSOp8j3jLfFbFeoj7J7xfIuKJtj/O0B l1a04zdLPVUHGoAe9cE0wmxMe8v2oQTnO5p0kJ73dB9r77WvDxO86Zfs21zW0WMfErPdKXCaK+1X EqIzSPr/sMCdEAE69Fc7gPMbUxhIyMAlV3Deq9Uf+T4a0xvM2dfPANb9+nxSNLs2/OdSPxrr2879 +aW2dvB95eDlpTH9VQH5fD4a4w1uLp8hOKnB11yJ3rsdTXSgARa6/8X07+feF9OZtJz93l8oddXA 23RzTCY4fLDU35X6zWh2GYK++UR0szPDnjEfE0qmvWtHekJY9MHA6P/D4tpTE0Dv5bZQl3f8NXIQ QXC7c0vtz+C0jr/O8/0MYKTX579Es+3630ezdfha3NR2/Ld29H3lrPwj268zDSufz9IE2jS//+e2 70vj2s9lCgCsIo/DuSGmE55nf+5pMfzwPNp7wpycvWUCj7XHioK++R8d9kPnwVXta/2mKX7NL8T6 Jq0DwNwSoMMwvLrDx74pFmMQYVzv6LhT8nFNDCPZXuob0QwU5hmNa1ntPI2jEnJCzC9MqQ2O7Oj5 ZJuOOyCzySUKAOxEhufXRvc79uR9TG63fEYs1hbkeS+aRx2dNMZj5JjiAaX2CQE6/dTFFu5b5vC1 ftgUv698z36vSwuAIRCgwzDkasCuVqG/XfOuyVKHbZUdnW2aGEZ2fzQDsFeUuns3H5urqqe1P9dV 0f0OIl3vXpGPPc5q+iNcngDATu4P7onuw/PlVee3LHBbXxTNucWj3MstH5eUExCsOKWP7uzgMefx /STHk14Z0wvRc9eQzS6vQciza/Lo0DOjGfdcrjPbOrH9ne13ADBIAnQYjnM6etwPaNo1u66jxz1f 08LYciv3L8auB0kyzN465e+ryx1EpvV8xllNf7RLEwBYIQfivzLmY+Tgfp7PvX0XH5OTDBdt1fmu +rGjTog8sNSzotkxAPpmacGe66tiOtu5P1DqvFKPdon11sGlPlHq9lJnlzplh38/pa0L29/Z+TPP QH2DpgOGRIAOw7G1o8f9tqZds6s7etxrNC2M7fvRhOh3xOoDJW+Ywfd1fYeP/V+m+DxyNf1ZI3bM AQDSuOF5DuB/s9QnS32w1EdLfTWa1ezL93/LW7Zv1dwPM+quQvuXemGpp4YViPRTvufcHYsRpm+L 8XYPW+t7yWdK/X40RzzQL7mzyFtK3VzquHV+bgbqt7ef71gPYBDc3MJw3NbhDTbD/NnCIskVSN9v a2mVDt3VM/i+unyP/fiUn8sb45Ez03fn5S5NACCaSXXjhOcZkufuO38VzbE9d0Uz5pVh0S+VOqHU faV+JLo93qbPlkP09Zw9v3epY0q9pNS32r7rdk1Jj5zS9kl+LpojCfZcgNd57hpxc0ePnX3QnFid E5judnn1Su4kckmsPzjf0ent74U8NsAuL0CvWYEOw3GHJgDYpT12ce9z2gw7d2d18Jg5gDztCVD5 9U52mQEA65SD9p8e4/MfaO99csXjxdEc23Njqa+VurTU75V6TzThsPB817J9fnydn5PbuGcAmSH6 hjDWSL9sjeY4h4tKfWdBnnOe0/78DvqCOSH9XaUui2YSk8k0/fo9nJOnjpvQ4+XvhJdqVqDv3NQC u3KWJpgLJkfA+PaKZovJ/WLnq88/OLDne8WMvu4FLjUAYB2WB+03jvEYeUxPnrebR8p8N5rQZqmt 3H0og/S3tP/N2vqfx67zPjtX9udEylxxOLTt3PMa3dxeQ3+94tpaWXn27zFhp88+yveFr0eze0VO vrl/QZ731pjsmF++D+ckhDw3e+WxGSzG7+GdOVPTAn0nQAeY7EADMJ8eX+pp0ayK2VmA/qWBPd+L Zvg+eLnLDQBYg7wny+1ixxm0z7D8+mjO3F3tHOMHw0rI9crJCKet4+MfU2pTqdeXekOpny91WKl9 o59jj3ltbo6HwsBcUZvbEq92/FBuA35lqRtKHeLy6Z18j/h8NAH6PQv0vH8nJnMeeu4CcnX7evl2 CM/7pKvwPNrHfKwmBvrMzEgAYBE8udRPlDpgJ/+Wgwa285ycHDS9UjN0Z9PGDX34No+IZpD5oFK3 ltpS6jo/PQBWeF+Mv11sBjW57bLtgifvHaVevI6f0T6ljmp/9z+71BeiOdc+z0XP8+f/uifPe5xz gHNr7MdFsyr/QZdQr9zbXqsPLNBzzvfPF7Sv03F8r9Rno1nJ7324PzIX6io8X/l7wVgL0Os3SmA4 cuupx2gGgIfJbduPbWufnfz7nw7wOV87w699tUtuoR0czVb+Ow4656qt3J3gZdEMLgOw2E6M1Vfz rtdyYMlkZbj2olK3r+Nz8ueQZ6LnbL88Sz231M9wLUPJPgTo46zGzPbKbazvDCFiH+W1u+8Cvpfk BNfcyv2UMR7j9vZ1868uo97IXTbeG92G5+kuTQ30mS3cYViucHMC8DA5WfDoaFbPPG2Ve58hnX+e A3fbYrZbD+b3cPIaP9Z278ORgzB5NujNsfqKrePaf39L7PwoBQAWQ062unBCj5VhV565/YxSj9a0 E5fH85w04j34/tHsAnVkqR/ryfMd50iB7e09+PawhXUf5fvI4bGYW06/dcy+X04ayfD8fpdRb7wu JjeJbTW50982TQ30mQAdhiVnjX4uFuvMJoDV5MBdDtb9aqnnRrM6aWeuGcjzzQGLXPXy+TnoqJ67 xo87x2U6CDnQmNvwnr7Gj8+POz8EHQCLen/26Qk/Zp45/apognkr0Sfv4hhv0mNOmvtkD55nXj/j Hinw6Pb5mijYL7nyPCeK5MTrfRbw+edEmbPG+Pw8oiF3mTBxpB/yqK2zp/B13q6pgSF0XIDh+L/R BESPjyY02luTAAsqB63+XalfLvWzpZ4YOx/IOi36Pyt6edZ/bpu3tdRlMftzxrJNT15Dx/wCl2rv 5RatecbpeldrvSKa4D238LXNKcDi6GLL2Ay/fi6aI83eGeOf58sj7zXzCJabx3iMK3rwPI8c8/Nz kdIPtdfjHiFM7IvDSv1iNJNwDonFXWyWq9BPGfH9IcceH+W674Xsf106ha+Tq8/P1dxA31mBDsOS sz5zK+KPRHMGkRvXfsuf3/c1A4z8+slA+T9Es3XkXqt06v5wAM/ztlIfLvXfSr2j1IdiPgLJ/x27 Xq2UqxzucKn22hHt/cYoQUgOsP1EqZ8Oq7QAFsXm6GbL2Pw98qRodhy6UTN34pYYb4XqIsjr8KD2 /siCpf7I6/r1pY6KxVx9viz7ZVtGvO5zEc8BrvteeE90f+55jrO8IGzfDgyAAB2G59ZSHyv11VIP ao7eyvArQ4nPagoYWa6SeUo0A7WX79Chy9XRhw2gU5dnzf1DqTOjmUA1T4F0hvvHx84HW3Pl/++4 RHstB4fHXeH3g9EE6AdoToDBy1Vvl3X4+Dm+9dpoJpXTjTdqgt06sL23eYym6I38eeX55/toijhj hM/JAP0H2r71Bk041zbH+iaxLa2otcq+f+7mcZ3mBobAzDAYpjzP94vRbOO+v+bonQzP8xzjHGB6 r+aAsWRAflFbQ5PbtH+m1F9EM9nmgTlt/1OjGXDdr/1/d4XZ6H03ifA8ZZjyM6XeX+pzpe7XtACD 9Z6OHz8H7a/SzJ3f163liJ6+unZC9zY/297bXDmn9+c8nMkOD7lmxM/Lft4zS11S6tuacS6tdRLb g22f7O52vCHfw/ZsP3/f9vWSedIfr/icHGv5Rqnr9fOBoRGgwzDd0t645A2PAL1fcmbnd6JZUfqu sAIdWP294pul/jaa4HHeB+eyI2279mGYVHie8miFHy7169FsuZv3L85DBxiezdHN1u3Lcnchq6On 49wYLUDvw2TWW9traZztjZfvbV7XPtat7m3okeyzbRnh/TpX7/9kqZ+KZjdM/b75s7tJbPk+9b1S N5T6cqmvRbOwJ4+VzPwodxnI8eW/imaymiNDgYUgQIdhytmCuf33Pe1NjbNF+yNneF5R6ryY3xWl wOzl9qSfj2YFugEKpmWS4fmyx5V6cXvf8r9KfSsMNAMMyaPavk2Xfi2sepuWUVehP6fU1jl/bkvt tTTuUQMr723+ZzQrct3b0Bfnx/oD9BxzPKTUSdGEr/8YxrLmyTG7+Znmz+qm9ud2aTRjkjm5+Z72 vSt/vrkK3TGhwEJ2ZIBhekAnbSZy68BTRvzc/Hnlmc1/196w6nAAq8nZ4Tnz+wZNwZTktn1f6eBx c0DmiaV+JZrtH3NAPrePFIQADMNrYrwVvbtzecx/MDs058b6A/RjevLcPhqjrcDd8d7mSTvc2/yT /j09Meo27rkK/d+W+s1oJnt/xjU/FzL7ef8u/j1/Rnl8RU6c+D/R7CCwYz8sJxfNY3ie/dNnrfj7 naW+FM3CJICJvYkCw5MdtuVzaaw+74/7286KFaXAriy1ncPrvVcwxfuKazt8/FzRcFCpV5b6N6U+ VOriUv+s6QF6bUN0f172izTz1I2yCv3l7f3EvG/7u9Tej2SYdOGY9zYHl/qlUj9W6oOlPhJNuHNX PLTYIcdt7gvbITM/bhvjcx9f6oXRBJt/Ec1uDvqrs/W7sfoktnwfyq3azyn1l9EcJ9mXhVi72hkt Fza9OQTpwAQI0GGYshN2YDRbh9Ef2ZH+QqmvawoGwozg7uQK9O+GWf1Mxzuj29WDKQean1Dq2aWO LPWLpU6PZiUEAP30to4fPwfJhTOzcW6sf3JETpa7pQfPLcPsPLN971LPK3VijLbL3I73Ni+LZlvk W9v+0KNL/VCpT0VzjA3Mg7vG+NycJJMTp55f6tBodnTIySNXRnOUgb7rdB3c9qdWk8dM5ESh90a/ wvPMs3a1M1q+Xz+z1HNdAsAk3nCA4XlqqcNK7aspemN5RWlux2wQiCEwI7jb94sH2+rDSh76bXOM fjTJeuX1nIPJuaV7TgTMlRDXlfq8HwNA72yYwu+PN2vmmRllFXruFvDunj3HrW2duuL/51jqoaV+ ew3X+I73Nke1j7t8rnCG9Ce2X+MqlxVzct2Pez//uPZazwm4J0RzvnYeV/i99t/fVOpuTd25C3bx bzmWcE37MbdFv44AfckaPua4aMakrnMZAOPYUxPA4OwVzfliPxLNSnT6IzsQVpQyBGuZEXyJZhpZ Djrs077HO6aDLmX4cdmMrvG8n8ldLK5u/wSgXz7Q8eNneGsy5mxdsM6Pf+1AnncGjBnKZKieK8y3 rPPeZv9SB0Sz3XX+PUP094dFTgzLXu11fng0Oznk7lK/2pZrvXubowmRV5M7DfxDNFu4b+vhc5vk xwGsSoAOw5KdskOj2S7p6e0NK/2QK0i3x0Mz0aHP1jMjmNHe63MwIlex7KM56EgObH1hjM8/rdSx 0QwsH9v+fVSX+N0I0CtHxK4H7ifhXM08c7lz2lnr+PjjBvj7PNvgFdGMwYwjV+r+kUuKAcrsIXdh yMki+0WzOt19fffjBeft5mNyS/3LS93Tw+e31t1tTnApAJP4JQYMR64Ue2mp46MJV+jXDe7yilLv zfTd5gl/HI+U7/E/HM12kNDF76Q8C2+Uc89zRWCupDojmq1I72j/PKP9/TbKAHMOuL/TjwWgN07v +PEztN2mmefCW0e4hx2iraUOiWar6lFlKGSCMbNmdXj/Hb+bflwu4Lm11I0D/136cpcCMC4hDQzL q0r9x2hWoXt990uGFbmFW4Zhtqql78wI7t6+pX4ymuM6DHIwaa+L9Q845AqGXG2eZ5uuNhCTgzVb ownYt6zz8fN95UQ/GoC5tyG6H7R+q2aeG+tdhT5kt5Q6MsYL0S8Nq3OZrf00Qa+tZfX5Uvvenceg bNdkAKsTsMGw/Fapo6LZHon+yQA9V5QepClYEGYEjy4DyB8t9e9LPTkMtDE5/4+9NwHXqyrvvu+Q MCQCCZMSIIxBcMAG0KoBywmiYqmvBolzGQpYsRqw6FvAr1r5NNBPbSX4aTVQgRYUw0Vw4JVaJYeK KIqQglUpYTIIqFQCAmHI8K4/a23zcDjDs/ez1h5/v+u6ryQn59nP3muvvfZa638P+ztbkvMzEsNV 23B1n78vgV3pTk/M+T2XG5FZAAB152OJj780x/sGyuE0muAPSJAaRERX1OibaEYAKMhE0eciKyFp 7CMAAIwPAjpAu1AkIvVwm4sizyVcvMhwggCAidnW2Z86O8x85C+LXxiUmc5uzPkZieASwzcU+D5F qx+Q8zO3GZlaAADqvJ5ZmPg7zqCZa4dE4yP7/N0nOtIeg4jolzPXgQrZgyZoNJ/o43e0b6BMA5sV XMMBAHQGBHSAdjGZJmg0SsOsCPQhZ7sxRgNAH2OGHKf+wtkbzJeAIJ07FEUbtdfn/IzE8/MG/F7V R98752dupa8DANSSdyY+vgTJ22nmWnKFTVyeRane13SkPQYV0c+mS0FFTC/hOx6hmZOgEipz+/g9 7TU+z9mjNBkAwMQDJgAA1GvCq7rQrzcvhjFOA8B4bGE+glfRXsc5e7H5aHSAPCgK4Ts2cbq/XmKI 5xkrLZ+IrvO8xMi6AABQt3fJRxJ/x5lGtFxd0X15q41dD10/P6VjbTKIiL4w7A0AlM38Er5jLc2c hHk5fldOOg/QZAAA44MwAwBQL5RFYC9nf24+Dd4uNAkATIBE9Jc4O9l8yrbjjehcyMel1l+0QkZM 8Twjr4i+wKi5CgBQJ7SGmZX4Oy6mmWvNhjAflTPnvB6bFn7eReeHQUT0K+lSUAGpBfTraOJkDOVY y/0rzQUAMDEI6AAA9UN17Pdz9p4wsQUAmAgJ5js6e42z081vVAL0wwnmxeh+SSGeZ+QV0ReF8wcA gOpZlPj4El3W0MyNYLWz4R7r+n0rKqLLuXE23QlKXlOmdoS6gWZOxsI+fmdewrVcWX0UAKA0ENAB AOqJRPQXOvtLmgIAcrCps22Z4w2E6sG9wLqRNnN/Z0ty/H5K8Twjr4iu82dzGQCgWqZaPmesInyK ZoYGIxH9JQU+dyFNByWyewnfsYxmTsbiCf5fa6zhhl/jltxmACgTNlcBAOqL0rnvQDNAw8AjGJqM HBBUPkMpMx909kvzEc5t7Ncznd2Y4/fLEM8z8orotxl1QgEAquTwEr7jKpoZGs7qnPMbMZc5DpTI ghK+YwXNnIxzx/j5UvMZ6lbSRAAA+UBABwCIy0KaADoOHsHQZLZ2tlNPP1YKQ0U4P2W+HuCkllyn HAKuz/H72nQ5v+Rz1AZPnjImNxsOPAAAVfHBxMcnfTu0hbxOguIkmg1KQOucRSV8z2qaOvn4cob5 khGLw7/fwjsUAKAYCOgAAHEXHAAA0Fz2cLavje4IcrmzS60dIu0l1n99Q4nnb3W2oYLzVMR7vyL6 rHBdAABQLkrfPjfxd5C+HdpEXhFdoiZ7DZCaOSV8xxk0cynjy1nOdnV2shF1DgAwEAjoAADx2Ism AABoLBLND3T2Qmebj/E7Smt4x5xZM6Y2+DrnW//pGasUzzPyiOgLwvUBAEB5lJG+/Yc0M7SMvCI6 ew2Qms+W8B1LaWYAAGgSCOgAAHGQmHI1zQAA0EgUVf5Hzg4zH8k83hxZ/3/hnFkzmhgJpBqal/f5 u3UQzzMkovcbsXK5USsUAKBMPljCd9xPM0MLySOiD9FckJDZlj6TyCojGhoGZ3uaAADKhDqBABB7 TOlS/WNN3HYxH+1G7XMAgOa+u15kvjbcK/p8jynS+Sbz6fGaxJV9/p42uI6xeojnGWc729/6i57X dR5E1wYAKOUdmlp0WVyz9xFATDIR/bYJfm8/mgoScmEJ33E0zQwR2IUmAICyFzsAAEVRhNdRzl5r /aeDBYB2g0cwNAmJ5S8xH2n9Z852tP5rTC6aM2vG51esWr26Idfab2RJnSLPe9H5yMnhBGdLJvjd ueF6iXIBAEhLGaLeMpoZWo7mKzs5u958piOAMhmycqLPr6GpAQCgaZDCHQCKIHHhHGcPmt/ERjwH gAw8gqFObG3e2Wtyz8/kQLqdswOcvd3Zyc6OdLar5Xcu/ViD2qKfd3VdxfNe+q2JztwEACA9ryvh O26lmaED3OdsHxu7RvQtNFEyHne21rqZ6UKlCJeX8D1HG5lEIA7b0AQAUCZEoANAET5jpCwHAID6 I3FcG2LalHws/ExR53L0eKH5yDlF+jzHijmWLpwza8apK1atXtuAtthxgv9XjXGlSW/C5pZEdEVr LR/gegEAYHBeb1582iLhd1D/HLrCGvPZdpRFRym15/bM0c6neZJxZVgb7GzeyVbj2aQOXPckKyd1 +3VG9HksNDYsCOscvRuXWvcybg3RDQCgTBDQASAviuRDPAeAscAjGOo0z/0bZ78P9nj4+TRnWwXb 3AbPyCQR/qYGtMfwGO9vpVR8Y0OuYeT1aLzRpudoaSeJ1AIASIvEF4l665y9NLxXYyPhhahF6BoS xA6iGUrjz53t7uxPnB3u7GXOnuts05Zf9/FWTsamIxjHB2ams8tGWfMsCu9Jlda8j2YCAIgPKdwB IC9zaAIAGIchmgBqgiLNFVkuD31567842F7mN8WmRpoLH96Q9rjCnpn6fFX4957WPPE8Q/XnD3Y2 z/zmUYaui0gtAIC0SBD5irNPOvu+s0cSfMc3aWYASIwi/3/u7Avms1d9znzpiMdbfM0nmC/HmJoj w3wdiiFHtdOd3Wtj16mfG/7/dOtG5oT5dAsAKBMi0AEAAACg7aTcTGhKqnAJHecFaxO6rmEjUgsA oAqedPZd805pW5uPRN8s4vF/QBMDQIn80tk/mhd9/9LZvpHHtDpQlni+2NkyulRh9F5Viv1+swQo Gv0lzo6zdjt/zKJrAECZEIEOAAAAMcEjGAAAAKA7SET/D/PR4r+1uKl6V9C8AFAyikj/krNLnP3K 2fqWXJccissSz1Wb+xS6UmFUOlNZEPKk2Ne7+EXO/sLaq/dMpWsAQNkgoANAXm6lCQBgHPAIBgAA AOgWD5iPFv8vZ2sjHvcRmhYAKkAi+pedXe/s0RZcjzLQXmrliedvNeqeF0Wlxx60fPsqcvK403ym sQutPU4fI5lB9wCAskFAB4C83BcmxAAAI8EjGOpEWfX27qepAQAA7L/NR4zHFL3X0qwAUBFK5/7v zn5tzRYk93d2h+WLZi4K4vlgSDy/rcDn5OQhZ4+vWzscPsZiH7oIAJQNAjoAFOEYZ9fRDAAwAjyC oW4sLuE7rqKZAQAAno5Cl0jzcKTj4bQNAFWjfS9F9j7V0LX5Oc5utMGyxMl5QDW1FRX9P84eMp8u fKRIfoYhng9CUfF8Q7gnv3C2quVtRLlAACidKTQBABRA6awOdjbH2bHOFtIkAGB4BEP9OLeEd9Qt NDMAAMDTApOyv/ze/Ib+pAGPdx9NCgAVc7f5SHQJxps35JwlnB9lcdK1KwuIsm391HyWEY3v2zp7 gbMXOtvefHDePGfDdJfCFBXPe9+/ujfrW95O7D0DQOkgoANAUbQpclOwk81vkExv+TVrcbBL+Ls8 H1/qbC5dAeAP4BEMdWOl+ciRVGP14hWrVpNeFgAAwKN34rpIxxqmOQGgYhR5rewaTzjbqsbnqf39 /ZydbvFStUuUVfT9vzr7Svi7xnc5ErzI2TudHeTsTYbD0yAMKp5rL3YzZ1uHfvBUS9uJbIcAUNkL FgAgBhLUV7f8GnV9K8Pfh3vGUUXjX2SDpcUCaAN4BEMdUQTGvYmOfRrNCwAA8DTZJv4UGzz6XDxI kwJADRgtXfmgY+WO9szsbUrBLYH6EfOOSBMx1dnO5kXzt1v8+ua6XqVr/7Kzf7Bn1tWWU4ECaW4N Pydle3F0H2+LcBwFM8mpYXfze5YbRulzEqB/32f/qiPz6C4AUAUI6AAAg6HJ53BY/GgBgYgOXQWP YKgriog40tnlkY+794pVq9fQvAAAAE8j8VypfbeOdLx7aFIAqBgJjxI5N4l0vP2dfc0m3jdSBq0b Rvl5WQ7r2udSyvZL7JnieYZShT9C9xi4b90a6VjPcfZy8xkBv2AbS6lkbGE+g6ayBbzPmun08EG6 DABUAQI6AEAcJKIcanG8RwGaCB7BUGeWOTvR4tQCFBLPV9KsAAAAf+C55lPRxhLQH6BJAaBiJEw+ z+LUP5e42a9D71yrtlyg0oDf7uwOukAyPmPxAnAkxu/m7LjQZy91drd5oXwbZ692dqx5kV3OaWc1 rK1mGOUzAaAiENABAOKRutYuQJ3BIxjqznlhnF4+wDFWOTsU8RwAAOAZKDpzX2dzzG/eAwC0gb3N C5ObDXgc7b9f3qDrVq3zx8KfEJ8hi59NQH3s+c7e7+yN5gV0lR+QA8heznZwtqmzRc6uMp+Gvykc RZcBgKpAQAcAiMunGrYwAogBHsHQFIbNe+FfWaDPKoL9Amtu3TgAAIAUZPV8X+XsBRZvn+khmhYA KmRKGNckoG864LH2a+C1Z4Lrk3SFqGjvZHmiY28S1rrbhD63Ifxs0ojfu9HZNPOZNJvQF5fQbQCg KjahCQAAonILTQAdBI9gaBKrnR3kbCdnZ5iPKh8LZRVR/XRtHimCHfEcAABgI9qUV8T5Yc6OcLZ9 xGNvoHkBoMKxbR9nrzFfnmLSgMeb3rDrVx3tEwzxPDYSg28e4PNaux5gXiA/IPx7LKT5TB6n734n Qr8ugw/RbQCg6oEbAADiQa0+6OJcAo9gaCL3ma//Jptqz65tqMg3Nu8BAABGR5vzEs//1LzQoujz yTQLADQciYrbOTvG2YFhndAVlHHrYmtGZHIT+9UlVqzu+WiZ0G4KdrazQyx/VLuysakO+8k1bjNF 6y+i6wBAlSCgAwAAwCDgEQxtYI2xUQQAANAPEgFUD3imszc4e5f5VLFb0DQA0HC0T76ts5PMZ1nb oQPXrGxcRzu71si2lZLjnS3I+RllQ1N2l9Xj/I4cvofNZ0y7JOd3LAyfXVbTucYKug0A1GFiAAAA AFAEPIIBAAAAuoWizt/h7PXO/th8emP2lgCgqUwKY5iyUT3ffOT5G53tbPGyatxaw+teaj4F+Eq6 QHL2t/xZ+3R/3mr9Z0ST88NbzGeEyfNdlzvbu4b9YGGYb2ywZqSaB4CWwiIHACAumtytM9IXQvvR IuZmmgEAAACgUyhVuxwotzYf8ZaCxTQzAJSEhPK9nA05e52zF4bxLaZop9JRSsNddekzRZsrZfdV RvatslC2lhtzfkZ95byC36fP/STnd97mbFqN+oRKxEjQv8V8qvnN6UYAUOWABAAA8XgyTFaVYmk9 zQEtRZsJl1qx+l0AAAAA0FwUEab6wJvSFADQAr7i7J+dnWo+q8Z0SxPxKmFzG/NR31Wg793NfLpu xPNymOrs+pyfGUQ8z1Bt9L1zfkZZEuoSaKm91B+adwL4Pd0IAKoEAR0AIC5PODvTvLh4l7OnaBJo IUXqdwEAAAAAAADUCUW47ulsK0ufSVCBFmeZj/YtO9OGvncDt7s05ITxHcsXdBBDPM9QBHceEV3n eYnVJ136g87ucfYI/RYAqgQBHQAgLvKUvDoshi52dqf5WkQAbSFvTS0oHxaYAAAAAAAAE1OFYKgI cKVSP6DE75zBrS4VBdXMzfH7McXzjLwiuoIkTqtRG5LVEwAqhxroAABpFkNKf3Shs82cvd3ZLobT EjSf/Q3xvK5ocSnv7N84e8Bw3AEAAAAAqAqlbpZguY/5tN1D4ecvtf5EtaXm62arBrBEMO0v/JY5 fuu4KfSPmy19ebQvOnsLTV4KCjrIk7EvhXiekYnot/X5+4vCWHNexW2oUgo7mc/WMIkuBQBVgYAO AJCGdeZTuGvhu7uz1zvbmmaBhi8CEc/riTbSfmk+Rdyws185e5xmAQAAAABIzpSw5h9y9lqLU+pq rGOscvZ5Z1eZF9cR1JuP0rrL0UJOEilF9AWhjw7T5EnJG3SQUjzPyCuiLwn9ZGWi85Egvr35ICM5 /68b8f+bms/OoLbcKsJ3kaEPAApDNCQAQDo0CfyZs+Xma/eso0mggShy4quGeF5XFHmujbSvODvX 2dedXWtspgEAAAAApGKmeQfj7zt7yrwwpfXSgsTfK4FVEaI3hu/VOm22EaHZdJTFcJ+wrkuJ9qam 0txJx4Ubc/x+GeJ5Rt507hrTYqb9l6ORBPFzzO9VfM/Z8c5eEPqkxrBNwne+wtnbnL3E2RYDfu/x 9HkAGHTwAgCAtAuhH5v3Jt6DiRs0BC1e9nL2fmcLS/guPIKL86iz65xd7uznhqMOVIM2OhRFoHIl 88PP+k1Rqo3CZeHv9zv7gbOHnN1pviwBziAAAABQBySOHeHsI5Y+3Xa/LAim+ZRqan+DuVNjyUT0 1JHoKjVIKvf4SGO5PsfvK1vl+SWfo0R0ifb9BkeotMCeA44pWieeZN7xpxcd92hnuzr7kfm08RLQ d3d2iHkRfQcb3DloiUUIBpkz6w++BNp7+ZSzK1asWs0+FkBHBncAAEjLHWGi+pghoKeCGnNx5gT7 OTvW0ovmvcgj+OKwYQD5edDZT0KfRTyHMtAmxo7mNzXeboNHWs2aYMzJBPZhZz80L7KzWQEA0G5e ShNAjeY9EnM+0ee6sio0n7o8/H2es2uYLzWSTER/LOF3kMo9DZdY/44P2n96a0XPaBbx3o+oPCtc V1GHC/Wz5WP8n9K0K3uGHJMOc/aweQF9O2fb2sao9LoxN4y1182ZNeNgRHSA9oOADgCQnt87+7X5 SNHtaI4o767djRpzsRjLI7gsongE9/AHj2Br/6aRrk8Rur+xtJssAFlWigUVjBWZwN4rsmvT6XPm ozxwvgEAKJd7SviOuTQz1GDuI+H8IqtPtHm/LA/r2JebdxKHZqG5bZ561UX7yDTm0dGYb/3vS1Up nmfkEdEXhOtblvM7ptjY4nnGZGdbm69zviGMu00pR6F5yvFWXgp+AKgIaqADAKRHNYolnj9peIEX hRpzaRgyH8G8qEV9JfMIvta6UQtwE+u2Q2RWS22oxzRekO0j3th7eniP3VajsUJjvzZkHgvvhSHD MRgAoCweoAmg5Wi9d3eYa8xq6DXovO8Na2jqozcPZcU7MvF3XEgzR0EBCZf3+bt1EM8zJPye0efv Xm7566EfnON3s/rnTRurPkL3B2g/COgAAOUwmTE3N5lo/suw+JdgXnU0ikQbiUjaUJEXbpMFm348 gptM5hHcZiaFhexu5ksXdIlJYXyQY8uNoS9npvFCwqo2Js4xL67OGGdBPiX8fybEnxNswwjTz6Z2 pG21cfz90JaLGvCsLw994XTLv7kDAAAAkM2BTg/rvVktuSatoS81nEubiCJ+lyY8fpbKHQbjyj5/ T1khjrF6BdWcnaOPXcmtfhazaAKA9kOkBgBAelTbR2mJtjC8vyeCGnPlcXAH+pM8gtueUmtGeFaU yloi4pMdGSe0EdhPBoqRqb/F4vDn/JyL3oXhM3taO8s5iCFrZqrSjEXBdI8/6mw1r9Xka8n9nB3u bMeen6tO/Q+c3ersty1+XgC6yiM0AXR8ftk0dE2vMF9bm5TdzeKYcO9Szc21ftyUuVphZlt/+1Yx Is81Rk0f451c9P7pfFTfXI7pE6Vznxuud2XH7vGGnvtGUBRAB0FABwBIz/ZhwfMcmmLcxQA15iA2 XfAI3tzZAeY3VzSv+6H5tPzrW3zNGisG2dxcOGCf+pCzs1rWptoMURrHttSczRwnlJbwk1b9pqCe zd2d7dLzM4nL2sSOKfLLoWZO+Pu1Ca9b7+w3Wf/pKvWO/Lx5UX2Fs4es2Abi1DDmmeEcAVAlZY2p UwxRB8rjM9ZO8bx3Dqu5ByJ6s9C9eqP5jFup+LSzk2nqQvQzZvQjnmfiuObxyiw3VHDdep2zG5zd Yl7o7nfe3W9N9AU51sH3NPzeKjDh187uMF+6ZlpYz2V7u5NCewNAy0FABwBIzwvCQpW0aaMj4eZq a7bYmdWYO9HZ+UateygPLdy2c/Ya82UPbgyL1c85e6Kl13xRxd+/aM6sGWevWLW6Dc+53ktK3bew pX1F0egnmd94vKmi51OlJCbajJLArDSd2WaXnuEHwjO8ZoL7t6/5CPDRUu1rAy6F0JxHPM/ekYvG uOYsWn28OcJ+o/TROtWQBIA0bGk4y0A57N/iudDI9zEievPQHHZxwj6q455r3YssjsGOE/z/GWGt NXK+2pvF6c8snhPz3DGOpXnzl80Hf4z1Xj0v9IHlA1xvL7eH+X4T9/kedfY9Z/8c1imK8ldZzuc7 e2dYW2rv5RgeAYD2g4AOAJCWbZ0dZH4DeFOa4xlIWDjN6l9fNw8SSV4bJtJ135S4pwN9rCsewUol JhH9lWEhrgWeHDnaKqDXYRE+3Zq/qT9k42+QtKm/yLFEG4+nWLmCa7+pYHWOE22KZoJzRj+bqFeG OUjs9ePlke7LIBvBatdvW/vLdADUlZRiDkDZfDbxeuRLtjEa1OzZKZdnhD/3MC+onZRwvpuJ6G0u SdRGTks85iqgYTfDMTEvw2PcF83bRzrwTg3P9wet/KxfC3rWJDq3M51dbM/es9L1bBPWEKOd4y05 vlN96VBntzXsnmoPRZm8/s7ZzeHf2XPxY/MR6frZjStWrcbpBKADULsBACAdEsz/JEwan2vUP+8l qzG3qIXXtiBsStQ940DmEdxmjunYM6XUxhLSd2WOl5w5DT53jU1ftW6I571oc+vuEsfm2RY3FWwm OGfWD9r4mhn5uras0T1dwtwKoDLuL+E7tqeZoaR5UWwxS1Gne4f9ADmyydlr2LzzpWykcJ39XGLb WWEuv5N5R5UUaE5xCbe+UUjonJfw+OoTx9PMubnCfBbCjFXh33uG53lSWBNo7fWYeSfUqktmzQpz 6MfCec0eZTw6OPS33oCELNtiHlaGsaxJgQ2/cfYvzn7m7HHzpfE2KPucs7Xh/09zf7+Y7g/QDYhA BwBIQyaeK72PIkK3oEmeATXmqqepHsH9cqJ1Nw1d2wWl66w9tbrLpoqSGUoZeJ89M3pazA9/zizx fZCNzYeWMD7sUpN7/opR2r5NtCEbBEAT+UEJ37GLkVIY0rN5xPnph81HLsaI7NbcSXWpP+rsiwnm SgvCXGwZXaAxDCdeB0lUvYx5VS60p3KePTsjktbjQ+ZLj9U5hXkWma5+dUzPO3dD6G8xMlndF44j ZyVl29hngt/XuBQz20J2bQ/0+fsav7WHt260/wxl3J6i6wN0BwR0AID4KG37IebF81fZxpRs4KHG XH3IPIIvs/YIkor4uCAs1KCdaHNyOc2Qm2PNpxBNjTYpPmXj19gTw6OsS3YwL/i+3dKJ6hqb5Ti0 t3VDmBmyuJvjj9Ts+uaM0peazgzbmOVi/oj/0/zpSfNRMReF97dKskyUclVC5JudHe3sRRZPMKoS jTU3hP59vVHPt2zKKAW0Dc0MDRmLjkk4p9Bc6q3my5YsiXxsRcNOY/xsFEc4ezDh8VOU/+kSEs4P sfoL5yOZG9ZHGs+OsjR7KWuCTXTs4TD/jdV+XzKc8QBgABDQAQDij6sfML9hrQ1KRUaRSvmZUGOu XjTNI3g88JbvBteYj2peQFP0zcucfTzxdyjrwyBRK2ttY6T6svA+VfrAT1gaB5/UIvqKmtx7jdcn Rzye7tORFqcOOjyTmdafQ9tmYY753vDnd80LyRI0lWoyE9O3CPOQl5rPuqANXaUF3rwl7TU3WDYn kQPd2Ub91rJ4oITvGDKiYyE9DxX83Gg1jlORRbmK2CL62ZHnCZCW1WHOvSTR8eeGsXeYps6N9lKu tGYHJujc7zVfPuJUq24Pa5nF23NCPAeAgUBABwCIizYrjzNfs08bnNTmfCapasxJTLurzwl+Ju7c ZBvrzGnT+jRLExmvY59rXqivM3gEQ1PQJqIicT5n6cTVNiEnLjkSqV7tTgneS9rEu8Dib7CstY2p A5V6/sIE9zqliL46HLsOZTImWVxRMav3uITHKxradL03x++rVJCc85S1QQL5fzu707yo+WT4f81F 5SwoxzgJ51s7m9ziNlwU/jyL7lQKZTgtzqSZoaR5Zd53WlUOOylEdK1/P2o4IjcJ1aH+iKULAlge 5hFraeq+59nHt2xerHFBez5lOQkBANQWoiIBAOIixyQJFJsb4vloxKwxNy8s7LRRunLABV5WY06p IpdGvF6d0+3OfuNsyxbdx5jRQIjnUITeumxKPXmA+c3M62iaUdvq985+62x9xOMuDWPmeZZ+g21l uNfzEhxbNeGnJjxv9c8TK+4D0xP0qfPCtR3JcxeFOQXX8rq3Lzaf0vUvzG94nhL+PD78/MXhWZ3c gXaUiD6b7lQaSxMfn0wzUBbn99mfV4W1/llWXbaL8xI8eyfRBRo3tz808Xd8mmbuC60hrrV2OpXK QeNGZ+cYe5sA0GEQ0AEA4sPkMh3apFdEn4SUYYsv2mQ15mKIHRKq7ja/IfMPzh7l9o26+CfVKgyK Midk2SQyQV2i3qqE33lPA5+1JyMeT0L2W6z8aKXhcH9jCrZZqY1JCfvneeH424S2W9yiZ29ZeO42 6bk+PX9LDfJw6wCfnRyeC0Wcq9b5buFP/fs51g3hvJcL6U6l8e0SvoOsiVDWPOkt4R021vzxyDC+ 3leD83135OMt4llrHCsTzyfliEcWkPGZHeZvbc+Gpr6gfa2p3HIA6CII6AAAUCaD1JhThOlBlj5i OYusOzHCtaqWqbyRHzaE4pGsc/ag+dTSADHJRD1tcs5L9B0PNKg9JoU5f4zMKBKuJdQNV3x/VRs9 pkArEf3SEs59dWi7k8M9kUNYGWL69iV8x4ae69Pz95aeayRCfWLui9hOk6zbzpzayGaTtxx+UsJ3 bEkzQ4noHaaSFzuFOeS8sAbdNLzb6rKe0/v2jMjH3I/b3zhOS3z8y4zgkLGQeH6bpUujXzd0nY8Z WX4AoIMgoAMAQJlkNebyoM0BCWFl114aRESXOHyL+Sio3xvi+UieMF+v9SvOfklzQMLxZti8gNdl tPGl2sc7DDj311gs4XpNTe6tsoXEFNGVKnh+ydcghzCJ6Zta2jTvu1R4n7L0+wcwJE3IMTRBNPal CUrhFyV8xxyaGSrgvjCHHA5r0DrWgr4g8vEO57Y3Ds3J5yU8vhzSDqGZn0UmnqdkVVh76f4qw9M0 2+ggOdI2Db9zQFhPpHRc1XUP0QUAoEsgoAMAQNl0ocac0rVf6ewO82I6bETiuZwLPms+XeBvaRJI zErrdjppRZ6/wNmOAxzjyIrH4tFIIaJf7mxGBdeyNrxvtPnV1mhtCRBdd2bpZ6w6g2aIwoE0QSms sbTlUgTRbgCjc1/k54866M3kmsRzx+VGVpeR76RU4rmeZwng2gPbNay9hs1nnFgzwTpidZhraz2R uqSZ+sQJdAUA6AoI6AAAUDZdqDH367CwWMvtftbiTtFKEs//2dmvaJKnecrIUpCaszp63YpK2MrZ oebF2SJI9FxW4/fJMRZ3c+jKCq9Hm1+x09PXiZXh/Q5jc7alFyS7AKmIy+PziY//WpoYoJTnbxbN 2Ug0Fz6qhLkJpBPPNe/T3pj2vySAx9gDy0qa7WppyimpTCEiOgB0AgR0AACoimFrZ405nfe95qPP 13Obn4HqRv+r+VrDj9Mcf2BlaBuyFaTjzg5es8RzRZ8r/a0E9C0KHGPv0D/rzJpwfbFQusqhCq8n cwpoK1cwHE14/19CMwzMS2mC0rgq8fEX0MQAY/KDyMebQZM2EgmuixMef6GRDURR+CnEc+0z7Wl+ byzV/ldWTmm8AJYiIKIDQCeYQhMAAEANFnz31fwcLzCfbrwftPCRGLrGiCruRVHWNzj7siGej0QL Zm1AH+bseYaDYwoe6tj1Tgr9SJEM73G2e/hZHpognmdkqa8XRTreReY3s6rKIqL3h6LQ2ygcbYh8 r9qIHPcUqX85TVGYuTRBaZRRB31GeC4A6oQEtcxRUUhgHC/7xS1hvnKr+RJWMeYY93AbIHCqs/mW LpPA1WFd0cX9jUnhuY2NgkduKnnPQeubSyKuMZaEcW2YRxAA2goCOgAAwMRkNeb6WZBqUbm2Z7GF iO552NnXjbTtoyFv9i+YFzxf52w7yy92wsTPZVdQ35nsbA9np5uPNtg85zH0mZUNu26llzzJ4mwc 6hjHmk+jWBWfs/ZGXv7AYCKUiWepEX0L9UcOP0oNm9JpQe+zm2hqqBCJ5fs6O9B8WYEYY7Oem085 +6EVdyZ/gFsDAe0/HG2+jFwKNDd+k9W3rFNKPmNxHRO0r7SPjV/XPGU/UTlFRY4viXRM9bkmOV4D AOSCCCcAAID+6LfGnMSrLQ0ntV4kXmpj6BqaYlSUuv1H5r3BbzYi9CE/k2yjcP4c83W0JSi/0dn0 nMdSCsjhho4zR0c83hLG8WTcShP0hVL5Uw8dmsCnEh//dTQxVMBM8yLT95095uzGMDeI5dgkpxNl Grk3fMd85h0wIJq/X5fw+OqvUzvWpkPmU9jHokrxvBc5CR8Q8XhXd7BvAEBHQEAHgLGQZyIiDsBG +o2Y07tVGy7bGlHEGRK2lGLwlzTFmCjFvTY85MH9WyNzAfTHps42Mx9hrvT/KgOg1Nj/5OwIy1/L Ups6pzS4Pa6xuILjG+hiSVhDE/TdTm+kGaAB/DDxHPJImhhKQgL2/LBmkbAtwbyMkhCZmK71wOlG LXIozhGJj392h9pyqsWP6H9JjebByuyyd6RjKUL/O1a//a8Nxr4KAESYHAIA9KJISNWKVXTQ9TQH 1Gjx0qQaczuGc1W68vXcvqfb4HeGU85EqL6nIlAODX1oM5oExkFjzIfNb7ZOC31mZ2fbh/GyyAbG oQ3fZMii0GNtdp3j7Apj4wWqQ5ub1IyHupOn1FFeJDTcad5BlTk1pEKC9ccsbqRpURYFU0ag06wc sU3znCeY77RmPZly3qBn5FzrRrruCyMf74Bwf+qE7uO8SGunuWHMOqvia9Ke9uOhrbUH9XuGBQAY BAR0AOjlSfMbFN929u9GjUqohjbUmFP0+Z86+16YtHd9M0LXr01PasJPzM/N10TXAhsBHcZCz5KE 3V16/j1oZilt1LZhM+zaiMeSGLSXUdMPqkXRXidZGnESIBZnWrx6qiPn3/9hZHWCNNRJOB/JwmBH WlpnPglNcvq+3nB2Zt7QH0rXvVvL1/X7W7xyDUJODTfV9FqHnZ0Y6R0ux40LrPie2yCoPz7i7PYw nqnsxi/DvwEACkMKdwDIkHj+izDZUa1nCegP0CxQEm2rMafoT3nyHmReBO36pp/mG1sbjnv98D/m N7FIcQzjcYj5javJwWLM6T/akrZRxpGlEY/3frobVIw2BF9CM0DNuTLBMbMMRquM6HOIi9ZmSpX+ oNVTPO9Fa9hLE6yj9G5RhKYiTz9uPmr0SbpGa+YNKUvASJh/U8vHh69FPJ7eYZ+s+TWfbz7oJAbX W/n7X4o61x6KnI0+4ewfwripfe2HGBIAYBAQ0AEgm2zc5ewrwf7b8D6G9LS5xpwWDLs6e7ezF5qv U9xlEV3zjZ2c7UC3nxCJfw8baRRhfD4R+XiKPl/dovb5XMRjLbRmOv9o/JBDmjbtHuGRaTx6PqkD DXUmS+OeYixDPIeYPMe8yPJ3DTpnOZXfEXE+konnV5mPGNXa+KesPVqFop2XJjz+5dZe53g5KseM 3n+jxSkpmHrdcFikY5XtYKH9bO0pftXZPzr7lvk97YfC/wEADAQCOgAIiTXfdfZ18xsfTDIgJRKs VVf2qbDwqjIlqTYMHgznMzXysRV5/irzdaD+yPxmTVdFdF23BPSX0f1zLWIBnsWcWTOUsSO2s9HZ LWumFZGPt3vDrl9i02+c/ZuzvzdfnoexsvlI8FlqAPXl5ATzx+nOnudsGs0LkZga3pGPNey8tWa+ JNKxdO0qjSCxSSXOHqZbtJJ3Jz7+p1vYZnrvXBTxeIrqvqkh164MeLGcNctysNgQxvNvmo+iv9nZ ozz6ABATBHQAkFiuersS0G83xHNIRyac1zFV3sKwkTDf4orcSlv+evO19VQTfQ/rbirzbZy9wfxG KIyN+oacLUj9D2NxROTjaWPnvpa1Uexo+gUNunZtJKkUhKIvtLF5sfkUyG1kjXWr3IXu7TEMgVBj vhH5eJoHbe/sFc72Yl4EkdA7Ual+H7fmOWFpPjJzwGNov0fR7BKbVDZtLV2itaTOXrMwQn+sG3Ms boBH0+ZtctaMlU3m2BLOV3t4PzGfrv1WYz8bABKAgA4A2niUR+RPjbTtkIau15jbytmrzdeV+4iz N5uPxJ7csX6whbOh0BbUQh8bOZooWp9IKxiLj0Q+3qdo0gk5qUHnqvql/+Xsy85+ZH7ztG1R2roe CSD/x7wI0LV5+wEJjitHmhOdzTPv8Fa16T14xoDXA+UjIW5x5GNuGeaPEoFeTBMD2D4Dfl7RmcPO rjHE8y4QUxAdDaXNbpNz02cjHkvtfnsD59hHRzqWSjROSXyu9zu72nz2McRzAEgCG9gAoLowP7P2 RZ9BPZgdJrSzGnTO8uxXpMueFm9TYbNwPG0IH+7s184Osm7VpdXCehfzqeQ03vzY2LQZjeeH52Yq TQEjmTNrxtQE4+lVLW0uiTixnLZmhXVTE8YsvVduDmPsUy28r5l4rg3hz5h3zusaN0Xu3wdY/dKL yvFDjodKWX9bgc/fwBujMs61uA6zCvrY3dk7zUc6ftDZ72lmGIBtne1s3rk3pvAnsWyZeXFa7yZF Q2ZZUjR/k/AtB6Ehq86pPEt3rCw1pG3vBrrnhxZ8l07EujA+7+vs5y1oKzmyxyyTdbI104n1mjCe xVhzHhzGxBQ8Efq1nCZJ2w4AySACHYDJtBZO9zPhgMhkUee3WbPE84yYNeZ60UaN6jjuZ910Yts8 LEo/FP4knfszUZTVK80L6JvRHDAK+0Y+njZH1tCsfc2Xtm/IeSqbkJyUHmrpvdB89d/NZ07QZm1X o01OsTgRZYo6r3NtzpU2WCQ6VHPPYkc7as4sR9S3hb4PUBTNr18V1mIxsj1JuDkyHGtX84JZJqLr Xbw62H3hZ8vC72gvdu+C49utA5zvuvB8rqArdG5cjp0dRHNOBQXIoXGLlrTTUZGP11QnZd3bMyMd 66KE56k1jzJR3cYjDgApQUAHgKx+JOluIBbysFca9EUNv44YNebGoss1HCUSv8Z8GmotUp/DI/M0 2hx+qfkIgR2NOp8wOodHPt7nW9xWscZvRTf8IoxddWdSsLaWCNFcVZvAXzS/Wdbluas2N18e4ThX NuBaz7b8guwyXheVcnSCY2rvamtnHzMyKcLEaH3xAtsYZa7+s12YZyubgTI+bTrA8SVGKpr8oDDe 5HVG3BDeZ2eF8zixz3FOvzdI5sB14fO/pYt0jtMiH0/ipRwxtO9zS0vaKGaZrOus2U7KF0c6zixL t6em9lUw2EM83gCQEgR0gG6zoWdBiVgDMVDaK3nFL2jJ9ezDLY2OxhoJUYr++Ftnu9EkT4/BioRR ZJVS6ZK+HcZi/8jHa2v69kmR3kPakPm6s/c6+1VDrj2LgtuhhfdV6ekVfX694fgpJIIcOeAxmuDE pvXKyTk/cw/do1KuTTy+v4EmhnHQPPob5tOky5njzc7e6uw9zv7afAr16VZs/0Oi2E5hTFod6XxV Hua8sCbSOmDpGN87L/zeIOjd+bBRRquLrIkwZ+hF/Uglg/6zJf0pdpmsL7Wgv1wX6VhHJDrHJ8Pa gDUBACQFz12AbqNFozbOtgzjwVM0CQyA0k6XlT6pCTXmYHyUQlEiz/Y0xdPtcLz56OLtDYcmGJvY zkl3tnRuc3yE40g81ya2sqnca36TpgloXjfH2Z84+1qDznsi1ptPFSqnj8cYCv7AFaGfFh0bNE9a 2YDr/Iblq8f5K7pGpUhMUaTskkTHPyf0/Q00NYwyB/iO+QwdEqNfa15g0V6Hap/L2XvzgnNtpVs/ O2G/03FVUuMt4XyzzDdPWNxI1ix4guenm3MGiaJzI/TVNWFe9khL2ublkY833II2+ZLFqQmvyP7z Ip/byGAwxjMASAYCOgALTHlf7+JsK2e/o0mgIGWI51rsqebpVRNsImR15oREdtVK3Mv85nLetPK3 cmuTj0Fkw/ERJfOdPc/am3oZBmTOrBkpHCseyvGsahxVpoShGjeTyiDE2OjRZvW/Ofu4+UhWibdN 2ZhRKlilplWK2qfCu/O31vyNpXXhXtzCaPAMdF+PseICujY1z29A/5Agq0jS5X3OF9fQNSrnAksn oM8K76SVNDOM4LSeeYD2Oba2jULLIPMozdWHSx7zVic4rtYZciSQE8HjdJdOzhlUQu3eSH1pSljL tyECWOPG78KYEUMraYMjX6wxT+/sqZHnZpPCODY9rH2e5PEGgFQgoAOAhPMXh0kNAjoUQTWNUorn qjH30QE2EXprzH3S2bHmN4wnimIatMYcQL+8IDxHRJ7DeExPcMx+RDP1zestblrDunN7ePc0TTzP 0OafItCVieUV4Vrubfg9WR/eycxVn402JBVpeWOBz+q5Pi3MkerOsPUXbX8UXaIWpI5Cv9B8/WmA DDl0j3SWHlQ4F3tbe5w1tAes4Imdw1wHusd9YV44SJa+rCTbHuZLBt3fgnb5aphj/pmzlznbzgZz bG+DI99dEY+1r/kMGzGZFsYz9UEyDwFAMoj6AoAtzKf61MbbVjQH5ESepNcnOnbTa8wB9EvRVJIA g7C4j9+ReC7htUviuSKyvuXsJ9ZM8Txb4ylNrdJRHt+S+6foJuocjs1NfT7To7EoPOtN4K1jzN2E UrxL6ML5sT5ckPDYihacTRNDQPPoqxMcVzWj25TpQIKgxHOcT7rNqRGOIQH9QGeHhLVs05FDyRec vcd81sP/Mp+RqghLW9JPYta2PzDB+W0R5n0v5pEGgJQgoAOAxgGJia8LEw8yU0C/ZDXmUmzMq8bc wZZuE7S3xpxSPm0TbFrYUBjm9gIAPF1ntmso3fmV5lMBNjnteZbacHvzzm5tmHNMMZyNxkMla1YV /Oz1DWnbDWHupg3TxT0mx8c9jZTedSOLQk/FhTQxBA5JsCbV2LKshW2lFO5/as1xnII0Y/O8AY+h PRRFFau8yptsYyky7S9uZc3bV9wQTJHMn3X2j85+asVSg7fJkW9xpOPsl+Dc1MeUBUFZt7bjsQaA VCCUAYCQ96hEw187e8y8t+VamgUmoLfGXEzaUmMOAKDpLOjgNWd1tjdw+2uFNmWVolHRJtS3Hh31 WWUdKJKuX8LTZ8xn/WkCKxt0rk1He0bHOjuuZ94vR40znZ3fx1h5gaVL455FoeM40W3k/LM88jHV x09taXtNDe+KN5vPuEYt9G4ybD7z3iD7OSoZpH1EiZcSMe929pSz5zp72JpRHma0uZSeiUudPcfZ +5w93/IFIA7TvZ7F/ATzNo39chSWA5XKGH3DqIUOAAkgAh0AsonHjs7e4OwEZ680L6oDjMVoNeZi sDcLDgCAUlhGEzwLbZqpjuNDNEXtyOq27kZTjIuinopG/Koe6v40IfQgoe0O8wJ4r8gyK/zsbps4 w4UcVY9MeI4XGpkpus4hCY55tLU3oED7wIo+f5d5UWsLulBU1gdrAkcM+HmNvdPNl8Z7u7P3mxdJ /8LZ3zZ4TpGJ6FeYLw2Rd13wIOvFZ5GqnNRmzl7o7J3mnTg2YwgCgBQTJwAAMSVMarTB8dfmowzY pISxFkrUmAMAaD+rOna92vB8zJpb+7zt61Zt+A/RFBOiqODrCn72a9aOlP8Qh1Ns/E1v/V8/AvYV Cd8nEvYP4VZ1mk8kmPtc0/I2U4kXle97r3khfUe60cAo8vr+8P79z4acs7LwnRHhOFlJPDk67mo+ An1qmFM01cFJ6wBl9Bl2dqc1xymizkxKdEw5caj840nmnUJI5w4A0TciAAAyJKJrc/IwZ3/l7LU0 CYwCNeYAALrBmR28ZkUuTDIiGuvIDPN1W3elKcZlQ5jLFyETRAFEP9mmFtjEArb65BsTnudFRnnC riKRLnZJsTOtG05005wdaD5q+G/CM8oecTGecHaTs4+bj8Ru0nv0bIvr4DRpxJzi+IbPp3Rff2aU D4rB9ETH1bgl0VylID8QxjTNg3cyItIBINIgAwAwcsKr9O1Kpb0PzQGj9A9qzAEAdIMLrFtR6Fob ZVEzUD+UZlab/e/iHk2INnrnFfysBNEhmhBycJFN7HQkEWJpou+XSPMhbkPj1pQaZ84JpjJyRZwg Xp7g3C7u0D3Qu/SF4b16upHOvQhK9S+B9VzzGWDusWY5YKR2cFrS8Dnbr8xHoD9GV6/9Gk6Otn9s 3mnjw84+EuYGO9M8ADDoAAMAMNb4sCnNACOgxhwAQAWsWLV6deRDvrKP39HYvKf5LCFdQJvJSj+5 Nz2utvdnB/PRXccYIvpEDA/w7MpZcgZNCH0iAXuvPn7v3QnPQdHyM7kVjUD36e4wziwMJpHtjgL3 cH7kc5PTYNciTeW4sL15BzX2f/LzsLPvhv78eEOvIaWDkzi7wfdX2QX+x9mjdPVGrBNUnkKCuTKT vM18mYpZNA0ADDpRAgAA6BdqzAEAtIN+611KRD/ZfKaQ3c0LzG1mnfmNMmqg1xNt7s929h5nW5kX XVbTLGOi51YCU5HNwyvN15TkWeguJ4ZnrB+UueCsCX5Hz+qRzi5PdL7XO9uNPltrThinT2mcuszZ QTmOtzDy+XW5pJj2hylfkw+NNQ+Yj0C/v+HXckwYx1Og51QR+isbeo+fDOuDDTwjjUD3aLNgWxuZ NQAgwgQJAACgH6gxBwBQLYoOibW59dKcvy8hfaU1c/ML2oU2wl5gXkTXhvW/0CTjPrdKcXxvgc9q zqc0mOfRjJ1FYma/AroiwM/q4/eucHZdgjWFkAB7Wp/nAeUyKdybRX2MO7P7nGukELKWcasgJ4pQ VnTy+oZfhzIvpHRwutqa6+Ak500y+MZ5Vqp49wAADAQvAAAA6BdqzAEAVMtNEY+lTWo2FaCpKKpk d2cvpikm5D7zkcRFkHhKWuzuoojxPGUA+imrIPHkiITnLIF2f25drdBc41KbWDzPeH+fvzedpoUa 9G059W1p7dhfzxycUiAHpzc1sE2UEnw7Z8/JsW6a3aI+vk3EY60xAIAGgoAOAAD9Qo05AIBq+UHk 4+1Ik0LD17KkZeyP8634prjSYuNs010+muN3N+/z97JU7qn4mvUn5kN6lPVS4nme7DlVpsJewS2D nKh+/Iuc7dSCd6UcnI5KePzLrXmZcFVPew9n03J8Zr8W9e8hHnEA6DoI6AAA0C/UmAMAqJZbIx/v FTRpbbmHJoCIaFP8sIKfVdTYZ2jCziKxO0VEotYBSxOds/rsdwzHj6qRE8Mdlr/0zFKaDhqEaiy/ Oti0MO40eexR1prFCY//6Ya1xxzzZYPyOGy2KXNPrGtZxVABAE0FAR0AAPqBGnMAANUTOyrrgzRp bXmAJoDIKOvPvIKflRMlabG7yw2JjvsOS7eprjIlOH5Uh1IYy+lvVs7PqT/cTvNBg5hsXmB9n7MT zJeXafpe+6kJx2bNJ5oiMO8U5k17hvvcLwta1L8HvZYnzTvifYmhAgCaCgI6AAD0AzXmAAAqZsWq 1YoijRmZJYFhBi0L0BmGrXhkGWmxu8v8RMdd6+zlCc9bQs0J3L7SGXJ2m+UXz8Wh5jNmVAVjHBRh M/ORyh929hVnxzT8ejQ2H53w+JdZ/aP0FXH+pjAmTS9wvm0YSwa5Bo3jEs5vdPZl8+n7AQAaCQI6 AABUBTXmAADy8+XIxzuKJgXoFEUjyySGXUjzdY4p1r8Q+kiB4ytd8AEJz3+JUcO1LCQwne5secHP y7lnZcXXsA+3EQqiCOUdnP2xs5e04HqGLV05BTnwHlLja5d4/lZnx1n+6POMnVvQBwa5Bonn33P2 D87+ztnNDBEA0FQQ0AEAAAAAmsPyyMeTuDCFZgXoDIosO7TgZ5XKc4gm7BS79/l7q0LfKsJNzk5M /N6cza1MiiIVr3W2qODn1X9OoRlzsz1NUEsmteQ63p14XK7j+kNp25WO/wPOXuxs84LHacNcqeg1 KG37fzm7wNnXnf3Gqs0sAgAwEAjoAAAAAAANYcWq1fLoj12X8FhaFqBTKMrzjIKf1aY3pR+6Q7+C 6OcH/J7zLF20o1BKcUT0NOzv7DHzUaVFUcRuXoFldYJrmd+wtt+F7gcJ0TN2ZMLjf7pG1yqhXA4D X3D2QWcvMh+JXpTjWnD/i17Dw85+5Oz7zp7gMQKApoOADgAAVUGNOQCAYpwc+XhLGJMBOsfZzq4r +NkrrT0RdjA2M81nHeiHqyJ8n1LmIqI3B40B55ivcTsIe1saMbwIL23YPaA/Q2qusPiOuxkLw3um DiiDihzGXufsuTZ4dPzchq+tploxpyg5Qv3e2Z3OHuDxAYA2gIAOAABVQY05AIBiXJXgmNQ2BugW 2uQ8ouBntal6PE3YaiSOXp/j92+J1CfLENGHuL0DI9HrbvMC2CDMs8Hqni+OfF0a25pU1ua1dEUo Ya7w8oTHv8zq4ZC3ztmtzjaNeD6HN/i+Hz5gW8ohYX1NrmU+jzEADAICOgAA9Mv6Husi1JgDgLqw xuJvGlPbGJrIQppgIBT1Oa/gZ5W5YiZN2EokHlzqbFafv69yAGsjfXcmoq9KeH0qQ3ACt7lw3zjd 2b05+sdYqO798IDHuCXBNe7XkHsxxfrPEAEwCPclWHdkyGnlkJpc54cjH++DDb7n5wzwjpjmbAdn z2nTQzBn1oxJzmY7G3K2v7MpDA0A3QABHQAA+kEbrNc6+575NH13hJ8NslnWxRpzG3oMmtkPAOrC uQmOKVGBVO4A3WLYikf8KkKZVO7tIhPP8whzn498DponK1PVdQmvUw4gX6X/5kK1zhV1vijCsSSe nxfhOD9JcJ2nN+R+7EeXhBI51dI5Nmn9UQcx8trIx5NzQBPLLOicB3GQmu5sjvk68pNb0v+Hwvvv ttBfn94TlaDO0ADQfhDQAdpDig3vl9KsudkjwTHrsrGjRZO8aD/g7G/MizfXOPu1FRPSu1RjTu3z O2e/cPZj89ES63lcoj8ns8PiZn9rVvpFgCIo5WkKceFWQ1CoA0/QBFAi7yj4OW2wfobmaw1ZWu48 4rmiElPUr1amlYMtbTr3BeF6cRwbnxnmnQ1utMGjzkUs8dzC2ipFv5jRgPvyWbomlIj2M96Y8Pif rsk1nhH5mIsaeK8HLeuld6r2+o6y4gL6cE3aYmp4/y0f5f2nf982Z9YM5hAALQcBHaA9bJ7gmHNp 1txMb8gxi3CDeS9/CTZXOvsnZ2c6+6Kznzl7vED/6kKNOYkgN4f2+qizvw2GOBKPIRvFI9ia4/GN sxIU5ZgEx9RmgKIPEdGrZQ1NACWypRUXKpVGf3+asNFoPl40LfdpCc+rjJrout7HjBImY/ULpbp/ 0OKlCo8pnmfvyhTOhB+r+b2ZbWn2avag28M43JRwPNZcog5lYWJnVFlgzYpCjzG2SGvaydlBzp4q eIwHI15T0YyHQ2F+MNH7750MDQDtBgEdoD2kqs9MbcP8E842L2S1kaXIaW1WaJPth87ODwuN/7T8 onDba8zJi1nR5orO+YKzK5z9u7NvOnuywf18uCbnMaFHsDUjqghnJSjKSktTk1DjHSI6QLuYYRsz tZwTLCsrM6hA9jUjireJ6J5JINUGd5EouSMtvbNPJqIvTvw9y8Ockn68UThXv1gS8bgHWFzxPONL CY5ZFzFvNDQ3uzDRsQ+k+0ehzc7RxyQ89mU1WHusTvC+ubAhayqd49UR3yOnW/HShQ9FvK5ZBdrh nDAv6IePMOQBtBsEdID2sEui4x5B0+bitQmOWec6bBKBVQvrirAwUOrftS25tl6KCv3akNZmnCL2 7zG/EZU5ITS5DjoewfFgo5Z2HpSPJjouInp7oD5f99BzOzO8YzOhXO/uLFPLwmCxmGXN2SDuOtrU 3j/MTzWPKiqQXhfm/2Wg/nuy+ejllCywjdHokzraN/oRztcXWMvsbT56NQWXJTru9TXtB8dbOufb 4xgio9C0THt5kNPUvITt9qYaXONpLb2ufsaWWZGOpT3C/xjg83dGvrZ+y3JkpWzyzJFnGQC0GgR0 gPbw3kTHXWLUEu4XLbAXJDjugprfA22g/MbZvzn7P5ZPXG1zjTltKv3S2XfMezK3qeY5HsHx2DfR cRHmn8nmLb42jS9HJjo2Ino72I8m6ASZMHpOmHMoU9DlFlcoZ7xoJpprD5kXzSWO3hhhzXKYle8M qujlvUv4Hs0xr7XuOB+pf5xu4wvnGlMedvbfzn5g3oHiF2Hdt26cY0tEmWY+Y07KeVCKNO51LGkz 2+JmBRjJXMPpLhYHt/jarkn0zFmYt1S9jl2TYG11udV732tm5LHl6AHnCI9Evr45E/z/JCteygYA Wg4COkA7KJpeul8+TRP3xV4Jj/2hml+7NlUUYT3s7OeWLwq9rTXm1Ca/Nu9csK5lfR2P4Hh8NtFx X8GQnJTta3Y+igJMtZGViWJNd6bT+DEUTON6E0S+VZGOs9DaLWp22WFoUujPEs0zYXRhheeDiF6P PpEJ5r3ZB5ZHXC9KxF5T0fVJiJ0WcXwcC839lbHhq9YMZ98i+wdyuPl+6B/jpfBfG+b+F5sXGE4N pihNlfL6hY1e51a1kncrqa+kSiutZ+b4Gq1Jbyvhe67u2BieKlX/RS2en+i9kjJT5YU1uMYrErxn bq7pekr99PqIx9OadHjAY6yN3P4XjTGuTQnzpbutWCkbcaIBQKtBQAdoB8cmPr424k6gmcclZS0y C5O5unuDK527Urj/2Hz6wzz9q6015tr6nsUjOA7akE2VgvGDDMu5+lhedqnZ9aXeyNIG8h3WPBFB Y8eQ+WwgGj+WB9MGtDZK6r6xuSzisfZq8fPd5gwTY5GlWr479OeFNTq3TESH9HOITCjPUvVrrJMD ZyaYp+gX2iheWfG1S5CVMLu4pP6s9vy+NT8ytzdLReZwM9E8VP1JIsaXnZ3r7FvOfhTWe9929gVn F4Q+0eswrOjNt1h5WQput3ROFUtCm1UpKpclnpvVM/I+JaclbMdbrb0ieuoMWFXvP2rsenmCPnFJ zZ6tbL8r5h5LrDXpsshtf214B2ZzpyzzyvIBr/8CpqQA7QYBHaD5pE7j1btw/KqRzn0sUtYiy7jN 6r9x81vzEeirc36ujTXm9I7dybzQtmnL+jsewXEWq1cmPD4pGJ/9rqzz8WKQciMr23h4MDyTdWdS z9gx1qZItrHZlXnNhQwDrWBkquW6OpVp83v/jt+nIra/bcyUkZlEhHOCScTdYBujyjOhPEvVn7o/ aE51Xk3aOKuLfkBJ35dFpP8y3JemvDum2saa90WyVMgpWtGEEjKUvn1NTx983Hxk+jfNRy3/PqwP trG4wke//eGNCY+vNrvWyhdDJ4Ux4LaSv7cr2UROsLQOaNlcs63vw5QZsJZY9Y5L9yVYW9Xp2ZoU ziVmNtMjLf9e4FjEfo/MDe/AbO60KMIxD1ixavVaA4BWM2nDhg20AkADmTNrhiY7x1s54vlItHly geVL091WtIi+0NKm0B/JGc4+WdP2n+zs9c4+7uwlORcGSvP3Viu/nuJYxPD01+T8c87+f/Pp3NeP smhp6ov4nMgbDlp8v8/8RpyihV8ZaVGzaU2flRNKGL+1ibmPVZdmtU583+I6Oa1yi+VdK5wDlPls joai/k6t4bOlMfUQ8045/QpJ2uhZVtN+G3ucmGeDp1TsBwlLW4a/PzTKe25GeD/GQgLaTR2Yb55t 9Yo07+e9flAL2j7rzyrdkWUf0Rxlx/D3l1p6J9o6ULd5etXrsaxNznJ2S43eh5NC31QE4HER+uYv wzv/n5w9Ok77vyX8+YWK+8hXS+gHZb1L9a68suLxRWsJReHe17LxTG37xZLHjGytW6fxIlZbPlhC P5TD1FUVrWtTjCt6f7yjwr6QQjyPPU8oo28NwokrVq0+zwCg9SCgAzSMObNmaBPnYMu3OZyKM8Ik 6XZrrgg4yGTuKMu/sa12Wm8bPfc3CVbEA1WODBdbvcQxXcerzQvoL7P8mU7qEtkSK02e7rW8zv/Z fHSGxOEnQ7s819kfO/t6Q5+fIfOeu3WmjqKKxvBLrLwNG204vNHaLy6V8TyPZG+3aK4kje0EArrG YUVJlbHhqk3ka2owhhURzjMkDJxc076riKUbIx9TkYGrE90DOT+dPmJ80xi0pz1zgzD2hlhbhNqx 2rUqh9lY59+U85zubA9nu4c5TleE8X7HyVMaMF+tcm6qNfGXw/evLvm7Z4Tx972R55e636pvLued fxnn/k8K89unatAHJOI/VsL36L2juusp5oFqy2NrNu5rDPhoBX07ZptuGcb40618Z5vR+s8N5sX0 kX3oobBn8Ig1R2hXGZHLe/Y/sn2uSYnarmxHhFRrK82RX1LBc6Vx8juRryeV4/4vrZ7ZlhDPAToE AjpAzZkza0a2IFakw59ZfTdyJKZfYO3zTs4WXLubjzqZHyzvJE414eS1/5swuVSq88fD5HXHcDxF tjynwEJDi4gvmfdQv9+q3dzSub/GvIB+oBUrFVL1Jl1sse2psAj+XljoaYG0hbPnm3eG0cbUsdY8 Eb32HsFWnzSj2Tii+1zVZljKjb46ozH21kQL76c3CtziuXQnpgkE9NTXXae+FcOpsM4CegohIPYG Vz/OCyPH4xTvD81Dz7Z2OXTKgeJrVt807f32j7o+W/s6O7zm6yvmU8XeC5+26rM1ZIL6XWEd8FCk 8Ul9d2dn+zl7u6UVAjeENdHfh3X++ob0gSHzKeXX2UYxT0y2jc7rsedAMQIKdG/fafV2mKpjFPXs 8DzovrfN8WlpmN/Uff2md70CBrT/86vw7O3gbDdn21q6cnZlZsZMubZSNqwrSprD6jlJ4WiWykG3 jKx9ufsd4jlAt0BAB6ghc2bNaMLiaSy0MXu01SMiLcZibNGAGxNqA3kPqy64NkH/zbxg+mhYaMi2 DIu+PzWfbu/5Nlh9tSwzQFVixv9y9gnzG/RFN061OD/Myo2uTxnltT70AwkGEkM2C4uMrcKCss5p Mcejth7BVo/N3inh2a5DpEPvGH2m1cPhJnXbH1vSe1SbHt8os/5ZHwK6WbkiejZua1N1RQn9anZ4 pmKUeSgrFWtRYpcfyIiRoUP34eo++thIJ4VUDlhtcRSqKh11bOrknJI5w6pNT7JmOyWUSZ1LXEzE TGeXWf3EtMXhz+GecTCLOB05DuwT/i5H+v0rGhPk/K1U1yoP80CD7v9HwlryvrAGk3guQW/n0Ddm hPVYzPn158Oa7i7rX9BLlT2grHnfh81H5lYhpqeIouV9WhztaUhAvzv8e7swx35bmHNukfC7y5rL p1xbpZ7DpiwJsXfC8y4rq0i/IJ4DdBAEdICaMWfWDC3o7m3BpTQ9bXCMOkcSTVX3Wumszg2T7fHQ wl4pnD5gXkiXwDpI5E4mZpR5D7YJE/+/sY21IZuwGCqzxlz24p00yjPTtBpztfQItmrFc93XvWxw 55uyqNLhJvYzrLSM2rg5zqrZTNPmloQGCciPpBTU+xTQq9x0iF3iJXuuhsxvisfauNK4u5vV25FE 0d1yvssi6cSUYJMHnCcUrWWft3boaBu/Kdu8yXVG1cfrUh4lE/qWjZjnDfX8e+EYz5Uctc6v+Nmq oxNbk9Zxh1o7staov9ah9FlTecK8I9c/Ovu2+VJUTUFlGR4J70+9K7cIc8WhsNbWnHG7MFakHEO1 ln1wxBg6s2XjUhXOiKkcDGnjwebrGZuEZ/DVYa55YMJnTfPjd4d5R2pSOyjHdEguY18ipXiecY5V n1VGIJ4DdBQEdICaMWfWjKYuBLLa3lpUrw1/14TtT5z9Z8OuJUYK70w81yReKUUfzTHJVSp3CQTv DIvsgSd6Vp6g+GJnHwwT9GkRFxHUmKsntfMItmrF8yan221i9pCYUcip2vTpaH+32I7qGJNDQBf6 5Zsr7JeZY8GtYVybKLNIVotY78LUKWpTpRuMul4zX6ZlXRhvFeGjKDqVlVEknTb/N7fBhPR+yvBk YuRnC8xTR9v0LWuckSPH58xvRK6u+X3+jFW7Qah+cJX5TElrrJlkm8Xvt3pstjaRpWHevaZF19RP qQkYm/9x9r/N10F/qiXXNCvMe98RxozNuc2NWoe1Jegk77pi1waOvQqqkHPzKWH+moq14bm+v6Q9 kDIyBfU6Z/c7h82cyg8vYY1chnieXVPVpQP3duv5rpXCA4DsZYaADlAfQur2xxp22hpEngwTunvM p3SWcKxNl83CJFkL03UNuqbTI0w2V4dNBh3r0ZyfnRTaTfX7lDoxhhBdhkigVPRvMh99/kKLW19O UGOunqgu4onh75PDc79puP9l1j6tWjwfsvpEDQ5C7PrIqTjBmlXmRBsgp7iFd5SJd04BPRvzykzn 3g8SaXoF2zLrVjYt44fE6/W20TlRUXR7hnFHG2QHhnnDlEj3RZlrfhD+PWjqYL3LDh7lvV3FIrQ3 xW6dNsGqdHIps/RC6mfkDeajlBBIi1NmHdYqQEgvNn9pimNvkbnRsebLOuxjcVO6d5VNS1q3tmXd lZdtGvgsqk8cFvYMXpxwf0D97v8J31PW++RSKzeThOaxY5VVmV/ie62KdVSMPdqi16osoavdOp4R HqCjIKAD1Ig5s2bUwbMuD+vDBF4C31VhEaNa34/YMzd5NdA83qDrGjRFkDzzf2S+nvatBY8hIVIb 1oo6iyFGK6rorIRtpo1LbeBn6ee3TDyJpcZcfZCDx5nhOd/a2U7mveP15/SwaE5NWd7P4y2g17fo daRn6y01Pr9Bs4Sor/amw97E0qUU7GWeW3gPR5ovFPlYHUX0qvp3m6IrdzcvALzVvKheJwFgPIec DTU4tzqUGtJc78YKvrctopgGw6OsWQ5VdZ1nHmHtFEnHm0sognAut39U5Jh6WQf6hOZGyljxl+F9 ugm3fiAOKOm9OmQI6E1B62Q5Umov6pUJn7G1waaWfH0Sri/v2HzhsArWUepHd5e8jtWa8R2hXxkC OkB3mUITAEBBJDzI41BRCkpT/lN7dkq3Ddau9H/98rCzb1hx8VxI3PmZs2+Z3xAfNAp9x8TXrDSy 73L2KmfPSfxdmjQvsmd6oLa9xtzcnk2CutU/U9aMD4ZFTZZa+I/M1ztTlM/zzTtUpPA2/4NHcMVt ML1lY9iCsPlQ1/H7/QN8Vs5cSvkoAV4p/iQ27m4+fee2iefGn3B2UIXtpvupet9lR0vUiTZGV95l PtpG4+Bfhr68aQ3Oa6JsFtdZtcKV5hI3hvlVVWNdFZk02iScf8xI0x4DzSubVL4lFivDOxknjGeO 20prXkeH3ZRzoy+H9cR2DZvTZ04OdRoLp/MYwQiyUo9blPBdVTjAKCJcgQPXW/udlBWUc3ZF84UN YZx+sI/fWxfeYfr75LC+z9s3jrSxo/0BoGMgoAPUiycaNAlWmvaLnf2Ds99au6IvB6mbpMmaHAu+ HeE8lBpfArqiyupe70obLkq/+1wrN213xsIRf7YZCelVpysfa1xQn/1VMIkj3zMf6Smv820jL2qf 4RHcQDRWPBX+zJwPplT0/IyGakG2zQHq96FPKrPHsLPfhfbeLYyzb3O2r6WL4J1bk+dU2QW6Fi0h 0fA0a69Tn67rC+azgLzb/EZelWNJP+PzDTV5Jt5Zwfu0irSfeicfZc0pWzDe/sWxhtgZa1w81boj lI7F6jAGyCFcDkjvt+45Zpxh9SttUfY69t/NZ1PbyuofhT7SEWpZB/vs9RXMa+6zjYLaoOVtMtaH 9aAcfJ/oWRdqHbZFWJNM7vn9hxp6v75vPr36txIdf33Ps1wF6hsKevl0S5/FumRt0pinzINjZaJb G9b3twfT+kjBHXLo1X5qP4E+XczIAwATLd5J4Q5QL+bMmqHJZd1TySlFuzy1/8682Ly+ZbdhkPTA EhC/Y16geHTA89Di6XlhofZyG2wzfCdLv2lKeuByKavG3CBsFvqu6qu+xnxWgBjUzSNYff+xPn9X Ey8JuXeG50UOSIqA1KatovW3t3o4ONY5RWCRMhsamxVh93HztZ1HZkzRglrRoO8N74Akm6crVq2O ImoWTOE+EmXnaHu0hDZB5MTTFVFgd2efCePttIrOod8sKVXVMhxrvlXmd5UtnrchwjirXd3FlL2x aXNN61hMCePpghqNU7GRIKiUyrcYThRCAsunzGfQmlrTcxxrTqP53L01Occyy2oNWnZvPCQYqkTZ leb3u8Z7f84I79m353i363iPhmPfGew35oX0KWE9KMFPouwu5h073mP1c6AvMramEJnXB1Mmpn+u +BrlWPG1PtZXGyqYgxZBDlafrNl7YrQ1rNb2dzj7ivlALz1T68KzI4eXv7CJ96PGzVRGCneAbi8M AKBeqJ5MShFSC68bwt8VMZxXrF8fzk9e+m2LPM/Qok8RvkWiW9Qev7bBxfOMbGGl404ueAxNBMuI OFoTFnmXWHfTA5fJfla9F/BEPBkWN1PDYkUp/gdJ31ZXj+A11n86YnlFfyuMoTeEZ3xyeHYUsalI 6DqkYH6kxv3qAsu/8fKA+YjrW+zZ4nk21mqz44CwKN8qwXmvqlk76r2g6PvjrX3RnF0TzjPucvZv 5jfvNI8sc1Mub5T/D2rUV8qibPF8aXgOmp55QeLEldaeWtVVbZrrGT3bmp+FoAzWhvfHWaHNVArr FZZPIKsbmoN8PowLdxmi+Uh+GewJq5+APtGc5r6CexfZvtCw+bTIWfmzIntEFs6hzHmX5hzzLd6+ Wa9onmec1Lp0WTDtsb/BfHmzsdpQop72d35kPvBC9+H2sBZZbxsj0HVdLzO/PzgtrB3bMLaebN6J K3bpAY1tX6rBNd40xvoqyzagOdnjYZ9E93qzMOZsEdb/dRHU1Z7vtno6242M+FfbKgPiReYda3r3 YlVe87vhM2rr14fna+TYdQHvRQAYcxFPBDpA/Zgza8bUsFgvMqFcFSbvw2FxfGdYCI63eaZJmupV ydNVHq7jpaR6NExK/j5MRtrMUJiE5VmUKQr1Qmd/ZYNH+ui+qHa0PI3fbPkF9KrSdU4KC9o2RWzU scZc3Wqhj4c2v9/l7APO9ii4MKx77eJ+oj80PnzD2UfCRsm6Ef+vKOhTQ3/bucIFtMaOg2rcn9Qu qs/Z7+aeFtU/Mb+Zda2N7filMfZ/h/F75xTP7IpVq6M8s5Ei0Ec+o1+05js/dVU47+VFzv7JfPaP MhxxNO88tECb58nckZIyMvRk41aZ4nkbajeqzd5kzS83kdXjfDysox4P7yEJLdOCbWbFHWUnQtFj Ek4JnYrXLyWoK2J5vtU3XW+2JyBbwf3v675qfq4o3+dZPUQsOb2cm+P9qr2L5ZH6Q9bP+3EcqTK9 c4yI5lQlDLQ2PCL0q2w/Se+CO8L3Kejgv210x95eVAbtdy197mZE2l9R9qW/ruE+gfrnp8La/tdh /X9H2DN4xDbuw2rduVfYJ3lumBNMasi4U4c+9GHzmfxOHee8ta8q8VzR9LvZRoeZC6xP4ZwIdIAO TxIR0AHqy5xZMzThUpTpgeHPkQyb9xZWRPiaRAvjqWFSok2C2WFyJ6/cm817TXaBmT2bJCOR97Ci qFSP6s4wEY7tuagNNUVDzrGNnuE2xkJDi7FvW37P6RSMt4hvCiPTXNbpmpokoAuJOafZ6F6/49Ek j+Dxyj9sCGOEvO6/a2M7NWnxd07oa1tUdB07Wf0j1PRuUtRGPyK6hArVPpc4/mMbf3Nll2Bv7/lZ jOiWI92iO5qYlUBA7+3DF9pgkZ4j27eMDSAiKzciMU6Od2+0tGnctfF0tA2WGrzf9Ksjo+SsZ05W 9PlcFd5LbRPPy7yulLQl6jyrx3lXWK/dHf69LsyFVJtzz/Du14auNng3idQPNN/4hhFRVQZTbGOd 1dlh3R4zMrbfMVLzjHvMR+Kt4bbkRs/fceHdVJV4lT27VxW8h9n+0fTw71j9IRP69ug5toVxrQ7v G60LDrf+skRov0TlCH9Y4rlrP0nOCK8O36nI5Aesndkci46hbwjPXp5xsymOsxLEX2B+T+/WMJdd G56r7P3xQmcHm9/jeXGYB21S4jlmASNNVYk3CeuRDeOMYXIK0t76T4o8+wjoAN0FAR0AoKEkFFBi L2aLZlOoEmrMxUfe1IrqeL/5bBfjkdsjuAF9Xhsk/xEWp7ePs7jT4k/ihxxn5KDzQPj56hELwGzz KsscEmvDtklRi1lN3IkyhXzV/MbykgE3BXrbfU7Pz+eP8fu3hAX6LW7BHbUflzD+qz8pi0ieWo5y qtMGrRzJHg8/UwS0NqQl5G5ucSMsNU4rqgOB6Nn99DPhHTY90fvxfeYj2DZEeoY/YRuF0t4ouVtt 4tqjvWNvr8OnxsPR0tAuDu+WGOff7zWWJZ5LFHhHC56HIWtHrfNHwzxN1zJs3vlYc8gnQr/YJPTb 3UJfVSaHV4V3epHsEUXTD0P6eeHm4c99en6ujG875jjOLT3z/nvC/HCiLHNQjEyEPr2ksTubz/yQ Zzf6c9cLz0szyJwNxnOGSJU1oGo0j/2TMJc7JOyfpBTRs3a83eqb5a82IKADdBcEdACAhtIQAT0j RlRjGfTjxXyC1aPG3HlNm3OY96ZWLa2/smdHdkjU0OZgWzZ+s803RUNog1QC+s/DInV1CYtUDRDZ Zm0mJonRnFmyTfcme52PtlH2UKp2rnoBXeL4r3Z9pz0z/WQval9tSP7GfBrKX4T+9FDo81ND/1da wn3NC0WKvii6GaSx9EuGQDTRWPv/hXdVrI6StfvFxuZz3ntRlnjexHnBaO3VlhJAciSSA5UcvL7V x3glwVyR6Cq9JNHg+dafiI7wBpB+Pr97WLcdF2ktm2WM07rwLsMJECDPGi/Z+q4m6N0vBysFHrzG 2XYWLyNGNp/X2INo3rD1PwBUuEhFQAcAaCYNE9Az6iqkU2MOABqzgK5o/M9qOWYbyOvD+CbHF6XT 16aMnEQUFfeUbYywVAS6hHOlzFOE5UGWL8JycRhPrzfE235R28p558+tmHire/lN8ylkf0G7F6aI w10RmpaRZjTylOWoO3pefhLmlV8z72TUDxovtVGu0gjvDnPmkc5GCG8A1TIlzGtGllYbjazUm4U1 IRHQANDvOPNaZ6eYT+s+Nefns/2oLHOJxp+2Ox60fv0PANWBgA4A0FAaKqBnSIg51qqNMqLGHAA0 cgFdg/Ff458i0ncIY57Gvt9N8JktzEehq0zAm82LfiNF9CwThcSnO625GRFqtd4L75Ks3MNoPBTa 22jzaAxZOWnI2yCea054vZVXLzolqm2uqK5/NB/l9UTOz0swV8rWNznb1dmPzQvljIcAAADdQuut aWFuMHJv6A/L0p6/46TT4vU/AFQHAjoAQENpuIDeuyigxhwAsIDuxvgvMVdpGJ8X/v1Q+JMdCWgT EoTvLeF72iCeK8r6thbd+4fNR32dzjwTAID5OwAAADSbKTQBAABUiFJPKh35W4wacwAAbUeeu487 u5umgBavr68v4XvaIp7/pKTv0nxwpKCtueGDEY7dm8FhfRjjnuRRAAAAAAAAaP4CHwAAoA5I3F4Z 7DyjxhwAAAA0i0ssfSryA6z54nmWqlzldF4U8bhZeR6VgnjAyG4BAAAAAAAABUFABwCAuiJBXRuf w+Hfy2gSAAAAqClDlr4czYnmM/c0HWWjUNT2Pc5eYF5QHwSV6DnGmu9YAAAAAAAAADUBAR0AAAAA AACgOFOdLU/8HUpDfn6L2kzpzpXqfEOEY/3K2S7BxK3mnTDJRgQAAAAAAACFQEAHAAAAAAAAKM7Z JXyHIqw3tKS9FHGu8jzPtcGjz8UCGz36Xyndz3R2pT27BjoAAAAAAADAuAtXAAAAAAAAAMjPbGcL E3/HPGtPNPUkZ1s5+xNnu4Z/p0L16Jc4u9fZ98O9AgAAAAAAAJgQBHQAAAAAAACA/Ej8vTrxd6i+ 9zUtaCeZMuBt7+xgZ+9ytkOJ5zDX2W3mhfSZdF0AAAAAAAAYD1K4AwAAAAAAAOTnEPNRzilpeur2 IWePO3vKfOT5HGdvdnagVbMfISFdEelnmE+9v4FuDAAAAAAAACNBQAcAAAAAAADIhyKqL0r8HYo+ X9ngNvpfzs41X3/8MWcznO3kbDurfi9ikbOTnO1j7UmPDwAAAAAAAJFAQAcAAAAAAADIR1nR501l qrOvhb/vEv7MUrnXBd0/Cft7W7MdFQAAAAAAACAy1EAHAIC2oo3b+c7OMZ+es9e+Gv5vBs0EAAAA OSH6fGLO7vn7JsEm1fRcVRt9Nt0aAAAAAAAAeheyAAAAbUKiuERzRRRd7mzhKL+zIPzfg+F3EdIB AACgX/ay9NHnH25w+8weY/5VZxDRAQAAAAAA4A8goAMAQJsYMi+K59m0XRg+M0TzAQAAQB8sKuE7 rm1w+1wY+XiKxl8c7LqE542IDgAAAAAAAE+DgA4AAG3hBGfLB/j88nAMAAAAgLFQiZgFib/jDGdr G9o+M53NHfAYEsoPcDbNfNr3g5ydHOyg8LNNzdcuP9HZqojnj4gOAAAAAAAACOgAANAKVM98SYTj 6Bj705wAAAAwBoeX8B1LG9w+pw3wWYnhEsYllN/kbM04vysHA9WIP8/ZbubF9FjR6Vebd5QAAAAA AACAjoKADgAATUeRTpdHPN6NzqbQrAAAADAKHyzhO+5qaNto/lSk9rkcBhRtLjG8SOT9BvNiuqLT Fbk+aES66tvfaj7SHQAAAAAAADoIAjoAADSdyxIc80M0KwAAAIxAUclzE3+HxOSmpm/fr8BnFHX+ Vhs/2jwPilxXRPoZAx5HIvpn6PIAAAAAAADdBAEdAACajGpUptjIXmREoQMAAMAz2beE7/hyg9vn 9Jy/L/FcUecbIp+HjneW+bTug6Boekr7AAAAAAAAdBAEdAAAaDILEh57P5oXAAAAeiij/vkPG9o2 U3LOyxQhfl7ic1Jad6WGHySl+9cMp0oAAAAAAIDOgYAOAABNZlHCYx9L8wIAAEAPJ5XwHfc3tG12 z/G7ErTPLum8lBp+HysuoiuVO6V9AAAAAAAAOgYCOgAANJWpiY8/nyYGAACAgKKQZyX+jussfjrz ssiTuefQkq9zUBFdDpszeAQAAAAAAAC6AwI6AAA0lc0TH38WTQwAAACBHUr4jhsa3D5Dff6enARW VnB+g4roH+MRAAAAAAAA6A4I6AAAAAAAAADjs08J37Gswe2zsM/fe1+F5ygR/SUDXB9R6AAAAAAA AB0BAR0AAAAAAABgfGaX8B0PdaAdb6n4+1c7m1fws0fxGAAAAAAAAHQDBHQAAGgqjyQ+/nU0MQAA AAT2K+E77mxo2/Qbma306WtrcL7DzpYW+NwSZ1N4FAAAAAAAANoPAjoAADQVbcDmqWO5IVi/fJMm BgAAgMBMmmBg6pSi/t0FP7cftxEAAAAAAKD9IKADAECT+fw4/7fOfK3L/3F2j7O7zQvuvzEfvT5R BNRVNC8AAAAEFpTwHatb3oa31Ohc1NaLC3zudB4FAAAAAACA9kP6MQAAaDIXOFs04mfrzQvkEstv c3a7s986e9zZZGfbOtvN2d7O9jSfdnTTUY59C80LAAAAEI2VNTufjzpbmPMzcqTQPspabicAAAAA AEB7QUAHAIAmc5/5WuVzw7+fcvar8LPvOvuxs7ucPWpeWJ/kbDPzaVj/yNlQMInp08L/ixONjVEA AACANqModNVCz5tdQGncb6L5AAAAAAAA2gsCOgAANJ0jnD1oXjxXxPmlzi4Lf39qxO+qBvoT5kV1 2Q+d3ezsaGcHOtvKfOT6BTQrAAAAlMiqDlzjfGfDNTunMyy/gH64IaADAAAAAAC0GmqgAwBA01H0 kDZk73J2obMvOPuFPVs8H41fO7vE2efMb4Q+5uxQI/ocAAAAnsndzn5n3hFvfYLjL2tw2zzR5+/N r+G5317gMyfxOAAAAAAAALQbItABAKANXGE+nbuit1TvPM/GtjZ9v+5sG2f/r9WvPicAAABUz6ec 7ersBcF2craFbSz/0mXW9Pl7s5zNrtlcS9mJ8qZx13VQBx0AAAAAAKDFIKADAEBbuN58ZpUiUWES 0c93to5mBAAAgFFQhpttzQvAr3D2GvPlX+SAN5nmseucze3j95Qt6GDzwnVdUCaivGncdzDvvAkA AAAAAAAtBAEdAKChrFi1mkZ4NoOkVEU8BwAAgLFQaZhfB/svZz919i5nr3b2PKM82pesPwFdv3O8 s/PqNK0u8Jl9DAEdAAAAAACgtSCgAwAAAAAAAPSPvBivdvaoeeH8tc62s26ncx/O8btLwp91EdEf KvCZ2TmvGQAAAAAAABoEAjoAAAAAAABAPhSRrvIx053NNJ/WfeoAx5vZ8Pa43dkq8/XB+yET0VVC p+p07kW+fz8eAQAAAAAAgPayCU0AAAAAAAAAkBuJ6N83H4n8WxtMCF7Q8LbQtZ+Z8zMS0S+1ekTu L875+zPp/gAAAAAAAO0FAR0AAAAAAACgGErnLhH9DvOCepe5oMBn5DhwrTUv/f0Cuj4AAAAAAEB7 QUAHAAAAAAAAKM7PnK109viAx2l6DfW1zuYV+NxcZ8dXfO73040BAAAAAAAgAwEdAAAAAAAAoDgP OPuVszUDHmd6C9pi2NnSAp+ruqb4D+jGAAAAAAAAkIGADgAAAAAAAFAcRV4/7OwJG6wO+tSWtMc7 nK3K+Zlb6EYAAAAAAABQFxDQAQAAAAAAAAZnw4Cf36cl7bA2XEseEf0Cug8AAAAAAADUBQR0AAAA AAAAgOJMcbals81ssDrmr2xRmyidvUT0ftK5721edAcAAAAAAACoBQjoAAAAAAAAAMWZ4WwnGzwF +5+1rF0kor/F2Txn143y/4udTXO2sgbn+kq6MQAAAAAAAGRMoQkAAAAAAAAACqNI6z1tcAF9rvkI 9g0ta59hZweF9tk8/OwRq1fU+Y50YwAAAAAAAMhAQAcAAAAAAAAoxlbmhe+9zKdwHxQJufe1tK3W BKsjM3P+/nV0fQAAAAAAgPZCCncAAAAAAACA/Mgh/aXmU5RL+J4U4ZhH0KyVsCDn799AkwEAAAAA ALQXBHQAAAAAAACAfEg838/Z25ztb4Onb884jqYtnSL37haaDQAAAAAAoN2LfgAAAAAAAADoD6Vt l3j+TmeHO9ve4kSfC6WDl6C7hmYujZ0LfGYlzQYAAAAAANBeiEAHAAAAAAAA6A8J5Uc5O8XZfPPi 6+TI33E4zVwqQwU+s4JmAwAAAAAAaC8I6AAAAAD/l737CbW8rOM4/hkdwwmhKxhUdGkzIS2KcTbR n4VSm4hApUFazaJmV9OmIGcTuBiDCHJaCClkRIlNWC4Cd0rQWFA6uGpwImQqFwmN5J/+WLfn+f7O Rct/c/78ztxzzusFX7gzcO7vnmdAuL7P8zwAcGl2Muw+/1SGe8+vHOEZX7HMSzXLsfnPWTYAAID1 JaADAADApftBm2uyuGPb/18/xn3LMi/Fgcl6T+N0hg9SAAAAsKYEdAAAALh0yzi++7OWeSlmOS7/ fssGAACw3gR0AAAAuHR99/GJkZ9xT5v9lnp0sxyX/yvLBgAAsN4EdAAAAJjO3Ut4xmcs86gOZvrj 2y+0ecbSAQAArDcBHQAAAKZzMcNd2GO6K+Pds07ypRlec4dlAwAAWH8COgAAAExv7GPct9vcbJlH sdXm+Ayv+6GlAwAAWH/uVAMAAIDpnW9zJtMfAz6NB9tc1eZly71Q353hNafOXrj4kqUDAABYf3ag AwAAwGyOLuEZX7XMC3VDmyMzvO47lg4AAGAzCOgAAAAwm74L/dTIzziZ4chx5tdP4Xtohtedmfxb AwAAsAEEdAAAAJjd15fwjJ+32Wep5/atDHfLT+uopQMAANgcAjoAAADM7mKbYyM/o9+zfrOlnks/ uv34DK/rJwzYfQ4AALBB9u3s7FgFAABYEYe2neQMe/F36zZPZ7bdzdO4NkOwZzoH2rw475qfvWDp AQAANoEd6AAAADCf/sn0Dy/hOU/GUe7T6vH83IyvvTU+sAAAALBxBHQAAACY3zNtToz8jL7D/duW +pL1Dxt8P7OdDHCmzc8sIQAAwOYR0AEAAGAxvpEhvI6p3+N9i6V+Sz2eP9DmyIyv/3SGkwUAAADY MAI6AAAALEYPrp9cwnMebHPQcr+heeP5TXF0OwAAwMYS0AEAAGBxXmrz/iU856kM93vzv+aN5/0Y /kctIwAAwOYS0AEAAGCxzrc5toTnnIuI/mp9LZ7O7PH8dIZj+AEAANhgAjoAAAAs3r0ZdjOPaTsi +q53T9Zie8bXX2hzNO49BwAA2HgCOgAAAIyj72Y+PfIzRPTkxjZ/znzx/PoMx+8DAACw4QR0AAAA GEffzXxbRPSx7G9zV5tH5vge4jkAAACv+WUTAAAAGMduRO+OjPic3Yj+oTYXN2Bd+5Htv87su847 8RwAAIDXsAMdAAAAxrXMneh/bXNwjddyX5vbM9+R7Z14DgAAwOsS0AEAAGB8y4ro3VNtvpAhNq+T G9o83ebknN9HPAcAAOANCegAAACwHLsR/dQSnnVPmweyHveib2W46/zxzLfrvOsfYHhfxHMAAADe gIAOAAAAy9Mj+pfbHFvCs/qd6y+2uXFF12p/hp30/Vj64wv4fn3Nb5v8GwAAAMDrEtABAABg+e5t c3hJz3qkzY8z7OReBbvh/F8ZdtIvwuHJmovnAAAAvCkBHQAAAC6PJ9pcm+FO7rH13eh9J/ftGQL1 XrQ1+fkWGc7PtHn7ZK0BAADgLQnoAAAAcPlczHAn96klPe9khkDdd3jvhR3pPebf0OaXGQL/yQV+ 71vbfDzuOwcAAGAKAjoAAABcXrv3oh+e8jX/mcwsx5L3Hd49WPej3XvA3rfE97sbzfuze8x/vM1H F/j9+67zvrP/p3FkOwAAAFMS0AEAAGBv6MeM9+PG32w3+j/b/KnNY20ebvOLNn/IsMt6lljcj3bv AbuH+LsyhO0DC35fPZgfbHNLhp3mu9H8yIKf04/Cv6nNxzLs7AcAAICp7dvZ8WFsAABYFYe2tywC bIYesh9qs/2qv3shQ4D+UZvfTv7c4/QH2nyuzSfaXJfF7SbvIf/RDDvVz07+7h957ZHo/We4ZvJ1 j+/XZwjmH8wQzbeXsF7H2tzX5uWxHnD2giYPAACwCQR0AABYIQI6bNbv7G0+n+G49b5r+9E2d7R5 ss3zeWXH+dUZ7lH/Wpub27xjg9boRJtvZsRwvktABwAA2AyOcAcAAIC9qQfye9tc1eZohh3WfSf4 3/LK3ed9+o7wp9p8r835LCEm7wF9x3k/7v7ODXm/AAAALMl+SwAAAAB7Wg/E9+eVo9lf7yi5f7f5 TZtzGY50X8ff9/sd530H/n0RzQEAABiJgA4AAACr4a3uYHuxzbMZjntfJ2fafDHD7nv30AEAADAq AR0AAADWQ7+m7UCbK9fgvezuNv9JG5ePAwAAsDQCOgAAAKyHq9v8vc3bVvg9nGhzus3vY7c5AAAA l8EVlgAAAADWwgttjrfZanO4zakV+Jn7TvNjbd6T4f9R3NnmfMRzAAAALpN9Ozt+JwUAgFVxaHvL IgDT6v/hONTmlslsX8afpQfzu9s83OZ3bV5alUU8e8FJ8gAAAJtAQAcAgBUioAML0K9ze2eb69t8 pM27Mk5Y70exP9HmsTbn2vylzcurumgCOgAAwGYQ0AEAYIUI6MDIely/ZvL1dW3ee4mv+2ObZydf P5c1PIJdQAcAANgMAjoAAAAAAAAANFdYAgAAAAAAAAAQ0AEAAAAAAACgCOgAAAAAAAAAEAEdAAAA AAAAAIqADgAAAAAAAAAR0AEAAAAAAACgCOgAAAAAAAAAEAEdAAAAAAAAAIqADgAAAAAAAAAR0AEA AAAAAACgCOgAAAAAAAAAEAEdAAAAAAAAAIqADgAAAAAAAAAR0AEAAAAAAACgCOgAAAAAAAAAEAEd AAAAAAAAAIqADgAAAAAAAAAR0AEAAAAAAACgCOgAAAAAAAAAEAEdAAAAAAAAAIqADgAAAAAAAAAR 0AEAAAAAAACgCOgAAAAAAAAAEAEdAAAAAAAAAIqADgAAAAAAAAAR0AEAAAAAAACgCOgAAAAAAAAA EAEdAAAAAAAAAIqADgAAAAAAAAAR0AEAAAAAAACgCOgAAAAAAAAAEAEdAAAAAAAAAIqADgAAAAAA AAAR0AEAAAAAAACgCOgAAAAAAAAAEAEdAAAAAAAAAIqADgAAAAAAAAAR0AEAAAAAAACgCOgAAAAA AAAAEAEdAAAAAAAAAIqADgAAAAAAAAAR0AEAAAAAAACgCOgAAAAAAAAAEAEdAAAAAAAAAIqADgAA AAAAAAAR0AEAAAAAAACgCOgAAAAAAAAAEAEdAAAAAAAAAIqADgAAAAAAAAAR0AEAAAAAAACgCOgA AAAAAAAAEAEdAAAAAAAAAIqADgAAAAAAAAAR0AEAAAAAAACgCOgAAAAAAAAAEAEdAAAAAAAAAIqA DgAAAAAAAAAR0AEAAAAAAACgCOgAAAAAAAAAEAEdAAAAAAAAAIqADgAAAAAAAAAR0AEAAAAAAACg COgAAAAAAAAAEAEdAAAAAAAAAIqADgAAAAAAAAAR0AEAAAAAAACgCOgAAAAAAAAAEAEdAAAAAAAA AIqADgAAAAAAAAAR0AEAAAAAAACgCOgAAAAAAAAAEAEdAAAAAAAAAIqADgAAAAAAAAAR0AEAAAAA AACgCOgAAAAAAAAAEAEdAAAAAAAAAIqADgAAAAAAAAAR0AEAAAAAAACgCOgAAAAAAAAAEAEdAAAA AAAAAIqADgAAAAAAAAAR0AEAAAAAAACgCOgAAAAAAAAAEAEdAAAAAAAAAIqADgAAAAAAAAAR0AEA AAAAAACgCOgAAAAAAAAAEAEdAAAAAAAAAIqADgAAAAAAAAAR0AEAAAAAAACgCOgAAAAAAAAAEAEd AAAAAAAAAIqADgAAAAAAAAAR0AEAAAAAAACgCOgAAAAAAAAAEAEdAAAAAAAAAIqADgAAAAAAAAAR 0AEAAAAAAACgCOgAAAAAAAAAEAEdAAAAAAAAAIqADgAAAAAAAAAR0AEAAAAAAACgCOgAAAAAAAAA EAEdAAAAAAAAAIqADgAAAAAAAAAR0AEAAAAAAACgCOgAAAAAAAAAEAEdAAAAAAAAAIqADgAAAAAA AAAR0AEAAAAAAACgCOgAAAAAAAAAEAEdAAAAAAAAAIqADgAAAAAAAAAR0AEAAAAAAACgCOgAAAAA AAAAEAEdAAAAAAAAAIqADgAAAAAAAAAR0AEAAAAAAACgCOgAAAAAAAAAEAEdAAAAAAAAAIqADgAA AAAAAAAR0AEAAAAAAACgCOgAAAAAAAAAEAEdAAAAAAAAAIqADgAAAAAAAAAR0AEAAAAAAACgCOgA AAAAAAAAEAEdAAAAAAAAAIqADgAAAAAAAAAR0AEAAAAAAACgCOgAAAAAAAAAEAEdAAAAAAAAAIqA DgAAAAAAAAAR0AEAAAAAAACgCOgAAAAAAAAAEAEdAAAAAAAAAIqADgAAAAAAAAAR0AEAAAAAAACg COgAAAAAAAAAEAEdAAAAAAAAAIqADgAAAAAAAAAR0AEAAAAAAACgCOgAAAAAAAAAEAEdAAAAAAAA AIqADgAAAAAAAAAR0AEAAAAAAACgCOgAAAAAAAAAEAEdAAAAAAAAAIqADgAAAAAAAAAR0AEAAAAA AACgCOgAAAAAAAAAEAEdAAAAAAAAAIqADgAAAAAAAAAR0AEAAAAAAACgCOgAAAAAAAAAEAEdAAAA AAAAAIqADgAAAAAAAAAR0AEAAAAAAACgCOgAAAAAAAAAEAEdAAAAAAAAAIqADgAAAAAAAAAR0AEA AAAAAACgCOgAAAAAAAAAEAEdAAAAAAAAAIqADgAAAAAAAAAR0AEAAAAAAACgCOgAAAAAAAAAEAEd AAAAAAAAAIqADgAAAAAAAAAR0AEAAAAAAACgCOgAAAAAAAAAEAEdAAAAAAAAAIqADgAAAAAAAAAR 0AEAAAAAAACgCOgAAAAAAAAAEAEdAAAAAAAAAIqADgAAAAAAAAAR0AEAAAAAAACgCOgAAAAAAAAA EAEdAAAAAAAAAIqADgAAAAAAAAAR0AEAAAAAAACgCOgAAAAAAAAAEAEdAAAAAAAAAIqADgAAAAAA AAAR0AEAAAAAAACgCOgAAAAAAAAAEAEdAAAAAAAAAIqADgAAAAAAAAAR0AEAAAAAAACgCOgAAAAA AAAAEAEdAAAAAAAAAIqADgAAAAAAAAAR0AEAAAAAAACgCOgAAAAAAAAAEAEdAAAAAAAAAIqADgAA AAAAAAAR0AEAAAAAAACgCOgAAAAAAAAAEAEdAAAAAAAAAIqADgAAAAAAAAAR0AEAAAAAAACgCOgA AAAAAAAAEAEdAAAAAAAAAIqADgAAAAAAAAAR0AEAAAAAAACgCOgAAAAAAAAAEAEdAAAAAAAAAIqA DgAAAAAAAAAR0AEAAAAAAACgCOgAAAAAAAAAEAEdAAAAAAAAAIqADgAAAAAAAAAR0AEAAAAAAACg COgAAAAAAAAAEAEdAAAAAAAAAIqADgAAAAAAAAAR0AEAAAAAAACgCOgAAAAAAAAAEAEdAAAAAAAA AIqADgAAAAAAAAAR0AEAAAAAAACgCOgAAAAAAAAAEAEdAAAAAAAAAIqADgAAAAAAAAAR0AEAAAAA AACgCOgAAAAAAAAAEAEdAAAAAAAAAIqADgAAAAAAAAAR0AEAAAAAAACgCOgAAAAAAAAAEAEdAAAA AAAAAIqADgAAAAAAAAAR0AEAAAAAAACgCOgAAAAAAAAAEAEdAAAAAAAAAIqADgAAAAAAAAAR0AEA AAAAAACgCOgAAAAAAAAAEAEdAAAAAAAAAIqADgAAAAAAAAAR0AEAAAAAAACgCOgAAAAAAAAAEAEd AAAAAAAAAIqADgAAAAAAAAAR0AEAAAAAAACgCOgAAAAAAAAAEAEdAAAAAAAAAIqADgAAAAAAAAAR 0AEAAAAAAACgCOgAAAAAAAAAEAEdAAAAAAAAAIqADgAAAAAAAAAR0AEAAAAAAACgCOgAAAAAAAAA EAEdAAAAAAAAAIqADgAAAAAAAAAR0AEAAAAAAACgCOgAAAAAAAAAEAEdAAAAAAAAAIqADgAAAAAA AAAR0AEAAAAAAACgCOgAAAAAAAAAEAEdAAAAAAAAAIqADgAAAAAAAAAR0AEAAAAAAACgCOgAAAAA AAAAEAEdAAAAAAAAAIqADgAAAAAAAAAR0AEAAAAAAACgCOgAAAAAAAAAEAEdAAAAAAAAAIqADgAA AAAAAAAR0AEAAAAAAACgCOgAAAAAAAAAEAEdAAAAAAAAAIqADgAAAAAAAAAR0AEAAAAAAACgCOgA AAAAAAAAEAEdAAAAAAAAAIqADgAAAAAAAAAR0AEAAAAAAACgCOgAAAAAAAAAEAEdAAAAAAAAAIqA DgAAAAAAAAAR0AEAAAAAAACgCOgAAAAAAAAAEAEdAAAAAAAAAIqADgAAAAAAAAAR0AEAAAAAAACg COgAAAAAAAAAEAEdAAAAAAAAAIqADgAAAAAAAAAR0AEAAAAAAACgCOgAAAAAAAAAEAEdAAAAAAAA AIqADgAAAAAAAAAR0AEAAAAAAACgCOgAAAAAAAAAEAEdAAAAAAAAAIqADgAAAAAAAAAR0AEAAAAA AACgCOgAAAAAAAAAEAEdAAAAAAAAAIqADgAAAAAAAAAR0AEAAAAAAACgCOgAAAAAAAAAEAEdAAAA AAAAAIqADgAAAAAAAAAR0AEAAAAAAACgCOgAAAAAAAAAEAEdAAAAAAAAAIqADgAAAAAAAAAR0AEA AAAAAACgCOgAAAAAAAAAEAEdAAAAAAAAAIqADgAAAAAAAAAR0AEAAAAAAACgCOgAAAAAAAAAEAEd AAAAAAAAAIqADgAAAAAAAAAR0AEAAAAAAACgCOgAAAAAAAAAEAEdAAAAAAAAAIqADgAAAAAAAAAR 0AEAAAAAAACgCOgAAAAAAAAAEAEdAAAAAAAAAIqADgAAAAAAAAAR0AEAAAAAAACgCOgAAAAAAAAA EAEdAAAAAAAAAIqADgAAAAAAAAAR0AEAAAAAAACgCOgAAAAAAAAAEAEdAAAAAAAAAIqADgAAAAAA AAAR0AEAAAAAAACgCOgAAAAAAAAAEAEdAAAAAAAAAIqADgAAAAAAAAAR0AEAAAAAAACgCOgAAAAA AAAAEAEdAAAAAAAAAIqADgAAAAAAAAAR0AEAAAAAAACgCOgAAAAAAAAAEAEdAAAAAAAAAIqADgAA AAAAAADNfwUYACSnGtQtlpY+AAAAAElFTkSuQmCC "
       preserveAspectRatio="none"
       height="1111.3842"
       width="2129.9482" />
  </g>
</svg>
