<?xml version="1.0" encoding="UTF-8" standalone="no"?>
<!-- Created With Inkscape (http://www.inkscape.org/) -->

<svg
   xmlns:dc="http://purl.org/dc/elements/1.1/"
   xmlns:cc="http://creativecommons.org/ns#"
   xmlns:rdf="http://www.w3.org/1999/02/22-rdf-syntax-ns#"
   xmlns:svg="http://www.w3.org/2000/svg"
   xmlns="http://www.w3.org/2000/svg"
   xmlns:xlink="http://www.w3.org/1999/xlink"
   xmlns:sodipodi="http://sodipodi.sourceforge.net/DTD/sodipodi-0.dtd"
   xmlns:inkscape="http://www.inkscape.org/namespaces/inkscape"
   id="svg2"
   version="1.1"
   inkscape:version="0.92.4 (5da689c313, 2019-01-14)"
   width="2646.3999"
   height="3736.5334"
   sodipodi:docname="E19P06.svg"
   viewBox="0 0 2481 3503">
  <metadata
     id="metadata8">
    <rdf:RDF>
      <cc:Work
         rdf:about="">
        <dc:format>image/svg+xml</dc:format>
        <dc:type
           rdf:resource="http://purl.org/dc/dcmitype/StillImage" />
        <dc:title />
      </cc:Work>
    </rdf:RDF>
  </metadata>
  <defs
     id="defs6" />
  <sodipodi:namedview
     pagecolor="#ffffff"
     bordercolor="#666666"
     borderopacity="1"
     objecttolerance="10"
     gridtolerance="10"
     guidetolerance="10"
     inkscape:pageopacity="0"
     inkscape:pageshadow="2"
     inkscape:window-width="1201"
     inkscape:window-height="777"
     id="namedview4"
     showgrid="false"
     inkscape:zoom="0.30039762"
     inkscape:cx="1351.9512"
     inkscape:cy="2770.6505"
     inkscape:window-x="71"
     inkscape:window-y="-8"
     inkscape:window-maximized="1"
     inkscape:current-layer="layer3" />
  <g
     inkscape:groupmode="layer"
     id="layer2"
     inkscape:label="artwork"
     sodipodi:insensitive="true">
    <image
       sodipodi:absref="../gfx_Pepper-and-Carrot_by-David-Revoy_E19P06.png"
       xlink:href="../gfx_Pepper-and-Carrot_by-David-Revoy_E19P06.png"
       y="0"
       x="0"
       id="image10"
       height="3503"
       width="2481" />
  </g>
  <g
     inkscape:groupmode="layer"
     id="layer3"
     inkscape:label="speechbubbles">
    <path
       style="fill:#ffffff;stroke:none;stroke-width:0.83892578"
       d="m 474.66562,936.87052 -19.32459,9.87639 c -42.72828,-3.84034 -160.80756,-9.10496 -221.07106,-6.35028 l -24.55872,6.75835 -13.28452,-12.47682 -6.04008,15.59485 -12.0765,-10.91625 -12.81103,9.9777 -14.49253,-7.2775 5.23413,15.59485 -8.05221,9.35722 -16.10445,-6.75835 8.85816,28.07169 c 1e-5,0 -4.93333,3.06973 -10.56969,3.06973 14.1404,22.6122 16.01316,139.6323 11.30013,179.7802 l -11.31257,7.0328 11.30526,8.8688 4.50858,3.291 -18.94995,11.1397 14.19282,-0.7409 -11.03114,12.3871 11.67626,7.2791 -0.80595,9.3556 -1.61008,5.72 9.33699,6.2361 -16.09845,13.7308 22.59725,-3.8277 0.67071,0.4955 c 0,0 -15.28191,18.8616 -19.47816,25.9472 12.28991,-4.3014 31.5562,-10.8723 33.16657,-11.3922 0.12918,-0.041 0.44762,-0.018 0.84616,0.033 l -10.10823,14.5974 24.37963,-11.3188 c 1.66438,0.3961 3.34136,0.7889 4.98558,1.1514 l -4.6724,13.1844 26.11879,-10.6217 c 8.38992,1.2507 18.77037,3.5357 21.25451,3.8921 3.62334,0.5198 22.94823,-5.1986 27.37681,-4.6787 4.42858,0.5198 45.09019,6.2377 48.71355,6.2377 3.62335,0 25.76583,-2.0791 30.59697,-2.5988 4.83114,-0.5198 30.19453,2.5988 34.6231,2.5988 4.42848,0 12.07852,-5.1987 16.10443,-5.7185 4.02602,-0.5199 15.29836,3.1199 18.11658,4.1595 2.81814,1.0398 22.94774,2.5989 27.77889,2.5989 4.83113,0 39.49124,-5.4455 48.31149,-3.1197 6.40779,1.6895 64.80642,0.1512 96.17522,-1.666 l -3.29874,12.3133 20.34621,-13.6473 c 1.67407,-0.2217 2.64655,-0.4364 2.72489,-0.6387 0,0 6.44137,9.878 8.45428,9.878 2.013,0 5.23436,-8.3191 6.44214,-9.3588 1.20779,-1.0398 9.66317,4.6793 11.67627,4.1595 2.013,-0.5199 2.8181,-10.9164 2.8181,-10.9164 l 2.01214,-5.1992 c 0,0 5.63664,-1.5593 8.05223,-3.6388 2.41555,-2.0794 -0.40325,-10.9169 -3.62407,-15.0756 2.81824,-2.0795 9.66253,-5.7176 10.87033,-7.7968 1.20786,-2.0796 -2.8181,-8.8381 -2.8181,-8.8381 0,0 2.41619,-3.6383 3.62405,-6.2374 1.2078,-2.5996 -7.53836,-11.274 -7.53836,-11.274 0,0 7.53786,-8.4809 7.94042,-11.6001 0.35582,-2.757 -1.8067,-5.5102 -5.37119,-6.1133 l 11.19379,-5.4494 -12.66315,-1.8438 c -0.97688,-29.0567 -1.63236,-125.8656 5.41324,-150.5062 l 15.20528,-10.1989 -14.82332,-4.7903 c -1.03214,-1.1981 -2.154,-2.4302 -3.3225,-3.6545 l 14.82017,-14.0795 -21.71322,-7.01794 v -9.28171 l -8.05221,-5.19776 c 0,0 0.34785,-1.36359 0.69265,-3.33041 l 8.36839,-13.47263 -32.55845,11.01341 0.0694,0.25643 c -9.57564,-1.35895 -17.31977,-4.99481 -17.31977,-4.99481 l 4.42818,-23.39307 -29.79285,11.43696 -2.01214,-9.87638 -12.48039,9.35724 -4.02611,-15.07571 -12.4804,11.43696 -10.46825,-5.9408 -2.35475,1.83766 -9.66231,-6.75836 -9.6623,6.23763 -19.24967,3.2688 -5.6362,-14.55498 z"
       id="path3894"
       inkscape:connector-curvature="0"
       sodipodi:nodetypes="ccccccccccccccccccccccccccccccccccccccscsscssccccscccccccccccccccccccccccccccccccccccccccc" />
    <path
       style="color:#000000;display:inline;overflow:visible;visibility:visible;fill:#ffffff;fill-opacity:1;fill-rule:nonzero;stroke:none;stroke-width:1px;marker:none;enable-background:accumulate"
       d="m 535.70109,762.59499 c 38.34876,34.92863 35.4166,55.61846 35.05492,70.73951 -5.21085,0.99543 -14.03945,4.31409 -14.03945,4.31409 0,0 2.34858,29.8366 -0.92638,41.34315 -3.27496,11.50653 -19.13613,8.37057 -19.13613,8.37057 0,0 -6.17597,-57.93992 -11.57097,-70.14779 14.42663,-2.21185 21.11631,-4.94055 26.71433,-3.83376 3.38923,-8.44544 -2.96428,-38.06103 -16.09632,-50.78577 z"
       id="path4456"
       inkscape:connector-curvature="0" />
    <path
       style="color:#000000;display:inline;overflow:visible;visibility:visible;fill:#ffffff;fill-opacity:1;fill-rule:nonzero;stroke:none;stroke-width:0.94877464px;marker:none;enable-background:accumulate"
       d="m 782.81669,217.38726 -40.2,-13.03964 22.33662,38.87182 -37.7925,-14.03562 29.62312,38.87456 -37.33944,-2.14214 25.7385,27.9353 -21.22949,5.55378 21.62976,24.22441 -22.33486,7.24436 20.09075,25.56278 -22.16593,17.70725 13.22109,16.89527 -16.03279,14.85663 14.53784,9.9695 -12.78231,22.77401 17.26727,4.03801 -17.94553,23.42666 27.80199,-7.43172 -8.73165,26.95069 32.43886,-15.45273 -14.08971,33.56672 28.43761,-0.30923 -39.32137,75.92741 61.70439,-46.83109 4.69958,40.14969 30.56944,-35.27107 0.7747,24.60362 27.00855,-31.04242 -0.57997,30.77905 29.84036,-36.25096 0.0734,115.13381 50.44473,-98.14719 8.95524,40.53846 8.18962,-37.8592 8.77262,16.64201 8.50759,-20.92468 8.24425,33.02186 15.08778,-38.08242 59.3997,55.78335 -10.3828,-66.93024 49.2997,9.08515 -16.5309,-32.8434 71.0319,17.47154 -33.4621,-30.27729 60.3347,16.37954 -67.4967,-53.95198 62.0702,14.01784 -46.0407,-43.00628 42.8626,-3.66303 -39.4536,-29.63419 70.4661,-4.83819 -64.3311,-24.68157 57.7689,-12.788 -43.5442,-25.83234 50.2645,-21.36707 -53.784,-16.51546 39.605,-55.03563 -55.3143,13.9027 6.3706,-37.61851 -51.7449,28.16018 24.2431,-67.13531 -65.8828,59.47399 3.2897,-19.0529 -23.3736,15.65639 14.4089,-43.0385 -44.102,40.71457 4.485,-18.86772 -13.45481,17.87478 2.98986,-24.82614 -23.17212,29.7913 2.13339,-25.95707 -14.15808,14.00153 -0.36435,-13.29125 -13.02568,10.35115 -17.55909,-45.11427 -26.19792,46.52525 -12.87986,-20.01151 -14.90955,19.16614 -10.35586,-22.54381 -15.59171,26.93903 -25.36537,-36.51698 1.65841,36.23403 -61.18697,-39.25218 z"
       id="path4024"
       inkscape:connector-curvature="0"
       sodipodi:nodetypes="ccccccccccccccccccccccccccccccccccccccccccccccccccccccccccccccccccccccccccccccccccccc" />
    <path
       style="color:#000000;display:inline;overflow:visible;visibility:visible;fill:#ffffff;fill-opacity:1;fill-rule:nonzero;stroke:none;stroke-width:1px;marker:none;enable-background:accumulate"
       d="m 981.87504,489.07837 c 15.79816,16.30726 34.68336,141.58053 227.57366,231.14516 -154.1725,-93.5024 -173.4435,-224.61445 -180.0947,-249.55706 -53.90514,-8.39388 -24.7768,9.78373 -47.47896,18.4119 z"
       id="path4024-3"
       inkscape:connector-curvature="0"
       sodipodi:nodetypes="cccc" />
    <path
       style="color:#000000;display:inline;overflow:visible;visibility:visible;fill:#ffffff;fill-opacity:1;fill-rule:nonzero;stroke:none;stroke-width:1px;marker:none;enable-background:accumulate"
       d="m 1165.7536,858.24078 c 28.961,44.03488 26.3945,130.36717 18.3117,150.34892 -8.0828,19.9817 -19.1821,49.9462 -58.1326,50.2525 -38.9506,0.3064 -309.43062,23.4584 -349.6799,-22.7008 -40.24929,-46.15927 -39.70015,-126.94282 -5.16902,-181.43608 34.53113,-54.49326 221.14913,-44.89527 221.14913,-44.89527 0,0 129.11259,-7.65482 173.52069,48.43073 z"
       id="path3992"
       inkscape:connector-curvature="0" />
    <path
       style="display:inline;fill:#ffffff;fill-rule:evenodd;stroke:none;stroke-width:1px;stroke-linecap:butt;stroke-linejoin:miter;stroke-opacity:1"
       d="m 727.10685,996.89136 c 74.866,73.60324 103.78855,3.96944 102.68898,-66.62566 30.56158,76.2866 51.76994,93.3483 64.34785,55.7614 40.46149,32.3075 65.73312,23.245 85.79709,0 7.47835,29.8947 23.51573,17.8312 37.39523,16.3462 4.5714,6.7635 -11.1293,23.5669 52.3016,1.1789 4.1088,8.9521 9.6437,16.6614 46.7984,-3.1864 9.6256,36.3357 40.509,-2.01383 72.1476,-43.01599 -19.7117,50.40869 -20.8834,52.65279 4.3042,33.36049 -3.7956,8.56916 -9.9761,25.7196 15.4916,7.14359 -14.9785,38.31631 35.7014,-11.18964 99.1309,-66.22169 -31.7284,40.67928 -105.608,136.6484 -50.1911,130.9639 -7.7282,11.9924 -33.6691,26.098 44.3605,36.547 -15.3256,8.1378 -62.1143,-3.7539 -23.0841,30.7017 5.2293,4.0276 -12.277,6.4871 21.1342,17.0938 -19.723,-0.7216 -31.8186,1.8562 -13.6496,17.525 -36.0017,-0.8472 -22.5314,15.6287 3.8999,36.6432 -52.1355,-26.9556 -55.0047,-17.1588 -56.5481,-6.3727 -65.3412,-36.7496 -69.1768,-25.1792 -77.9972,-17.5251 -31.849,0.2868 -63.6979,-4.3411 -95.5469,36.6433 -8.3408,-25.4912 -25.0631,-45.1128 -95.54659,-27.0841 30.94761,-32.4293 -13.07948,-11.7684 -46.79837,1.5931 18.46514,-40.5122 -28.397,-13.9241 -87.74711,25.491 33.23583,-44.7368 -36.02827,-48.3517 -91.964,-16.5884 39.05508,-34.6799 50.49092,-43.5858 -31.77091,-45.2956 39.37305,-15.8531 30.0734,-37.6472 -10.81042,-73.5366 46.08773,10.5678 59.83505,0.7517 27.29901,-38.2364 50.26943,32.0011 24.17136,-0.3644 4.55734,-43.30394 z"
       id="path4508"
       inkscape:connector-curvature="0"
       sodipodi:nodetypes="cccccccccccccccccccccccccccc" />
    <path
       style="color:#000000;display:inline;overflow:visible;visibility:visible;fill:#ffffff;fill-opacity:1;fill-rule:nonzero;stroke:none;stroke-width:1px;marker:none;enable-background:accumulate"
       d="m 760.12564,1192.5775 c 8.00598,-57.0318 75.15648,-96.8019 244.18316,-80.6312 90.5398,8.6619 199.6579,-3.5616 188.9833,94.9884 -9.0737,83.77 -166.2012,69.9004 -196.89089,70.8837 -30.68973,0.9834 -187.78228,3.1783 -214.30819,-26.2153 -16.60461,-18.3996 -23.3017,-41.326 -21.96738,-59.0256 z"
       id="path4546-6-3"
       inkscape:connector-curvature="0"
       sodipodi:nodetypes="cssssc" />
    <path
       style="color:#000000;display:inline;overflow:visible;visibility:visible;fill:#ffffff;fill-opacity:1;fill-rule:nonzero;stroke:none;stroke-width:1px;marker:none;enable-background:accumulate"
       d="m 139.92716,1488.4784 c 38.50476,-47.6958 252.02205,-40.4013 318.43462,-28.1166 72.47738,13.4065 94.79201,32.4028 98.03297,74.0366 1.00107,12.8598 -4.86144,71.1761 -40.51247,82.6562 -35.65088,11.48 -137.74206,17.22 -173.39309,17.22 -35.65087,0 -149.45648,-7.307 -178.25484,-24.108 -27.54847,-16.0721 -62.81212,-73.9926 -24.30719,-121.6882 z"
       id="path3330"
       inkscape:connector-curvature="0"
       sodipodi:nodetypes="zsssssz" />
    <path
       style="color:#000000;display:inline;overflow:visible;visibility:visible;fill:#ffffff;fill-opacity:1;fill-rule:nonzero;stroke:none;stroke-width:1.0575403px;marker:none;enable-background:accumulate"
       d="m 231.44592,1678.0072 c -1.12859,-29.0026 4.62651,-48.2355 30.47254,-63.6443 23.52926,-14.0276 75.34131,-17.904 109.91352,-17.904 55.88114,-0.198 199.32488,-5.4181 182.3983,85.1901 -0.66853,42.9756 -84.02462,44.8494 -100.9539,48.3297 -16.92928,3.4803 -84.60635,4.2477 -100.40703,3.0877 -58.08738,2.1088 -119.40592,-19.7128 -121.42343,-55.0592 z"
       id="path3357"
       inkscape:connector-curvature="0"
       sodipodi:nodetypes="csccscc" />
    <path
       style="color:#000000;display:inline;overflow:visible;visibility:visible;fill:#ffffff;fill-opacity:1;fill-rule:nonzero;stroke:none;stroke-width:1px;marker:none;enable-background:accumulate"
       d="m 453.45684,1711.8886 c -0.37144,57.0275 25.35707,95.1396 67.76656,103.3368 -67.9487,-0.4363 -102.57173,-72.2713 -100.82948,-96.6104 1.70602,-23.8329 33.06292,-6.7264 33.06292,-6.7264 z"
       id="path5010"
       inkscape:connector-curvature="0"
       sodipodi:nodetypes="ccsc" />
    <path
       style="color:#000000;display:inline;overflow:visible;visibility:visible;fill:#ffffff;fill-opacity:1;fill-rule:nonzero;stroke:none;stroke-width:0.9052493px;marker:none;enable-background:accumulate"
       d="m 266.35508,2112.7468 c 23.62455,-21.6901 228.15348,-34.8028 282.3278,0.8436 45.21852,29.7537 27.57575,103.8509 -12.63897,120.9177 -40.21456,17.0669 -173.99383,15.086 -232.62626,7.3484 -55.82613,-7.3674 -65.20028,-29.6049 -67.94632,-74.38 -1.12075,-18.2745 7.2591,-33.0393 30.88375,-54.7297 z"
       id="path4040-4"
       inkscape:connector-curvature="0"
       sodipodi:nodetypes="zssssz" />
    <path
       style="color:#000000;display:inline;overflow:visible;visibility:visible;fill:#ffffff;fill-opacity:1;fill-rule:nonzero;stroke:none;stroke-width:1px;marker:none;enable-background:accumulate"
       d="m 535.00775,1986.8306 c -11.22357,-11.0259 -34.07155,-13.8129 -52.41966,-13.1663 -5.21231,0.2939 -10.58546,0.9606 -15.40703,2.9669 -4.5497,3.204 -5.8508,9.2452 -4.71647,14.4517 1.1116,7.6336 5.4512,15.1923 3.33691,23.0221 -1.67716,5.6622 -7.62933,7.7967 -12.46033,10.0265 -12.42532,5.4417 -25.66044,9.2324 -37.15366,16.6288 -13.48154,7.4861 -27.12386,16.3412 -35.233,29.8576 -3.11895,5.4019 -5.62626,11.4889 -5.13528,17.8477 0.51982,16.3695 10.44001,32.6806 25.75127,39.1373 10.15783,3.1917 22.85144,-2.6898 25.43476,-13.369 1.44801,-5.6168 -1.12924,-11.3042 -4.7776,-15.4765 -5.27333,-8.9228 -5.03206,-20.3779 -0.31332,-29.473 3.77147,-7.5698 9.88065,-13.877 17.08927,-18.2489 8.233,-8.5339 20.53978,-9.9068 31.26386,-13.4482 4.87531,-1.6909 9.9467,-3.8199 13.48797,-7.6632 3.74598,-6.6816 1.05856,-14.5289 -1.98107,-20.9052 -2.96548,-6.6569 -7.15746,-14.0436 -4.63677,-21.5174 1.0509,-5.4219 7.54846,-5.1616 11.76803,-6.5249 14.15942,-2.6164 28.95507,-0.7769 42.45081,4.0015 1.25162,0.5512 2.45101,1.1992 3.65131,1.8525 z"
       id="path4496"
       inkscape:connector-curvature="0"
       sodipodi:nodetypes="ccccccccccccccccccccc" />
    <path
       style="color:#000000;display:inline;overflow:visible;visibility:visible;fill:#ffffff;fill-opacity:1;fill-rule:nonzero;stroke:none;stroke-width:1px;marker:none;enable-background:accumulate"
       d="m 215.29356,2528.0155 c 9.655,-78.4304 99.91909,-134.4262 329.5865,-115.8152 123.02226,9.969 262.8327,17.4924 250.11894,132.4111 -12.7139,114.9186 -213.80757,108.6096 -255.42473,110.6088 -41.61715,1.9992 -257.55967,-13.6708 -294.1705,-53.444 -22.91755,-24.8968 -31.54594,-49.4446 -30.11021,-73.7607 z"
       id="path4546-6"
       inkscape:connector-curvature="0"
       sodipodi:nodetypes="cssssc" />
    <path
       style="fill:#ffffff;stroke:none"
       d="m 694.38649,2534.9643 c 31.16173,50.5895 56.21292,58.6934 72.83219,79.5631 16.61925,20.8701 -4.22375,65.3135 0.2296,80.4242 5.36252,14.254 23.11118,27.2288 57.37772,44.4988 -73.16324,-15.6884 -73.36945,-34.9149 -78.29883,-48.1564 -6.77646,-18.203 5.60657,-39.7648 -12.3168,-56.2686 -17.36077,-15.9861 -80.58056,-61.1983 -92.85364,-95.1241 -12.2733,-33.9259 -18.60006,-35.9967 -18.60006,-35.9967 z"
       id="path3282"
       inkscape:connector-curvature="0"
       sodipodi:nodetypes="csccssscc" />
  </g>
  <g
     inkscape:groupmode="layer"
     id="layer1"
     inkscape:label="txt">
    <text
       xml:space="preserve"
       style="font-style:normal;font-variant:normal;font-weight:normal;font-stretch:normal;line-height:0%;font-family:Lavi;-inkscape-font-specification:Lavi;text-align:center;letter-spacing:0px;word-spacing:0px;text-anchor:middle;fill:#000000;fill-opacity:1;stroke:none"
       x="387.96631"
       y="1238.8362"
       id="text4246"><tspan
         sodipodi:role="line"
         style="font-size:55.28661346px;line-height:1.25"
         x="387.96631"
         y="1238.8362"
         id="tspan4176">le rarna se vanbi</tspan></text>
    <text
       xml:space="preserve"
       style="font-style:normal;font-variant:normal;font-weight:normal;font-stretch:normal;line-height:0%;font-family:Lavi;-inkscape-font-specification:Lavi;text-align:center;letter-spacing:0px;word-spacing:0px;text-anchor:middle;fill:#000000;fill-opacity:1;stroke:none"
       x="393.99847"
       y="1007.697"
       id="text4246-70"><tspan
         sodipodi:role="line"
         style="font-size:45px;line-height:1.25"
         x="393.99847"
         y="1007.697"
         id="tspan3630">.i ku'i na ku ka'e ku</tspan><tspan
         sodipodi:role="line"
         style="font-size:45px;line-height:1.25"
         x="393.99847"
         y="1063.947"
         id="tspan9347">le nu ma'a ca'o jmina</tspan><tspan
         sodipodi:role="line"
         style="font-size:45px;line-height:1.25"
         x="393.99847"
         y="1120.197"
         id="tspan9345">lo mabla xukmi cu</tspan><tspan
         sodipodi:role="line"
         style="font-size:45px;line-height:1.25"
         x="393.99847"
         y="1176.447"
         id="tspan9343">rinka no xlali be</tspan></text>
    <text
       xml:space="preserve"
       style="font-style:normal;font-variant:normal;font-weight:normal;font-stretch:normal;line-height:0%;font-family:Lavi;-inkscape-font-specification:Lavi;text-align:center;letter-spacing:0px;word-spacing:0px;text-anchor:middle;fill:#000000;fill-opacity:1;stroke:none"
       x="970.591"
       y="305.03177"
       id="text4246-7"
       transform="scale(0.97469088,1.0259663)"><tspan
         sodipodi:role="line"
         style="font-size:58.48145294px;line-height:1.25;stroke:#000000;stroke-width:1.89999998;stroke-miterlimit:4;stroke-dasharray:none;stroke-opacity:1"
         x="970.591"
         y="305.03177"
         id="tspan3649">i le nu zukte</tspan><tspan
         sodipodi:role="line"
         style="font-size:58.48145294px;line-height:1.25;stroke:#000000;stroke-width:1.89999998;stroke-miterlimit:4;stroke-dasharray:none;stroke-opacity:1"
         x="970.591"
         y="378.13358"
         id="tspan9372">nu'o rinka</tspan><tspan
         sodipodi:role="line"
         style="font-size:58.48145294px;line-height:1.25;stroke:#000000;stroke-width:1.89999998;stroke-miterlimit:4;stroke-dasharray:none;stroke-opacity:1"
         x="970.591"
         y="451.23541"
         id="tspan9374">su'o mabla</tspan></text>
    <text
       xml:space="preserve"
       style="font-style:normal;font-variant:normal;font-weight:normal;font-stretch:normal;line-height:0%;font-family:Lavi;-inkscape-font-specification:Lavi;text-align:center;letter-spacing:0px;word-spacing:0px;text-anchor:middle;fill:#000000;fill-opacity:1;stroke:none"
       x="969.58252"
       y="880.27979"
       id="text4246-70-2"><tspan
         sodipodi:role="line"
         style="font-size:45px;line-height:1.25"
         x="969.58252"
         y="880.27979"
         id="tspan9393">i mi'o me le te</tspan><tspan
         sodipodi:role="line"
         style="font-size:45px;line-height:1.25"
         x="969.58252"
         y="936.52979"
         id="tspan9387">makfa pe la kalsa</tspan><tspan
         sodipodi:role="line"
         style="font-size:45px;line-height:1.25"
         x="969.58252"
         y="992.77979"
         id="tspan9401">zi'e noi setca le jai</tspan><tspan
         sodipodi:role="line"
         style="font-size:45px;line-height:1.25"
         x="969.58252"
         y="1049.0298"
         id="tspan9411">se srera be mi'o</tspan></text>
    <text
       xml:space="preserve"
       style="font-style:normal;font-variant:normal;font-weight:normal;font-stretch:normal;line-height:0%;font-family:Lavi;-inkscape-font-specification:Lavi;text-align:center;letter-spacing:0px;word-spacing:0px;text-anchor:middle;fill:#000000;fill-opacity:1;stroke:none"
       x="1000.3171"
       y="1096.5863"
       id="text4246-7-9"
       transform="scale(0.97469088,1.0259663)"><tspan
         sodipodi:role="line"
         style="font-size:58.48145294px;line-height:1.25;stroke:#000000;stroke-width:2.24178886;stroke-miterlimit:4;stroke-dasharray:none;stroke-opacity:1"
         x="1010.597"
         y="1096.5863"
         id="tspan4221-2">le ba'e condi </tspan></text>
    <text
       xml:space="preserve"
       style="font-style:normal;font-variant:normal;font-weight:normal;font-stretch:normal;line-height:0%;font-family:Lavi;-inkscape-font-specification:Lavi;text-align:center;letter-spacing:0px;word-spacing:0px;text-anchor:middle;fill:#000000;fill-opacity:1;stroke:none"
       x="973.31299"
       y="1193.9326"
       id="text4246-70-2-8"><tspan
         sodipodi:role="line"
         style="font-size:45px;line-height:1.25"
         x="981.22314"
         y="1193.9326"
         id="tspan3661">i .ai mi'o na </tspan><tspan
         sodipodi:role="line"
         style="font-size:45px;line-height:1.25"
         x="973.31299"
         y="1250.1826"
         id="tspan9415">darlu fi lo tcaci</tspan></text>
    <text
       xml:space="preserve"
       style="font-style:normal;font-variant:normal;font-weight:normal;font-stretch:normal;line-height:0%;font-family:Lavi;-inkscape-font-specification:Lavi;text-align:center;letter-spacing:0px;word-spacing:0px;text-anchor:middle;fill:#000000;fill-opacity:1;stroke:none"
       x="338.31299"
       y="1517.3076"
       id="text4246-70-2-2"><tspan
         sodipodi:role="line"
         style="font-size:45px;line-height:1.25"
         x="346.22314"
         y="1517.3076"
         id="tspan3668">i ko catlu </tspan><tspan
         sodipodi:role="line"
         style="font-size:45px;line-height:1.25"
         x="338.31299"
         y="1573.5576"
         id="tspan9419">le se zvafa'i be mi</tspan></text>
    <text
       xml:space="preserve"
       style="font-style:normal;font-variant:normal;font-weight:normal;font-stretch:normal;line-height:0%;font-family:Lavi;-inkscape-font-specification:Lavi;text-align:center;letter-spacing:0px;word-spacing:0px;text-anchor:middle;fill:#000000;fill-opacity:1;stroke:none"
       x="390.32837"
       y="1679.9785"
       id="text4246-70-2-2-2"><tspan
         sodipodi:role="line"
         style="font-size:45px;line-height:1.25"
         x="390.32837"
         y="1679.9785"
         id="tspan3670">i mi na krici</tspan></text>
    <text
       xml:space="preserve"
       style="font-style:normal;font-variant:normal;font-weight:normal;font-stretch:normal;line-height:0%;font-family:Lavi;-inkscape-font-specification:Lavi;text-align:center;letter-spacing:0px;word-spacing:0px;text-anchor:middle;fill:#000000;fill-opacity:1;stroke:none"
       x="400.75806"
       y="2158.8105"
       id="text4246-70-2-2-2-7"><tspan
         sodipodi:role="line"
         style="font-size:45px;line-height:1.25"
         x="400.75806"
         y="2158.8105"
         id="tspan3674">i ta'i ma ti</tspan><tspan
         sodipodi:role="line"
         style="font-size:45px;line-height:1.25"
         x="400.75806"
         y="2215.0605"
         id="tspan9429">co'a zvati ti</tspan></text>
    <text
       xml:space="preserve"
       style="font-style:normal;font-variant:normal;font-weight:normal;font-stretch:normal;line-height:0%;font-family:Lavi;-inkscape-font-specification:Lavi;text-align:center;letter-spacing:0px;word-spacing:0px;text-anchor:middle;fill:#000000;fill-opacity:1;stroke:none"
       x="498.24463"
       y="2483.8872"
       id="text4246-70-2-2-2-7-6"><tspan
         sodipodi:role="line"
         style="font-size:45px;line-height:1.25"
         x="498.24463"
         y="2483.8872"
         id="tspan3683">i la'a ti jai sarcu fai</tspan><tspan
         sodipodi:role="line"
         style="font-size:45px;line-height:1.25"
         x="498.24463"
         y="2540.1372"
         id="tspan9436">le ka milxe cikre ce'u .i</tspan><tspan
         sodipodi:role="line"
         style="font-size:45px;line-height:1.25"
         x="498.24463"
         y="2596.3872"
         id="tspan64">ku'i ti ca ka'e se pilno</tspan></text>
  </g>
</svg>
