<?xml version="1.0" encoding="UTF-8" standalone="no"?>
<!-- Created with Inkscape (http://www.inkscape.org/) -->

<svg
   xmlns:dc="http://purl.org/dc/elements/1.1/"
   xmlns:cc="http://creativecommons.org/ns#"
   xmlns:rdf="http://www.w3.org/1999/02/22-rdf-syntax-ns#"
   xmlns:svg="http://www.w3.org/2000/svg"
   xmlns="http://www.w3.org/2000/svg"
   xmlns:xlink="http://www.w3.org/1999/xlink"
   xmlns:sodipodi="http://sodipodi.sourceforge.net/DTD/sodipodi-0.dtd"
   xmlns:inkscape="http://www.inkscape.org/namespaces/inkscape"
   id="svg2"
   version="1.1"
   inkscape:version="0.92.4 5da689c313, 2019-01-14"
   width="2481"
   height="3503"
   sodipodi:docname="E04P01.svg">
  <metadata
     id="metadata8">
    <rdf:RDF>
      <cc:Work
         rdf:about="">
        <dc:format>image/svg+xml</dc:format>
        <dc:type
           rdf:resource="http://purl.org/dc/dcmitype/StillImage" />
        <dc:title />
      </cc:Work>
    </rdf:RDF>
  </metadata>
  <defs
     id="defs6" />
  <sodipodi:namedview
     pagecolor="#ffffff"
     bordercolor="#666666"
     borderopacity="1"
     objecttolerance="10"
     gridtolerance="10"
     guidetolerance="10"
     inkscape:pageopacity="0"
     inkscape:pageshadow="2"
     inkscape:window-width="1920"
     inkscape:window-height="1043"
     id="namedview4"
     showgrid="false"
     inkscape:zoom="0.33687759"
     inkscape:cx="684.68638"
     inkscape:cy="2733.9047"
     inkscape:window-x="0"
     inkscape:window-y="20"
     inkscape:window-maximized="1"
     inkscape:current-layer="layer1" />
  <g
     inkscape:groupmode="layer"
     id="layer2"
     inkscape:label="artwork"
     sodipodi:insensitive="true">
    <image
       sodipodi:absref="/home/tirifto/Développement/Pepper &amp; Carrot/webcomics/ep04_Stroke-of-genius/lang/eo/../gfx_Pepper-and-Carrot_by-David-Revoy_E04P01.png"
       xlink:href="../gfx_Pepper-and-Carrot_by-David-Revoy_E04P01.png"
       y="0"
       x="0"
       id="image10"
       height="3503"
       width="2481" />
  </g>
  <g
     inkscape:groupmode="layer"
     id="layer3"
     inkscape:label="speechbubbles">
    <path
       style="fill:#ffffff;stroke:none;stroke-width:1"
       d="m 474.00087,2411.968 c -5.16047,-45.1738 -10.32095,-137.3471 0,-157.4246 6.56788,0 17.35798,-0.4561 17.35798,-0.4561 l -10.32096,-24.6404 18.76537,5.932 9.38268,-8.2135 -6.09875,-13.689 16.88883,6.3882 8.44443,-13.2329 14.07402,9.5825 7.03702,-13.6891 15.48142,10.9513 28.61719,-5.9319 c 70.22349,-2.418 139.66176,-6.1088 213.45607,-2.7379 l 22.51845,-8.6697 6.56787,12.7765 11.72836,0.4562 11.25923,-5.4756 11.25922,5.9318 37.53073,-4.1066 12.19749,11.8639 14.54317,-10.0386 4.69133,13.2327 14.54317,-8.2133 2.34568,8.6694 34.71592,-10.0386 -5.16047,20.5336 c 0,0 25.80238,9.1262 44.09868,2.2816 1.8765,4.563 -0.9383,12.7766 -0.9383,12.7766 l 9.3827,4.5629 v 11.8639 c 0,0 18.7654,15.5143 20.6419,19.621 1.8765,4.1068 6.0987,116.3573 -0.4691,134.153 5.1604,0 8.4444,2.7379 7.9753,5.4758 -0.4691,2.7378 -4.2223,10.4949 -4.2223,10.4949 0,0 5.1606,7.3008 3.7532,9.5824 -1.4075,2.2816 -4.2223,5.4756 -4.2223,5.4756 0,0 4.6914,5.9319 3.2839,7.7573 -1.4074,1.825 -9.3826,5.0192 -12.6666,6.8444 3.7531,3.6504 7.037,11.4076 4.2222,13.2328 -2.8148,1.8252 -9.3826,3.1941 -9.3826,3.1941 l -2.3457,4.563 c 0,0 -0.9382,9.1261 -3.2839,9.5825 -2.3458,0.4562 -12.1975,-4.5632 -13.6049,-3.6506 -1.4074,0.9126 -5.1605,8.2136 -7.5062,8.2136 -2.3456,0 -9.8519,-8.6699 -9.8519,-8.6699 -1.0025,1.9503 -124.89452,5.2233 -135.11062,3.1942 -10.27807,-2.0415 -50.6665,2.7378 -56.29612,2.7378 -5.6296,0 -29.08632,-1.3689 -32.37025,-2.2815 -3.28395,-0.9127 -16.4197,-4.1068 -21.11105,-3.6505 -4.69134,0.4563 -13.60489,5.0195 -18.76537,5.0195 -5.16047,0 -34.71592,-2.7378 -40.34554,-2.2817 -5.62961,0.4564 -31.43199,2.2817 -35.65419,2.2817 -4.22221,0 -51.60477,-5.0195 -56.76525,-5.4758 -5.16047,-0.4564 -27.67892,4.5632 -31.90112,4.1068 -4.22221,-0.4563 -28.14806,-4.5632 -35.65421,-4.1068 -7.50614,0.4563 -35.6542,-5.9318 -37.53074,-5.4756 -1.87654,0.4563 -4.71032,0.9117 -22.0493,0 8.91355,-6.8445 6.09874,-12.7765 6.09874,-12.7765 l -6.56788,-3.6504 0.93827,-4.1067 -13.6049,-6.8444 1.87654,-5.0195 0.93827,-8.2134 -13.60489,-6.3882 21.58017,-18.2522 z"
       id="path3894"
       inkscape:connector-curvature="0"
       sodipodi:nodetypes="cccccccccccccccccccccccccccccccscscccccsccssscssssssssssscccccccccc" />
    <path
       style="color:#000000;fill:#ffffff;fill-opacity:1;fill-rule:nonzero;stroke:none;stroke-width:1px;marker:none;visibility:visible;display:inline;overflow:visible;enable-background:accumulate"
       d="m 780.27518,2515.2788 c 17.06554,77.0562 55.5667,262.6609 88.02344,300.6246 32.45673,37.9637 46.6252,62.8989 112.44368,59.1459 -73.94569,-18.6774 -108.46592,-85.8157 -138.94095,-207.3702 -30.47505,-121.5546 1.59342,-216.6335 1.59342,-216.6335 l -67.4335,9.6187 z"
       id="path3896"
       inkscape:connector-curvature="0" />
    <path
       style="color:#000000;fill:#ffffff;fill-opacity:1;fill-rule:nonzero;stroke:none;stroke-width:1px;marker:none;visibility:visible;display:inline;overflow:visible;enable-background:accumulate"
       d="m 677.26133,2599.6703 c 11.92058,-3.9996 11.92058,-11.9992 6.95368,-22.2206 3.47683,-0.4444 15.3974,2.222 13.41065,-4.8886 2.98015,-0.8888 6.95366,-0.8888 4.47022,-6.6663 3.47684,-0.4444 13.41065,1.7777 10.9272,-3.9997 6.45697,-1.3332 67.05328,-3.1109 88.90768,-0.8888 21.8544,2.2221 80.46394,0.4444 86.42423,0 5.9603,-0.4444 51.65586,0 55.6294,0 3.97352,0 19.86763,4.8885 24.83458,7.555 7.4503,-3.5553 16.8874,-2.2219 16.8874,-2.2219 0,0 0,15.11 1.4901,16.4432 1.4901,1.3333 8.9405,-2.222 10.4306,0 1.49,2.2221 -10.4306,15.5546 -8.9405,15.9989 1.49,0.4445 13.41073,5.3331 13.41073,7.1107 0,1.7777 -9.43723,10.2215 -8.94063,10.6659 0.4968,0.4444 7.94723,6.2219 6.95393,11.1105 8.9403,1.7775 13.4106,6.2217 15.894,9.3326 -3.9736,5.7775 -13.4107,11.1105 -15.3974,14.2213 2.4835,5.333 8.9405,12.4436 7.4503,14.6658 -1.4901,2.222 -8.44383,1.7776 -13.41073,-0.8889 1.9869,6.6662 1.4902,59.9959 -7.4503,79.5502 2.4835,4.4441 6.9537,7.555 7.9471,11.9992 0.9934,4.4442 -1.9869,11.5549 -1.4901,13.7768 0.4967,2.2221 4.4702,9.7772 3.9736,13.3325 -0.4968,3.5553 -2.4835,7.1106 -5.4636,9.3327 -0.4969,3.5553 1.9867,6.2219 -0.4969,7.1107 -2.4834,0.8888 -12.4172,-3.9998 -14.9005,-3.1109 -2.4835,0.8888 -0.4968,12.8881 -2.9803,15.11 -2.4834,2.2221 -56.12601,7.9995 -68.04659,3.1109 -12.41727,-0.8888 -104.30511,18.2211 -142.55031,10.666 -4.47021,-0.8888 -3.47684,-3.9997 -6.95368,-4.8886 -3.47684,-0.8888 -5.4636,2.2222 -12.91397,1.3333 -6.45698,-4.4442 -14.90072,-4.8886 -28.31138,-26.2205 -4.47021,0 -11.92058,2.222 -12.91396,-1.3333 -0.99339,-3.5553 0.49669,-6.2216 0.49669,-6.2216 0,0 -4.96691,1.3331 -5.4636,-1.3334 -0.49669,-2.6665 6.45698,-9.777 5.96029,-11.1103 -0.49669,-1.3332 -14.40404,2.6665 -14.90073,-0.4444 -0.49669,-3.111 5.4636,-10.666 4.96691,-12.8881 -0.49669,-2.2221 -24.83455,-36.442 -16.88749,-140.435 3.97353,-1.3333 7.94706,-2.6665 7.45036,-4.4441 -0.49669,-1.7778 -6.45698,-5.3331 -6.45698,-5.3331 z"
       id="path3915"
       inkscape:connector-curvature="0" />
    <path
       style="color:#000000;fill:#ffffff;fill-opacity:1;fill-rule:nonzero;stroke:none;stroke-width:1px;marker:none;visibility:visible;display:inline;overflow:visible;enable-background:accumulate"
       d="m 2161.9635,2759.6873 c 75.5442,-65.8317 129.3057,-115.4309 140.8923,-189.8298 11.5865,-74.3988 -1.8538,-91.5331 -5.5615,-100.5511 -12.977,1.8036 -33.8327,13.978 -38.0039,19.3888 1.8539,-19.8397 -11.5865,-82.5151 -31.9788,-107.3147 -20.3923,-24.7996 -39.3943,-7.6653 -39.3943,-7.6653 0,0 61.177,94.6894 55.1519,157.8157 12.0501,-12.6253 34.7597,-36.974 40.3212,-32.465 5.5615,4.5091 8.3423,64.9299 -3.7077,92.4349 -12.05,27.5051 -38.9308,101.9039 -117.7192,168.1865 z"
       id="path3923"
       inkscape:connector-curvature="0" />
    <path
       style="color:#000000;fill:#ffffff;fill-opacity:1;fill-rule:nonzero;stroke:none;stroke-width:1px;marker:none;visibility:visible;display:inline;overflow:visible;enable-background:accumulate"
       d="m 1837.8041,2353.2992 c 0,0 38.1255,7.7521 44.1771,11.9264 6.0516,4.1742 30.2582,-2.9816 -3.631,44.7238 34.4944,-15.5043 61.7268,-32.2012 74.4353,-30.4122 -5.4464,11.9263 -11.4981,27.4306 -11.4981,27.4306 0,0 31.4685,-12.5227 37.5202,-11.9263 -1.8155,5.3668 2.4207,16.1005 2.4207,16.1005 l 16.3394,-2.3852 4.8413,14.3116 c 0,0 65.3578,-25.0454 73.2249,-22.0638 7.8672,2.9816 -3.6309,34.5865 -3.6309,34.5865 l 17.5498,-12.5227 8.4723,0.5963 20.5756,-20.2748 6.6568,11.33 4.8413,-4.1742 9.6826,4.7706 22.9963,-17.2933 7.8671,1.789 19.9705,27.4306 10.893,-12.5227 5.4464,-0.5963 35.7048,1.1927 2.4206,-2.9816 6.0517,-1.1927 8.4723,-5.9631 4.8413,-13.7154 10.2878,0 20.5756,12.5227 9.6827,8.3485 7.2619,-20.2748 4.2362,-2.3853 1.2104,-12.5227 23.6014,9.5411 7.262,5.9632 1.8154,-10.7337 7.8672,-0.5964 14.5239,4.1743 15.7344,11.33 23.6014,12.5227 -35.7048,-45.9165 -8.4722,-8.3484 30.8634,-8.3485 0,-95.4108 -12.1034,-131.19 -527.0986,6.5595 -13.3136,86.4661 0.6051,76.925 -3.0258,25.6417 26.6273,8.9448 -26.0221,13.7153 16.3394,9.541 z"
       id="path3931"
       inkscape:connector-curvature="0" />
  </g>
  <g
     inkscape:groupmode="layer"
     id="layer1"
     inkscape:label="txt">
    <flowRoot
       xml:space="preserve"
       id="flowRoot2987"
       style="font-style:normal;font-variant:normal;font-weight:normal;font-stretch:normal;line-height:0.01%;font-family:Lavi;-inkscape-font-specification:Lavi;letter-spacing:0px;word-spacing:0px;fill:#000000;fill-opacity:1;stroke:none"
       transform="translate(52.552065,-126.62151)"><flowRegion
         id="flowRegion2989"><rect
           id="rect2991"
           width="973.52362"
           height="213.03587"
           x="120.55251"
           y="265.53046"
           style="font-style:normal;font-variant:normal;font-weight:normal;font-stretch:normal;font-family:Lavi;-inkscape-font-specification:Lavi" /></flowRegion><flowPara
         id="flowPara2993"
         style="font-size:48px;line-height:1.25">La nokton antaŭ la trinkaĵkonkurso,</flowPara><flowPara
         id="flowPara2995"
         style="font-size:48px;line-height:1.25">je la 2a horo...</flowPara></flowRoot>    <flowRoot
       xml:space="preserve"
       id="flowRoot2987-4"
       style="font-style:normal;font-variant:normal;font-weight:normal;font-stretch:normal;line-height:0.01%;font-family:Lavi;-inkscape-font-specification:Lavi;text-align:center;letter-spacing:0px;word-spacing:0px;text-anchor:middle;fill:#000000;fill-opacity:1;stroke:none"
       transform="translate(295.10383,1956.6786)"><flowRegion
         id="flowRegion2989-5"><rect
           id="rect2991-7"
           width="707.29022"
           height="356.89087"
           x="120.55251"
           y="265.53046"
           style="font-style:normal;font-variant:normal;font-weight:normal;font-stretch:normal;font-family:Lavi;-inkscape-font-specification:Lavi;text-align:center;text-anchor:middle" /></flowRegion><flowPara
         style="font-size:48px;line-height:1.25;text-align:center;text-anchor:middle"
         id="flowPara3033">Finfine...</flowPara><flowPara
         style="font-size:48px;line-height:1.25;text-align:center;text-anchor:middle"
         id="flowPara3029">Danke al ĉi tiu trinkaĵo,  </flowPara><flowPara
         style="font-size:48px;line-height:1.25;text-align:center;text-anchor:middle"
         id="flowPara3075"><flowSpan
   style="font-weight:bold;-inkscape-font-specification:'Lavi Bold'"
   id="flowSpan3073">neniu</flowSpan>, ne eĉ  Safrano,</flowPara><flowPara
         style="font-size:48px;line-height:1.25;text-align:center;text-anchor:middle"
         id="flowPara3798">min povos superforti !</flowPara></flowRoot>    <flowRoot
       xml:space="preserve"
       id="flowRoot2987-4-8"
       style="font-style:normal;font-variant:normal;font-weight:normal;font-stretch:normal;line-height:0.01%;font-family:Lavi;-inkscape-font-specification:Lavi;text-align:center;letter-spacing:0px;word-spacing:0px;text-anchor:middle;fill:#000000;fill-opacity:1;stroke:none"
       transform="matrix(0.96141471,0,0,0.91963896,435.33509,2347.2567)"><flowRegion
         id="flowRegion2989-5-9"><rect
           id="rect2991-7-4"
           width="602.40173"
           height="310.73996"
           x="120.55251"
           y="265.53046"
           style="font-style:normal;font-variant:normal;font-weight:normal;font-stretch:normal;font-family:Lavi;-inkscape-font-specification:Lavi;text-align:center;text-anchor:middle" /></flowRegion><flowPara
         style="font-size:48px;line-height:1.25;text-align:center;text-anchor:middle"
         id="flowPara3847">Mi nepre</flowPara><flowPara
         style="font-size:48px;line-height:1.25;text-align:center;text-anchor:middle"
         id="flowPara3054">bezonas</flowPara><flowPara
         style="font-size:48px;line-height:1.25;text-align:center;text-anchor:middle"
         id="flowPara3056">ĝin testi</flowPara><flowPara
         style="font-size:48px;line-height:1.25;text-align:center;text-anchor:middle"
         id="flowPara3849">...</flowPara></flowRoot>    <flowRoot
       xml:space="preserve"
       id="flowRoot2987-4-8-2"
       style="font-style:normal;font-variant:normal;font-weight:normal;font-stretch:normal;line-height:0.01%;font-family:Lavi;-inkscape-font-specification:Lavi;text-align:center;letter-spacing:0px;word-spacing:0px;text-anchor:middle;fill:#000000;fill-opacity:1;stroke:none"
       transform="matrix(1.4179226,0,0,1.4152108,1527.4333,1745.8167)"><flowRegion
         id="flowRegion2989-5-9-2"><rect
           id="rect2991-7-4-2"
           width="602.40173"
           height="310.73996"
           x="120.55251"
           y="265.53046"
           style="font-style:normal;font-variant:normal;font-weight:normal;font-stretch:normal;font-family:Lavi;-inkscape-font-specification:Lavi;text-align:center;text-anchor:middle" /></flowRegion><flowPara
         style="font-size:48px;line-height:1.25;text-align:center;text-anchor:middle"
         id="flowPara3798-1-6"> </flowPara><flowPara
         style="font-size:48px;line-height:1.25;text-align:center;text-anchor:middle"
         id="flowPara3849-2">KAROOOOO~</flowPara><flowPara
         style="font-size:48px;line-height:1.25;text-align:center;text-anchor:middle"
         id="flowPara3892">~OOOOĈJO !!!</flowPara></flowRoot>  </g>
</svg>
