<?xml version="1.0" encoding="UTF-8" standalone="no"?>
<!-- Created with Inkscape (http://www.inkscape.org/) -->

<svg
   xmlns:dc="http://purl.org/dc/elements/1.1/"
   xmlns:cc="http://creativecommons.org/ns#"
   xmlns:rdf="http://www.w3.org/1999/02/22-rdf-syntax-ns#"
   xmlns:svg="http://www.w3.org/2000/svg"
   xmlns="http://www.w3.org/2000/svg"
   xmlns:xlink="http://www.w3.org/1999/xlink"
   xmlns:sodipodi="http://sodipodi.sourceforge.net/DTD/sodipodi-0.dtd"
   xmlns:inkscape="http://www.inkscape.org/namespaces/inkscape"
   id="svg2"
   version="1.1"
   inkscape:version="0.92.3 (2405546, 2018-03-11)"
   width="2481"
   height="3503"
   sodipodi:docname="E17P02.svg">
  <metadata
     id="metadata8">
    <rdf:RDF>
      <cc:Work
         rdf:about="">
        <dc:format>image/svg+xml</dc:format>
        <dc:type
           rdf:resource="http://purl.org/dc/dcmitype/StillImage" />
        <dc:title />
      </cc:Work>
    </rdf:RDF>
  </metadata>
  <defs
     id="defs6">
    <filter
       style="color-interpolation-filters:sRGB;"
       id="filter4375-4-1-1-1-9-5"
       inkscape:label="Drop Shadow">
      <feFlood
         id="feFlood4377-7-9-0-8-1-7"
         flood-opacity="1"
         flood-color="rgb(108,125,133)"
         result="flood" />
      <feComposite
         id="feComposite4379-3-8-8-2-77-4"
         in2="SourceGraphic"
         in="flood"
         operator="in"
         result="composite1" />
      <feMorphology
         id="feMorphology4393-1-0-49-8-9-3"
         operator="dilate"
         radius="6.2000000000000002"
         result="result3" />
      <feComposite
         id="feComposite4385-9-5-7-0-8-8"
         in2="result3"
         in="SourceGraphic"
         operator="over"
         result="fbSourceGraphic" />
      <feColorMatrix
         result="fbSourceGraphicAlpha"
         in="fbSourceGraphic"
         values="0 0 0 -1 0 0 0 0 -1 0 0 0 0 -1 0 0 0 0 1 0"
         id="feColorMatrix4544" />
      <feTurbulence
         id="feTurbulence4546"
         type="fractalNoise"
         numOctaves="3"
         seed="37"
         baseFrequency="0.129 0.0050000000000000001"
         result="turbulence"
         in="fbSourceGraphic" />
      <feDisplacementMap
         id="feDisplacementMap4548"
         in2="turbulence"
         in="fbSourceGraphic"
         scale="6.6"
         yChannelSelector="G"
         xChannelSelector="R"
         result="fbSourceGraphic" />
      <feColorMatrix
         result="fbSourceGraphicAlpha"
         in="fbSourceGraphic"
         values="0 0 0 -1 0 0 0 0 -1 0 0 0 0 -1 0 0 0 0 1 0"
         id="feColorMatrix4670" />
      <feFlood
         id="feFlood4672"
         flood-opacity="1"
         flood-color="rgb(17,52,65)"
         result="flood"
         in="fbSourceGraphic" />
      <feComposite
         id="feComposite4674"
         in2="fbSourceGraphic"
         in="flood"
         operator="in"
         result="composite1" />
      <feGaussianBlur
         id="feGaussianBlur4676"
         in="composite1"
         stdDeviation="0"
         result="blur" />
      <feOffset
         id="feOffset4678"
         dx="6"
         dy="6"
         result="offset" />
      <feComposite
         id="feComposite4680"
         in2="offset"
         in="fbSourceGraphic"
         operator="over"
         result="composite2" />
    </filter>
    <filter
       inkscape:collect="always"
       style="color-interpolation-filters:sRGB"
       id="filter1607"
       x="-0.14572167"
       width="1.2914433"
       y="-0.093399629"
       height="1.1867993">
      <feGaussianBlur
         inkscape:collect="always"
         stdDeviation="1.644092"
         id="feGaussianBlur1609" />
    </filter>
    <filter
       inkscape:collect="always"
       style="color-interpolation-filters:sRGB"
       id="filter1551"
       x="-0.16191296"
       width="1.323826"
       y="-0.10377736"
       height="1.2075547">
      <feGaussianBlur
         inkscape:collect="always"
         stdDeviation="1.8267689"
         id="feGaussianBlur1553" />
    </filter>
    <filter
       inkscape:collect="always"
       style="color-interpolation-filters:sRGB"
       id="filter1003"
       x="-0.045154467"
       width="1.0903089"
       y="-0.043597408"
       height="1.0871948">
      <feGaussianBlur
         inkscape:collect="always"
         stdDeviation="0.83150736"
         id="feGaussianBlur1005" />
    </filter>
    <filter
       inkscape:collect="always"
       style="color-interpolation-filters:sRGB"
       id="filter1213"
       x="-0.12585662"
       width="1.2517133"
       y="-0.1122164"
       height="1.2244328">
      <feGaussianBlur
         inkscape:collect="always"
         stdDeviation="1.5985037"
         id="feGaussianBlur1215" />
    </filter>
  </defs>
  <sodipodi:namedview
     pagecolor="#ffffff"
     bordercolor="#666666"
     borderopacity="1"
     objecttolerance="10"
     gridtolerance="10"
     guidetolerance="10"
     inkscape:pageopacity="0"
     inkscape:pageshadow="2"
     inkscape:window-width="1920"
     inkscape:window-height="1022"
     id="namedview4"
     showgrid="false"
     inkscape:zoom="0.36821366"
     inkscape:cx="1059.201"
     inkscape:cy="590.87562"
     inkscape:window-x="0"
     inkscape:window-y="0"
     inkscape:window-maximized="1"
     inkscape:current-layer="layer1" />
  <g
     inkscape:groupmode="layer"
     id="layer2"
     inkscape:label="artwork"
     sodipodi:insensitive="true">
    <image
       xlink:href="../gfx_Pepper-and-Carrot_by-David-Revoy_E17P02.png"
       width="2481"
       height="3503"
       id="image10"
       x="0"
       y="0" />
  </g>
  <g
     inkscape:groupmode="layer"
     id="layer3"
     inkscape:label="speechbubbles">
    <path
       style="color:#000000;display:inline;overflow:visible;visibility:visible;fill:#ffffff;fill-opacity:1;fill-rule:nonzero;stroke:none;stroke-width:1.12106395px;marker:none;enable-background:accumulate"
       d="M 79.424341,1061.9996 C 69.010794,937.05579 271.85167,970.84379 372.0381,972.43199 c 113.66001,5.53963 245.16066,1.76807 234.58095,119.38251 -9.13901,27.6653 -18.2782,56.9583 -51.17914,66.7225 -32.90111,9.7644 -266.86367,22.7834 -305.24815,16.2739 -38.38449,-6.5095 -100.53091,-8.137 -133.43168,-27.6655 -33.354973,-19.798 -35.507997,-45.2749 -37.335739,-85.1458 z"
       id="path3373"
       inkscape:connector-curvature="0"
       sodipodi:nodetypes="cccsssc" />
    <path
       style="color:#000000;display:inline;overflow:visible;visibility:visible;fill:#ffffff;fill-opacity:1;fill-rule:nonzero;stroke:none;stroke-width:1px;marker:none;enable-background:accumulate"
       d="m 137.43952,1281.1894 c 5.02505,-84.8744 82.18757,-148.0358 285.69886,-135.0319 109.0116,6.9655 232.72982,10.7773 226.63165,135.0941 -6.09829,124.3165 -183.84491,123.6997 -220.48302,127.1358 -36.63808,3.4364 -227.90605,-6.8184 -261.98779,-48.5824 -21.33438,-26.1432 -30.043,-52.3494 -29.8597,-78.6156 z"
       id="path4546-6"
       inkscape:connector-curvature="0"
       sodipodi:nodetypes="cssssc" />
    <path
       style="color:#000000;display:inline;overflow:visible;visibility:visible;fill:#ffffff;fill-opacity:1;fill-rule:nonzero;stroke:none;stroke-width:1px;marker:none;enable-background:accumulate"
       d="m 587.23586,1174.1904 c 51.27116,-41.1633 149.8778,-85.2003 264.98554,-18.484 117.45563,-13.9265 159.1674,-5.368 226.1925,56.8954 -72.139,-47.9191 -116.24059,-67.2081 -241.86362,-37.1297 -45.09623,-48.2708 -163.72454,-46.4191 -206.10579,10.6331 -42.38126,57.0523 -17.46921,58.1114 -17.46921,58.1114 l -39.32225,-53.5754 z"
       id="path5074"
       inkscape:connector-curvature="0"
       sodipodi:nodetypes="ccccsccc" />
    <path
       style="color:#000000;display:inline;overflow:visible;visibility:visible;fill:#ffffff;fill-opacity:1;fill-rule:nonzero;stroke:none;stroke-width:1.06389165px;marker:none;enable-background:accumulate"
       d="m 1785.7175,1685.7047 c -12.5237,-70.301 20.8728,-257.0377 277.6105,-241.6594 256.7374,15.3782 298.4835,103.2543 304.7454,129.6172 6.2618,26.3629 60.5316,175.7524 -139.8488,215.2968 -200.3807,39.5441 -379.8881,-2.1971 -442.5071,-103.2546 z"
       id="path3525"
       inkscape:connector-curvature="0" />
    <path
       style="color:#000000;display:inline;overflow:visible;visibility:visible;fill:#ffffff;fill-opacity:1;fill-rule:nonzero;stroke:none;stroke-width:1px;marker:none;enable-background:accumulate"
       d="m 1598.781,1488.4356 c 103.1765,71.0884 211.139,127.9333 303.5843,70.4763 92.7461,-57.644 107.3574,-10.2915 107.3574,-10.2915 l -114.9117,66.5528 c -85.3574,-3.2446 -142.9698,20.7038 -296.03,-126.7376 z"
       id="path3072-1"
       inkscape:connector-curvature="0"
       sodipodi:nodetypes="csccc" />
    <path
       style="fill:#ffffff;fill-rule:evenodd;stroke:none;stroke-width:1px;stroke-linecap:butt;stroke-linejoin:miter;stroke-opacity:1"
       d="m 2030.9983,3027.9635 c -33.5231,-8.8446 -36.6118,-19.1954 -7.9661,-31.117 -31.63,-0.3537 -26.6086,-7.5288 -13.0384,-16.2951 -48.7814,-33.3859 -44.8466,-63.6391 -39.6718,-93.8186 -37.7987,23.0691 -45.339,-0.5425 -59.5058,-13.9312 -1.3462,34.3429 -10.7829,14.9738 -22.4772,-19.3825 0.6836,43.7411 -4.9525,48.6783 -16.3515,18.2301 -2.5044,28.4283 -11.466,41.3998 -27.8494,36.6044 -21.2683,31.3586 -39.4626,0.5515 -58.6507,-10.1626 -0.1259,29.0887 -12.3134,33.0944 -28.3465,29.1034 -4.1842,13.367 -5.5738,31.6068 -29.0722,11.3022 0.8401,23.773 -11.7542,10.0336 -20.2199,7.8218 12.024,10.5007 -3.1632,18.257 -49.6505,22.8565 18.8597,2.253 19.4374,11.4876 -1.5623,28.9626 28.7597,5.1995 31.5456,19.2875 20.6865,38.0447 34.7874,14.8671 9.585,44.3373 -0.6484,70.1638 28.0588,-18.2808 52.3366,-24.2698 64.9862,7.5432 40.4487,-37.8172 36.651,-21.8438 34.8706,-8.3228 21.8397,-38.5885 26.0714,-10.7477 35.5465,-2.6881 70.0598,-58.7628 75.6409,-18.7362 96.3058,-1.8206 -3.1596,-46.7053 16.996,-33.6847 37.2481,-20.4173 -8.7043,-37.8936 3.6157,-29.4619 15.4961,-21.9985 -2.2396,-16.7495 6.424,-24.0969 29.7885,-18.7673 -17.8911,-9.4802 -9.101,-14.2565 40.0824,-11.9111 z"
       id="path4289"
       inkscape:connector-curvature="0"
       sodipodi:nodetypes="cccccccccccccccccccccccc" />
    <path
       style="display:inline;fill:#ffffff;fill-rule:evenodd;stroke:none;stroke-width:1px;stroke-linecap:butt;stroke-linejoin:miter;stroke-opacity:1"
       d="m 944.59158,2945.1398 c 51.19432,29.1744 80.35532,17.3104 79.47652,-50.5046 24.4245,73.2824 41.374,89.6722 51.4261,53.5655 32.3364,31.0352 52.5332,22.3296 68.5681,0 5.9766,28.7174 18.7935,17.1289 29.8858,15.7025 3.6534,6.4971 -8.8944,22.6388 41.7989,1.1324 3.2837,8.5996 7.7071,16.0053 37.4007,-3.0609 7.6927,34.9048 32.3744,-1.9345 57.6596,-41.322 -15.7534,48.4236 -9.2211,55.2631 10.9086,36.7306 -9.2032,19.9412 -14.7076,35.378 20.2586,1.5305 -11.9706,36.8074 19.4344,11.543 70.1265,-41.3219 -25.357,39.0774 -92.5979,104.9393 -48.3093,99.4787 -6.1763,11.5201 -28.2069,21.5573 37.4007,39.7915 -12.248,7.8173 -49.641,-3.6061 -18.4485,29.4926 4.1791,3.869 -9.8117,6.2317 16.8902,16.4206 -15.7624,-0.6931 -25.4291,1.7832 -10.9086,16.8349 -28.7722,-0.8139 -18.0069,15.0132 3.1168,35.2001 -41.6662,-25.894 -43.9592,-16.483 -45.1927,-6.1217 -52.2199,-35.3024 -55.2853,-24.1877 -62.3345,-16.8349 -25.4533,0.2754 -50.9066,-4.1702 -76.36,35.2002 -6.6659,-24.4874 -20.0302,-43.3362 -76.3598,-26.0175 24.733,-31.1522 -10.4529,-11.305 -37.4007,1.5304 14.7571,-38.9168 -22.6945,-13.3758 -70.1265,24.4871 26.5617,-42.975 -3.6061,-27.4515 -48.3093,3.0609 16.8902,-42.2187 -10.61718,-62.6362 -76.35988,-64.2786 31.46647,-15.2288 49.81597,-34.3938 17.1421,-68.8699 36.83278,10.1516 47.81948,0.7222 21.81704,-36.7306 40.17474,30.7409 21.90881,-13.8473 6.23352,-55.0959 z"
       id="path4508"
       inkscape:connector-curvature="0"
       sodipodi:nodetypes="cccccccccccccccccccccccccccc" />
    <path
       style="color:#000000;display:inline;overflow:visible;visibility:visible;fill:#ffffff;fill-opacity:1;fill-rule:nonzero;stroke:none;stroke-width:1.02661419px;marker:none;enable-background:accumulate"
       d="m 1038.5906,3024.7311 c 1.9972,-33.5618 10.9491,-33.2742 41.7718,-2.9174 -8.1334,-59.8527 33.249,-62.6826 71.8168,-68.7536 -4.4234,-16.8173 -21.4999,-36.1317 6.1831,-46.6133 -14.8692,-10.0236 -14.9173,-23.3587 -1.7409,-39.6483 -30.7826,7.762 -42.3611,2.9834 -5.9533,-33.1325 -34.3625,20.5177 -67.269,38.7833 -54.3095,-13.9022 -13.012,7.1709 -20.2715,48.8823 -71.2347,-27.4155 -0.577,35.132 -51.71421,64.0361 -76.82731,18.6848 12.71359,37.7877 -28.96092,81.1515 -48.50255,50.8124 11.6088,21.1842 2.0141,41.9008 -12.61462,45.371 41.53377,5.6051 33.20162,18.4458 4.45119,39.7483 85.54669,3.3251 38.46822,24.4881 38.88746,38.814 52.07783,-13.1758 48.7309,13.592 56.18684,33.4355 49.59459,-60.5277 34.52739,-49.7164 51.88569,5.5168 z"
       id="path3549-3"
       inkscape:connector-curvature="0"
       sodipodi:nodetypes="ccccccccccccccc" />
    <path
       style="color:#000000;display:inline;overflow:visible;visibility:visible;fill:#ffffff;fill-opacity:1;fill-rule:nonzero;stroke:none;stroke-width:1px;marker:none;enable-background:accumulate"
       d="m 1269.3957,2763.3018 c -26.1522,36.9012 -46.8971,78.302 -79.3319,109.9753 l 39.1635,-9.8688 c -5.4563,17.5055 -20.6662,29.6804 -32.5642,43.6655 l 25.2547,-1.9964 c -13.3891,41.1505 -40.934,70.0174 -61.6368,104.8213 l 43.7044,-7.0626 c 16.7451,-37.7274 27.0981,-77.8041 51.033,-112.8889 l -24.8923,-0.6188 c 6.5411,-13.3013 13.6301,-26.3553 23.1666,-38.3053 l -31.2879,2.0537 z"
       id="path4032"
       inkscape:connector-curvature="0"
       sodipodi:nodetypes="cccccccccccc" />
  </g>
  <g
     inkscape:groupmode="layer"
     id="layer1"
     inkscape:label="txt">
    <text
       xml:space="preserve"
       style="font-style:normal;font-variant:normal;font-weight:normal;font-stretch:normal;line-height:0%;font-family:Lavi;-inkscape-font-specification:Lavi;text-align:center;letter-spacing:0px;word-spacing:0px;text-anchor:middle;fill:#000000;fill-opacity:1;stroke:none"
       x="342.59747"
       y="1041.3605"
       id="text4246"><tspan
         sodipodi:role="line"
         style="font-size:45px;line-height:1.25"
         x="342.59747"
         y="1041.3605"
         id="tspan4175">Nå, lad os flyve til</tspan><tspan
         sodipodi:role="line"
         style="font-size:45px;line-height:1.25"
         x="342.59747"
         y="1097.6105"
         id="tspan76">månenedgangenes land.</tspan></text>
    <text
       xml:space="preserve"
       style="font-style:normal;font-variant:normal;font-weight:normal;font-stretch:normal;line-height:0%;font-family:Lavi;-inkscape-font-specification:Lavi;text-align:center;letter-spacing:0px;word-spacing:0px;text-anchor:middle;fill:#000000;fill-opacity:1;stroke:none"
       x="398.66898"
       y="1227.173"
       id="text4246-6"><tspan
         sodipodi:role="line"
         style="font-size:45px;line-height:1.25"
         x="398.66898"
         y="1227.173"
         id="tspan4220">Shichimi vil fortælle</tspan><tspan
         sodipodi:role="line"
         style="font-size:45px;line-height:1.25"
         x="398.66898"
         y="1283.423"
         id="tspan91">os, hvordan vi kommer</tspan><tspan
         sodipodi:role="line"
         style="font-size:45px;line-height:1.25"
         x="398.66898"
         y="1339.673"
         id="tspan97">ind hos Ah-heksene.</tspan></text>
    <text
       xml:space="preserve"
       style="font-style:normal;font-variant:normal;font-weight:normal;font-stretch:normal;line-height:0%;font-family:Lavi;-inkscape-font-specification:Lavi;text-align:center;letter-spacing:0px;word-spacing:0px;text-anchor:middle;fill:#000000;fill-opacity:1;stroke:none"
       x="2086.5127"
       y="1547.0598"
       id="text4246-6-9"><tspan
         sodipodi:role="line"
         style="font-size:45px;line-height:1.25"
         x="2086.5127"
         y="1547.0598"
         id="tspan4305">Carrot, find kortet og</tspan><tspan
         sodipodi:role="line"
         style="font-size:45px;line-height:1.25"
         x="2086.5127"
         y="1603.3098"
         id="tspan131">kompasset frem: der er</tspan><tspan
         sodipodi:role="line"
         style="font-size:45px;line-height:1.25"
         x="2086.5127"
         y="1659.5598"
         id="tspan135">for mange skyer og jeg</tspan><tspan
         sodipodi:role="line"
         style="font-size:45px;line-height:1.25"
         x="2086.5127"
         y="1715.8098"
         id="tspan79">kan ikke se,</tspan><tspan
         sodipodi:role="line"
         style="font-size:45px;line-height:1.25"
         x="2086.5127"
         y="1772.0598"
         id="tspan72">hvor jeg flyver.</tspan></text>
    <text
       xml:space="preserve"
       style="font-style:normal;font-variant:normal;font-weight:normal;font-stretch:normal;line-height:0%;font-family:Lavi;-inkscape-font-specification:Lavi;text-align:center;letter-spacing:0px;word-spacing:0px;text-anchor:middle;fill:#000000;fill-opacity:1;stroke:none"
       x="1949.7035"
       y="1557.4618"
       id="text4246-6-9-6"><tspan
         sodipodi:role="line"
         style="font-size:45px;line-height:1.25"
         x="1957.6136"
         y="1557.4618"
         id="tspan4297"> </tspan></text>
    <text
       xml:space="preserve"
       style="font-style:normal;font-variant:normal;font-weight:normal;font-stretch:normal;line-height:0%;font-family:Lavi;-inkscape-font-specification:Lavi;text-align:center;letter-spacing:0px;word-spacing:0px;text-anchor:middle;fill:#000000;fill-opacity:1;stroke:#000000;stroke-width:2.4000001;stroke-miterlimit:4;stroke-dasharray:none;stroke-opacity:1"
       x="1274.8707"
       y="2718.4683"
       id="text4246-6-9-0"
       transform="matrix(0.92763131,0,-0.05816983,1.0780145,0,0)"><tspan
         sodipodi:role="line"
         style="font-size:59.70701599px;line-height:1.25;stroke:#000000;stroke-width:2.4000001;stroke-miterlimit:4;stroke-dasharray:none;stroke-opacity:1"
         x="1274.8707"
         y="2718.4683"
         id="tspan4305-5">Pokkers!</tspan></text>
    <text
       xml:space="preserve"
       style="font-style:normal;font-variant:normal;font-weight:normal;font-stretch:normal;line-height:0%;font-family:Lavi;-inkscape-font-specification:Lavi;text-align:center;letter-spacing:0px;word-spacing:0px;text-anchor:middle;fill:#000000;fill-opacity:1;stroke:none"
       x="1159.3977"
       y="3033.4504"
       id="text4246-6-9-8"><tspan
         sodipodi:role="line"
         style="font-size:45px;line-height:1.25"
         x="1159.3977"
         y="3033.4504"
         id="tspan4395">Turbulens!</tspan></text>
    <text
       xml:space="preserve"
       style="font-style:normal;font-variant:normal;font-weight:normal;font-stretch:normal;line-height:0%;font-family:Lavi;-inkscape-font-specification:Lavi;text-align:center;letter-spacing:0px;word-spacing:0px;text-anchor:middle;fill:#000000;fill-opacity:1;stroke:#000000;stroke-width:2.4000001;stroke-miterlimit:4;stroke-dasharray:none;stroke-opacity:1"
       x="2000.7388"
       y="2945.4189"
       id="text4246-6-9-8-8"
       transform="matrix(0.95440174,0,-0.25660426,1.0477768,0,0)"><tspan
         sodipodi:role="line"
         style="font-size:42.94808197px;line-height:1.25;stroke:#000000;stroke-width:2.4000001;stroke-miterlimit:4;stroke-dasharray:none;stroke-opacity:1"
         x="2000.7388"
         y="2945.4189"
         id="tspan4395-0">HOLD FAST!</tspan></text>
    <text
       xml:space="preserve"
       style="font-style:normal;font-variant:normal;font-weight:normal;font-stretch:normal;line-height:0%;font-family:Lavi;-inkscape-font-specification:Lavi;text-align:center;letter-spacing:0px;word-spacing:0px;text-anchor:middle;fill:#000000;fill-opacity:1;stroke:none;stroke-width:3.20000005;stroke-miterlimit:4;stroke-dasharray:none"
       x="1720.8666"
       y="3392.7578"
       id="text4246-6-9-0-4"
       transform="matrix(0.95609098,-0.27508698,0.05700764,1.0295233,0,0)"><tspan
         sodipodi:role="line"
         style="font-size:59.70701599px;line-height:1.25;stroke:#000000;stroke-width:4.24583244;stroke-miterlimit:4;stroke-dasharray:none;stroke-opacity:1"
         x="1720.8666"
         y="3392.7578"
         id="tspan4305-5-1">Åh nej!!!</tspan></text>
    <path
       style="color:#000000;display:inline;overflow:visible;visibility:visible;fill:#ffffff;fill-opacity:1;fill-rule:nonzero;stroke:none;stroke-width:1px;marker:none;enable-background:accumulate"
       d="m 1981.554,2965.8845 c -2.8344,-2.7596 17.6625,-50.4745 17.6625,-50.4745 0,0 0.362,-14.576 1.0191,-17.668 7.9691,-5.303 20.5629,-9.8345 20.5629,-9.8345 l -1.9493,-38.8861 -7.2418,31.926 -20.2953,2.7706 -1.7964,23.9372 -36.789,19.3605 z"
       id="path4448"
       inkscape:connector-curvature="0"
       sodipodi:nodetypes="cccccccccc" />
    <text
       xml:space="preserve"
       style="font-style:normal;font-variant:normal;font-weight:normal;font-stretch:normal;line-height:0%;font-family:Lavi;-inkscape-font-specification:Lavi;letter-spacing:0px;word-spacing:0px;fill:#ffffff;fill-opacity:1;stroke:#98b9ca;stroke-width:0.99236238;stroke-miterlimit:4;stroke-dasharray:none;stroke-opacity:1;filter:url(#filter4375-4-1-1-1-9-5)"
       x="787.65729"
       y="1584.5073"
       id="text4580-6"
       transform="matrix(1.1343276,-0.33045224,-0.48810103,1.5185556,1536.754,63.643285)"><tspan
         sodipodi:role="line"
         id="tspan4582-1"
         x="787.65729"
         y="1584.5073"
         style="font-size:70px;line-height:1.25;fill:#ffffff;fill-opacity:1;stroke:#98b9ca;stroke-opacity:1"><tspan
           style="font-size:93.14950562px;fill:#ffffff;fill-opacity:1;stroke:#98b9ca;stroke-opacity:1"
           id="tspan4315">BrrOoooOoo!</tspan><tspan
           style="font-size:114.73223114px;fill:#ffffff;fill-opacity:1;stroke:#98b9ca;stroke-opacity:1"
           id="tspan4313">!</tspan></tspan></text>
    <flowRoot
       xml:space="preserve"
       id="flowRoot63"
       style="fill:black;fill-opacity:1;stroke:none;font-family:sans-serif;font-style:normal;font-weight:normal;font-size:5.33333333px;line-height:1.25;letter-spacing:0px;word-spacing:0px"><flowRegion
         id="flowRegion65"><rect
           id="rect67"
           width="7.4811897"
           height="12.468649"
           x="-169.57362"
           y="1019.2451" /></flowRegion><flowPara
         id="flowPara69" /></flowRoot>    <flowRoot
       xml:space="preserve"
       id="flowRoot996"
       style="fill:black;fill-opacity:1;stroke:none;font-family:sans-serif;font-style:normal;font-weight:normal;font-size:5.33333333px;line-height:1.25;letter-spacing:0px;word-spacing:0px"><flowRegion
         id="flowRegion998"><rect
           id="rect1000"
           width="0"
           height="22.443569"
           x="1134.6471"
           y="3071.5847" /></flowRegion><flowPara
         id="flowPara1002" /></flowRoot>    <flowRoot
       xml:space="preserve"
       id="flowRoot68"
       style="fill:black;fill-opacity:1;stroke:none;font-family:sans-serif;font-style:normal;font-weight:normal;font-size:5.33333333px;line-height:1.25;letter-spacing:0px;word-spacing:0px"><flowRegion
         id="flowRegion70"><rect
           id="rect72"
           width="15.17037"
           height="9.1022224"
           x="2360.5095"
           y="1640.0786" /></flowRegion><flowPara
         id="flowPara74" /></flowRoot>    <ellipse
       style="color:#000000;clip-rule:nonzero;display:inline;overflow:visible;visibility:visible;opacity:1;isolation:auto;mix-blend-mode:normal;color-interpolation:sRGB;color-interpolation-filters:linearRGB;solid-color:#000000;solid-opacity:1;vector-effect:none;fill:#ccc0b2;fill-opacity:1;fill-rule:nonzero;stroke:none;stroke-width:0.81906337;stroke-linecap:butt;stroke-linejoin:miter;stroke-miterlimit:4;stroke-dasharray:none;stroke-dashoffset:0;stroke-opacity:1;marker:none;paint-order:markers stroke fill;filter:url(#filter1213);color-rendering:auto;image-rendering:auto;shape-rendering:auto;text-rendering:auto;enable-background:accumulate"
       id="path1007"
       cx="-1314.3951"
       cy="2284.5508"
       rx="13.22963"
       ry="18.621227"
       transform="matrix(0.72758993,-0.68601232,0.6318505,0.77509028,-4.0245567e-7,-3.4202376e-6)" />
    <text
       xml:space="preserve"
       style="font-style:normal;font-variant:normal;font-weight:normal;font-stretch:normal;line-height:0%;font-family:Lavi;-inkscape-font-specification:Lavi;text-align:center;letter-spacing:0px;word-spacing:0px;text-anchor:middle;display:inline;opacity:0.6;fill:#230800;fill-opacity:1;stroke:#0a0a0a;stroke-width:1.12461436;stroke-opacity:1;filter:url(#filter1003)"
       x="-447.29675"
       y="2872.5061"
       id="text4246-85"
       transform="matrix(0.48659421,0.56934496,-0.54012331,0.48694312,2248.6279,1535.5146)"><tspan
         sodipodi:role="line"
         style="font-style:normal;font-variant:normal;font-weight:normal;font-stretch:normal;font-size:40.14243317px;line-height:126.99999809%;font-family:Fondamento;-inkscape-font-specification:Fondamento;fill:#230800;fill-opacity:1;stroke:#0a0a0a;stroke-width:1.28985012;stroke-opacity:1"
         x="-447.29675"
         y="2872.5061"
         id="tspan4172">N</tspan></text>
    <ellipse
       style="color:#000000;clip-rule:nonzero;display:inline;overflow:visible;visibility:visible;opacity:0.52600002;isolation:auto;mix-blend-mode:normal;color-interpolation:sRGB;color-interpolation-filters:linearRGB;solid-color:#000000;solid-opacity:1;vector-effect:none;fill:#d1c9bb;fill-opacity:1;fill-rule:nonzero;stroke:none;stroke-width:1.3879416;stroke-linecap:butt;stroke-linejoin:miter;stroke-miterlimit:4;stroke-dasharray:none;stroke-dashoffset:0;stroke-opacity:1;marker:none;paint-order:markers stroke fill;filter:url(#filter1551);color-rendering:auto;image-rendering:auto;shape-rendering:auto;text-rendering:auto;enable-background:accumulate"
       id="path1007-7"
       cx="-1314.3951"
       cy="2284.5508"
       rx="13.22963"
       ry="18.621227"
       transform="matrix(0.35584042,-0.48849033,0.3090174,0.55192026,261.42762,774.6165)" />
    <ellipse
       style="color:#000000;clip-rule:nonzero;display:inline;overflow:visible;visibility:visible;opacity:0.64299999;isolation:auto;mix-blend-mode:normal;color-interpolation:sRGB;color-interpolation-filters:linearRGB;solid-color:#000000;solid-opacity:1;vector-effect:none;fill:#e4e0d9;fill-opacity:1;fill-rule:nonzero;stroke:none;stroke-width:1.3879416;stroke-linecap:butt;stroke-linejoin:miter;stroke-miterlimit:4;stroke-dasharray:none;stroke-dashoffset:0;stroke-opacity:1;marker:none;paint-order:markers stroke fill;filter:url(#filter1607);color-rendering:auto;image-rendering:auto;shape-rendering:auto;text-rendering:auto;enable-background:accumulate"
       id="path1007-7-5"
       cx="-1314.3951"
       cy="2284.5508"
       rx="13.22963"
       ry="18.621227"
       transform="matrix(0.35584042,-0.48849033,0.3090174,0.55192026,236.07502,765.93)" />
  </g>
</svg>
