{
   "credits": {
      "translation":[
         "Nick",
         "Name"
      ],
      "proofreading":[
         "Nick",
         "Name"
      ],
      "editing":[
         "Nick",
         "Name"
      ]
   },
   "notes":[
      {
         "author": "The Artist",
         "text":[
            "Paragraph 1 - no line breaks allowed in JSON",
            "Paragraph 2 - no line breaks allowed in JSON"
         ]
      }
   ]
}
