<?xml version="1.0" encoding="UTF-8" standalone="no"?>
<!-- Created with Inkscape (http://www.inkscape.org/) -->

<svg
   xmlns:dc="http://purl.org/dc/elements/1.1/"
   xmlns:cc="http://creativecommons.org/ns#"
   xmlns:rdf="http://www.w3.org/1999/02/22-rdf-syntax-ns#"
   xmlns:svg="http://www.w3.org/2000/svg"
   xmlns="http://www.w3.org/2000/svg"
   xmlns:xlink="http://www.w3.org/1999/xlink"
   xmlns:sodipodi="http://sodipodi.sourceforge.net/DTD/sodipodi-0.dtd"
   xmlns:inkscape="http://www.inkscape.org/namespaces/inkscape"
   id="svg2"
   version="1.1"
   inkscape:version="0.92.3 (2405546, 2018-03-11)"
   width="2481"
   height="3503"
   sodipodi:docname="E32P05.svg">
  <metadata
     id="metadata8">
    <rdf:RDF>
      <cc:Work
         rdf:about="">
        <dc:format>image/svg+xml</dc:format>
        <dc:type
           rdf:resource="http://purl.org/dc/dcmitype/StillImage" />
        <dc:title />
      </cc:Work>
    </rdf:RDF>
  </metadata>
  <defs
     id="defs6">
    <filter
       style="color-interpolation-filters:sRGB"
       id="filter4375-4-1-1-1-9-6-9-2-1-7-1"
       inkscape:label="deevad outline effect">
      <feFlood
         id="feFlood4377-7-9-0-8-1-0-2-2-06-3-9"
         flood-opacity="1"
         flood-color="rgb(0,0,0)"
         result="flood" />
      <feComposite
         id="feComposite4379-3-8-8-2-77-6-0-8-3-6-4"
         in2="SourceGraphic"
         in="flood"
         operator="in"
         result="composite1" />
      <feMorphology
         id="feMorphology4393-1-0-49-8-9-2-2-9-2-1-7"
         operator="dilate"
         radius="4"
         result="result3" />
      <feComposite
         id="feComposite4385-9-5-7-0-8-6-3-7-0-2-8"
         in2="result3"
         in="SourceGraphic"
         operator="over"
         result="composite2" />
    </filter>
    <filter
       style="color-interpolation-filters:sRGB"
       id="filter4375-4-1-1-1-9-6-9-2-1-7-1-2"
       inkscape:label="deevad outline effect">
      <feFlood
         id="feFlood4377-7-9-0-8-1-0-2-2-06-3-9-7"
         flood-opacity="1"
         flood-color="rgb(0,0,0)"
         result="flood" />
      <feComposite
         id="feComposite4379-3-8-8-2-77-6-0-8-3-6-4-0"
         in2="SourceGraphic"
         in="flood"
         operator="in"
         result="composite1" />
      <feMorphology
         id="feMorphology4393-1-0-49-8-9-2-2-9-2-1-7-9"
         operator="dilate"
         radius="4"
         result="result3" />
      <feComposite
         id="feComposite4385-9-5-7-0-8-6-3-7-0-2-8-3"
         in2="result3"
         in="SourceGraphic"
         operator="over"
         result="composite2" />
    </filter>
    <filter
       style="color-interpolation-filters:sRGB"
       id="filter4375-4-1-1-1-9"
       inkscape:label="deevad outline effect">
      <feFlood
         id="feFlood4377-7-9-0-8-1"
         flood-opacity="1"
         flood-color="rgb(0,0,0)"
         result="flood" />
      <feComposite
         id="feComposite4379-3-8-8-2-77"
         in2="SourceGraphic"
         in="flood"
         operator="in"
         result="composite1" />
      <feMorphology
         id="feMorphology4393-1-0-49-8-9"
         operator="dilate"
         radius="4"
         result="result3" />
      <feComposite
         id="feComposite4385-9-5-7-0-8"
         in2="result3"
         in="SourceGraphic"
         operator="over"
         result="composite2" />
    </filter>
    <filter
       inkscape:collect="always"
       style="color-interpolation-filters:sRGB"
       id="filter1101"
       x="-0.12972304"
       width="1.2594461"
       y="-0.36928496"
       height="1.7385699">
      <feGaussianBlur
         inkscape:collect="always"
         stdDeviation="22.559027"
         id="feGaussianBlur1103" />
    </filter>
  </defs>
  <sodipodi:namedview
     pagecolor="#ffffff"
     bordercolor="#666666"
     borderopacity="1"
     objecttolerance="10"
     gridtolerance="10"
     guidetolerance="10"
     inkscape:pageopacity="0"
     inkscape:pageshadow="2"
     inkscape:window-width="1920"
     inkscape:window-height="1022"
     id="namedview4"
     showgrid="false"
     inkscape:zoom="0.52900001"
     inkscape:cx="1280.3371"
     inkscape:cy="696.74607"
     inkscape:window-x="0"
     inkscape:window-y="0"
     inkscape:window-maximized="1"
     inkscape:current-layer="layer1"
     inkscape:snap-global="false" />
  <g
     inkscape:groupmode="layer"
     id="layer2"
     inkscape:label="artwork"
     sodipodi:insensitive="true">
    <image
       sodipodi:absref="/home/peppercarrot/webcomics/"
       xlink:href="../gfx_Pepper-and-Carrot_by-David-Revoy_E32P05.png"
       width="2481"
       height="3503"
       id="image10"
       x="0"
       y="0" />
  </g>
  <g
     inkscape:groupmode="layer"
     id="layer3"
     inkscape:label="speechbubbles"
     style="display:inline">
    <path
       style="display:inline;fill:#ffffff;fill-rule:evenodd;stroke:none;stroke-width:1.04378688px;stroke-linecap:butt;stroke-linejoin:miter;stroke-opacity:1"
       d="m 1154.352,1463.957 c -1.061,10.9428 -0.3481,22.5718 -6.077,32.5871 -7.4953,10.9342 -21.7078,16.623 -35.4292,17.0951 -12.9372,0.5421 -25.9628,-1.3381 -38.1565,-5.3189 -3.5651,1.8776 -2.6619,6.844 0.3161,8.8192 6.9626,9.2679 13.9461,19.4396 14.3985,31.0363 0.813,8.0174 -3.3342,17.061 -11.8134,20.2527 -6.4172,2.5551 -13.5773,2.0176 -20.382,1.6848 1.8107,3.2226 5.5122,4.9871 7.8188,7.8619 4.8534,4.5439 9.6752,10.4496 8.7607,17.1846 -1.3325,9.2375 -9.824,16.5786 -19.3953,18.8827 -3.596,1.6961 -7.1919,3.3923 -10.7879,5.0884 17.7545,-0.8155 35.9684,-2.7152 53.3637,1.7226 9.7677,3.3543 12.36,16.9548 4.4388,23.1699 -5.9321,6.3539 -13.3392,11.3083 -20.1469,16.8125 25.4934,-3.4291 50.9545,-9.3587 76.909,-7.7721 7.028,0.3856 14.5183,1.4594 19.9791,5.9033 4.5467,3.3093 8.148,7.6649 10.5564,12.5017 8.1105,2.6087 16.5625,-0.3538 24.3363,-2.5664 17.9092,-5.4376 35.1163,-12.9953 53.6964,-16.4376 3.9096,0.7788 7.1768,3.5474 8.5947,6.9493 8.7324,2.2412 17.4142,-1.3097 25.9233,-2.7571 6.7988,-1.3461 13.6534,-2.7699 20.644,-2.8015 3.3769,3.638 7.8951,7.4776 13.5185,6.9019 16.8096,0.835 34.1581,-0.6599 50.3683,4.3807 10.0816,4.1195 17.9401,11.8812 23.2554,20.6256 17.2233,-8.9909 32.0111,-22.0493 51.0252,-28.0098 13.0708,-4.3383 29.0783,-2.6979 39.4413,6.2522 2.9222,2.5261 5.4389,5.411 7.8217,8.3669 7.5971,-5.1811 14.1099,-12.4992 23.7306,-14.5117 14.0049,-3.9962 28.8784,-1.6573 42.8945,1.0176 12.3998,2.161 24.723,4.68 36.9809,7.4375 -6.6629,-5.1788 -12.2442,-12.5211 -12.2504,-20.8125 1.7882,-6.7253 9.3906,-11.6557 16.8956,-10.9355 -2.1471,-4.2752 -3.1531,-10.1594 0.8681,-13.7996 6.3837,-5.6264 15.654,-6.5322 24.0472,-7.2891 2.216,-0.2719 4.432,-0.5438 6.6482,-0.8156 -14.8688,-7.597 -18.9368,-28.2054 -7.8415,-40.0703 7.2965,-7.0826 16.3773,-12.34 25.6733,-16.9258 -13.3425,-0.6773 -26.8721,2.2892 -40.0643,-0.584 -7.367,-4.2904 -10.4354,-12.2299 -16.0177,-18.0419 -3.0926,-5.7999 0.087,-13.0044 5.6152,-16.5283 11.9247,-11.0312 23.3328,-22.641 32.6199,-35.6784 5.3904,-7.1868 10.3521,-14.6358 15.1317,-22.1752 -15.7783,19.6818 -37.802,35.769 -63.5895,42.6724 -8.5535,2.4632 -17.344,5.5553 -26.4723,4.5815 -4.5528,-1.9666 -8.4285,-5.992 -13.8314,-5.7344 -9.6203,3.3561 -19.2405,6.7122 -28.8609,10.0683 -2.8364,-2.0256 -4.9564,-4.8843 -5.9476,-8.0566 -9.2785,0.411 -18.8979,-1.0989 -26.8967,-5.6133 -3.9613,-5.9477 -4.5093,-13.616 -1.6385,-20.0469 -12.9414,8.4929 -24.1366,18.932 -36.2299,28.3672 -12.3391,-2.193 -22.5289,-10.7951 -35.4126,-10.9922 -34.7598,-2.6757 -69.7259,-5.4418 -104.6035,-3.0677 -16.8534,2.452 -33.8362,6.9416 -51.03,4.6844 -16.8348,-1.6019 -34.1039,-4.4384 -50.8494,-0.6881 -8.3753,1.796 -17.9342,2.7429 -25.5915,-1.6373 -12.2088,-6.4628 -19.9533,-17.6313 -29.0288,-27.1508 -2.494,-2.7756 -5.0563,-5.4987 -7.6608,-8.1873 -0.088,0.6992 -0.1774,1.3984 -0.2659,2.0976 z"
       id="path4508-9"
       inkscape:connector-curvature="0"
       sodipodi:nodetypes="cccccccccccccccccccccccccccccccccccccccccccccccccccc" />
    <path
       style="display:inline;fill:#ffffff;fill-rule:evenodd;stroke:none;stroke-width:1px;stroke-linecap:butt;stroke-linejoin:miter;stroke-opacity:1"
       d="m 1233.6858,1551.6001 c -0.6088,14.9763 -3.2662,30.4744 -11.6602,43.1992 -14.8841,9.9032 -36.2507,8.0436 -49.4355,-3.9336 -3.5264,1.0549 -2.8555,5.9619 -0.6573,7.9977 4.5653,13.7745 9.2425,27.5385 12.6592,41.6546 -4.4891,4.279 -12.8509,2.8847 -15.7109,-2.6171 1.3669,8.6577 9.0993,15.0735 9.2832,24.0527 -3.2425,6.8509 -9.0513,8.5402 -20.1223,10.7721 5.3124,6.4634 11.6281,13.6119 11.1957,22.5472 -0.3631,10.3506 -8.9731,18.5756 -18.2792,21.838 -1.2231,0.4177 -0.6879,1.3365 0.4206,1.0804 16.2988,2.5904 33.591,0.1279 49.0566,6.9673 11.0238,3.8318 20.4902,14.403 20.0294,26.5313 -0.1822,2.4172 -1.2404,4.6955 -1.2637,7.1289 9.9847,-3.685 19.8226,-8.7143 30.6621,-9.1211 4.3073,2.217 5.2329,8.9238 1.6113,12.1739 12.3713,-0.8761 21.0186,-12.6591 33.6085,-12.661 4.0678,-0.2209 7.9048,3.728 7.103,7.7668 1.9073,2.4778 5.7142,-3.4752 8.2321,-3.6732 7.151,-1.7096 6.0308,-2.3202 13.4965,-2.6628 2.6649,1.0566 6.0435,1.9214 9.2006,6.7575 5.2846,-1.6599 7.7002,-3.2964 11.075,-3.2618 10.9369,-1.9429 17.8423,-9.5681 33.1827,-4.0373 10.2139,2.6901 15.3882,11.4501 21.1071,16.5363 3.213,-4.9904 7.0279,-8.3773 10.3381,-11.6886 5.9591,-9.0484 17.0554,-11.7554 27.6095,-13.0204 9.0423,-2.4924 18.3923,1.1364 27.5402,4.914 5.5929,2.837 10.5635,6.8716 16.5087,9.009 4.6597,-2.9935 9.7234,-7.6176 15.7098,-5.8788 6.1907,1.2629 11.6117,4.7237 17.5988,6.6014 -3.5224,-5.2749 -9.0263,-9.9378 -9.4063,-16.6953 2.3004,-4.1426 7.1099,-5.7219 11.4043,-6.8906 -0.1977,-5.8386 4.5098,-10.7273 9.7383,-12.6035 1.1008,-4.2932 -3.8743,-6.3524 -5.477,-9.6772 -3.9437,-6.1856 -2.2688,-16.333 5.1814,-18.9876 4.2904,-1.6863 9.1455,-1.1902 13.3366,-3.2024 -0.18,-3.6135 -4.6184,-3.559 -7.1933,-4.4551 -7.4747,-2.3525 -15.8691,-5.8666 -19.0964,-13.6003 -1.2904,-4.5717 2.4751,-8.5977 2.5784,-12.9751 -1.8945,-3.1602 -6.5169,-5.5187 -5.3945,-9.8157 2.7605,-12.6493 12.5356,-21.8467 19.4186,-32.3092 10.2942,-14.1637 20.5884,-28.3274 30.8825,-42.4911 -16.8501,16.7767 -33.636,33.8856 -53.2754,47.4531 -4.7205,-0.2747 -7.3913,-6.8783 -4.1894,-10.3574 -7.0666,1.8352 -11.903,7.7663 -18.2207,11.041 -2.5103,-3.2623 -2.1754,-8.188 0.4277,-11.2968 -3.2857,-2.8821 -7.7703,2.6571 -10.8867,-0.7012 -4.1229,-4.4836 -2.1442,-10.9601 -1.2201,-16.2618 1.0696,-5.1539 2.6476,-10.1858 3.7514,-15.332 -10.9786,12.8442 -18.6778,28.756 -32.5542,38.929 -2.3493,1.8328 -5.875,2.7874 -8.3192,0.5686 -2.3184,-1.538 -3.9576,-4.1363 -4.1598,-6.9312 -8.4207,0.8047 -15.8605,7.2402 -24.586,5.5059 -9.1981,-4.4956 -20.1094,-2.5912 -29.0762,1.5215 -8.6501,-0.014 -15.1645,-8.2277 -23.9999,-7.1392 -5.5099,-0.9398 -9.0403,-5.8572 -12.0604,-9.9732 -5.4418,-0.6012 -8.306,5.1911 -12.8891,6.9807 -11.1991,5.829 -25.3025,2.6338 -34.8428,-4.9761 -2.217,-2.1426 -5.4642,-4.8476 -8.624,-2.7953 -3.589,1.7483 -4.9906,6.6255 -9.0775,7.4051 -6.6505,0.772 -12.3358,-5.2245 -13.1622,-11.485 -7.2076,-15.108 -12.8116,-30.9005 -19.0472,-46.4174 -0.02,0.9974 -0.04,1.9948 -0.061,2.9922 z"
       id="path4508-9-6"
       inkscape:connector-curvature="0"
       sodipodi:nodetypes="cccccccccccccccccccccccccccccccccccccccccccccccccccccccccccccccc" />
    <path
       style="color:#000000;display:inline;overflow:visible;visibility:visible;fill:#ffffff;fill-opacity:1;fill-rule:nonzero;stroke:none;stroke-width:0.99999994px;marker:none;enable-background:accumulate"
       d="m 1322.5586,1728.1016 c -11.0094,9.9702 -17.1146,23.8053 -25.197,35.9928 -5.7365,9.1028 -17.9114,24.8135 -26.046,32.2016 7.6812,0.2097 5.7344,0.8326 10.9478,2.0534 3.3706,1.3513 7.7807,2.3941 9.3038,6.0235 -1.4478,7.677 -8.2527,12.4101 -13.2117,17.8317 -21.2393,19.7738 -50.3466,30.4414 -79.2715,30.188 30.5673,5.5836 63.676,0.269 89.5548,-17.4158 15.5847,-11.4657 31.0045,-29.6098 44.4036,-43.4287 -3.8521,-0.6581 -8.7325,-0.5391 -12.6274,-0.7071 -7.2015,-0.9549 -9.1708,-6.0664 -6.2213,-10.4154 3.8653,-10.2383 12.9809,-16.9751 20.7567,-24.1405 4.6114,-3.9349 9.2499,-7.8384 13.8074,-11.8359 -7.5773,-6.8137 -16.4342,-11.9448 -25.0566,-17.289 -0.3809,0.3138 -0.7617,0.6276 -1.1426,0.9414 z"
       id="path5066-6"
       inkscape:connector-curvature="0"
       sodipodi:nodetypes="ccccccccccccccc" />
    <path
       style="color:#000000;display:inline;overflow:visible;visibility:visible;fill:#ffffff;fill-opacity:1;fill-rule:nonzero;stroke:none;stroke-width:1.04165089px;marker:none;enable-background:accumulate"
       d="m 1441.916,355.47571 c -40.3573,1.70226 -81.1182,9.80974 -116.8749,28.67678 -14.4117,8.3815 -26.8741,21.6692 -30.2978,38.05656 -1.2873,16.13107 6.4208,32.05275 18.0844,43.20255 11.7862,10.50462 27.6074,15.13579 43.0315,17.71075 54.0434,11.98125 109.5989,16.3404 164.9401,16.33443 33.0806,1.22262 66.5295,1.65492 99.1582,-4.61259 22.2589,-3.01178 44.6384,-7.91532 64.5469,-18.41926 15.8318,-7.83386 29.2772,-21.64973 33.7795,-38.65618 2.9606,-13.01192 0.4612,-26.90282 -5.6218,-38.72148 -5.6156,-9.82968 -15.5482,-16.95386 -26.6152,-19.94306 -19.8261,-6.76551 -40.7899,-9.22622 -61.3589,-12.89762 -60.4514,-8.86517 -121.7367,-10.54689 -182.772,-10.73088 z"
       id="path3365-74"
       inkscape:connector-curvature="0"
       sodipodi:nodetypes="csssssc" />
    <path
       style="display:inline;fill:#ffffff;fill-rule:evenodd;stroke:none;stroke-width:1.12140763px;stroke-linecap:butt;stroke-linejoin:miter;stroke-opacity:1"
       d="m 1464.883,124.95235 c -32.3014,0.43719 -65.1812,-1.39303 -96.7424,7.91523 -21.067,6.26289 -40.726,22.01094 -49.979,44.79282 -6.5002,17.9106 -1.1266,39.26397 10.523,52.8237 6.452,7.65903 13.616,15.41373 22.7495,18.60398 8.4353,2.87854 17.3002,1.13249 25.9455,1.46592 15.8623,-0.15932 31.7217,0.50297 47.5443,1.71311 62.685,2.73816 125.437,1.8432 188.1418,0.64978 20.6846,-0.81358 41.9984,-2.14087 61.2357,-11.60774 12.2976,-6.51033 22.6829,-18.83769 25.6092,-34.14789 3.9505,-16.78868 1.0544,-36.50343 -10.3128,-48.85556 -10.6302,-11.87337 -24.6723,-18.74269 -38.5813,-24.1922 -18.3747,-6.56623 -37.8452,-7.25656 -56.9555,-6.82717 -25.1829,-0.42596 -50.3627,-1.01274 -75.538,-1.8348 -17.877,-0.50751 -35.7586,-0.54855 -53.64,-0.49918 z"
       id="path1297"
       inkscape:connector-curvature="0" />
    <path
       style="display:inline;fill:#ffffff;fill-rule:evenodd;stroke:none;stroke-width:1.11507702px;stroke-linecap:butt;stroke-linejoin:miter;stroke-opacity:1"
       d="m 1606.5108,208.38604 c -64.1819,2.36382 -128.3846,4.31977 -192.5349,7.3593 -16.4649,0.93053 -33.0205,1.35654 -49.2853,4.11747 -18.6589,3.01229 -37.2353,7.62554 -54.1757,15.60331 -15.0154,8.42151 -25.0868,22.23959 -34.5028,35.57617 -4.7148,6.6825 -7.9307,14.37755 -8.07,22.43246 -0.6914,13.87734 3.6751,27.43167 8.3563,40.45484 4.3084,11.01406 11.5926,21.14699 21.7353,28.26521 11.9945,8.98912 25.5496,16.62526 40.4999,20.4878 10.2666,2.67817 20.9999,2.98826 31.5922,2.68808 25.9024,-0.0612 51.804,0.0476 77.7057,0.12782 71.9516,-0.009 144.0337,0.0867 215.7742,-5.67886 15.1794,-1.26073 30.3191,-4.26979 44.3831,-9.79302 11.5593,-4.42698 21.32,-11.97797 29.9641,-20.20679 8.0313,-7.83016 14.2197,-17.65192 15.6017,-28.51841 2.6235,-15.53143 1.0172,-31.30416 1.8412,-46.93465 -0.7431,-12.50531 -8.6081,-23.83333 -19.0517,-31.44112 -15.5367,-13.0573 -34.3358,-23.27715 -55.0822,-27.05856 -16.2776,-3.31752 -32.8715,-5.09184 -49.4264,-6.72014 -8.4219,-0.63527 -16.8763,-0.87333 -25.3247,-0.76091 z"
       id="path1299"
       inkscape:connector-curvature="0" />
    <path
       style="display:inline;fill:#ffffff;fill-rule:evenodd;stroke:none;stroke-width:1px;stroke-linecap:butt;stroke-linejoin:miter;stroke-opacity:1"
       d="m 1516.8322,467.18878 c -6.6131,0.47706 -14.4131,0.53134 -19.0606,6.05273 -9.2681,15.84095 -16.7496,33.90699 -15.1611,52.61768 2.1917,20.11622 13.9704,37.89228 28.3815,51.53834 8.5346,8.09616 15.6793,18.09456 18.3938,29.69937 4.3317,16.40289 0.7816,35.11834 -10.8279,47.78415 -2.1207,2.52133 -4.4197,4.88481 -6.7453,7.21593 17.3235,-9.37091 31.4532,-26.25408 34.2349,-46.13162 1.2634,-15.92483 -6.122,-31.08454 -15.4694,-43.50249 -9.5013,-13.2266 -21.135,-25.79068 -25.2403,-41.97989 -3.1205,-17.66298 3.3092,-35.58183 12.9847,-50.18689 1.9316,-3.08666 4.9581,-6.76026 3.4836,-10.5888 -1.0225,-1.66362 -3.0088,-2.74768 -4.9739,-2.51851 z"
       id="path1303"
       inkscape:connector-curvature="0"
       sodipodi:nodetypes="cccccccc" />
    <path
       style="color:#000000;display:inline;overflow:visible;visibility:visible;fill:#ffffff;fill-opacity:1;fill-rule:nonzero;stroke:none;stroke-width:1px;marker:none;filter:url(#filter1101);enable-background:accumulate"
       d="m 2064.5541,245.38398 c -39.6392,1.7245 -79.6747,9.93788 -114.7951,29.05136 -14.1553,8.49097 -26.3959,21.95224 -29.7587,38.55366 -1.2644,16.34177 6.3065,32.47141 17.7626,43.76686 11.5765,10.64183 27.1161,15.33349 42.2658,17.94208 53.0817,12.13776 107.6486,16.55384 162.005,16.5478 32.4919,1.23859 65.3456,1.67653 97.3937,-4.67284 21.8628,-3.05112 43.8441,-8.01871 63.3983,-18.65986 15.5501,-7.93618 28.7562,-21.93251 33.1784,-39.16111 2.9079,-13.18188 0.453,-27.25422 -5.5218,-39.22726 -5.5156,-9.95807 -15.2715,-17.17531 -26.1416,-20.20356 -19.4733,-6.85388 -40.064,-9.34673 -60.267,-13.06608 -59.3757,-8.98097 -119.5704,-10.68466 -179.5196,-10.87105 z"
       id="path3365-74-3"
       inkscape:connector-curvature="0"
       sodipodi:nodetypes="csssssc" />
  </g>
  <g
     inkscape:groupmode="layer"
     id="layer1"
     inkscape:label="txt"
     style="display:inline">
    <text
       xml:space="preserve"
       style="font-style:normal;font-variant:normal;font-weight:normal;font-stretch:normal;line-height:0%;font-family:Lavi;-inkscape-font-specification:Lavi;text-align:center;letter-spacing:0px;word-spacing:0px;text-anchor:middle;fill:#000000;fill-opacity:1;stroke:none"
       x="1511.8088"
       y="175.70117"
       id="text4246-86"><tspan
         sodipodi:role="line"
         style="font-size:45px;line-height:1.20000005"
         x="1518.8401"
         y="175.70117"
         id="tspan1167">Ann an da-rìribh, </tspan><tspan
         sodipodi:role="line"
         style="font-size:45px;line-height:1.20000005"
         x="1511.8088"
         y="229.70117"
         id="tspan56">a Churrain?</tspan></text>
    <text
       xml:space="preserve"
       style="font-style:normal;font-variant:normal;font-weight:normal;font-stretch:normal;line-height:0%;font-family:Lavi;-inkscape-font-specification:Lavi;text-align:center;letter-spacing:0px;word-spacing:0px;text-anchor:middle;fill:#000000;fill-opacity:1;stroke:none"
       x="1510.4191"
       y="297.61816"
       id="text4246-86-3"><tspan
         sodipodi:role="line"
         style="font-size:45px;line-height:1.20000005"
         x="1517.4503"
         y="297.61816"
         id="tspan861">Tha mi ’n dòchas gum </tspan><tspan
         sodipodi:role="line"
         style="font-size:45px;line-height:1.20000005"
         x="1517.4503"
         y="351.61816"
         id="tspan54">b’ fhiach am biadh e. </tspan><tspan
         sodipodi:role="line"
         style="font-size:45px;line-height:1.20000005"
         x="1510.4191"
         y="369.00015"
         id="tspan855" /></text>
    <text
       xml:space="preserve"
       style="font-style:normal;font-variant:normal;font-weight:normal;font-stretch:normal;line-height:0%;font-family:Lavi;-inkscape-font-specification:Lavi;text-align:center;letter-spacing:0px;word-spacing:0px;text-anchor:middle;fill:#000000;fill-opacity:1;stroke:none"
       x="1512.1"
       y="419.07373"
       id="text4246-86-3-7"><tspan
         sodipodi:role="line"
         style="font-size:45px;line-height:1.20000005"
         x="1519.1312"
         y="419.07373"
         id="tspan855-5">Tha coltas </tspan><tspan
         sodipodi:role="line"
         style="font-size:45px;line-height:1.20000005"
         x="1512.1"
         y="473.07373"
         id="tspan58">sgrathail ort…</tspan></text>
    <text
       xml:space="preserve"
       style="font-style:normal;font-variant:normal;font-weight:normal;font-stretch:normal;line-height:0%;font-family:Lavi;-inkscape-font-specification:Lavi;letter-spacing:0px;word-spacing:0px;display:inline;fill:#ffffff;fill-opacity:1;stroke:#ffffff;stroke-width:1.14998245;stroke-miterlimit:4;stroke-dasharray:none;stroke-opacity:1;filter:url(#filter4375-4-1-1-1-9-6-9-2-1-7-1)"
       x="787.65729"
       y="1584.5073"
       id="text4580-1-7-3-6-9-4"
       transform="matrix(0.8084187,0.00200213,-0.18183537,0.93491494,1593.3651,-1147.577)"><tspan
         sodipodi:role="line"
         id="tspan4582-8-5-6-1-3-5"
         x="787.65729"
         y="1584.5073"
         style="font-size:70px;line-height:1.25;letter-spacing:3.44994736px;fill:#ffffff;fill-opacity:1;stroke:#ffffff;stroke-width:1.14998245;stroke-miterlimit:4;stroke-dasharray:none;stroke-opacity:1">…Tha coltas…</tspan></text>
    <text
       xml:space="preserve"
       style="font-style:normal;font-variant:normal;font-weight:normal;font-stretch:normal;font-size:13.85896969px;line-height:0%;font-family:Lavi;-inkscape-font-specification:Lavi;text-align:center;letter-spacing:0px;word-spacing:0px;text-anchor:middle;display:inline;fill:#000000;fill-opacity:1;stroke:none;stroke-width:3.5999999;stroke-miterlimit:4;stroke-dasharray:none"
       x="1771.8191"
       y="1411.5159"
       id="text4246-2-3-1-3-9-0-5-3-3-6-9-3-7-3-9-4"
       transform="matrix(0.87552816,0,-0.14342897,1.1421677,0,0)"><tspan
         sodipodi:role="line"
         style="font-style:normal;font-variant:normal;font-weight:bold;font-stretch:normal;font-size:64.97789001px;line-height:1.25;font-family:Lavi;-inkscape-font-specification:'Lavi Bold';stroke:none;stroke-width:3.5999999;stroke-miterlimit:4;stroke-dasharray:none;stroke-opacity:1"
         x="1771.8191"
         y="1411.5159"
         id="tspan4579-4">An riochd a th’ ort!</tspan></text>
    <text
       xml:space="preserve"
       style="font-style:normal;font-variant:normal;font-weight:normal;font-stretch:normal;font-size:12.51824951px;line-height:0%;font-family:Lavi;-inkscape-font-specification:Lavi;text-align:center;letter-spacing:0px;word-spacing:0px;text-anchor:middle;display:inline;fill:#000000;fill-opacity:1;stroke:none;stroke-width:3.5999999;stroke-miterlimit:4;stroke-dasharray:none"
       x="1618.0042"
       y="1589.5555"
       id="text4246-2-3-1-3-9-0-5-3-3-6-9-3-7-3-9-4-6"
       transform="matrix(0.92759422,0,-0.09976132,1.0780576,0,0)"><tspan
         sodipodi:role="line"
         style="font-style:normal;font-variant:normal;font-weight:bold;font-stretch:normal;font-size:58.69190979px;line-height:1.25;font-family:Lavi;-inkscape-font-specification:'Lavi Bold';stroke:none;stroke-width:3.5999999;stroke-miterlimit:4;stroke-dasharray:none;stroke-opacity:1"
         x="1618.0042"
         y="1589.5555"
         id="tspan4579-4-2">Saoil…</tspan></text>
    <text
       xml:space="preserve"
       style="font-style:normal;font-variant:normal;font-weight:normal;font-stretch:normal;line-height:0%;font-family:Lavi;-inkscape-font-specification:Lavi;letter-spacing:0px;word-spacing:0px;fill:#000000;fill-opacity:1;stroke:#000000;stroke-width:1.19005191;stroke-miterlimit:4;stroke-dasharray:none;stroke-opacity:1;filter:url(#filter4375-4-1-1-1-9)"
       x="787.65729"
       y="1584.5073"
       id="text4580"
       transform="matrix(0.81821305,-0.33688634,-0.15105419,1.1716012,481.86174,1568.9719)"><tspan
         sodipodi:role="line"
         id="tspan4582"
         x="787.65729"
         y="1584.5073"
         style="font-size:70px;line-height:1.25;fill:#ffffff;stroke-width:1.19005191">Brag<tspan
   style="font-size:80.40014648px;stroke-width:1.19005191"
   id="tspan4617">!</tspan></tspan></text>
  </g>
</svg>
