<?xml version="1.0" encoding="UTF-8" standalone="no"?>
<!-- Created with Inkscape (http://www.inkscape.org/) -->

<svg
   xmlns:dc="http://purl.org/dc/elements/1.1/"
   xmlns:cc="http://creativecommons.org/ns#"
   xmlns:rdf="http://www.w3.org/1999/02/22-rdf-syntax-ns#"
   xmlns:svg="http://www.w3.org/2000/svg"
   xmlns="http://www.w3.org/2000/svg"
   xmlns:xlink="http://www.w3.org/1999/xlink"
   xmlns:sodipodi="http://sodipodi.sourceforge.net/DTD/sodipodi-0.dtd"
   xmlns:inkscape="http://www.inkscape.org/namespaces/inkscape"
   id="svg2"
   version="1.1"
   inkscape:version="0.92.3 (2405546, 2018-03-11)"
   width="2481"
   height="3503"
   sodipodi:docname="E19P02.svg">
  <sodipodi:namedview
     pagecolor="#ffffff"
     bordercolor="#666666"
     inkscape:pageopacity="0"
     inkscape:pageshadow="2"
     inkscape:window-width="1920"
     inkscape:window-height="1022"
     id="namedview70"
     showgrid="false"
     inkscape:zoom="0.56568543"
     inkscape:cx="1329.7824"
     inkscape:cy="1009.1238"
     inkscape:current-layer="layer1"
     inkscape:window-x="0"
     inkscape:window-y="0"
     inkscape:window-maximized="1" />
  <metadata
     id="metadata8">
    <rdf:RDF>
      <cc:Work
         rdf:about="">
        <dc:format>image/svg+xml</dc:format>
        <dc:type
           rdf:resource="http://purl.org/dc/dcmitype/StillImage" />
        <dc:title />
      </cc:Work>
    </rdf:RDF>
  </metadata>
  <defs
     id="defs6">
    <filter
       inkscape:collect="always"
       style="color-interpolation-filters:sRGB"
       id="filter5236-4-16-3"
       x="-0.0089085409"
       width="1.0178171"
       y="-0.027928527"
       height="1.0558571">
      <feGaussianBlur
         inkscape:collect="always"
         stdDeviation="0.49168068"
         id="feGaussianBlur5238-0-4-6" />
    </filter>
    <filter
       inkscape:collect="always"
       style="color-interpolation-filters:sRGB"
       id="filter5236-4-16"
       x="-0.0089085409"
       width="1.0178171"
       y="-0.027928527"
       height="1.0558571">
      <feGaussianBlur
         inkscape:collect="always"
         stdDeviation="0.49168068"
         id="feGaussianBlur5238-0-4" />
    </filter>
  </defs>
  <sodipodi:namedview
     pagecolor="#ffffff"
     bordercolor="#666666"
     borderopacity="1"
     objecttolerance="10"
     gridtolerance="10"
     guidetolerance="10"
     inkscape:pageopacity="0"
     inkscape:pageshadow="2"
     inkscape:window-width="1920"
     inkscape:window-height="1025"
     id="namedview4"
     showgrid="false"
     inkscape:zoom="0.4224276"
     inkscape:cx="1121.6917"
     inkscape:cy="997.33668"
     inkscape:window-x="0"
     inkscape:window-y="26"
     inkscape:window-maximized="1"
     inkscape:current-layer="layer1" />
  <g
     inkscape:groupmode="layer"
     id="layer2"
     inkscape:label="artwork"
     sodipodi:insensitive="true">
    <image
       xlink:href="../gfx_Pepper-and-Carrot_by-David-Revoy_E19P02.png"
       y="0"
       x="0"
       id="image10"
       height="3503"
       width="2481" />
  </g>
  <g
     inkscape:groupmode="layer"
     id="layer4"
     inkscape:label="translatornotes"
     sodipodi:insensitive="true">
    <path
       inkscape:connector-curvature="0"
       id="path3446"
       d="m 2763.8482,1498.4924 0,-189.0352 -203.8301,0 0,90.9805 -10,0 0,-15.6308 -30.9824,26.9824 30.9824,26.9804 0,-16.6171 10,0 0,76.3398 203.8301,0 z"
       style="color:#000000;clip-rule:nonzero;display:inline;overflow:visible;visibility:visible;opacity:0.481;isolation:auto;mix-blend-mode:normal;color-interpolation:sRGB;color-interpolation-filters:linearRGB;solid-color:#000000;solid-opacity:1;fill:#ffe680;fill-opacity:1;fill-rule:nonzero;stroke:#565656;stroke-width:1.20000005;stroke-linecap:butt;stroke-linejoin:miter;stroke-miterlimit:4;stroke-dasharray:none;stroke-dashoffset:0;stroke-opacity:1;marker:none;color-rendering:auto;image-rendering:auto;shape-rendering:auto;text-rendering:auto;enable-background:accumulate" />
    <flowRoot
       transform="translate(2793.4167,295.2096)"
       style="font-style:normal;font-variant:normal;font-weight:normal;font-stretch:normal;line-height:0.01%;font-family:Lavi;-inkscape-font-specification:'Lavi, Normal';text-align:center;letter-spacing:0px;word-spacing:0px;writing-mode:lr-tb;text-anchor:middle;display:inline;opacity:0.481;fill:#000000;fill-opacity:1;stroke:none;stroke-width:1px;stroke-linecap:butt;stroke-linejoin:miter;stroke-opacity:1"
       id="flowRoot3448"
       xml:space="preserve"><flowRegion
         id="flowRegion3450"><rect
           y="1061.6674"
           x="-275.14545"
           height="247.52747"
           width="291.95547"
           id="rect3452" /></flowRegion><flowPara
         id="flowPara3473"
         style="font-size:25.3241539px;line-height:1.25">labels</flowPara><flowPara
         id="flowPara4255"
         style="font-size:25.3241539px;line-height:1.25">in the </flowPara><flowPara
         id="flowPara4257"
         style="font-size:25.3241539px;line-height:1.25">garden :-)</flowPara></flowRoot>  </g>
  <g
     inkscape:groupmode="layer"
     id="layer3"
     inkscape:label="speechbubbles"
     style="display:inline">
    <path
       style="color:#000000;display:inline;overflow:visible;visibility:visible;fill:#ffffff;fill-opacity:1;fill-rule:nonzero;stroke:none;stroke-width:1.03648603px;marker:none;enable-background:accumulate"
       d="m 1032.7456,204.52874 c 25.2368,-33.27491 266.1364,-52.28964 342.2604,1.14813 63.5394,44.60374 71.3671,141.48874 24.1633,167.96102 -47.2039,26.47238 -233.7658,27.59731 -309.5611,16.62641 -72.1677,-10.44584 -80.6027,-37.67302 -93.64604,-105.67133 -5.32357,-27.75276 11.54624,-46.78923 36.78344,-80.06423 z"
       id="path4040-4"
       inkscape:connector-curvature="0"
       sodipodi:nodetypes="zssssz" />
    <path
       style="color:#000000;display:inline;overflow:visible;visibility:visible;fill:#ffffff;fill-opacity:1;fill-rule:nonzero;stroke:none;stroke-width:1.03125799px;marker:none;enable-background:accumulate"
       d="m 1204.4828,471.60657 c 7.3297,-79.99361 80.5851,-136.92767 268.1018,-117.45099 100.4439,10.43269 214.5686,18.40618 204.9982,135.61853 -9.5704,117.21223 -173.6876,110.3469 -207.6292,112.29768 -33.9417,1.9509 -210.2396,-14.49623 -240.3883,-55.15064 -18.8727,-25.44858 -26.084,-50.5104 -25.0825,-75.31458 z"
       id="path4546-6"
       inkscape:connector-curvature="0"
       sodipodi:nodetypes="cssssc" />
    <path
       style="color:#000000;display:inline;overflow:visible;visibility:visible;fill:#ffffff;fill-opacity:1;fill-rule:nonzero;stroke:none;stroke-width:1.02473235px;marker:none;enable-background:accumulate"
       d="m 1349.0499,597.42803 c 52.6091,-56.53134 328.2588,-44.42084 425.8701,-31.70856 144.9142,18.87273 138.7234,71.16786 143.1516,86.13526 4.4279,14.96728 -6.6422,84.36126 -55.3524,97.96804 -48.71,13.60664 -188.1977,20.40995 -236.9077,20.40995 -48.71,0 -204.2032,-8.66058 -243.5507,-28.57405 -37.6395,-19.04932 -85.8205,-87.69942 -33.2109,-144.23064 z"
       id="path3330"
       inkscape:connector-curvature="0"
       sodipodi:nodetypes="zsssssz" />
    <path
       style="color:#000000;display:inline;overflow:visible;visibility:visible;fill:#ffffff;fill-opacity:1;fill-rule:nonzero;stroke:none;stroke-width:1px;marker:none;enable-background:accumulate"
       d="m 1537.5273,696.39507 c -4.748,19.68499 -0.6503,33.38997 2.5742,37.35036 3.2245,3.96027 2.3513,12.12365 5.2378,17.57337 2.3614,4.51862 3.5729,10.81257 -0.8434,12.64306 -4.4163,1.83058 -29.4289,3.69855 -33.6755,16.66121 -4.2467,12.96272 3.9771,24.00648 14.1454,30.32451 10.1684,6.31815 24.4145,10.44127 22.2717,20.40102 -2.1427,9.95976 -9.8422,13.23017 -15.8741,13.66024 -6.0318,0.43007 -42.6593,-1.86158 -51.9545,1.56498 -9.295,3.4266 -34.8875,18.35716 -31.0179,31.36521 11.9004,-13.15184 18.3151,-19.01847 27.1348,-20.36055 8.8198,-1.34212 24.7212,-5.09072 34.6744,-1.78852 9.9534,3.30225 30.2251,7.01956 38.1327,2.88942 7.9077,-4.13 22.6869,-13.91278 22.9796,-24.81049 0.2928,-10.89767 -5.2053,-22.98724 -21.3925,-31.19418 -10.1682,-6.31811 -14.5522,-10.2849 -13.6078,-13.29434 0.9444,-3.00939 11.8681,-7.35452 23.4562,-6.13032 11.5882,1.22424 17.0469,-9.49086 18.0108,-15.97871 0.9638,-6.48781 -2.7884,-15.67273 -3.2186,-21.7046 -0.4301,-6.03183 -6.7045,-40.19004 -6.7045,-40.19004 z"
       id="path5058"
       inkscape:connector-curvature="0"
       sodipodi:nodetypes="cscsssssscssssccscccc" />
    <path
       style="color:#000000;display:inline;overflow:visible;visibility:visible;fill:#ffffff;fill-opacity:1;fill-rule:nonzero;stroke:none;stroke-width:1.20731735px;marker:none;enable-background:accumulate"
       d="m 1160.0188,1831.0106 c 11.6261,-59.3375 75.3912,-80.7793 215.5654,-83.8911 69.5965,-1.5451 321.6637,-6.9027 423.8406,3.8328 102.1765,10.7357 189.6391,43.6156 181.8884,87.0958 -7.7507,43.4801 -16.9185,77.1593 -128.5062,89.4671 -111.5875,12.3078 -325.5947,3.244 -347.8784,3.7556 -44.5668,1.0231 -273.6184,-4.571 -312.1389,-35.153 -24.1129,-19.1434 -34.7084,-46.6919 -32.7709,-65.1072 z"
       id="path4546-6-3"
       inkscape:connector-curvature="0"
       sodipodi:nodetypes="cssssssc" />
    <path
       style="color:#000000;display:inline;overflow:visible;visibility:visible;fill:#ffffff;fill-opacity:1;fill-rule:nonzero;stroke:none;stroke-width:1.10326946px;marker:none;enable-background:accumulate"
       d="m 1739.0472,1959.0096 c -2.665,-13.9006 26.5545,-72.4119 189.12,-63.1448 162.5655,9.2671 179.5451,20.9339 186.9627,70.8244 2.7417,18.4386 -22.5566,45.3021 -46.5418,49.9356 -23.985,4.6335 -94.1132,17.7137 -134.0882,14.007 -39.9751,-3.7069 -98.984,-2.8275 -157.7997,-22.2636 -35.4982,-11.7307 -34.988,-45.6518 -37.653,-49.3586 z"
       id="path3365"
       inkscape:connector-curvature="0"
       sodipodi:nodetypes="csssssc" />
    <path
       style="fill:#ffffff;fill-opacity:1;stroke:none;stroke-width:1.02988815"
       d="m 1744.2496,2159.1508 c -11.7074,-128.9785 71.6592,-173.7193 293.69,-173.5363 222.0308,0.1828 311.8707,36.9011 321.2001,113.6938 20.8611,171.7155 -88.902,218.0787 -161.9379,228.7374 -145.8865,21.2904 -384.1179,-9.0477 -413.9068,-45.0108 -29.7889,-35.9632 -36.4753,-90.1613 -39.0454,-123.8841 z"
       id="path3238"
       inkscape:connector-curvature="0"
       sodipodi:nodetypes="cssssc" />
    <path
       style="color:#000000;display:inline;overflow:visible;visibility:visible;fill:#ffffff;fill-opacity:1;fill-rule:nonzero;stroke:none;stroke-width:1px;marker:none;enable-background:accumulate"
       d="m 1882.8016,2273.7967 c -30.6436,39.5697 -91.823,73.3362 -171.3605,30.1552 76.0815,26.4581 119.8575,-5.9599 145.0149,-45.5895 21.7184,-34.2122 33.4899,-49.0683 33.4899,-49.0683 z"
       id="path4440"
       inkscape:connector-curvature="0"
       sodipodi:nodetypes="ccscc" />
    <path
       style="color:#000000;display:inline;overflow:visible;visibility:visible;fill:#ffffff;fill-opacity:1;fill-rule:nonzero;stroke:none;stroke-width:1.09629416px;marker:none;enable-background:accumulate"
       d="m 99.104281,2756.9074 c 31.527989,-10.9597 46.471579,-18.5558 0.550737,-34.3247 9.428582,-0.1198 62.045172,-2.1442 11.738762,-32.9366 16.58568,3.9749 43.10815,14.5291 13.25299,-36.5871 17.95114,8.1494 42.85085,34.2072 21.0092,-14.0742 23.65291,16.3179 54.81498,6.0013 48.43586,-2.5708 19.03597,10.4052 56.42054,9.5448 53.21822,0.7154 13.9958,9.6323 51.9108,12.4562 48.9354,-3.6881 11.6293,11.0973 47.72093,9.9541 44.18272,0.5253 30.49041,11.2241 74.57043,18.1422 91.22975,2.4934 14.22504,14.8098 80.39372,10.3376 135.8898,0.2295 0.86931,10.4538 62.63672,12.2889 112.97671,-4.7288 0.76191,15.8808 18.92761,21.2619 41.12561,9.5749 7.92699,6.5186 5.81129,10.3103 36.96265,-5.1216 -1.48717,10.6121 4.05764,20.4024 25.7618,10.2432 3.78091,6.5649 -10.05496,23.5801 44.80337,-1.2805 0.36265,9.2802 -12.51447,27.5037 34.72248,5.1216 -38.31956,55.1372 -17.0814,49.2359 8.96059,38.4113 -20.27674,32.5259 -46.42898,72.8685 5.10196,71.3855 -40.3492,7.514 -39.64382,18.687 -34.22401,36.1663 -50.57063,-35.1981 -56.51247,-8.4487 -78.40577,-3.8411 -23.11254,-5.8556 -44.40507,-27.3135 -71.68504,2.5608 -41.79154,-12.2937 -50.07717,-1.0176 -63.84472,6.402 -73.01304,-23.5924 -71.28836,-4.468 -104.16765,-5.1217 -19.43948,-29.1834 -63.30742,-7.1717 -95.20698,-10.2429 -40.32281,-23.9307 -100.32491,-2.9536 -131.71532,6.2711 15.34215,-14.9487 -22.43923,-28.2936 -58.36959,4.1237 17.84228,-27.3926 -11.4316,-36.628 -66.0848,-1.3493 25.68295,-32.458 -9.83681,-27.285 -49.61224,-6.4848 38.92829,-31.5409 -2.20765,-34.2446 -25.542489,-31.8718 z"
       id="path3557"
       inkscape:connector-curvature="0"
       sodipodi:nodetypes="cccccccccccccccccccccccccccccc" />
    <path
       style="color:#000000;display:inline;overflow:visible;visibility:visible;fill:#ffffff;fill-opacity:1;fill-rule:nonzero;stroke:none;stroke-width:1.02281928px;marker:none;enable-background:accumulate"
       d="m 271.05954,2844.8389 c 8.43841,-76.7392 93.40373,-132.4897 311.0341,-116.957 116.57455,8.3201 249.02327,14.0569 238.01599,126.4812 -11.00741,112.4241 -201.47202,108.5809 -240.8598,111.0143 -39.38777,2.4336 -243.99617,-10.3842 -279.01838,-48.8205 -21.9231,-24.0603 -30.3132,-47.9441 -29.17191,-71.718 z"
       id="path4546"
       inkscape:connector-curvature="0"
       sodipodi:nodetypes="cssssc" />
    <path
       style="color:#000000;display:inline;overflow:visible;visibility:visible;fill:#ffffff;fill-opacity:1;fill-rule:nonzero;stroke:none;stroke-width:1px;marker:none;enable-background:accumulate"
       d="m 990.3039,2942.0433 c -39.7219,-30.7338 -84.6659,-56.332 -118.3207,-93.0329 l 9.2071,41.4633 c -19.1495,-7.3977 -31.9655,-24.339 -46.9322,-38.0398 l 1.0996,26.2988 c -44.9905,-17.9715 -75.7521,-49.3371 -113.3909,-74.2288 l 5.8989,45.8738 c 41.0512,21.0955 84.9859,35.8216 122.7937,64.0815 l 1.7812,-25.6614 c 14.445,8.0961 28.5921,16.7337 41.4085,27.7896 l -0.8973,-32.5393 z"
       id="path4032-6"
       inkscape:connector-curvature="0"
       sodipodi:nodetypes="cccccccccccc" />
    <path
       style="fill:#ffffff;stroke:none;stroke-width:1.28289783"
       d="m 1699.0798,2772.7018 c 6.8392,-73.48 48.0892,-103.364 66.8066,-113.1168 18.7172,-9.7529 97.2934,-22.2638 148.6215,-20.1104 51.3281,2.1533 178.5687,12.7603 199.9675,16.2927 21.3986,3.5323 78.4859,58.6177 77.8735,106.014 -0.6123,47.396 -12.0587,78.5301 -43.248,106.2014 -31.1896,27.6717 -217.2633,33.0381 -228.7274,29.9225 -11.4646,-3.1155 -164.567,-27.9802 -174.1234,-36.2848 -9.5564,-8.3045 -48.2863,-31.0055 -47.1703,-88.9186 z"
       id="path3278"
       inkscape:connector-curvature="0" />
    <path
       style="color:#000000;display:inline;overflow:visible;visibility:visible;fill:#ffffff;fill-opacity:1;fill-rule:nonzero;stroke:none;stroke-width:1.0285033px;marker:none;enable-background:accumulate"
       d="m 1712.3542,2905.1506 c 45.1038,-44.1511 425.8305,-92.0745 559.6423,-1.0883 133.8115,90.9861 52.6471,200.1696 -24.1302,234.9097 -76.7771,34.7402 -302.7214,72.7889 -405.8223,43.0117 -103.1007,-29.7773 -183.4099,-74.2886 -188.6527,-165.4294 -2.1397,-37.1982 13.8591,-67.2524 58.9629,-111.4037 z"
       id="path4040"
       inkscape:connector-curvature="0"
       sodipodi:nodetypes="zssssz" />
    <path
       style="display:inline;fill:#ffffff;fill-rule:evenodd;stroke:none;stroke-width:1px;stroke-linecap:butt;stroke-linejoin:miter;stroke-opacity:1"
       d="m 1889.5795,3122.771 c 48.1261,28.5286 75.5394,16.9272 74.7133,-49.3868 22.9607,71.6603 38.8942,87.6873 48.344,52.3799 30.3984,30.3481 49.3847,21.8353 64.4586,0 5.6184,28.0816 17.6672,16.7498 28.0947,15.3549 3.4344,6.3532 -8.3613,22.1376 39.2938,1.1073 3.0868,8.4093 7.2451,15.651 35.1591,-2.9931 7.2317,34.1321 30.4341,-1.8917 54.204,-40.4074 -14.8094,47.3518 -8.6685,54.0398 10.2547,35.9176 -8.6516,19.4998 -13.8261,34.5948 19.0445,1.4966 -11.2532,35.9927 18.2696,11.2875 65.9236,-40.4072 -23.8372,38.2124 -87.0482,102.6164 -45.4139,97.2767 -5.8062,11.2651 -26.5164,21.0802 35.1591,38.9107 -11.514,7.6442 -46.6658,-3.5263 -17.3429,28.8398 3.9288,3.7834 -9.2235,6.0937 15.878,16.0571 -14.8178,-0.6778 -23.9051,1.7436 -10.2549,16.4623 -27.0478,-0.7959 -16.9276,14.6808 2.93,34.4209 -39.169,-25.3209 -41.3245,-16.1182 -42.4842,-5.9862 -49.0902,-34.521 -51.9717,-23.6523 -58.5985,-16.4623 -23.9278,0.2694 -47.8557,-4.0779 -71.7836,34.421 -6.2663,-23.9452 -18.8296,-42.3768 -71.7833,-25.4415 23.2507,-30.4626 -9.8264,-11.0548 -35.1593,1.4965 13.8728,-38.0554 -21.3342,-13.0797 -65.9235,23.945 24.9698,-42.0237 -3.39,-26.8437 -45.4141,2.9932 15.8781,-41.2842 -9.9807,-61.2497 -71.7833,-62.8558 29.5806,-14.8917 46.8304,-33.6324 16.1147,-67.3454 34.6253,9.9269 44.9535,0.7062 20.5095,-35.9176 37.767,30.0605 20.5958,-13.5407 5.8599,-53.8762 z"
       id="path4508"
       inkscape:connector-curvature="0"
       sodipodi:nodetypes="cccccccccccccccccccccccccccc" />
    <path
       style="color:#000000;display:inline;overflow:visible;visibility:visible;fill:#ffffff;fill-opacity:1;fill-rule:nonzero;stroke:none;stroke-width:1px;marker:none;enable-background:accumulate"
       d="m 1490.4164,2890.2226 c 36.6716,-30.7338 78.1642,-56.332 109.2346,-93.0329 l -8.5001,41.4633 c 17.679,-7.3977 29.5108,-24.339 43.3282,-38.0398 l -1.0152,26.2988 c 41.5356,-17.9715 69.9349,-49.3371 104.6834,-74.2288 l -5.4459,45.8738 c -37.8988,21.0955 -78.4597,35.8216 -113.3641,64.0815 l -1.6444,-25.6614 c -13.3358,8.0961 -26.3965,16.7337 -38.2287,27.7896 l 0.8284,-32.5393 z"
       id="path4032"
       inkscape:connector-curvature="0"
       sodipodi:nodetypes="cccccccccccc" />
  </g>
  <g
     inkscape:groupmode="layer"
     id="layer1"
     inkscape:label="txt">
    <text
       xml:space="preserve"
       style="font-style:normal;font-variant:normal;font-weight:normal;font-stretch:normal;line-height:0%;font-family:Lavi;-inkscape-font-specification:Lavi;text-align:center;letter-spacing:0px;word-spacing:0px;text-anchor:middle;fill:#000000;fill-opacity:1;stroke:none"
       x="1194.6492"
       y="229.16325"
       id="text4246"><tspan
         sodipodi:role="line"
         style="font-size:45px;line-height:1.25"
         x="1194.6492"
         y="229.16325"
         id="tspan4252">An-dà...</tspan></text>
    <text
       xml:space="preserve"
       style="font-style:normal;font-variant:normal;font-weight:normal;font-stretch:normal;line-height:0%;font-family:Lavi;-inkscape-font-specification:Lavi;text-align:center;letter-spacing:0px;word-spacing:0px;text-anchor:middle;fill:#000000;fill-opacity:1;stroke:none"
       x="1213.9131"
       y="297.91959"
       id="text4246-3"><tspan
         sodipodi:role="line"
         style="font-size:45px;line-height:1.25"
         x="1220.9443"
         y="297.91959"
         id="tspan3831">Uill, chan e eòlaiche </tspan><tspan
         sodipodi:role="line"
         style="font-size:45px;line-height:1.25"
         x="1213.9131"
         y="354.16959"
         id="tspan96">a th’ annam idir...</tspan></text>
    <text
       xml:space="preserve"
       style="font-style:normal;font-variant:normal;font-weight:normal;font-stretch:normal;line-height:0%;font-family:Lavi;-inkscape-font-specification:Lavi;text-align:center;letter-spacing:0px;word-spacing:0px;text-anchor:middle;fill:#000000;fill-opacity:1;stroke:none"
       x="1447.9285"
       y="439.09341"
       id="text4246-3-7"><tspan
         sodipodi:role="line"
         style="font-size:45px;line-height:1.25"
         x="1454.9597"
         y="439.09341"
         id="tspan103">Ach tha na glasraich </tspan><tspan
         sodipodi:role="line"
         style="font-size:45px;line-height:1.25"
         x="1454.9597"
         y="495.34341"
         id="tspan107">ann an trum neònach </tspan><tspan
         sodipodi:role="line"
         style="font-size:45px;line-height:1.25"
         x="1447.9285"
         y="551.59338"
         id="tspan109">am bliadhna</tspan></text>
    <text
       xml:space="preserve"
       style="font-style:normal;font-variant:normal;font-weight:normal;font-stretch:normal;line-height:0%;font-family:Lavi;-inkscape-font-specification:Lavi;text-align:center;letter-spacing:0px;word-spacing:0px;text-anchor:middle;fill:#000000;fill-opacity:1;stroke:none"
       x="1625.3901"
       y="619.19336"
       id="text4246-3-7-6"><tspan
         sodipodi:role="line"
         style="font-size:45px;line-height:1.25"
         x="1625.3901"
         y="619.19336"
         id="tspan122">agus tha dòigh an-</tspan><tspan
         sodipodi:role="line"
         style="font-size:45px;line-height:1.25"
         x="1632.4214"
         y="675.44336"
         id="tspan128">àbhaisteach air tòrr lus eile </tspan><tspan
         sodipodi:role="line"
         style="font-size:45px;line-height:1.25"
         x="1625.3901"
         y="731.69336"
         id="tspan118">timcheall air an taigh.</tspan></text>
    <text
       id="text4178-6-5-9-0-7-0-4"
       style="font-style:normal;font-variant:normal;font-weight:normal;font-stretch:normal;line-height:0%;font-family:Lavi;-inkscape-font-specification:Lavi;text-align:center;letter-spacing:0px;word-spacing:0px;text-anchor:middle;opacity:0.63300003;fill:#ffffff;fill-opacity:1;stroke:none;filter:url(#filter5236-4-16)"
       xml:space="preserve"
       y="3129.8394"
       x="1318.7137"
       transform="matrix(0.6851492,-0.06612027,-0.09994133,0.78144216,149.5816,-965.35698)"><tspan
         y="3129.8394"
         x="1318.7137"
         style="font-style:normal;font-variant:normal;font-weight:normal;font-stretch:normal;font-size:40.67671585px;line-height:1.25;font-family:Fondamento;-inkscape-font-specification:Fondamento;fill:#ffffff;fill-opacity:1"
         sodipodi:role="line"
         id="tspan4293-1-6-3-5-0-2">Tomàto</tspan></text>
    <text
       id="text4178-6-5-9-0-7-0-4-7"
       style="font-style:normal;font-variant:normal;font-weight:normal;font-stretch:normal;line-height:0%;font-family:Lavi;-inkscape-font-specification:Lavi;text-align:center;letter-spacing:0px;word-spacing:0px;text-anchor:middle;opacity:0.63300003;fill:#ffffff;fill-opacity:1;stroke:none;filter:url(#filter5236-4-16-3)"
       xml:space="preserve"
       y="3129.8394"
       x="1318.7137"
       transform="matrix(0.58543203,0.08325699,-0.38986142,0.70644422,2171.8616,-965.83592)"><tspan
         y="3129.8394"
         x="1318.7137"
         style="font-style:normal;font-variant:normal;font-weight:normal;font-stretch:normal;font-size:40.67671585px;line-height:1.25;font-family:Fondamento;-inkscape-font-specification:Fondamento;fill:#ffffff;fill-opacity:1"
         sodipodi:role="line"
         id="tspan4293-1-6-3-5-0-2-5">Aubergine</tspan></text>
    <text
       xml:space="preserve"
       style="font-style:normal;font-variant:normal;font-weight:normal;font-stretch:normal;line-height:0%;font-family:Lavi;-inkscape-font-specification:Lavi;text-align:center;letter-spacing:0px;word-spacing:0px;text-anchor:middle;fill:#000000;fill-opacity:1;stroke:none"
       x="1572.5139"
       y="1820.1396"
       id="text4246-3-2"><tspan
         sodipodi:role="line"
         style="font-size:45px;line-height:1.25"
         x="1572.5139"
         y="1820.1396"
         id="tspan3858">Mar a tha air na seanganan,</tspan><tspan
         sodipodi:role="line"
         style="font-size:45px;line-height:1.25"
         x="1572.5139"
         y="1876.3896"
         id="tspan137">dè fo na gealaichean a tha iadsan ris?</tspan></text>
    <text
       xml:space="preserve"
       style="font-style:normal;font-variant:normal;font-weight:normal;font-stretch:normal;line-height:0%;font-family:Lavi;-inkscape-font-specification:Lavi;text-align:center;letter-spacing:0px;word-spacing:0px;text-anchor:middle;fill:#000000;fill-opacity:1;stroke:none"
       x="1928.5547"
       y="1973.0601"
       id="text4246-3-2-9"><tspan
         sodipodi:role="line"
         style="font-size:45px;line-height:1.25"
         x="1928.5547"
         y="1973.0601"
         id="tspan4259-0">Mar sin dheth ...</tspan></text>
    <text
       xml:space="preserve"
       style="font-style:normal;font-variant:normal;font-weight:normal;font-stretch:normal;line-height:0%;font-family:Lavi;-inkscape-font-specification:Lavi;text-align:center;letter-spacing:0px;word-spacing:0px;text-anchor:middle;fill:#000000;fill-opacity:1;stroke:none"
       x="2053.186"
       y="2061.1831"
       id="text4246-3-2-9-6"><tspan
         sodipodi:role="line"
         style="font-size:45px;line-height:1.25"
         x="2060.2173"
         y="2061.1831"
         id="tspan3888">Cha chreid mi nach eil </tspan><tspan
         sodipodi:role="line"
         style="font-size:45px;line-height:1.25"
         x="2060.2173"
         y="2117.4331"
         id="tspan157">duilgheadas beag bìodach </tspan><tspan
         sodipodi:role="line"
         style="font-size:45px;line-height:1.25"
         x="2060.2173"
         y="2173.6831"
         id="tspan165">le truailleadh againn ’s bu </tspan><tspan
         sodipodi:role="line"
         style="font-size:45px;line-height:1.25"
         x="2060.2173"
         y="2229.9331"
         id="tspan161">chòir dhuinn beachdachadh </tspan><tspan
         sodipodi:role="line"
         style="font-size:45px;line-height:1.25"
         x="2053.186"
         y="2286.1831"
         id="tspan175">air beagan glanaidh ...</tspan></text>
    <text
       xml:space="preserve"
       style="font-style:normal;font-variant:normal;font-weight:normal;font-stretch:normal;line-height:0%;font-family:Lavi;-inkscape-font-specification:Lavi;text-align:center;letter-spacing:0px;word-spacing:0px;text-anchor:middle;fill:#000000;fill-opacity:1;stroke:none;stroke-width:2.79999995;stroke-miterlimit:4;stroke-dasharray:none"
       x="487.67166"
       y="2684.5779"
       id="text4246-3-2-9-6-6"><tspan
         sodipodi:role="line"
         style="font-size:45px;line-height:1.25;stroke-width:2.79999995;stroke-miterlimit:4;stroke-dasharray:none"
         x="487.67166"
         y="2684.5779"
         id="tspan3892">A nighean-uasal</tspan><tspan
         sodipodi:role="line"
         style="font-size:45px;line-height:1.25;stroke-width:2.79999995;stroke-miterlimit:4;stroke-dasharray:none"
         x="487.67166"
         y="2740.8279"
         id="tspan3900">“<tspan
   style="font-style:normal;font-variant:normal;font-weight:bold;font-stretch:normal;font-family:Lavi;-inkscape-font-specification:'Lavi Bold'"
   id="tspan191">Mhill-mi-deoch-sam-bith-a-riamh</tspan>”,</tspan><tspan
         sodipodi:role="line"
         style="font-size:45px;line-height:1.25;stroke-width:2.79999995;stroke-miterlimit:4;stroke-dasharray:none"
         x="494.70291"
         y="2797.0779"
         id="tspan4378"> </tspan></text>
    <text
       xml:space="preserve"
       style="font-style:normal;font-variant:normal;font-weight:normal;font-stretch:normal;line-height:0%;font-family:Lavi;-inkscape-font-specification:Lavi;text-align:center;letter-spacing:0px;word-spacing:0px;text-anchor:middle;fill:#000000;fill-opacity:1;stroke:none"
       x="547.53906"
       y="2811.6135"
       id="text4246-3-2-9-6-6-7"><tspan
         sodipodi:role="line"
         style="font-size:45px;line-height:1.25"
         x="554.57031"
         y="2811.6135"
         id="tspan3605">nach ann ortsa a tha </tspan><tspan
         sodipodi:role="line"
         style="font-size:45px;line-height:1.25"
         x="554.57031"
         y="2867.8635"
         id="tspan198">an ceann mòr is fasan na </tspan><tspan
         sodipodi:role="line"
         style="font-size:45px;line-height:1.25"
         x="547.53906"
         y="2924.1135"
         id="tspan200">Clann-fhlùrachd ort.</tspan><tspan
         sodipodi:role="line"
         style="font-size:45px;line-height:1.25"
         x="554.57031"
         y="2980.3635"
         id="tspan4378-5"> </tspan></text>
    <text
       xml:space="preserve"
       style="font-style:normal;font-variant:normal;font-weight:normal;font-stretch:normal;line-height:0%;font-family:Lavi;-inkscape-font-specification:Lavi;text-align:center;letter-spacing:0px;word-spacing:0px;text-anchor:middle;fill:#000000;fill-opacity:1;stroke:none"
       x="1948.85"
       y="2689.4656"
       id="text4246-3-2-9-6-6-0"><tspan
         sodipodi:role="line"
         style="font-size:45px;line-height:1.25"
         x="1955.8812"
         y="2689.4656"
         id="tspan3913">San </tspan><tspan
         sodipodi:role="line"
         style="font-size:45px;line-height:1.25"
         x="1955.8812"
         y="2745.7156"
         id="tspan211">Dubh-choimeasgachd, </tspan><tspan
         sodipodi:role="line"
         style="font-size:45px;line-height:1.25"
         x="1955.8812"
         y="2801.9656"
         id="tspan207">’s ann gun <tspan
   style="-inkscape-font-specification:'Lavi Italic';font-family:Lavi;font-weight:normal;font-style:italic;font-stretch:normal;font-variant:normal"
   id="tspan92">adhlaic</tspan> sinn </tspan><tspan
         sodipodi:role="line"
         style="font-size:45px;line-height:1.25"
         x="1948.85"
         y="2858.2156"
         id="tspan4378-7">ar mearachdan!!</tspan></text>
    <text
       xml:space="preserve"
       style="font-style:normal;font-variant:normal;font-weight:normal;font-stretch:normal;line-height:0%;font-family:Lavi;-inkscape-font-specification:Lavi;text-align:center;letter-spacing:0px;word-spacing:0px;text-anchor:middle;fill:#000000;fill-opacity:1;stroke:none;stroke-width:2.79999995;stroke-miterlimit:4;stroke-dasharray:none"
       x="2002.6411"
       y="2926.0649"
       id="text4246-3-2-9-6-6-0-5"><tspan
         sodipodi:role="line"
         style="font-size:45px;line-height:1.25;stroke-width:2.79999995;stroke-miterlimit:4;stroke-dasharray:none"
         x="2009.6724"
         y="2926.0649"
         id="tspan4378-7-6">Bu sin ar dualchas o </tspan><tspan
         sodipodi:role="line"
         style="font-size:45px;line-height:1.25;stroke-width:2.79999995;stroke-miterlimit:4;stroke-dasharray:none"
         x="2009.6724"
         y="2982.3149"
         id="tspan233">chian nan cian agus chan eil diù </tspan><tspan
         sodipodi:role="line"
         style="font-size:45px;line-height:1.25;stroke-width:2.79999995;stroke-miterlimit:4;stroke-dasharray:none"
         x="2009.6724"
         y="3038.5649"
         id="tspan247">a’ choin agam air dè shaoileas </tspan><tspan
         sodipodi:role="line"
         style="font-size:45px;line-height:1.25;stroke-width:2.79999995;stroke-miterlimit:4;stroke-dasharray:none"
         x="2009.6724"
         y="3094.8149"
         id="tspan235"><tspan
   style="font-style:normal;font-variant:normal;font-weight:bold;font-stretch:normal;font-family:Lavi;-inkscape-font-specification:'Lavi Bold'"
   id="tspan253">MATHAIR NÀDAIR</tspan> </tspan><tspan
         sodipodi:role="line"
         style="font-size:45px;line-height:1.25;stroke-width:2.79999995;stroke-miterlimit:4;stroke-dasharray:none"
         x="2002.6411"
         y="3151.0649"
         id="tspan237">mu dhèidhinn!</tspan></text>
    <text
       xml:space="preserve"
       style="font-style:normal;font-variant:normal;font-weight:normal;font-stretch:normal;line-height:0%;font-family:Lavi;-inkscape-font-specification:Lavi;text-align:center;letter-spacing:0px;word-spacing:0px;text-anchor:middle;fill:#000000;fill-opacity:1;stroke:none;stroke-width:2.79999995;stroke-miterlimit:4;stroke-dasharray:none"
       x="2083.4753"
       y="3219.5076"
       id="text4246-3-2-9-6-6-0-5-1"><tspan
         sodipodi:role="line"
         style="font-size:45px;line-height:1.25;stroke-width:2.79999995;stroke-miterlimit:4;stroke-dasharray:none"
         x="2083.4753"
         y="3219.5076"
         id="tspan4378-7-6-4">Dùin do ghob</tspan><tspan
         sodipodi:role="line"
         style="font-size:45px;line-height:1.25;stroke-width:2.79999995;stroke-miterlimit:4;stroke-dasharray:none"
         x="2083.4753"
         y="3275.7576"
         id="tspan261">is <tspan
   style="-inkscape-font-specification:'Lavi Bold';font-family:Lavi;font-weight:bold;font-style:normal;font-stretch:normal;font-variant:normal"
   id="tspan263">CLADHAICH</tspan>!!</tspan></text>
  </g>
</svg>
