<?xml version="1.0" encoding="UTF-8" standalone="no"?>
<!-- Created with Inkscape (http://www.inkscape.org/) -->

<svg
   xmlns:dc="http://purl.org/dc/elements/1.1/"
   xmlns:cc="http://creativecommons.org/ns#"
   xmlns:rdf="http://www.w3.org/1999/02/22-rdf-syntax-ns#"
   xmlns:svg="http://www.w3.org/2000/svg"
   xmlns="http://www.w3.org/2000/svg"
   xmlns:xlink="http://www.w3.org/1999/xlink"
   xmlns:sodipodi="http://sodipodi.sourceforge.net/DTD/sodipodi-0.dtd"
   xmlns:inkscape="http://www.inkscape.org/namespaces/inkscape"
   id="svg2"
   version="1.1"
   inkscape:version="0.92.4 (5da689c313, 2019-01-14)"
   width="2481"
   height="3503"
   sodipodi:docname="E29P02.svg">
  <metadata
     id="metadata8">
    <rdf:RDF>
      <cc:Work
         rdf:about="">
        <dc:format>image/svg+xml</dc:format>
        <dc:type
           rdf:resource="http://purl.org/dc/dcmitype/StillImage" />
        <dc:title />
      </cc:Work>
    </rdf:RDF>
  </metadata>
  <defs
     id="defs6">
    <filter
       style="color-interpolation-filters:sRGB"
       id="filter3018-3-2-2-2"
       inkscape:label="Lapping"
       inkscape:menu="Distort"
       inkscape:menu-tooltip="Something like a water noise"
       height="1.3"
       y="-0.15000001"
       width="1.3"
       x="-0.15000001">
      <feTurbulence
         id="feTurbulence3020-6-9-0-9"
         numOctaves="5"
         seed="0"
         type="fractalNoise"
         baseFrequency="0.1"
         result="result1" />
      <feGaussianBlur
         id="feGaussianBlur3022-7-1-2-3"
         stdDeviation="2"
         result="result2" />
      <feDisplacementMap
         id="feDisplacementMap3024-5-2-3-1"
         in2="result2"
         scale="50"
         yChannelSelector="B"
         xChannelSelector="R"
         in="SourceGraphic" />
    </filter>
    <filter
       style="color-interpolation-filters:sRGB"
       id="filter3018-3-2-2-2-0"
       inkscape:label="Lapping"
       inkscape:menu="Distort"
       inkscape:menu-tooltip="Something like a water noise"
       height="1.3"
       y="-0.15000001"
       width="1.3"
       x="-0.15000001">
      <feTurbulence
         id="feTurbulence3020-6-9-0-9-9"
         numOctaves="5"
         seed="0"
         type="fractalNoise"
         baseFrequency="0.1"
         result="result1" />
      <feGaussianBlur
         id="feGaussianBlur3022-7-1-2-3-3"
         stdDeviation="2"
         result="result2" />
      <feDisplacementMap
         id="feDisplacementMap3024-5-2-3-1-6"
         in2="result2"
         scale="50"
         yChannelSelector="B"
         xChannelSelector="R"
         in="SourceGraphic" />
    </filter>
    <filter
       style="color-interpolation-filters:sRGB"
       id="filter3018-3-2-2-2-0-0"
       inkscape:label="Lapping"
       inkscape:menu="Distort"
       inkscape:menu-tooltip="Something like a water noise"
       height="1.3"
       y="-0.15000001"
       width="1.3"
       x="-0.15000001">
      <feTurbulence
         id="feTurbulence3020-6-9-0-9-9-6"
         numOctaves="5"
         seed="0"
         type="fractalNoise"
         baseFrequency="0.1"
         result="result1" />
      <feGaussianBlur
         id="feGaussianBlur3022-7-1-2-3-3-2"
         stdDeviation="2"
         result="result2" />
      <feDisplacementMap
         id="feDisplacementMap3024-5-2-3-1-6-6"
         in2="result2"
         scale="50"
         yChannelSelector="B"
         xChannelSelector="R"
         in="SourceGraphic" />
    </filter>
    <filter
       style="color-interpolation-filters:sRGB"
       id="filter3018-3-2-2-2-0-0-8"
       inkscape:label="Lapping"
       inkscape:menu="Distort"
       inkscape:menu-tooltip="Something like a water noise"
       height="1.3"
       y="-0.15000001"
       width="1.3"
       x="-0.15000001">
      <feTurbulence
         id="feTurbulence3020-6-9-0-9-9-6-7"
         numOctaves="5"
         seed="0"
         type="fractalNoise"
         baseFrequency="0.1"
         result="result1" />
      <feGaussianBlur
         id="feGaussianBlur3022-7-1-2-3-3-2-9"
         stdDeviation="2"
         result="result2" />
      <feDisplacementMap
         id="feDisplacementMap3024-5-2-3-1-6-6-2"
         in2="result2"
         scale="50"
         yChannelSelector="B"
         xChannelSelector="R"
         in="SourceGraphic" />
    </filter>
  </defs>
  <sodipodi:namedview
     pagecolor="#ffffff"
     bordercolor="#666666"
     borderopacity="1"
     objecttolerance="10"
     gridtolerance="10"
     guidetolerance="10"
     inkscape:pageopacity="0"
     inkscape:pageshadow="2"
     inkscape:window-width="1920"
     inkscape:window-height="1027"
     id="namedview4"
     showgrid="false"
     inkscape:zoom="0.84316012"
     inkscape:cx="736.29215"
     inkscape:cy="2210.1402"
     inkscape:window-x="1920"
     inkscape:window-y="26"
     inkscape:window-maximized="1"
     inkscape:current-layer="layer3" />
  <g
     inkscape:groupmode="layer"
     id="layer2"
     inkscape:label="artwork"
     sodipodi:insensitive="true">
    <image
       sodipodi:absref="/felles/omsetting/pepper-carrot/webcomics/ep29_Destroyer-of-Worlds/lang/nn/../gfx_Pepper-and-Carrot_by-David-Revoy_E29P02.png"
       xlink:href="../gfx_Pepper-and-Carrot_by-David-Revoy_E29P02.png"
       width="2481"
       height="3503"
       id="image10"
       x="0"
       y="0" />
  </g>
  <g
     inkscape:groupmode="layer"
     id="layer3"
     inkscape:label="speechbubbles"
     style="display:inline">
    <path
       style="fill:#0f0f0f;fill-opacity:1;fill-rule:evenodd;stroke:none;stroke-width:1px;stroke-linecap:butt;stroke-linejoin:miter;stroke-opacity:1"
       d="m 488.9121,345.00815 c 15.83997,34.15222 3.09046,31.71823 27.6126,60.42777 5.21873,6.10988 8.43941,3.94116 8.76059,-3.02201 1.43823,-4.56779 13.37218,-34.80654 18.77166,-21.56572 10.6774,26.18351 18.65996,53.7966 34.40867,77.58824 7.86136,-4.40544 5.03281,-15.37916 6.94369,-22.80834 -0.84207,-6.64725 9.75028,-18.52953 12.68566,-8.07544 8.18504,16.89427 11.36804,35.647 18.81718,52.84015 23.88604,67.34079 47.40203,134.81199 71.17857,202.1914 -30.87587,-72.46377 -61.75173,-144.92753 -92.6276,-217.3913 -0.97521,11.1719 -2.30418,23.47807 -9.80057,32.38362 -6.86048,7.46262 -16.26374,0.22456 -17.22187,-8.09298 -2.96134,-9.17345 -7.31873,-14.44764 -11.25861,-23.23507 -1.87481,-7.00924 -11.70105,-30.2524 -18.86766,-32.88191 -8.3941,0.80069 -11.06529,19.41466 -12.65272,25.32005 -0.98388,9.63821 -9.97218,8.64734 -16.1837,1.06156 -32.02398,-39.1091 -25.30976,-56.37592 -50.12072,-100.41538 8.82167,-12.6024 20.73316,-1.72224 29.55483,-14.32464 z"
       id="path1004"
       inkscape:connector-curvature="0"
       sodipodi:nodetypes="cscscccccccccccscc" />
    <path
       style="color:#000000;display:inline;overflow:visible;visibility:visible;opacity:1;fill:#0f0f0f;fill-opacity:1;fill-rule:nonzero;stroke:none;stroke-width:0.98067385px;marker:none;filter:url(#filter3018-3-2-2-2-0);enable-background:accumulate"
       d="m 554.0544,256.72568 c 12.84005,5.76932 45.97315,22.49499 45.97315,22.49499 0,0 45.31867,3.3779 49.27782,12.26168 3.95916,8.88379 10.65342,63.40398 13.92408,72.15116 0,0 -12.13274,63.8555 -11.73931,72.84422 0.39343,8.98873 -1.4198,34.9043 -3.27476,54.24225 -1.85495,19.33795 4.82313,27.09341 9.77811,49.3613 4.14934,18.6473 -16.12198,27.02438 -14.97751,46.94346 1.14447,19.91907 8.1079,50.74278 2.87248,59.40898 -10.47085,17.3324 -35.90425,14.97634 -52.7426,19.95396 -25.42763,7.51671 -20.02733,19.83405 -48.5075,19.8518 -16.69239,0.0104 -20.94604,-29.49422 -43.21155,-22.6689 -22.26551,6.82532 -37.74777,27.21742 -54.85728,26.86342 -34.21904,-0.70801 -23.21538,-21.86233 -51.60241,-26.99392 -28.38702,-5.13159 -37.82737,33.22706 -53.56392,23.4644 -10.80008,-6.70016 -28.67097,-37.14799 -35.50419,-51.16532 -6.83321,-14.01734 7.96889,-57.34254 4.12684,-74.50138 -1.30943,-24.37621 10.94735,-26.73836 -5.34222,-64.02172 -8.17882,-18.71958 -11.50496,-53.88376 3.99386,-57.27487 26.78278,-5.86002 -9.37168,-52.71812 -9.37168,-52.71812 -7.69628,-11.53918 -9.3352,-21.86795 -9.32862,-33.39451 0.0132,-23.05312 7.1106,-10.17566 10.69594,-23.86091 3.58535,-13.68525 1.26294,-35.45878 9.92459,-42.09736 8.66164,-6.63858 17.5364,-11.33825 32.77847,-13.25136 15.24207,-1.9131 9.01498,-18.18923 32.34158,-17.69805 11.6633,0.24559 24.42641,21.40808 38.39287,21.81951 13.96645,0.41144 18.65642,-31.47864 35.11405,-31.1915 16.45763,0.28713 36.30286,21.21151 55.43968,21.0842 19.13681,-0.12732 27.38602,-11.07549 49.39003,-11.90741 z"
       id="path3986-3-7-9"
       inkscape:connector-curvature="0"
       sodipodi:nodetypes="ccsssssssssssssscsssssssssssc"
       transform="matrix(1.1539571,0,0,0.88163258,-200.86322,-21.035036)" />
    <path
       style="color:#000000;display:inline;overflow:visible;visibility:visible;opacity:1;fill:#0f0f0f;fill-opacity:1;fill-rule:nonzero;stroke:none;stroke-width:0.94906145px;marker:none;filter:url(#filter3018-3-2-2-2-0-0);enable-background:accumulate"
       d="m 532.59977,286.95358 c 11.67974,4.74935 38.1752,30.55971 38.1752,30.55971 0,0 35.75809,-25.3166 39.35947,-18.00341 3.60137,7.31318 6.04721,52.19454 9.0223,59.39526 6.79873,71.55445 -9.41706,24.06531 -8.04385,86.96588 1.04105,16.39749 9.03234,28.55468 4.27003,35.68874 -9.52464,14.26814 -32.6597,12.32861 -47.97641,16.42621 -23.1298,6.18781 -18.21752,16.32751 -44.12402,16.34213 -15.18394,0.008 -19.0532,-24.27982 -39.30664,-18.66118 -20.25345,5.61865 -34.33662,22.40555 -49.9,22.11413 -31.12676,-0.58283 -21.11746,-17.99719 -46.93924,-22.22156 -25.82177,-4.22435 -34.40902,27.35271 -48.72351,19.31604 -9.82411,-5.51561 -26.08006,-30.58044 -32.29577,-42.1196 -6.21572,-11.53915 5.59164,-33.98763 2.09678,-48.1129 12.04051,-65.46234 -15.43254,8.64896 -15.82765,-57.75378 0.0119,-18.97747 6.46803,-8.37666 9.72938,-19.64244 3.26136,-11.26578 1.14881,-29.18988 9.02773,-34.6548 7.87891,-5.46491 15.95169,-9.33371 29.81637,-10.90859 13.86469,-1.57488 8.20033,-14.97348 29.41897,-14.56915 10.60932,0.20218 22.21907,17.62326 34.92343,17.96195 12.70433,0.3387 16.97049,-25.9134 31.94089,-25.67702 14.9704,0.23637 33.02227,17.46144 50.42975,17.35664 17.40747,-0.10486 24.91123,-9.11741 44.92679,-9.80226 z"
       id="path3986-3-7-9-1"
       inkscape:connector-curvature="0"
       sodipodi:nodetypes="ccsccssssssssccsssssssc"
       transform="matrix(1.2030438,0,0,1.0035216,-189.57991,390.31736)" />
    <path
       style="fill:#0f0f0f;fill-opacity:1;fill-rule:evenodd;stroke:none;stroke-width:1px;stroke-linecap:butt;stroke-linejoin:miter;stroke-opacity:1"
       d="m 698.52284,995.17499 c -39.9989,-66.84748 -67.206,-118.77119 -107.2049,-185.61867 -18.00515,-25.19428 -22.44383,8.78461 -28.0158,20.5724 -13.446,-17.13534 -32.60185,-46.51962 -46.95791,-62.71017 -14.99329,0.99809 -5.17855,32.81064 0.27751,43.8626 8.87253,19.6137 11.44129,17.72452 36.86709,39.41397 13.48616,12.16198 15.85284,14.47069 26.3398,5.43868 0.51669,-8.91942 2.75372,-19.96731 16.51835,-6.08556 28.8947,41.86867 72.93359,103.50263 102.17586,145.12675 z"
       id="path1019"
       inkscape:connector-curvature="0"
       sodipodi:nodetypes="ccccccccc" />
    <path
       style="color:#000000;display:inline;overflow:visible;visibility:visible;opacity:1;fill:#0f0f0f;fill-opacity:1;fill-rule:nonzero;stroke:none;stroke-width:1.03647184px;marker:none;filter:url(#filter3018-3-2-2-2-0-0-8);enable-background:accumulate"
       d="m 617.92931,477.39305 c -4.84011,11.21122 -27.80905,26.86141 -27.80905,26.86141 0,0 17.82612,34.85033 10.37318,38.30725 -7.45293,3.4569 -44.05091,17.756 -50.76895,20.4002 -25.0013,-1.8909 -95.82722,-1.57521 -122.81277,-1.57933 -16.71083,0.99928 -44.97539,-10.01041 -51.63124,-14.24306 -13.3117,-8.46534 -37.28178,-7.55838 -41.45768,-22.26067 -6.30605,-22.20196 10.89954,-18.05989 10.8859,-41.08514 -0.007,-13.49522 -2.79653,-19.55774 -8.52252,-38.99872 -5.72602,-19.441 5.02915,-44.9656 5.30104,-58.79807 0.54375,-27.66493 -9.49666,-9.37055 -5.19157,-34.15649 4.30507,-24.78595 1.68623,-33.09098 8.86107,-45.95202 4.92413,-8.82661 2.61858,-25.85083 14.37824,-31.8172 11.75966,-5.96638 34.35934,0.13645 47.45615,-3.21786 19.57329,2.93418 46.89088,-5.6162 69.71279,-11.28445 19.31099,-0.90716 40.59109,6.53954 60.94144,9.35328 17.50815,2.42077 47.03971,-1.08657 52.60907,6.47629 5.56933,7.56285 11.36272,15.71619 15.50653,24.59213 4.74151,10.15617 10.87011,11.89955 10.45805,32.267 -0.20604,10.18374 -12.1476,13.67086 -12.17833,24.96555 -0.0308,11.29466 20.28173,24.84667 20.04084,39.21654 -0.24089,14.36986 -14.69301,18.48369 -14.59523,33.95515 0.0979,15.47147 7.74509,27.78557 8.44304,46.99821 z"
       id="path3986-3-7-9-1-0"
       inkscape:connector-curvature="0"
       sodipodi:nodetypes="ccsccssssssssccasassssc"
       transform="matrix(1.0235274,0,0,0.95067455,-134.98054,929.49098)" />
    <path
       style="fill:#0f0f0f;fill-opacity:1;fill-rule:evenodd;stroke:none;stroke-width:1px;stroke-linecap:butt;stroke-linejoin:miter;stroke-opacity:1"
       d="m 678.85763,1204.864 -114.83325,-2.027 c 3.2336,9.1321 25.20262,17.5409 17.76234,26.3466 -11.82777,0.2536 -22.66933,-4.9747 -34.54754,-5.8871 -7.65286,-0.2616 -21.21951,-6.6593 -24.97134,-2.8737 -0.71254,10.692 16.21575,29.3632 0.97144,37.0873 -3.05497,9.2333 -22.55219,13.3116 -48.63318,9.7318 -7.68526,2.7619 -30.78993,3.5108 -14.62139,9.5087 12.08285,7.2347 9.63335,34.365 24.86522,27.4847 13.65248,-4.4896 49.99529,-17.1492 62.94257,-32.2512 16.6875,-6.7134 18.84565,-18.0953 9.37378,-27.1532 6.56252,-4.5855 19.42988,0.4561 27.63811,3.7058 9.97427,2.746 22.38425,-0.904 18.96174,-13.6212 -5.01827,-6.8059 -2.07916,-7.1565 -11.96915,-21.2934 16.06046,-6.044 39.38067,-1.8471 56.10253,-5.7082 10.28332,-1.2658 20.6527,-1.9333 30.95812,-3.0499 z"
       id="path1064"
       inkscape:connector-curvature="0"
       sodipodi:nodetypes="cccccccccccccccc" />
    <path
       style="color:#000000;display:inline;overflow:visible;visibility:visible;fill:#ffffff;fill-opacity:1;fill-rule:nonzero;stroke:none;stroke-width:0.99051005px;marker:none;enable-background:accumulate"
       d="m 1783.7926,3123.5632 c -10.406,-106.694 82.5153,-114.6648 303.7126,-110.0933 201.1968,4.1581 248.5241,14.7602 242.9419,136.5557 -4.7015,102.5806 -143.0877,82.6944 -242.2283,84.636 -80.3565,1.5738 -211.6606,12.6885 -270.242,-7.4909 -32.5458,-11.211 -34.9801,-77.9032 -34.1842,-103.6075 z"
       id="path4546-6"
       inkscape:connector-curvature="0"
       sodipodi:nodetypes="cssssc" />
    <path
       style="fill:#ffffff;fill-opacity:1;stroke:none;stroke-width:0.9784649"
       d="m 169.18727,3093.2174 c 12.93024,-82.852 48.56156,-138.5614 279.47469,-132.2368 230.91311,6.3245 242.81404,67.6986 259.42651,116.7139 16.61247,49.0154 52.40071,188.5674 -52.45021,211.1038 -160.59107,22.9045 -447.56056,29.0541 -474.24639,-12.3603 -35.42966,-54.9842 -17.65391,-147.1973 -12.2046,-183.2206 z"
       id="path3238"
       inkscape:connector-curvature="0"
       sodipodi:nodetypes="csscsc" />
    <path
       style="color:#000000;display:inline;overflow:visible;visibility:visible;fill:#ffffff;fill-opacity:1;fill-rule:nonzero;stroke:none;stroke-width:0.95331842px;marker:none;enable-background:accumulate"
       d="m 425.2149,2102.7931 c 33.20629,-43.8822 58.66764,-40.3107 97.48054,-46.7482 39.92925,-6.9441 98.41228,1.4018 136.42702,18.2423 31.08649,14.7034 43.45015,39.4814 64.34539,79.5005 10.39923,20.5539 12.39449,47.7721 10.19297,75.3179 -1.67926,39.938 -15.67132,59.532 -39.57666,75.7277 -19.9285,11.6731 -69.09408,14.7866 -143.76076,15.7805 -48.72928,0.6486 -117.93323,-3.359 -131.57298,-22.5893 -18.00955,-12.9019 -25.75785,-59.949 -23.91727,-89.7282 4.88891,-79.0988 10.02987,-78.6081 30.38175,-105.5032 z"
       id="path3365"
       inkscape:connector-curvature="0"
       sodipodi:nodetypes="scccccscss" />
    <path
       style="color:#000000;display:inline;overflow:visible;visibility:visible;fill:#ffffff;fill-opacity:1;fill-rule:nonzero;stroke:none;stroke-width:0.99999988px;marker:none;enable-background:accumulate"
       d="m 336.4094,2046.5601 c -0.80292,-30.8389 32.11674,-61.6779 86.71525,-63.8047 54.59845,-2.1268 101.16776,22.3317 105.98524,54.234 4.81754,31.9024 -48.17507,62.7413 -95.5473,63.8047 -47.37223,1.0634 -92.33571,-7.444 -97.15319,-54.234 z"
       id="path3565"
       inkscape:connector-curvature="0" />
    <path
       style="fill:#ffffff;stroke:none;stroke-width:1"
       d="m 986.91549,2134.681 c -100.97915,-53.3438 -152.67959,-66.0231 -234.93481,18.28 -82.25532,84.303 -52.52882,-3.9533 -52.52882,-3.9533 0,0 102.93897,-167.772 287.46363,-14.3267 z"
       id="path3067"
       inkscape:connector-curvature="0"
       sodipodi:nodetypes="cccc" />
    <path
       style="display:inline;fill:#ffffff;stroke:none;stroke-width:1"
       d="m 815.88642,2982.5071 c -55.1154,-17.2597 -122.06272,-16.0175 -133.36871,49.6531 -5.22834,30.3687 -25.07,18.2714 -25.07,18.2714 l -28.18383,-31.7939 c 0,0 -8.60459,18.7717 19.4148,-16.4725 28.01939,-35.2442 84.8376,-75.3344 167.20774,-19.6581 z"
       id="path3063-1"
       inkscape:connector-curvature="0"
       sodipodi:nodetypes="cscczc" />
    <path
       style="display:inline;fill:#ffffff;stroke:none;stroke-width:1"
       d="m 1824.0017,3315.0686 c 55.6913,15.3001 128.7675,2.9909 137.7444,-63.0383 4.1512,-30.5346 2.0352,-34.0618 2.0352,-34.0618 l 14.3752,-12.7254 c 0,0 66.403,3.6416 28.4117,66.8664 -37.9913,63.2248 -91.2637,83.9959 -182.5665,42.9591 z"
       id="path3063-1-2"
       inkscape:connector-curvature="0"
       sodipodi:nodetypes="cscczc" />
    <path
       style="display:inline;opacity:1;fill:#0f0f0f;fill-opacity:1;stroke:none"
       d="m 195.36295,565.79395 c 2.8076,36.5266 -11.3531,47.358 -7.5295,55.3048 3.8237,7.9469 15.8815,11.5559 18.3467,1.8286 2.4651,-9.7273 -8.7342,-30.033 -4.1662,-54.2007"
       id="path3060-5-7-4-8-6"
       inkscape:connector-curvature="0" />
    <path
       style="display:inline;opacity:1;fill:#0f0f0f;fill-opacity:1;stroke:none"
       d="m 452.5156,880.41705 c 2.8076,36.5266 -11.3531,47.358 -7.5295,55.3048 3.8237,7.9469 15.8815,11.5559 18.3467,1.8286 2.4651,-9.7273 -8.7342,-30.033 -4.1662,-54.2007"
       id="path3060-5-7-4-8-6-3"
       inkscape:connector-curvature="0" />
    <path
       style="display:inline;opacity:1;fill:#0f0f0f;fill-opacity:1;stroke:none"
       d="m 274.38327,854.06166 c 2.8076,36.5266 -11.3531,47.358 -7.5295,55.3048 3.8237,7.9469 15.8815,11.5559 18.3467,1.8286 2.4651,-9.7273 -8.7342,-30.033 -4.1662,-54.2007"
       id="path3060-5-7-4-8-6-3-6"
       inkscape:connector-curvature="0" />
    <path
       style="display:inline;opacity:1;fill:#0f0f0f;fill-opacity:1;stroke:none"
       d="m 278.18765,1424.3798 c 2.8076,36.5266 -11.3531,47.358 -7.5295,55.3048 3.8237,7.9469 15.8815,11.5559 18.3467,1.8286 2.4651,-9.7273 -8.7342,-30.033 -4.1662,-54.2007"
       id="path3060-5-7-4-8-6-3-7"
       inkscape:connector-curvature="0" />
  </g>
  <g
     inkscape:groupmode="layer"
     id="layer1"
     inkscape:label="txt"
     style="display:inline">
    <flowRoot
       xml:space="preserve"
       id="flowRoot2987-4-9-3-6-6-2-8"
       style="font-style:normal;font-variant:normal;font-weight:normal;font-stretch:normal;line-height:0.01%;font-family:Lavi;-inkscape-font-specification:Lavi;text-align:center;letter-spacing:0px;word-spacing:0px;text-anchor:middle;opacity:1;fill:#000000;fill-opacity:1;stroke:none"
       transform="matrix(1.1000385,0,0,1.1857741,-120.24798,-65.940239)"><flowRegion
         id="flowRegion2989-5-4-5-0-1-8-4"><rect
           id="rect2991-7-9-6-6-8-9-5"
           width="615.85046"
           height="407.77811"
           x="120.55251"
           y="265.53046"
           style="font-style:normal;font-variant:normal;font-weight:normal;font-stretch:normal;font-family:Lavi;-inkscape-font-specification:Lavi;text-align:center;text-anchor:middle" /></flowRegion><flowPara
         style="font-style:normal;font-variant:normal;font-weight:normal;font-stretch:normal;font-size:48px;line-height:1.25;font-family:'Drukaatie burti';-inkscape-font-specification:'Drukaatie burti';text-align:center;text-anchor:middle;fill:#ffffff;fill-opacity:1"
         id="flowPara7220">Ein dimensjon</flowPara><flowPara
         style="font-style:normal;font-variant:normal;font-weight:normal;font-stretch:normal;font-size:48px;line-height:1.25;font-family:'Drukaatie burti';-inkscape-font-specification:'Drukaatie burti';text-align:center;text-anchor:middle;fill:#ffffff;fill-opacity:1"
         id="flowPara891">der det bur</flowPara><flowPara
         style="font-style:normal;font-variant:normal;font-weight:normal;font-stretch:normal;font-size:48px;line-height:1.25;font-family:'Drukaatie burti';-inkscape-font-specification:'Drukaatie burti';text-align:center;text-anchor:middle;fill:#ffffff;fill-opacity:1"
         id="flowPara893">intelligente</flowPara><flowPara
         style="font-style:normal;font-variant:normal;font-weight:normal;font-stretch:normal;font-size:48px;line-height:1.25;font-family:'Drukaatie burti';-inkscape-font-specification:'Drukaatie burti';text-align:center;text-anchor:middle;fill:#ffffff;fill-opacity:1"
         id="flowPara895">vesen!</flowPara></flowRoot>    <flowRoot
       xml:space="preserve"
       id="flowRoot2987-4-9-3-6-6-2-8-3"
       style="font-style:normal;font-variant:normal;font-weight:normal;font-stretch:normal;line-height:0.01%;font-family:Lavi;-inkscape-font-specification:Lavi;text-align:center;letter-spacing:0px;word-spacing:0px;text-anchor:middle;opacity:1;fill:#000000;fill-opacity:1;stroke:none"
       transform="matrix(1.1000385,0,0,1.1857741,-107.44547,407.25586)"><flowRegion
         id="flowRegion2989-5-4-5-0-1-8-4-6"><rect
           id="rect2991-7-9-6-6-8-9-5-7"
           width="615.85046"
           height="407.77811"
           x="120.55251"
           y="265.53046"
           style="font-style:normal;font-variant:normal;font-weight:normal;font-stretch:normal;font-family:Lavi;-inkscape-font-specification:Lavi;text-align:center;text-anchor:middle" /></flowRegion><flowPara
         style="font-style:normal;font-variant:normal;font-weight:normal;font-stretch:normal;font-size:48px;line-height:1.25;font-family:'Drukaatie burti';-inkscape-font-specification:'Drukaatie burti';text-align:center;text-anchor:middle;fill:#ffffff;fill-opacity:1"
         id="flowPara904">Kom igjen,</flowPara><flowPara
         style="font-style:normal;font-variant:normal;font-weight:normal;font-stretch:normal;font-size:48px;line-height:1.25;font-family:'Drukaatie burti';-inkscape-font-specification:'Drukaatie burti';text-align:center;text-anchor:middle;fill:#ffffff;fill-opacity:1"
         id="flowPara899">vesle rivne!</flowPara></flowRoot>    <flowRoot
       xml:space="preserve"
       id="flowRoot2987-4-9-3-6-6-2-8-3-2"
       style="font-style:normal;font-variant:normal;font-weight:normal;font-stretch:normal;line-height:0.01%;font-family:Lavi;-inkscape-font-specification:Lavi;text-align:center;letter-spacing:0px;word-spacing:0px;text-anchor:middle;opacity:1;fill:#000000;fill-opacity:1;stroke:none"
       transform="matrix(1.1000385,0,0,1.1857741,-115.59988,893.86797)"><flowRegion
         id="flowRegion2989-5-4-5-0-1-8-4-6-9"><rect
           id="rect2991-7-9-6-6-8-9-5-7-1"
           width="615.85046"
           height="407.77811"
           x="120.55251"
           y="265.53046"
           style="font-style:normal;font-variant:normal;font-weight:normal;font-stretch:normal;font-family:Lavi;-inkscape-font-specification:Lavi;text-align:center;text-anchor:middle" /></flowRegion><flowPara
         style="font-style:normal;font-variant:normal;font-weight:normal;font-stretch:normal;font-size:48px;line-height:1.25;font-family:'Drukaatie burti';-inkscape-font-specification:'Drukaatie burti';text-align:center;text-anchor:middle;fill:#ffffff;fill-opacity:1"
         id="flowPara846-6-2">Veks!</flowPara><flowPara
         style="font-style:normal;font-variant:normal;font-weight:normal;font-stretch:normal;font-size:48px;line-height:1.25;font-family:'Drukaatie burti';-inkscape-font-specification:'Drukaatie burti';text-align:center;text-anchor:middle;fill:#ffffff;fill-opacity:1"
         id="flowPara897-7">Muhaha-</flowPara><flowPara
         style="font-style:normal;font-variant:normal;font-weight:normal;font-stretch:normal;font-size:48px;line-height:1.25;font-family:'Drukaatie burti';-inkscape-font-specification:'Drukaatie burti';text-align:center;text-anchor:middle;fill:#ffffff;fill-opacity:1"
         id="flowPara926">hahaha!</flowPara></flowRoot>    <text
       xml:space="preserve"
       style="font-style:normal;font-variant:normal;font-weight:normal;font-stretch:normal;line-height:0%;font-family:Lavi;-inkscape-font-specification:Lavi;text-align:center;letter-spacing:0px;word-spacing:0px;text-anchor:middle;fill:#000000;fill-opacity:1;stroke:none"
       x="429.76233"
       y="2056.4155"
       id="text4246"><tspan
         sodipodi:role="line"
         style="font-size:45px;line-height:1.20000005"
         x="429.76233"
         y="2056.4155"
         id="tspan4252">Puh!</tspan></text>
    <text
       xml:space="preserve"
       style="font-style:normal;font-variant:normal;font-weight:normal;font-stretch:normal;line-height:0%;font-family:Lavi;-inkscape-font-specification:Lavi;text-align:center;letter-spacing:0px;word-spacing:0px;text-anchor:middle;fill:#000000;fill-opacity:1;stroke:none"
       x="564.8656"
       y="2120.4983"
       id="text4246-2"><tspan
         sodipodi:role="line"
         style="font-size:45px;line-height:1.20000005"
         x="571.89685"
         y="2120.4983"
         id="tspan83">Det var </tspan><tspan
         sodipodi:role="line"
         style="font-size:45px;line-height:1.20000005"
         x="564.8656"
         y="2174.4983"
         id="tspan906">jammen eit</tspan><tspan
         sodipodi:role="line"
         style="font-size:45px;line-height:1.20000005"
         x="564.8656"
         y="2228.4983"
         id="tspan886">kjekt selskap,</tspan><tspan
         sodipodi:role="line"
         style="font-size:45px;line-height:1.20000005"
         x="564.8656"
         y="2282.4983"
         id="tspan908">kjære vener!</tspan></text>
    <text
       xml:space="preserve"
       style="font-style:normal;font-variant:normal;font-weight:normal;font-stretch:normal;line-height:0%;font-family:Lavi;-inkscape-font-specification:Lavi;text-align:center;letter-spacing:0px;word-spacing:0px;text-anchor:middle;fill:#000000;fill-opacity:1;stroke:none"
       x="436.5528"
       y="3036.3315"
       id="text4246-2-7"><tspan
         sodipodi:role="line"
         style="font-size:45px;line-height:1.20000005"
         x="436.5528"
         y="3036.3315"
         id="tspan945">Forresten, Safran</tspan><tspan
         sodipodi:role="line"
         style="font-size:45px;line-height:1.20000005"
         x="436.5528"
         y="3090.3315"
         id="tspan924">og eg innsåg nettopp</tspan><tspan
         sodipodi:role="line"
         style="font-size:45px;line-height:1.20000005"
         x="436.5528"
         y="3144.3315"
         id="tspan926">at me ikkje har peiling</tspan><tspan
         sodipodi:role="line"
         style="font-size:45px;line-height:1.20000005"
         x="436.5528"
         y="3198.3315"
         id="tspan928">på korleis kaosah-</tspan><tspan
         sodipodi:role="line"
         style="font-size:45px;line-height:1.20000005"
         x="436.5528"
         y="3252.3315"
         id="tspan930">trolldommen din verkar.</tspan></text>
    <text
       xml:space="preserve"
       style="font-style:normal;font-variant:normal;font-weight:normal;font-stretch:normal;line-height:0%;font-family:Lavi;-inkscape-font-specification:Lavi;text-align:center;letter-spacing:0px;word-spacing:0px;text-anchor:middle;fill:#000000;fill-opacity:1;stroke:none"
       x="2054.9597"
       y="3087.4192"
       id="text4246-2-7-2"><tspan
         sodipodi:role="line"
         style="font-size:45px;line-height:1.20000005"
         x="2054.9597"
         y="3087.4192"
         id="tspan939">Ja, det er eit skikkeleg</tspan><tspan
         sodipodi:role="line"
         style="font-size:45px;line-height:1.20000005"
         x="2054.9597"
         y="3141.4192"
         id="tspan941">mysterium. Kan du</tspan><tspan
         sodipodi:role="line"
         style="font-size:45px;line-height:1.20000005"
         x="2054.9597"
         y="3195.4192"
         id="tspan899">gjera oss litt klokare?</tspan></text>
  </g>
</svg>
