<?xml version="1.0" encoding="UTF-8" standalone="no"?>
<svg
   xmlns:dc="http://purl.org/dc/elements/1.1/"
   xmlns:cc="http://creativecommons.org/ns#"
   xmlns:rdf="http://www.w3.org/1999/02/22-rdf-syntax-ns#"
   xmlns:svg="http://www.w3.org/2000/svg"
   xmlns="http://www.w3.org/2000/svg"
   xmlns:xlink="http://www.w3.org/1999/xlink"
   xmlns:sodipodi="http://sodipodi.sourceforge.net/DTD/sodipodi-0.dtd"
   xmlns:inkscape="http://www.inkscape.org/namespaces/inkscape"
   sodipodi:docname="E13P02.svg"
   height="3503"
   width="2481"
   inkscape:version="1.0 (4035a4fb49, 2020-05-01)"
   version="1.1"
   id="svg2">
  <sodipodi:namedview
     inkscape:document-rotation="0"
     inkscape:window-maximized="0"
     inkscape:window-y="0"
     inkscape:window-x="0"
     inkscape:current-layer="layer1"
     inkscape:cy="2243.6204"
     inkscape:cx="1248.1443"
     inkscape:zoom="0.4"
     showgrid="false"
     id="namedview70"
     inkscape:window-height="955"
     inkscape:window-width="1813"
     inkscape:pageshadow="2"
     inkscape:pageopacity="0"
     bordercolor="#666666"
     pagecolor="#ffffff" />
  <metadata
     id="metadata8">
    <rdf:RDF>
      <cc:Work
         rdf:about="">
        <dc:format>image/svg+xml</dc:format>
        <dc:type
           rdf:resource="http://purl.org/dc/dcmitype/StillImage" />
        <dc:title />
      </cc:Work>
    </rdf:RDF>
  </metadata>
  <defs
     id="defs6">
    <linearGradient
       id="linearGradient4232"
       inkscape:collect="always">
      <stop
         id="stop4234"
         offset="0"
         style="stop-color:#aaffee;stop-opacity:1;" />
      <stop
         id="stop4236"
         offset="1"
         style="stop-color:#ffffff;stop-opacity:1" />
    </linearGradient>
    <inkscape:path-effect
       back_thickness="0.25"
       front_thickness="1"
       stroke_width_bottom="1"
       stroke_width_top="1"
       fat_output="true"
       bottom_smth_variation="0;1"
       top_smth_variation="0;1"
       scale_tb="1"
       scale_tf="1"
       scale_bb="1"
       scale_bf="1"
       top_tgt_variation="0;1"
       bottom_tgt_variation="0;1"
       top_edge_variation="13.945309;1"
       bottom_edge_variation="13.945309;1"
       bender="1435.9506,357.312 , 5,0"
       do_bend="true"
       growth="0"
       dist_rdm="75;1"
       direction="1435.9506,352.312 , 75.738038,0"
       is_visible="true"
       id="path-effect4362"
       effect="rough_hatches" />
    <inkscape:path-effect
       maxComplexity="1000"
       drawall="true"
       nbgenerations="0"
       similar_only="false"
       generator="m 1284.4745,427.03855 101.6097,0 m 101.6097,0 101.6097,0"
       ref_path="m 1284.4745,357.312 304.8291,0"
       is_visible="true"
       id="path-effect4360"
       effect="vonkoch" />
    <inkscape:path-effect
       phi="5"
       teeth="10"
       is_visible="true"
       id="path-effect4358"
       effect="gears" />
    <inkscape:path-effect
       vertical="false"
       scale_y_rel="false"
       prop_scale="1"
       bendpath="m 1284.4745,357.312 304.8291,0"
       is_visible="true"
       id="path-effect4356"
       effect="bend_path" />
    <inkscape:path-effect
       crossing_points_vector=""
       switcher_size="15"
       add_other_stroke_width="true"
       add_stroke_width="true"
       prop_to_stroke_width="true"
       interruption_width="3"
       is_visible="true"
       id="path-effect4354"
       effect="knot" />
    <inkscape:path-effect
       end_linecap_type="round"
       miter_limit="4"
       linejoin_type="round"
       start_linecap_type="round"
       interpolator_beta="0.2"
       interpolator_type="CubicBezierFit"
       sort_points="true"
       offset_points="0,1 | 8,1"
       is_visible="true"
       id="path-effect4352"
       effect="powerstroke" />
    <inkscape:path-effect
       tgtlength_rdm="0.3;1"
       tgtlength="100"
       tgtscale="10"
       tgt_places_rdmness="1;1"
       nbtangents="5"
       tremble_frequency="1"
       tremble_size="5;1"
       parallel_offset="5;1"
       ends_tolerance="0.1;1"
       strokeoverlap_rdm="0.3;1"
       strokeoverlap="0.3"
       strokelength_rdm="0.3;1"
       strokelength="100"
       nbiter_approxstrokes="5"
       is_visible="true"
       id="path-effect4350"
       effect="sketch" />
    <filter
       inkscape:label="Roughen"
       id="filter5561-7"
       style="color-interpolation-filters:sRGB">
      <feFlood
         result="flood"
         flood-color="rgb(65,124,138)"
         flood-opacity="1"
         id="feFlood5563-4" />
      <feComposite
         result="composite1"
         operator="in"
         in="flood"
         in2="SourceGraphic"
         id="feComposite5565-6" />
      <feMorphology
         result="result3"
         radius="4.7000000000000002"
         operator="dilate"
         id="feMorphology5567-3" />
      <feComposite
         radius="3.3999999999999999"
         result="fbSourceGraphic"
         operator="over"
         in="SourceGraphic"
         in2="result3"
         id="feComposite5569-6" />
      <feColorMatrix
         id="feColorMatrix4681"
         values="0 0 0 -1 0 0 0 0 -1 0 0 0 0 -1 0 0 0 0 1 0"
         in="fbSourceGraphic"
         result="fbSourceGraphicAlpha" />
      <feTurbulence
         result="turbulence"
         baseFrequency="0.0080000000000000002 0.044999999999999998"
         seed="33"
         numOctaves="1"
         type="fractalNoise"
         id="feTurbulence4683" />
      <feDisplacementMap
         xChannelSelector="R"
         yChannelSelector="G"
         scale="37.8"
         in="fbSourceGraphic"
         in2="turbulence"
         id="feDisplacementMap4685" />
    </filter>
    <linearGradient
       gradientUnits="userSpaceOnUse"
       y2="1705.3795"
       x2="1955.2883"
       y1="1758.8628"
       x1="1956.4867"
       id="linearGradient4238"
       xlink:href="#linearGradient4232"
       inkscape:collect="always" />
    <filter
       inkscape:label="Roughen"
       id="filter5561-7-7"
       style="color-interpolation-filters:sRGB">
      <feFlood
         result="flood"
         flood-color="rgb(65,124,138)"
         flood-opacity="1"
         id="feFlood5563-4-0" />
      <feComposite
         result="composite1"
         operator="in"
         in="flood"
         in2="SourceGraphic"
         id="feComposite5565-6-1" />
      <feMorphology
         result="result3"
         radius="4.7000000000000002"
         operator="dilate"
         id="feMorphology5567-3-4" />
      <feComposite
         radius="3.3999999999999999"
         result="fbSourceGraphic"
         operator="over"
         in="SourceGraphic"
         in2="result3"
         id="feComposite5569-6-4" />
      <feColorMatrix
         id="feColorMatrix4681-3"
         values="0 0 0 -1 0 0 0 0 -1 0 0 0 0 -1 0 0 0 0 1 0"
         in="fbSourceGraphic"
         result="fbSourceGraphicAlpha" />
      <feTurbulence
         result="turbulence"
         baseFrequency="0.0080000000000000002 0.044999999999999998"
         seed="33"
         numOctaves="1"
         type="fractalNoise"
         id="feTurbulence4683-5" />
      <feDisplacementMap
         xChannelSelector="R"
         yChannelSelector="G"
         scale="37.8"
         in="fbSourceGraphic"
         in2="turbulence"
         id="feDisplacementMap4685-7" />
    </filter>
    <linearGradient
       gradientUnits="userSpaceOnUse"
       y2="1705.3795"
       x2="1955.2883"
       y1="1758.8628"
       x1="1956.4867"
       id="linearGradient4260"
       xlink:href="#linearGradient4232"
       inkscape:collect="always" />
    <linearGradient
       gradientUnits="userSpaceOnUse"
       y2="1705.3795"
       x2="1955.2883"
       y1="1758.8628"
       x1="1956.4867"
       id="linearGradient4268"
       xlink:href="#linearGradient4232"
       inkscape:collect="always" />
    <linearGradient
       gradientUnits="userSpaceOnUse"
       y2="1705.3795"
       x2="1955.2883"
       y1="1758.8628"
       x1="1956.4867"
       id="linearGradient4276"
       xlink:href="#linearGradient4232"
       inkscape:collect="always" />
    <linearGradient
       gradientUnits="userSpaceOnUse"
       y2="1705.3795"
       x2="1955.2883"
       y1="1758.8628"
       x1="1956.4867"
       id="linearGradient4284"
       xlink:href="#linearGradient4232"
       inkscape:collect="always" />
    <linearGradient
       gradientUnits="userSpaceOnUse"
       y2="1705.3795"
       x2="1955.2883"
       y1="1758.8628"
       x1="1956.4867"
       id="linearGradient4292"
       xlink:href="#linearGradient4232"
       inkscape:collect="always" />
    <linearGradient
       y2="1705.3795"
       x2="1955.2883"
       y1="1758.8628"
       x1="1956.4867"
       gradientUnits="userSpaceOnUse"
       id="linearGradient4367"
       xlink:href="#linearGradient4232"
       inkscape:collect="always" />
    <filter
       inkscape:label="Roughen"
       id="filter5561-7-7-1"
       style="color-interpolation-filters:sRGB">
      <feFlood
         result="flood"
         flood-color="rgb(65,124,138)"
         flood-opacity="1"
         id="feFlood5563-4-0-8" />
      <feComposite
         result="composite1"
         operator="in"
         in="flood"
         in2="SourceGraphic"
         id="feComposite5565-6-1-0" />
      <feMorphology
         result="result3"
         radius="4.7000000000000002"
         operator="dilate"
         id="feMorphology5567-3-4-3" />
      <feComposite
         radius="3.3999999999999999"
         result="fbSourceGraphic"
         operator="over"
         in="SourceGraphic"
         in2="result3"
         id="feComposite5569-6-4-9" />
      <feColorMatrix
         id="feColorMatrix4681-3-3"
         values="0 0 0 -1 0 0 0 0 -1 0 0 0 0 -1 0 0 0 0 1 0"
         in="fbSourceGraphic"
         result="fbSourceGraphicAlpha" />
      <feTurbulence
         result="turbulence"
         baseFrequency="0.0080000000000000002 0.044999999999999998"
         seed="33"
         numOctaves="1"
         type="fractalNoise"
         id="feTurbulence4683-5-4" />
      <feDisplacementMap
         xChannelSelector="R"
         yChannelSelector="G"
         scale="37.8"
         in="fbSourceGraphic"
         in2="turbulence"
         id="feDisplacementMap4685-7-7" />
    </filter>
    <linearGradient
       y2="1705.3795"
       x2="1955.2883"
       y1="1758.8628"
       x1="1956.4867"
       gradientUnits="userSpaceOnUse"
       id="linearGradient4389"
       xlink:href="#linearGradient4232"
       inkscape:collect="always" />
    <linearGradient
       y2="1705.3795"
       x2="1955.2883"
       y1="1758.8628"
       x1="1956.4867"
       gradientUnits="userSpaceOnUse"
       id="linearGradient4397"
       xlink:href="#linearGradient4232"
       inkscape:collect="always" />
    <linearGradient
       y2="1705.3795"
       x2="1955.2883"
       y1="1758.8628"
       x1="1956.4867"
       gradientUnits="userSpaceOnUse"
       id="linearGradient4405"
       xlink:href="#linearGradient4232"
       inkscape:collect="always" />
    <linearGradient
       y2="1705.3795"
       x2="1955.2883"
       y1="1758.8628"
       x1="1956.4867"
       gradientUnits="userSpaceOnUse"
       id="linearGradient4413"
       xlink:href="#linearGradient4232"
       inkscape:collect="always" />
    <linearGradient
       y2="1705.3795"
       x2="1955.2883"
       y1="1758.8628"
       x1="1956.4867"
       gradientUnits="userSpaceOnUse"
       id="linearGradient4421"
       xlink:href="#linearGradient4232"
       inkscape:collect="always" />
    <filter
       inkscape:label="deevad outline effect"
       id="filter5561"
       style="color-interpolation-filters:sRGB">
      <feFlood
         result="flood"
         flood-color="rgb(0,0,0)"
         flood-opacity="1"
         id="feFlood5563" />
      <feComposite
         result="composite1"
         operator="in"
         in="flood"
         in2="SourceGraphic"
         id="feComposite5565" />
      <feMorphology
         result="result3"
         radius="1.8999999999999999 6.0999999999999996"
         operator="dilate"
         id="feMorphology5567" />
      <feComposite
         result="composite2"
         operator="over"
         in="SourceGraphic"
         in2="result3"
         id="feComposite5569" />
    </filter>
    <filter
       inkscape:label="deevad outline effect"
       id="filter5561-1"
       style="color-interpolation-filters:sRGB">
      <feFlood
         result="flood"
         flood-color="rgb(0,0,0)"
         flood-opacity="1"
         id="feFlood5563-9" />
      <feComposite
         result="composite1"
         operator="in"
         in="flood"
         in2="SourceGraphic"
         id="feComposite5565-0" />
      <feMorphology
         result="result3"
         radius="1.8999999999999999 6.0999999999999996"
         operator="dilate"
         id="feMorphology5567-7" />
      <feComposite
         result="composite2"
         operator="over"
         in="SourceGraphic"
         in2="result3"
         id="feComposite5569-2" />
    </filter>
    <filter
       inkscape:label="deevad outline effect"
       id="filter5561-1-5"
       style="color-interpolation-filters:sRGB">
      <feFlood
         result="flood"
         flood-color="rgb(0,0,0)"
         flood-opacity="1"
         id="feFlood5563-9-0" />
      <feComposite
         result="composite1"
         operator="in"
         in="flood"
         in2="SourceGraphic"
         id="feComposite5565-0-9" />
      <feMorphology
         result="result3"
         radius="1.8999999999999999 6.0999999999999996"
         operator="dilate"
         id="feMorphology5567-7-8" />
      <feComposite
         result="composite2"
         operator="over"
         in="SourceGraphic"
         in2="result3"
         id="feComposite5569-2-3" />
    </filter>
    <linearGradient
       gradientUnits="userSpaceOnUse"
       y2="1709.2629"
       x2="2493.7808"
       y1="1709.2629"
       x1="1636.8805"
       id="linearGradient4319"
       xlink:href="#linearGradient4313"
       inkscape:collect="always" />
    <linearGradient
       id="linearGradient4313"
       inkscape:collect="always">
      <stop
         id="stop4315"
         offset="0"
         style="stop-color:#ff8bff;stop-opacity:1;" />
      <stop
         id="stop4317"
         offset="1"
         style="stop-color:#ffffff;stop-opacity:1" />
    </linearGradient>
    <filter
       inkscape:label="Roughen"
       id="filter5561-7-8"
       style="color-interpolation-filters:sRGB">
      <feFlood
         result="flood"
         flood-color="rgb(162,21,39)"
         flood-opacity="1"
         id="feFlood5563-4-9" />
      <feComposite
         result="composite1"
         operator="in"
         in="flood"
         in2="SourceGraphic"
         id="feComposite5565-6-3" />
      <feMorphology
         result="result3"
         radius="5.5"
         operator="dilate"
         id="feMorphology5567-3-48" />
      <feComposite
         result="fbSourceGraphic"
         operator="over"
         in="SourceGraphic"
         in2="result3"
         id="feComposite5569-6-6" />
      <feColorMatrix
         id="feColorMatrix4681-5"
         values="0 0 0 -1 0 0 0 0 -1 0 0 0 0 -1 0 0 0 0 1 0"
         in="fbSourceGraphic"
         result="fbSourceGraphicAlpha" />
      <feTurbulence
         result="turbulence"
         baseFrequency="0.001 0.0199"
         seed="33"
         numOctaves="1"
         type="fractalNoise"
         id="feTurbulence4683-3" />
      <feDisplacementMap
         xChannelSelector="R"
         yChannelSelector="G"
         scale="37.8"
         in="fbSourceGraphic"
         in2="turbulence"
         id="feDisplacementMap4685-0" />
    </filter>
    <filter
       inkscape:label="Roughen"
       id="filter5561-7-8-9"
       style="color-interpolation-filters:sRGB">
      <feFlood
         result="flood"
         flood-color="rgb(88,149,175)"
         flood-opacity="1"
         id="feFlood5563-4-9-0" />
      <feComposite
         result="composite1"
         operator="in"
         in="flood"
         in2="SourceGraphic"
         id="feComposite5565-6-3-0" />
      <feMorphology
         result="result3"
         radius="5.5"
         operator="dilate"
         id="feMorphology5567-3-48-3" />
      <feComposite
         result="fbSourceGraphic"
         operator="over"
         in="SourceGraphic"
         in2="result3"
         id="feComposite5569-6-6-5" />
      <feColorMatrix
         id="feColorMatrix4681-5-3"
         values="0 0 0 -1 0 0 0 0 -1 0 0 0 0 -1 0 0 0 0 1 0"
         in="fbSourceGraphic"
         result="fbSourceGraphicAlpha" />
      <feTurbulence
         result="turbulence"
         baseFrequency="0.001 0.0199"
         seed="33"
         numOctaves="1"
         type="fractalNoise"
         id="feTurbulence4683-3-9" />
      <feDisplacementMap
         xChannelSelector="R"
         yChannelSelector="G"
         scale="37.8"
         in="fbSourceGraphic"
         in2="turbulence"
         id="feDisplacementMap4685-0-6" />
    </filter>
  </defs>
  <sodipodi:namedview
     inkscape:current-layer="layer1"
     inkscape:window-maximized="1"
     inkscape:window-y="26"
     inkscape:window-x="0"
     inkscape:cy="1303.1488"
     inkscape:cx="1368.3436"
     inkscape:zoom="0.4"
     showgrid="false"
     id="namedview4"
     inkscape:window-height="1025"
     inkscape:window-width="1920"
     inkscape:pageshadow="2"
     inkscape:pageopacity="0"
     guidetolerance="10"
     gridtolerance="10"
     objecttolerance="10"
     borderopacity="1"
     bordercolor="#666666"
     pagecolor="#ffffff" />
  <g
     sodipodi:insensitive="true"
     inkscape:label="artwork"
     id="layer2"
     inkscape:groupmode="layer">
    <image
       sodipodi:absref="C:\Users\stero\Documents\Kernewek\Pepper and Carrot\webcomics\ep13_The-Pyjama-Party\lang\gfx_Pepper-and-Carrot_by-David-Revoy_E13P02.png"
       xlink:href="../gfx_Pepper-and-Carrot_by-David-Revoy_E13P02.png"
       width="2481"
       height="3503"
       id="image10"
       x="0"
       y="0" />
  </g>
  <g
     inkscape:label="speechbubbles"
     id="layer3"
     inkscape:groupmode="layer" />
  <g
     inkscape:label="txt"
     id="layer1"
     inkscape:groupmode="layer">
    <path
       sodipodi:nodetypes="cssssc"
       inkscape:connector-curvature="0"
       id="path4546-7"
       d="m 64.282719,2744.8439 c 11.007205,-69.1946 31.024521,-91.9735 378.121061,-105.1821 141.2828,-5.3765 266.47414,19.7617 251.99043,121.1341 -14.48361,101.3724 -210.09665,83.6239 -257.85399,85.7819 -47.75736,2.1581 -295.58432,-2.3385 -337.634925,-37.0325 -26.323114,-21.7175 -36.247746,-43.2635 -34.622576,-64.7014 z"
       style="color:#000000;display:inline;overflow:visible;visibility:visible;fill:#ffffff;fill-opacity:1;fill-rule:nonzero;stroke:none;stroke-width:1px;marker:none;enable-background:accumulate" />
    <path
       sodipodi:nodetypes="cscsssssscssssccscccc"
       inkscape:connector-curvature="0"
       id="path5058"
       d="m 2038.3681,2373.1017 c -6.7804,-25.7482 0.7032,-44.0683 6.2295,-49.471 5.5261,-5.4025 18.8084,-19.4351 23.8565,-26.787 4.133,-6.094 12.6371,-13.9622 5.4542,-16.145 -7.183,-2.183 -57.2324,-1.6138 -63.5437,-18.5094 -6.3114,-16.8957 3.0894,-23.9701 20.1878,-32.8563 17.0985,-8.8863 39.2592,-20.7114 36.2565,-33.7527 -3.0027,-13.0413 -20.7794,-18.1993 -30.7,-18.4464 -9.9206,-0.2471 -70.4232,4.7289 -85.564,0.6977 -15.1408,-4.0313 -39.7147,-19.5869 -49.4654,-39.778 18.9185,16.7382 29.1812,24.1458 43.6492,25.4492 14.4681,1.3033 40.4823,5.4086 57.0658,0.5172 16.5836,-4.8913 48.665,-16.4693 61.4814,-11.4349 12.8161,5.0343 38.1938,22.7587 38.097,37.1372 -0.097,14.3786 -9.8033,30.6396 -36.9242,42.341 -17.0986,8.8863 -24.5364,14.3591 -23.1396,18.2839 1.3968,3.9247 19.1734,9.0827 38.3416,6.8491 19.1684,-2.2337 35.0842,1.4634 36.3282,9.9814 1.2441,8.5181 -12.9168,31.0151 -13.9468,39.0053 -1.0297,7.9899 -13.1894,53.4415 -13.1894,53.4415 z"
       style="color:#000000;fill:#ffffff;fill-opacity:1;fill-rule:nonzero;stroke:none;stroke-width:1px;marker:none;visibility:visible;display:inline;overflow:visible;enable-background:accumulate" />
    <path
       sodipodi:nodetypes="cssssc"
       inkscape:connector-curvature="0"
       id="path4546"
       d="m 1755.6287,2443.7252 c 6.2666,-89.4128 96.6724,-154.8252 334.2695,-137.9908 127.2698,9.0172 271.7284,14.9348 264.0237,145.9185 -7.7049,130.9835 -215.2725,127.6054 -258.0738,130.6661 -42.802,3.0608 -266.1142,-10.6865 -305.7183,-55.2448 -24.7915,-27.8923 -34.8382,-55.6574 -34.5011,-83.349 z"
       style="color:#000000;display:inline;overflow:visible;visibility:visible;fill:#ffffff;fill-opacity:1;fill-rule:nonzero;stroke:none;stroke-width:1.09168708px;marker:none;enable-background:accumulate" />
    <path
       sodipodi:nodetypes="cssssssc"
       inkscape:connector-curvature="0"
       id="path3357"
       d="m 150.0301,195.36599 c -0.868,-24.34525 19.8613,-45.01758 28.5421,-52.80801 8.6809,-7.79054 63.3703,-25.31911 83.3364,-25.31911 19.9657,0 107.5376,7.92107 122.295,25.44974 14.7575,17.52858 28.7514,27.13609 19.2025,56.3504 -9.5489,29.21432 -65.6188,35.58652 -78.6399,38.5079 -13.0214,2.92146 -58.986,0.77755 -71.1392,-0.19621 -12.1531,-0.97385 -106.201,-2.0584 -103.5969,-41.98471 z"
       style="color:#000000;display:inline;overflow:visible;visibility:visible;fill:#ffffff;fill-opacity:1;fill-rule:nonzero;stroke:none;stroke-width:1px;marker:none;enable-background:accumulate" />
    <path
       sodipodi:nodetypes="zsssz"
       inkscape:connector-curvature="0"
       id="path3525"
       d="m 322.40315,340.82334 c -30.73622,-59.54209 -29.52378,-169.97382 204.72482,-177.73337 234.24836,-7.75968 276.58094,52.23485 283.5858,70.69162 7.00499,18.4567 39.057,137.57968 -116.48213,164.71054 -120.52793,21.02383 -341.09226,1.8733 -371.82849,-57.66879 z"
       style="color:#000000;display:inline;overflow:visible;visibility:visible;fill:#ffffff;fill-opacity:1;fill-rule:nonzero;stroke:none;stroke-width:1px;marker:none;enable-background:accumulate" />
    <path
       sodipodi:nodetypes="cccc"
       inkscape:connector-curvature="0"
       id="path4406"
       d="M 1280.2782,553.65478 C 1176.7052,333.32764 1101.431,298.02076 759.75627,302.11881 c 18.54016,14.79575 -163.40087,5.57668 -163.40087,5.57668 0,0 616.5392,-177.66222 683.9228,245.95929 z"
       style="fill:#ffffff;fill-rule:evenodd;stroke:none;stroke-width:1px;stroke-linecap:butt;stroke-linejoin:miter;stroke-opacity:1" />
    <text
       id="text4246-0"
       y="194.43243"
       x="280.64941"
       style="font-style:normal;font-variant:normal;font-weight:normal;font-stretch:normal;line-height:0%;font-family:Lavi;-inkscape-font-specification:Lavi;text-align:center;letter-spacing:0px;word-spacing:0px;text-anchor:middle;fill:#000000;fill-opacity:1;stroke:none"
       xml:space="preserve"><tspan
         id="tspan4295"
         y="194.43243"
         x="280.64941"
         style="font-size:45px;line-height:1.25"
         sodipodi:role="line">Meur ras!</tspan></text>
    <text
       id="text4246-5"
       y="245.36821"
       x="566.77625"
       style="font-style:normal;font-variant:normal;font-weight:normal;font-stretch:normal;line-height:0%;font-family:Lavi;-inkscape-font-specification:Lavi;text-align:center;letter-spacing:0px;word-spacing:0px;text-anchor:middle;fill:#000000;fill-opacity:1;stroke:none"
       xml:space="preserve"><tspan
         id="tspan3717"
         y="245.36821"
         x="573.8075"
         style="font-size:45px;line-height:1.25"
         sodipodi:role="line">Govenek a'm beus </tspan><tspan
         id="tspan161"
         y="301.61823"
         x="566.77625"
         style="font-size:45px;line-height:1.25"
         sodipodi:role="line">nag owgh re ownekhes</tspan><tspan
         id="tspan167"
         y="357.86823"
         x="566.77625"
         style="font-size:45px;line-height:1.25"
         sodipodi:role="line">gans ow mayni.</tspan></text>
    <text
       id="text4246-5-1"
       y="2369.9304"
       x="2059.8596"
       style="font-style:normal;font-variant:normal;font-weight:normal;font-stretch:normal;line-height:0%;font-family:Lavi;-inkscape-font-specification:Lavi;text-align:center;letter-spacing:0px;word-spacing:0px;text-anchor:middle;fill:#000000;fill-opacity:1;stroke:none"
       xml:space="preserve"><tspan
         id="tspan4217"
         y="2369.9304"
         x="2059.8596"
         style="font-size:45px;line-height:1.25"
         sodipodi:role="line">Na vydh prederus,</tspan><tspan
         id="tspan174"
         y="2426.1804"
         x="2059.8596"
         style="font-size:45px;line-height:1.25"
         sodipodi:role="line">fest wolkommus yns,</tspan><tspan
         id="tspan176"
         y="2482.4304"
         x="2059.8596"
         style="font-size:45px;line-height:1.25"
         sodipodi:role="line">ni a omglew kepar ha </tspan><tspan
         id="tspan178"
         y="2538.6804"
         x="2059.8596"
         style="font-size:45px;line-height:1.25"
         sodipodi:role="line">pan vyn yn tre.</tspan></text>
    <path
       inkscape:connector-curvature="0"
       id="path3970"
       d="m 852.36874,2929.6937 c -95.2256,-4.317 -235.06721,-20.8928 -262.63029,-55.6712 -27.56309,-34.7785 -21.98155,-78.6724 33.17219,-98.8918 55.1534,-20.2185 149.99256,-38.1599 232.54712,-32.9348 82.55459,5.2256 190.77504,27.3026 216.71514,59.9513 25.9404,32.648 3.3802,103.3705 -102.60693,118.6063 -105.98704,15.2359 -117.19723,8.9402 -117.19723,8.9402 z"
       style="color:#000000;display:inline;overflow:visible;visibility:visible;fill:#ffffff;fill-opacity:1;fill-rule:nonzero;stroke:none;stroke-width:0.96504301px;marker:none;enable-background:accumulate" />
    <path
       sodipodi:nodetypes="ccsc"
       inkscape:connector-curvature="0"
       id="path3978"
       d="m 816.25214,2867.0397 c 2.45748,53.5402 38.42234,128.5038 124.0995,122.5247 -78.22024,-6.1585 -87.15314,-97.9983 -82.23832,-114.4722 4.91483,-16.474 -41.86118,-8.0525 -41.86118,-8.0525 z"
       style="color:#000000;display:inline;overflow:visible;visibility:visible;fill:#ffffff;fill-opacity:1;fill-rule:nonzero;stroke:none;stroke-width:1px;marker:none;enable-background:accumulate" />
    <text
       id="text4246-5-1-1"
       y="2825.2639"
       x="846.40686"
       style="font-style:normal;font-variant:normal;font-weight:normal;font-stretch:normal;line-height:0%;font-family:Lavi;-inkscape-font-specification:Lavi;text-align:center;letter-spacing:0px;word-spacing:0px;text-anchor:middle;fill:#000000;fill-opacity:1;stroke:none"
       xml:space="preserve"><tspan
         id="tspan3733"
         y="2825.2639"
         x="853.43811"
         style="font-size:45px;line-height:1.25"
         sodipodi:role="line">...mar fin ha klys </tspan><tspan
         id="tspan186"
         y="2881.5139"
         x="846.40686"
         style="font-size:45px;line-height:1.25"
         sodipodi:role="line">yn kettermyn!</tspan></text>
    <path
       inkscape:connector-curvature="0"
       id="path3970-3"
       d="m 1830.46,2889.4391 c -68.2832,-2.6315 -168.5591,-12.7352 -188.3238,-33.9345 -19.7644,-21.1994 -15.7621,-47.9551 23.7867,-60.2798 39.5488,-12.3244 107.5549,-23.2607 166.7521,-20.0756 59.1971,3.1852 136.7986,16.6425 155.3992,36.5434 18.6009,19.9009 2.4238,63.01 -73.5761,72.297 -75.9997,9.2871 -84.0381,5.4495 -84.0381,5.4495 z"
       style="color:#000000;display:inline;overflow:visible;visibility:visible;fill:#ffffff;fill-opacity:1;fill-rule:nonzero;stroke:none;stroke-width:1px;marker:none;enable-background:accumulate" />
    <text
       id="text4246-5-1-1-3"
       y="2850.3528"
       x="1813.5154"
       style="font-style:normal;font-variant:normal;font-weight:normal;font-stretch:normal;line-height:0%;font-family:Lavi;-inkscape-font-specification:Lavi;text-align:center;letter-spacing:0px;word-spacing:0px;text-anchor:middle;fill:#000000;fill-opacity:1;stroke:none"
       xml:space="preserve"><tspan
         id="tspan4445-7-2"
         y="2850.3528"
         x="1813.5154"
         style="font-size:45px;line-height:1.25"
         sodipodi:role="line">Gwir yw henna!</tspan></text>
    <path
       inkscape:connector-curvature="0"
       id="path5066"
       d="m 1789.5286,2859.2084 c -17.4406,19.6955 -35.494,44.5832 -39.1772,50.8007 9.5576,0.2371 17.8297,1.9947 24.3169,3.2572 -7.9427,11.0687 -48.099,60.7935 -62.702,68.943 36.8821,-18.8625 70.248,-54.786 81.7008,-73.7289 -8.1189,-3.0555 -13.5504,-3.8913 -17.7731,-5.5983 5.1986,-9.6848 29.5461,-37.9212 29.5461,-37.9212 z"
       style="color:#000000;display:inline;overflow:visible;visibility:visible;fill:#ffffff;fill-opacity:1;fill-rule:nonzero;stroke:none;stroke-width:1px;marker:none;enable-background:accumulate" />
    <text
       xml:space="preserve"
       style="font-style:normal;font-variant:normal;font-weight:normal;font-stretch:normal;line-height:0%;font-family:Lavi;-inkscape-font-specification:Lavi;text-align:center;letter-spacing:0px;word-spacing:0px;text-anchor:middle;fill:#000000;fill-opacity:1;stroke:none"
       x="386.4519"
       y="2735.7207"
       id="text4529"><tspan
         id="tspan3729"
         sodipodi:role="line"
         style="font-size:45px;line-height:1.25"
         x="393.48315"
         y="2735.7207">Kemerys on gans an </tspan><tspan
         id="tspan182"
         sodipodi:role="line"
         style="font-size:45px;line-height:1.25"
         x="386.4519"
         y="2791.9707">afinans pervedhek...</tspan></text>
    <text
       transform="matrix(0.6286325,-0.14446708,-0.17710316,1.2633594,-148.78048,-84.430957)"
       id="text4251"
       y="1742.2045"
       x="1705.2566"
       style="color:#000000;font-style:normal;font-variant:normal;font-weight:normal;font-stretch:normal;line-height:0%;font-family:Arial;-inkscape-font-specification:Arial;letter-spacing:0.0273496px;word-spacing:0px;clip-rule:nonzero;display:inline;overflow:visible;visibility:visible;opacity:0.7;isolation:auto;mix-blend-mode:normal;color-interpolation:sRGB;color-interpolation-filters:linearRGB;solid-color:#000000;solid-opacity:1;fill:url(#linearGradient4238);fill-opacity:1;fill-rule:nonzero;stroke:#ffffff;stroke-width:1.1156;stroke-linecap:butt;stroke-linejoin:miter;stroke-miterlimit:4;stroke-dasharray:none;stroke-dashoffset:0;stroke-opacity:1;marker:none;filter:url(#filter5561-7);color-rendering:auto;image-rendering:auto;shape-rendering:auto;text-rendering:auto;enable-background:accumulate"
       xml:space="preserve"><tspan
         style="font-style:normal;font-variant:normal;font-weight:normal;font-stretch:normal;font-size:160.12px;line-height:1.25;font-family:Lavi;-inkscape-font-specification:Lavi;fill:url(#linearGradient4238);fill-opacity:1"
         y="1742.2045"
         x="1705.2566"
         id="tspan4253"
         sodipodi:role="line"><tspan
           id="tspan4349"
           style="font-size:90px;fill:url(#linearGradient4238);fill-opacity:1">WoooOoh</tspan><tspan
           style="font-size:45.5771px;fill:url(#linearGradient4238);fill-opacity:1"
           id="tspan4365"> ! </tspan><tspan
           style="font-size:55.844px;fill:url(#linearGradient4238);fill-opacity:1"
           id="tspan4311">! </tspan><tspan
           style="font-size:72.5136px;fill:url(#linearGradient4238);fill-opacity:1"
           id="tspan4369">!</tspan></tspan></text>
    <text
       transform="matrix(0.6881356,-0.25452872,0.36456304,1.2537044,100.24508,150.2278)"
       id="text4251-4"
       y="1742.2045"
       x="1705.2566"
       style="color:#000000;font-style:normal;font-variant:normal;font-weight:normal;font-stretch:normal;line-height:0%;font-family:Arial;-inkscape-font-specification:Arial;letter-spacing:0.0273496px;word-spacing:0px;clip-rule:nonzero;display:inline;overflow:visible;visibility:visible;opacity:0.7;isolation:auto;mix-blend-mode:normal;color-interpolation:sRGB;color-interpolation-filters:linearRGB;solid-color:#000000;solid-opacity:1;fill:url(#linearGradient4367);fill-opacity:1;fill-rule:nonzero;stroke:#ffffff;stroke-width:1.1156;stroke-linecap:butt;stroke-linejoin:miter;stroke-miterlimit:4;stroke-dasharray:none;stroke-dashoffset:0;stroke-opacity:1;marker:none;filter:url(#filter5561-7-7);color-rendering:auto;image-rendering:auto;shape-rendering:auto;text-rendering:auto;enable-background:accumulate"
       xml:space="preserve"><tspan
         style="font-style:normal;font-variant:normal;font-weight:normal;font-stretch:normal;font-size:160.12px;line-height:1.25;font-family:Lavi;-inkscape-font-specification:Lavi;fill:url(#linearGradient4367);fill-opacity:1"
         y="1742.2045"
         x="1705.2566"
         id="tspan4253-6"
         sodipodi:role="line"><tspan
           id="tspan4349-3"
           style="font-size:90px;fill:url(#linearGradient4367);fill-opacity:1">WoOoh</tspan><tspan
           style="font-size:45.5771px;fill:url(#linearGradient4367);fill-opacity:1"
           id="tspan4365-3"> ! </tspan><tspan
           style="font-size:55.844px;fill:url(#linearGradient4367);fill-opacity:1"
           id="tspan4311-2">! </tspan><tspan
           style="font-size:72.5136px;fill:url(#linearGradient4367);fill-opacity:1"
           id="tspan4369-1">!</tspan></tspan></text>
    <text
       transform="matrix(0.70707843,-0.1958458,0.25799969,1.2798895,-1485.637,380.94776)"
       id="text4251-4-2"
       y="1742.2045"
       x="1705.2566"
       style="color:#000000;font-style:normal;font-variant:normal;font-weight:normal;font-stretch:normal;line-height:0%;font-family:Arial;-inkscape-font-specification:Arial;letter-spacing:0.0273496px;word-spacing:0px;clip-rule:nonzero;display:inline;overflow:visible;visibility:visible;opacity:0.7;isolation:auto;mix-blend-mode:normal;color-interpolation:sRGB;color-interpolation-filters:linearRGB;solid-color:#000000;solid-opacity:1;fill:url(#linearGradient4260);fill-opacity:1;fill-rule:nonzero;stroke:#ffffff;stroke-width:1.1156;stroke-linecap:butt;stroke-linejoin:miter;stroke-miterlimit:4;stroke-dasharray:none;stroke-dashoffset:0;stroke-opacity:1;marker:none;filter:url(#filter5561-7-7-1);color-rendering:auto;image-rendering:auto;shape-rendering:auto;text-rendering:auto;enable-background:accumulate"
       xml:space="preserve"><tspan
         style="font-style:normal;font-variant:normal;font-weight:normal;font-stretch:normal;font-size:160.12px;line-height:1.25;font-family:Lavi;-inkscape-font-specification:Lavi;fill:url(#linearGradient4260);fill-opacity:1"
         y="1742.2045"
         x="1705.2566"
         id="tspan4253-6-1"
         sodipodi:role="line"><tspan
           id="tspan4349-3-5"
           style="font-size:90px;fill:url(#linearGradient4260);fill-opacity:1">WoooOoh</tspan><tspan
           style="font-size:45.5771px;fill:url(#linearGradient4260);fill-opacity:1"
           id="tspan4365-3-2"> ! </tspan><tspan
           style="font-size:55.844px;fill:url(#linearGradient4260);fill-opacity:1"
           id="tspan4311-2-4">! </tspan><tspan
           style="font-size:72.5136px;fill:url(#linearGradient4260);fill-opacity:1"
           id="tspan4369-1-7">!</tspan></tspan></text>
    <text
       transform="matrix(0.65412866,0.3165118,-1.209107,0.96788591,2433.297,-945.91928)"
       x="1705.2566"
       y="1742.2045"
       inkscape:transform-center-y="261.16467"
       inkscape:transform-center-x="31.424706"
       id="text4251-1"
       style="color:#000000;font-style:normal;font-variant:normal;font-weight:normal;font-stretch:normal;line-height:0%;font-family:Arial;-inkscape-font-specification:Arial;letter-spacing:0.0273496px;word-spacing:0px;display:inline;overflow:visible;visibility:visible;fill:#ffffff;fill-opacity:1;fill-rule:nonzero;stroke:#ffffff;stroke-width:1.1156;stroke-linecap:butt;stroke-linejoin:miter;stroke-miterlimit:4;stroke-dasharray:none;stroke-dashoffset:0;stroke-opacity:1;marker:none;filter:url(#filter5561);enable-background:accumulate"
       xml:space="preserve"><tspan
         style="font-style:normal;font-variant:normal;font-weight:normal;font-stretch:normal;font-size:45.5771px;line-height:1.25;font-family:Lavi;-inkscape-font-specification:Lavi;letter-spacing:8.21055px"
         y="1742.2045"
         x="1705.2566"
         id="tspan4253-5"
         sodipodi:role="line">shwwwwwwiiing !</tspan></text>
    <text
       transform="matrix(0.5605584,-0.46242654,0.37517214,1.5026606,248.8595,-624.00697)"
       x="1705.2566"
       y="1742.2045"
       inkscape:transform-center-y="137.11092"
       inkscape:transform-center-x="-223.72753"
       id="text4251-1-3"
       style="color:#000000;font-style:normal;font-variant:normal;font-weight:normal;font-stretch:normal;line-height:0%;font-family:Arial;-inkscape-font-specification:Arial;letter-spacing:0.0273496px;word-spacing:0px;clip-rule:nonzero;display:inline;overflow:visible;visibility:visible;opacity:1;isolation:auto;mix-blend-mode:normal;color-interpolation:sRGB;color-interpolation-filters:linearRGB;solid-color:#000000;solid-opacity:1;fill:#ffffff;fill-opacity:1;fill-rule:nonzero;stroke:#ffffff;stroke-width:1.1156;stroke-linecap:butt;stroke-linejoin:miter;stroke-miterlimit:4;stroke-dasharray:none;stroke-dashoffset:0;stroke-opacity:1;marker:none;filter:url(#filter5561-1);color-rendering:auto;image-rendering:auto;shape-rendering:auto;text-rendering:auto;enable-background:accumulate"
       xml:space="preserve"><tspan
         style="font-style:normal;font-variant:normal;font-weight:normal;font-stretch:normal;font-size:45.5771px;line-height:1.25;font-family:Lavi;-inkscape-font-specification:Lavi;letter-spacing:6.3599px"
         y="1742.2045"
         x="1705.2566"
         id="tspan4253-5-1"
         sodipodi:role="line">Klaf !</tspan></text>
    <text
       transform="matrix(0.69154331,-0.22323055,-0.20515583,1.5351397,804.55087,-1010.0361)"
       x="1705.2566"
       y="1742.2045"
       inkscape:transform-center-y="209.78564"
       inkscape:transform-center-x="-157.07805"
       id="text4251-1-3-8"
       style="color:#000000;font-style:normal;font-variant:normal;font-weight:normal;font-stretch:normal;line-height:0%;font-family:Arial;-inkscape-font-specification:Arial;letter-spacing:0.0273496px;word-spacing:0px;clip-rule:nonzero;display:inline;overflow:visible;visibility:visible;opacity:1;isolation:auto;mix-blend-mode:normal;color-interpolation:sRGB;color-interpolation-filters:linearRGB;solid-color:#000000;solid-opacity:1;fill:#ffffff;fill-opacity:1;fill-rule:nonzero;stroke:#ffffff;stroke-width:1.1156;stroke-linecap:butt;stroke-linejoin:miter;stroke-miterlimit:4;stroke-dasharray:none;stroke-dashoffset:0;stroke-opacity:1;marker:none;filter:url(#filter5561-1-5);color-rendering:auto;image-rendering:auto;shape-rendering:auto;text-rendering:auto;enable-background:accumulate"
       xml:space="preserve"><tspan
         style="font-style:normal;font-variant:normal;font-weight:normal;font-stretch:normal;font-size:45.5771px;line-height:1.25;font-family:Lavi;-inkscape-font-specification:Lavi;letter-spacing:6.3599px"
         y="1742.2045"
         x="1705.2566"
         id="tspan4253-5-1-0"
         sodipodi:role="line">Klukf !</tspan></text>
    <text
       transform="matrix(0.5625982,-0.1814094,-0.25414582,1.4013785,-329.16005,-1334.5414)"
       id="text4251-9"
       y="1742.2045"
       x="1705.2566"
       style="color:#000000;font-style:normal;font-variant:normal;font-weight:normal;font-stretch:normal;line-height:0%;font-family:Arial;-inkscape-font-specification:Arial;letter-spacing:0.0273496px;word-spacing:0px;clip-rule:nonzero;display:inline;overflow:visible;visibility:visible;opacity:1;isolation:auto;mix-blend-mode:normal;color-interpolation:sRGB;color-interpolation-filters:linearRGB;solid-color:#000000;solid-opacity:1;fill:#ff9e9e;fill-opacity:1;fill-rule:nonzero;stroke:#ffffff;stroke-width:1.1156;stroke-linecap:butt;stroke-linejoin:miter;stroke-miterlimit:4;stroke-dasharray:none;stroke-dashoffset:0;stroke-opacity:1;marker:none;filter:url(#filter5561-7-8);color-rendering:auto;image-rendering:auto;shape-rendering:auto;text-rendering:auto;enable-background:accumulate"
       xml:space="preserve"><tspan
         style="font-style:normal;font-variant:normal;font-weight:normal;font-stretch:normal;font-size:160.12px;line-height:1.25;font-family:Lavi;-inkscape-font-specification:Lavi;fill:#ff9e9e;fill-opacity:1"
         y="1742.2045"
         x="1705.2566"
         id="tspan4253-3"
         sodipodi:role="line"><tspan
           id="tspan4349-9"
           style="font-size:90px;fill:#ff9e9e;fill-opacity:1">Dzzziii</tspan><tspan
           style="font-size:45.5771px;fill:#ff9e9e;fill-opacity:1"
           id="tspan4365-0"> ! </tspan><tspan
           style="font-size:55.844px;fill:#ff9e9e;fill-opacity:1"
           id="tspan4311-9">! </tspan><tspan
           style="font-size:72.5136px;fill:#ff9e9e;fill-opacity:1"
           id="tspan4369-2">!</tspan></tspan></text>
    <text
       transform="matrix(0.5607225,0.08345064,-0.58271682,1.1258658,2096.6301,-1467.761)"
       id="text4251-9-3"
       y="1742.2045"
       x="1705.2566"
       style="color:#000000;font-style:normal;font-variant:normal;font-weight:normal;font-stretch:normal;line-height:0%;font-family:Arial;-inkscape-font-specification:Arial;letter-spacing:0.0273496px;word-spacing:0px;clip-rule:nonzero;display:inline;overflow:visible;visibility:visible;opacity:1;isolation:auto;mix-blend-mode:normal;color-interpolation:sRGB;color-interpolation-filters:linearRGB;solid-color:#000000;solid-opacity:1;fill:#d7e3f4;fill-opacity:1;fill-rule:nonzero;stroke:#ffffff;stroke-width:1.1156;stroke-linecap:butt;stroke-linejoin:miter;stroke-miterlimit:4;stroke-dasharray:none;stroke-dashoffset:0;stroke-opacity:1;marker:none;filter:url(#filter5561-7-8-9);color-rendering:auto;image-rendering:auto;shape-rendering:auto;text-rendering:auto;enable-background:accumulate"
       xml:space="preserve"><tspan
         style="font-style:normal;font-variant:normal;font-weight:normal;font-stretch:normal;font-size:160.12px;line-height:1.25;font-family:Lavi;-inkscape-font-specification:Lavi;fill:#d7e3f4;fill-opacity:1"
         y="1742.2045"
         x="1705.2566"
         id="tspan4253-3-7"
         sodipodi:role="line"><tspan
           id="tspan4349-9-9"
           style="font-size:90px;fill:#d7e3f4;fill-opacity:1">Shkak </tspan><tspan
           style="font-size:45.5771px;fill:#d7e3f4;fill-opacity:1"
           id="tspan4365-0-3">! </tspan><tspan
           style="font-size:55.844px;fill:#d7e3f4;fill-opacity:1"
           id="tspan4311-9-7">! </tspan><tspan
           style="font-size:72.5136px;fill:#d7e3f4;fill-opacity:1"
           id="tspan4369-2-8">!</tspan></tspan></text>
  </g>
</svg>
