<?xml version="1.0" encoding="UTF-8" standalone="no"?>
<svg
   xmlns:dc="http://purl.org/dc/elements/1.1/"
   xmlns:cc="http://creativecommons.org/ns#"
   xmlns:rdf="http://www.w3.org/1999/02/22-rdf-syntax-ns#"
   xmlns:svg="http://www.w3.org/2000/svg"
   xmlns="http://www.w3.org/2000/svg"
   xmlns:xlink="http://www.w3.org/1999/xlink"
   xmlns:sodipodi="http://sodipodi.sourceforge.net/DTD/sodipodi-0.dtd"
   xmlns:inkscape="http://www.inkscape.org/namespaces/inkscape"
   sodipodi:docname="E13P05.svg"
   height="3503"
   width="2481"
   inkscape:version="1.0 (4035a4fb49, 2020-05-01)"
   version="1.1"
   id="svg2">
  <sodipodi:namedview
     inkscape:document-rotation="0"
     inkscape:window-maximized="0"
     inkscape:window-y="0"
     inkscape:window-x="0"
     inkscape:current-layer="layer1"
     inkscape:cy="2643.6204"
     inkscape:cx="1336.0775"
     inkscape:zoom="0.4"
     showgrid="false"
     id="namedview70"
     inkscape:window-height="955"
     inkscape:window-width="1813"
     inkscape:pageshadow="2"
     inkscape:pageopacity="0"
     bordercolor="#666666"
     pagecolor="#ffffff" />
  <metadata
     id="metadata8">
    <rdf:RDF>
      <cc:Work
         rdf:about="">
        <dc:format>image/svg+xml</dc:format>
        <dc:type
           rdf:resource="http://purl.org/dc/dcmitype/StillImage" />
        <dc:title />
      </cc:Work>
    </rdf:RDF>
  </metadata>
  <defs
     id="defs6">
    <filter
       inkscape:label="deevad outline effect"
       id="filter5561"
       style="color-interpolation-filters:sRGB">
      <feFlood
         result="flood"
         flood-color="rgb(0,0,0)"
         flood-opacity="1"
         id="feFlood5563" />
      <feComposite
         result="composite1"
         operator="in"
         in="flood"
         in2="SourceGraphic"
         id="feComposite5565" />
      <feMorphology
         result="result3"
         radius="4.0999999999999996 6.0999999999999996"
         operator="dilate"
         id="feMorphology5567" />
      <feComposite
         result="composite2"
         operator="over"
         in="SourceGraphic"
         in2="result3"
         id="feComposite5569" />
    </filter>
    <filter
       inkscape:menu-tooltip="Create a turbulent contour around"
       inkscape:menu="Distort"
       height="1.4"
       y="-0.2"
       inkscape:label="Rough and Dilate"
       id="filter5561-2"
       style="color-interpolation-filters:sRGB;">
      <feFlood
         result="flood"
         flood-color="rgb(0,0,0)"
         flood-opacity="1"
         id="feFlood5563-5" />
      <feComposite
         result="composite1"
         operator="in"
         in="flood"
         in2="SourceGraphic"
         id="feComposite5565-5" />
      <feMorphology
         result="result3"
         radius="5.5"
         operator="dilate"
         id="feMorphology5567-9" />
      <feComposite
         result="fbSourceGraphic"
         operator="over"
         in="SourceGraphic"
         in2="result3"
         id="feComposite5569-5" />
      <feColorMatrix
         id="feColorMatrix4476"
         values="0 0 0 -1 0 0 0 0 -1 0 0 0 0 -1 0 0 0 0 1 0"
         in="fbSourceGraphic"
         result="fbSourceGraphicAlpha" />
      <feMorphology
         in="fbSourceGraphic"
         result="result8"
         operator="dilate"
         radius="7"
         id="feMorphology4478" />
      <feComposite
         k3="0.5"
         k1="0.5"
         operator="arithmetic"
         in="fbSourceGraphic"
         result="result10"
         in2="result8"
         id="feComposite4480" />
      <feTurbulence
         baseFrequency="0.07"
         numOctaves="3"
         type="fractalNoise"
         result="result11"
         id="feTurbulence4482" />
      <feDisplacementMap
         scale="10"
         xChannelSelector="R"
         in="result10"
         result="result12"
         in2="result11"
         id="feDisplacementMap4484" />
      <feComposite
         k3="0.75"
         k2="0.25"
         k1="0.25"
         in="fbSourceGraphic"
         result="result13"
         operator="arithmetic"
         in2="result12"
         id="feComposite4486" />
    </filter>
  </defs>
  <sodipodi:namedview
     inkscape:current-layer="layer1"
     inkscape:window-maximized="1"
     inkscape:window-y="26"
     inkscape:window-x="0"
     inkscape:cy="657.81633"
     inkscape:cx="1196.3017"
     inkscape:zoom="0.4"
     showgrid="false"
     id="namedview4"
     inkscape:window-height="1025"
     inkscape:window-width="1920"
     inkscape:pageshadow="2"
     inkscape:pageopacity="0"
     guidetolerance="10"
     gridtolerance="10"
     objecttolerance="10"
     borderopacity="1"
     bordercolor="#666666"
     pagecolor="#ffffff" />
  <g
     sodipodi:insensitive="true"
     inkscape:label="artwork"
     id="layer2"
     inkscape:groupmode="layer">
    <image
       sodipodi:absref="C:\Users\stero\Documents\Kernewek\Pepper and Carrot\webcomics\ep13_The-Pyjama-Party\lang\gfx_Pepper-and-Carrot_by-David-Revoy_E13P05.png"
       xlink:href="../gfx_Pepper-and-Carrot_by-David-Revoy_E13P05.png"
       y="0"
       x="0"
       id="image10"
       height="3503"
       width="2481" />
  </g>
  <g
     inkscape:label="speechbubbles"
     id="layer3"
     inkscape:groupmode="layer" />
  <g
     inkscape:label="txt"
     id="layer1"
     inkscape:groupmode="layer">
    <path
       inkscape:transform-center-y="-15.122872"
       inkscape:transform-center-x="-20.79395"
       sodipodi:nodetypes="csssscssssssc"
       inkscape:connector-curvature="0"
       id="path3023"
       d="m 532.23914,400.16668 c -45.86351,5.19378 -53.78367,-6.52279 -61.689,-20.62436 -7.90534,-14.10147 -13.49264,-27.80177 -23.79024,-30.3798 -10.2976,-2.57804 -24.30257,0.17113 -34.44405,3.58885 -10.14159,3.41779 -15.93756,-4.70813 -23.23356,-13.13335 -7.2961,-8.42523 -56.22029,-42.79675 -56.22029,-42.79675 0,0 11.52393,43.77572 19.37723,55.87865 7.8533,12.10292 10.66177,16.56816 15.1493,20.52813 4.48763,3.95999 17.00674,12.09547 28.29249,11.26316 11.28573,-0.8322 21.50892,-7.02128 29.90447,-9.54737 8.39548,-2.5262 20.93698,3.06634 29.25832,12.46487 8.32133,9.39852 30.43229,27.8685 48.5013,24.629 18.06901,-3.23951 28.89403,-11.87103 28.89403,-11.87103 z"
       style="fill:#ffffff;stroke:none" />
    <path
       sodipodi:nodetypes="zsssssz"
       inkscape:connector-curvature="0"
       id="path3330-4"
       d="m 210.40945,278.04045 c 20.06523,-39.17821 129.20184,-35.83367 165.51362,-18.85976 36.31162,16.97374 49.82296,46.20645 51.51186,56.57939 1.6888,10.37286 -2.53336,58.46533 -21.11146,67.8953 -18.57803,9.4299 -71.77878,14.14483 -90.35689,14.14483 -18.57803,0 -77.88328,-6.00209 -92.89041,-19.80283 -14.35579,-13.20185 -32.73203,-60.77879 -12.66672,-99.95693 z"
       style="color:#000000;display:inline;overflow:visible;visibility:visible;fill:#ffffff;fill-opacity:1;fill-rule:nonzero;stroke:none;stroke-width:1px;marker:none;enable-background:accumulate" />
    <path
       sodipodi:nodetypes="zsssssz"
       inkscape:connector-curvature="0"
       id="path3330"
       d="m 125.82724,201.84587 c 35.82907,-28.85502 228.40632,-19.7285 294.5567,-18.58955 54.40499,0.93672 85.73084,1.14957 92.97039,46.37031 5.01168,31.30459 -4.5236,43.06011 -37.69723,50.00535 -33.17349,6.94518 -128.17029,10.41776 -161.34395,10.41776 -33.17346,0 -139.07067,-4.42058 -165.86782,-14.58492 -25.63411,-9.72325 -58.447292,-44.76399 -22.61809,-73.61895 z"
       style="color:#000000;display:inline;overflow:visible;visibility:visible;fill:#ffffff;fill-opacity:1;fill-rule:nonzero;stroke:none;stroke-width:1.08357167px;marker:none;enable-background:accumulate" />
    <path
       sodipodi:nodetypes="ccccccsc"
       inkscape:connector-curvature="0"
       id="path5901"
       d="m 288.29905,2992.7884 c 27.13863,15.4739 74.31627,45.1922 82.67449,74.6866 -17.60867,19.3641 -37.96805,59.2251 -34.59415,62.6985 57.88406,14.8062 95.34653,25.0788 97.84611,85.7942 8.34437,-60.7502 -32.2281,-78.7734 -80.93383,-93.3575 10.17108,-21.2747 34.57156,-48.8736 35.53874,-58.2399 -1.05003,-7.4346 -22.27705,-63.7446 -64.16925,-98.3929 -41.89225,-34.6483 -36.36211,26.811 -36.36211,26.811 z"
       style="color:#000000;display:inline;overflow:visible;visibility:visible;fill:#ffffff;fill-opacity:1;fill-rule:nonzero;stroke:none;stroke-width:0.94540268px;marker:none;enable-background:accumulate" />
    <path
       sodipodi:nodetypes="cccccccccccccc"
       inkscape:connector-curvature="0"
       id="path4572"
       d="m 188.85327,2938.7883 c 36.12079,26.5983 27.30753,41.306 21.68656,56.8583 63.82072,-21.2623 59.31071,2.2133 69.26229,15.3317 26.57058,-20.75 53.97314,-25.9329 74.23915,3.8229 18.63727,-18.2095 36.83664,-31.3199 80.50404,-4.6066 5.14115,-9.464 2.80473,-26.0954 63.44626,-10.2917 -17.11466,-17.579 -5.08288,-29.6197 27.51391,-37.7527 -38.29057,-16.0401 -26.9023,-34.0612 -16.18537,-52.0554 -65.16018,8.1905 -53.9868,-11.8636 -63.26772,-24.3493 -49.69676,31.6488 -60.24269,17.1876 -71.73299,3.8388 -32.60546,29.893 -44.78556,5.9551 -54.18185,-4.2966 -21.1973,42.8257 -42.38472,12.062 -63.16693,4.2799 -4.12658,9.8748 6.65172,24.9821 -48.02117,17.112 10.74488,25.4819 -9.63002,24.5977 -20.09618,32.1087 z"
       style="fill:#ffffff;fill-rule:evenodd;stroke:none;stroke-width:1px;stroke-linecap:butt;stroke-linejoin:miter;stroke-opacity:1" />
    <path
       sodipodi:nodetypes="csccccccsscscc"
       inkscape:connector-curvature="0"
       id="path3153"
       d="m 149.33945,2859.9182 c -1.98579,9.6244 -4.67869,30.1456 0.41085,39.4683 8.58721,15.7294 33.11155,16.7006 -20.19493,102.9161 -12.97157,18.9742 10.12227,52.6533 39.58483,60.9185 10.57914,5.4152 23.69522,25.5182 -18.4285,77.7444 -9.27659,16.6357 -4.52757,42.2473 9.9409,51.5692 7.81785,4.471 20.20097,23.5464 9.99086,43.4641 15.32506,-32.5743 -9.8868,-58.3665 -12.42765,-69.0159 -2.2557,-13.374 21.1803,-44.8627 33.23802,-65.95 12.05771,-21.0872 -11.37174,-48.9814 -19.63666,-57.2068 -8.26485,-8.2253 -24.80904,-13.1047 -23.83655,-27.1758 0.97276,-14.072 33.39346,-55.3249 37.63353,-80.8839 4.23979,-25.5581 -18.75587,-42.5117 -13.60197,-65.9575 9.42421,-35.45 3.4216,-75.4323 -22.67273,-9.8907 z"
       style="color:#000000;display:inline;overflow:visible;visibility:visible;fill:#ffffff;fill-opacity:1;fill-rule:nonzero;stroke:none;stroke-width:1px;marker:none;enable-background:accumulate" />
    <path
       sodipodi:nodetypes="cccccccccccc"
       inkscape:connector-curvature="0"
       id="path4564"
       d="m 108.31353,2835.9696 c 38.9876,-17.3045 46.84885,-36.1819 0,-57.8239 26.05783,-4.6732 67.96267,7.0114 45.33994,-47.9112 34.17441,22.269 66.41606,29.6993 92.53048,-9.9127 18.31025,48.4808 47.37032,31.155 76.80029,11.5648 -3.46333,41.521 19.02807,46.7748 52.74239,36.3464 -7.40571,17.9809 -36.50437,38.8667 16.65547,48.7373 -40.38934,11.1907 -50.1776,26.3793 -24.05792,46.2592 -36.05353,-12.9022 -72.2599,-26.0375 -70.32316,18.9992 -21.89888,-24.5412 -43.79777,-39.5116 -65.69665,-2.4781 -9.89073,-46.4095 -78.52919,-29.958 -55.27282,21.0835 -29.11426,-43.0457 -31.87487,-65.4683 -68.71802,-64.8645 z"
       style="fill:#ffffff;fill-rule:evenodd;stroke:none;stroke-width:1px;stroke-linecap:butt;stroke-linejoin:miter;stroke-opacity:1" />
    <path
       sodipodi:nodetypes="cscccccccccccccccc"
       inkscape:connector-curvature="0"
       id="path3549-3"
       d="m 657.52537,3276.3435 c -39.24801,-47.6984 -24.39952,-72.6855 -15.71637,-78.8488 8.56999,-6.083 32.2783,-12.5993 39.96403,12.4231 29.15202,-22.2775 41.66119,-14.3308 47.29738,4.9976 -7.70828,-24.5156 63.9908,-36.8092 109.37553,-12.9861 -7.33359,-18.2334 3.40944,-60.6766 36.26512,-69.0492 -45.03769,-9.9612 -43.35169,-48.9988 38.11972,-63.4652 -62.68611,0.4306 -83.68739,-20.0076 -12.98244,-63.9708 -23.11083,-0.4202 -87.36001,38.8774 -68.57913,-64.4889 -60.34774,28.981 -174.78544,42.5029 -204.67952,-19.046 -14.51836,27.6174 -67.55003,63.4156 -106.32927,22.5519 32.29148,81.6047 -47.68034,66.217 -68.85459,61.2701 43.93273,29.1086 51.90478,47.7437 -42.50846,45.6493 99.09468,51.9448 3.46273,57.7863 -11.03487,71.9856 76.24094,16.8098 75.03336,66.8508 42.2882,100.3238 60.45662,-27.3701 105.09886,-42.3525 101.9663,-16.5192 37.50746,-26.5444 52.45312,-11.4617 64.6574,2.6359 10.37097,20.607 9.82603,44.2284 50.75097,66.5369 z"
       style="color:#000000;display:inline;overflow:visible;visibility:visible;fill:#ffffff;fill-opacity:1;fill-rule:nonzero;stroke:none;stroke-width:1.1106534px;marker:none;enable-background:accumulate" />
    <text
       transform="matrix(1.1711291,-0.6244068,0,3.0910067,-383.37072,-2560.6915)"
       id="text4251"
       y="1742.2045"
       x="1705.2566"
       style="color:#000000;font-style:normal;font-variant:normal;font-weight:normal;font-stretch:normal;line-height:0%;font-family:Arial;-inkscape-font-specification:Arial;letter-spacing:0.0273496px;word-spacing:0px;clip-rule:nonzero;display:inline;overflow:visible;visibility:visible;opacity:1;isolation:auto;mix-blend-mode:normal;color-interpolation:sRGB;color-interpolation-filters:linearRGB;solid-color:#000000;solid-opacity:1;fill:#ffffff;fill-opacity:1;fill-rule:nonzero;stroke:#ffffff;stroke-width:1.1156;stroke-linecap:butt;stroke-linejoin:miter;stroke-miterlimit:4;stroke-dasharray:none;stroke-dashoffset:0;stroke-opacity:1;marker:none;filter:url(#filter5561);color-rendering:auto;image-rendering:auto;shape-rendering:auto;text-rendering:auto;enable-background:accumulate"
       xml:space="preserve"><tspan
         style="font-style:normal;font-variant:normal;font-weight:normal;font-stretch:normal;font-size:160.12px;line-height:1.25;font-family:Lavi;-inkscape-font-specification:Lavi"
         y="1742.2045"
         x="1705.2566"
         id="tspan4253"
         sodipodi:role="line"><tspan
           id="tspan4349"
           style="font-size:90px">K</tspan><tspan
           style="font-size:68.3657px"
           id="tspan4353">R</tspan><tspan
           style="font-size:60.7695px"
           id="tspan4357">A</tspan><tspan
           style="font-size:53.1733px"
           id="tspan4361">C</tspan><tspan
           style="font-size:45.5771px"
           id="tspan4365">K ! </tspan><tspan
           style="font-size:72.5136px"
           id="tspan4369">!</tspan></tspan></text>
    <text
       id="text4246-3"
       y="2821.7837"
       x="249.50087"
       style="font-style:normal;font-variant:normal;font-weight:normal;font-stretch:normal;line-height:0%;font-family:Lavi;-inkscape-font-specification:Lavi;text-align:center;letter-spacing:0px;word-spacing:0px;text-anchor:middle;fill:#000000;fill-opacity:1;stroke:none"
       xml:space="preserve"><tspan
         id="tspan4152-3"
         y="2821.7837"
         x="249.50087"
         style="font-size:45px;line-height:1.25;stroke:#000000;stroke-width:1.9;stroke-miterlimit:4;stroke-dasharray:none;stroke-opacity:1"
         sodipodi:role="line">Soweth!</tspan></text>
    <text
       xml:space="preserve"
       style="font-style:normal;font-variant:normal;font-weight:normal;font-stretch:normal;line-height:0%;font-family:Lavi;-inkscape-font-specification:Lavi;text-align:center;letter-spacing:0px;word-spacing:0px;text-anchor:middle;fill:#000000;fill-opacity:1;stroke:none"
       x="354.42157"
       y="2968.0713"
       id="text4530"><tspan
         sodipodi:role="line"
         style="font-size:45px;line-height:1.25"
         x="354.42157"
         y="2968.0713"
         id="tspan4532">Nag arta!</tspan></text>
    <text
       transform="scale(0.99127735,1.0087994)"
       xml:space="preserve"
       style="font-style:normal;font-variant:normal;font-weight:normal;font-stretch:normal;line-height:0%;font-family:Lavi;-inkscape-font-specification:Lavi;text-align:center;letter-spacing:0px;word-spacing:0px;text-anchor:middle;fill:#000000;fill-opacity:1;stroke:#000000;stroke-width:0.5;stroke-miterlimit:4;stroke-dasharray:none;stroke-opacity:1"
       x="655.35193"
       y="3014.8918"
       id="text4530-7"><tspan
         sodipodi:role="line"
         style="font-size:47.6083px;line-height:1.25;stroke:#000000;stroke-width:0.5;stroke-miterlimit:4;stroke-dasharray:none;stroke-opacity:1"
         x="662.79071"
         y="3014.8918"
         id="tspan4532-4"> </tspan><tspan
         id="tspan4552"
         sodipodi:role="line"
         style="font-size:47.6083px;line-height:1.25;stroke:#000000;stroke-width:0.5;stroke-miterlimit:4;stroke-dasharray:none;stroke-opacity:1"
         x="662.79071"
         y="3074.4023">Gas e dhe </tspan><tspan
         id="tspan4554"
         sodipodi:role="line"
         style="font-size:47.6083px;line-height:1.25;stroke:#000000;stroke-width:0.5;stroke-miterlimit:4;stroke-dasharray:none;stroke-opacity:1"
         x="655.35193"
         y="3133.9126">godha! Distowgh!</tspan></text>
    <flowRoot
       style="font-style:normal;font-variant:normal;font-weight:normal;font-stretch:normal;line-height:0.01%;font-family:Lavi;-inkscape-font-specification:'Lavi, Normal';text-align:center;letter-spacing:0px;word-spacing:0px;writing-mode:lr-tb;text-anchor:middle;fill:#000000;fill-opacity:1;stroke:none;stroke-width:1px;stroke-linecap:butt;stroke-linejoin:miter;stroke-opacity:1"
       id="flowRoot4214"
       xml:space="preserve"><flowRegion
         id="flowRegion4216"><rect
           y="428.39709"
           x="277.30032"
           height="55.745937"
           width="51.45779"
           id="rect4218" /></flowRegion><flowPara
         style="font-size:47.0037px;line-height:1.25"
         id="flowPara4220"> </flowPara></flowRoot>
    <flowRoot
       style="font-style:normal;font-variant:normal;font-weight:normal;font-stretch:normal;line-height:0.01%;font-family:Lavi;-inkscape-font-specification:'Lavi, Normal';text-align:center;letter-spacing:0px;word-spacing:0px;writing-mode:lr-tb;text-anchor:middle;fill:#000000;fill-opacity:1;stroke:none;stroke-width:1px;stroke-linecap:butt;stroke-linejoin:miter;stroke-opacity:1"
       id="flowRoot4222"
       xml:space="preserve"><flowRegion
         id="flowRegion4224"><rect
           y="379.79807"
           x="370.21021"
           height="67.181"
           width="75.757301"
           id="rect4226" /></flowRegion><flowPara
         style="font-size:47.0037px;line-height:1.25"
         id="flowPara4228"> </flowPara></flowRoot>
    <path
       sodipodi:nodetypes="cccccccccscsccccssscscscccccccscccsscsscsccsccccssccccccccsccccsccccc"
       inkscape:connector-curvature="0"
       id="path5888"
       d="m 302.65714,1212.2229 c 26.42236,6.4878 36.58475,12.512 31.8422,16.2194 10.83998,1.8536 14.90501,50.0482 4.74255,58.853 -0.67752,0.927 -5.41999,3.7072 -3.38752,4.1707 2.03248,0.4633 14.22742,-0.9268 16.2599,0.9267 2.03248,1.8538 -18.29237,28.2681 -15.58246,29.1949 2.71008,0.9268 65.03967,-16.6828 73.84701,-12.512 8.80743,4.1707 4.06504,14.829 6.77503,15.2926 2.70983,0.4633 27.77733,-2.3171 31.16484,-1.8538 3.38735,0.4635 9.4847,14.3657 12.87221,14.8291 3.38752,0.4634 18.96998,-6.0243 21.67998,-5.5609 2.70999,0.4635 1.35487,12.0486 4.74239,12.512 3.38751,0.4634 18.29236,-9.7315 20.32493,-9.2681 2.03239,0.4634 9.48495,23.6339 12.87238,25.024 3.38751,1.3903 25.06732,-25.4874 27.09988,-25.9508 2.0324,-0.4635 14.90477,31.5118 17.61485,31.9752 2.71,0.4635 16.25982,-21.7803 18.29238,-21.3169 2.03247,0.4634 14.90485,13.4391 17.61477,14.3658 2.70999,0.9267 20.32493,-28.7314 23.03484,-28.7314 2.71008,0 25.74484,12.5121 27.77741,14.829 2.03247,2.3171 4.06486,-12.0485 6.77486,-12.0485 2.71,0 33.87475,8.3413 34.55235,7.878 0.67744,-0.4635 -4.74255,-9.2683 -2.71008,-9.2683 2.03248,0 23.21491,-7.6024 35.94053,-4.9448 19.12128,-5.1598 73.13627,23.9446 73.13627,23.9446 0,0 -30.48731,-37.9996 -27.09996,-40.7799 3.38751,-2.7806 15.58263,0.4633 16.26006,-0.9269 0.67744,-1.3903 -7.45247,-7.4146 -5.42016,-9.2683 2.03265,-1.8536 25.06749,-9.2681 27.09988,-11.585 2.03256,-2.3172 -10.16238,-8.3416 -7.45246,-9.7318 2.71007,-1.3902 42.68241,-10.195 43.35986,-12.5121 0.67743,-2.317 -20.32486,-13.4387 -17.61494,-16.6826 2.71,-3.2439 10.16246,-4.6341 9.48494,-6.9511 -0.67751,-2.3171 -13.54998,-5.0976 -12.87246,-7.4147 0.6776,-2.317 7.45248,-13.9023 9.48495,-15.7559 2.03248,-1.8536 -14.22742,-0.9268 -14.22742,-2.7804 0,-1.8536 59.61967,-51.4385 58.26455,-65.3408 -21.00228,8.8048 -92.81682,24.5607 -115.17406,20.8535 -22.35749,-3.7074 -13.54991,-26.8777 -16.93733,-28.268 -3.38752,-1.3903 -28.45493,7.878 -31.84244,4.634 -3.38744,-3.2437 -4.7424,-9.2681 -7.45248,-9.2681 -2.70983,0 -18.29237,12.9754 -21.67972,12.5121 -3.38751,-0.4635 -35.22979,-20.8533 -39.97235,-21.3169 -4.74238,-0.4633 -23.03476,7.878 -27.0998,8.3414 -4.06495,0.4634 -7.45238,-11.1218 -10.83989,-10.195 -3.38752,0.9267 -25.06733,9.2682 -28.45467,8.3414 -3.38753,-0.9268 -6.09752,-4.6341 -8.8076,-3.7072 -2.70983,0.9267 -14.90485,4.634 -14.90485,4.634 0,0 -8.80744,-2.7805 -12.87239,-2.7805 -4.06495,0 -31.84218,15.2925 -35.2297,16.2193 -3.38752,0.9268 -43.96135,-16.4221 -41.92887,-19.2027 2.03255,-2.7804 -19.04576,19.6662 -23.78823,21.0564 -4.7424,1.3901 -48.39105,-50.9985 -49.74594,-49.6082 -1.35503,1.3902 24.00118,57.0226 19.93614,57.4861 -4.06496,0.4634 -13.5499,2.317 -13.5499,2.317 l 1.35495,2.7805 c 0,0 -28.45475,-7.4145 -31.84227,-10.1949 -3.38743,-2.7805 2.03257,12.0485 4.06504,15.7559 -12.19486,-3.7074 -48.10217,-11.5853 -50.812,-13.9023 -2.71009,-2.3172 4.7423,8.3413 8.80726,11.5852 -5.41992,-1.3903 -10.16247,-1.8537 -10.16247,-1.8537 l 15.58246,11.1219 -4.74256,0.9268 c 0,0 10.16247,5.0976 10.16247,7.4146 0,2.317 -26.4222,5.0975 -26.4222,5.0975 0,0 10.8399,4.1706 8.12991,6.4877 -2.71008,2.317 -9.48503,3.7072 -9.48503,3.7072 l -1.35487,6.0244 z"
       style="fill:#ffffff;fill-opacity:1;stroke:none" />
    <path
       sodipodi:nodetypes="ccccccccccccccccccccccccccccc"
       inkscape:connector-curvature="0"
       id="path3549-3-3-0"
       d="m 116.47089,132.38514 c 29.12554,11.17899 58.83407,22.24748 6.13938,48.94148 49.67004,-6.35793 19.07174,8.38947 6.73124,18.33629 88.85455,-18.74057 31.13109,12.76124 9.04267,32.04858 19.86282,-7.52529 51.7024,-29.07942 39.26978,1.22454 6.29413,-1.31005 13.74595,-5.21616 16.73064,0.89553 8.06622,-4.0726 14.01949,-5.06172 17.43769,-2.35089 7.99539,-7.50896 13.10533,-9.44222 12.90451,-1.11439 7.54118,-6.17202 9.78452,-3.97711 11.61676,-1.13317 12.9948,-13.29779 17.67697,-9.42463 22.66498,-6.18284 7.36628,-7.99049 15.76821,-6.03363 25.0392,4.27359 9.95339,-13.62736 20.34669,-12.63773 30.98637,-3.45584 2.15943,-10.77439 8.35445,-21.50565 15.0179,1.1004 4.32815,-1.74837 7.31155,-15.93147 21.40706,7.93761 1.69006,-25.98851 52.00108,-16.37838 72.96224,-2.88199 -5.91313,-20.27503 5.15474,-29.31705 40.74659,-8.52424 2.04692,-8.0987 12.95013,-11.24009 31.75596,-9.95834 -19.1191,-10.08893 -20.00447,-15.68655 24.67243,-10.06152 -31.05165,-8.48668 -59.6552,-16.93755 -11.12566,-24.2627 -11.26812,-3.35378 -48.44557,3.60616 -7.07293,-33.97395 -29.01744,8.00401 -55.25408,9.81062 -62.65615,-24.36343 -15.73966,8.72919 -33.06092,12.9143 -46.22753,-7.83966 -12.54065,9.45122 -29.7818,6.88657 -38.68866,2.04082 -2.63851,10.51289 -21.3358,26.42219 -45.67168,-3.27205 5.1416,16.75074 0.49264,43.24383 -27.67833,-1.05532 -0.72302,7.62394 10.42429,49.30506 -69.53644,-1.66633 9.44875,33.5526 -17.044,13.72289 -38.04473,2.05018 10.1181,21.09782 -5.74985,22.48629 -40.12766,9.83606 26.31669,20.27651 -1.03224,14.38517 -18.29563,13.41158 z"
       style="color:#000000;display:inline;overflow:visible;visibility:visible;fill:#ffffff;fill-opacity:1;fill-rule:nonzero;stroke:none;stroke-width:1.10778451px;marker:none;enable-background:accumulate" />
    <text
       id="text4246-9-0"
       y="190.96432"
       x="315.8573"
       style="font-style:normal;font-variant:normal;font-weight:normal;font-stretch:normal;line-height:0%;font-family:Lavi;-inkscape-font-specification:Lavi;text-align:center;letter-spacing:0px;word-spacing:0px;text-anchor:middle;fill:#000000;fill-opacity:1;stroke:none"
       xml:space="preserve"><tspan
         id="tspan4206"
         y="190.96432"
         x="315.8573"
         style="font-size:45px;line-height:1.25"
         sodipodi:role="line">...Ogh ha tru!</tspan><tspan
         id="tspan117"
         y="247.21432"
         x="315.8573"
         style="font-size:45px;line-height:1.25"
         sodipodi:role="line">Re dhiwedhes yw!</tspan><tspan
         id="tspan119"
         y="303.46432"
         x="315.8573"
         style="font-size:45px;line-height:1.25"
         sodipodi:role="line">Hi...</tspan><tspan
         id="tspan121"
         y="359.71432"
         x="315.8573"
         style="font-size:45px;line-height:1.25"
         sodipodi:role="line">Hi yw...</tspan></text>
    <text
       transform="scale(0.943293,1.060116)"
       id="text4246-9-0-9"
       y="1192.735"
       x="618.81335"
       style="font-style:normal;font-variant:normal;font-weight:normal;font-stretch:normal;line-height:0%;font-family:Lavi;-inkscape-font-specification:Lavi;text-align:center;letter-spacing:0px;word-spacing:0px;text-anchor:middle;fill:#000000;fill-opacity:1;stroke:#000000;stroke-width:2.72445;stroke-miterlimit:4;stroke-dasharray:none;stroke-opacity:1"
       xml:space="preserve"><tspan
         id="tspan4206-3"
         y="1192.735"
         x="630.03851"
         style="font-size:71.8411px;line-height:1.25;stroke:#000000;stroke-width:2.72445;stroke-miterlimit:4;stroke-dasharray:none;stroke-opacity:1"
         sodipodi:role="line"><tspan
   id="tspan4275"
   style="font-size:90px">N<tspan
   id="tspan4277"
   style="font-size:103.75px">aa</tspan>aa</tspan>aa!!! </tspan></text>
    <path
       sodipodi:nodetypes="ccccsccccccccccccccccccccccccccccccccc"
       inkscape:connector-curvature="0"
       id="path4448"
       d="m 886.47708,501.3257 14.63576,-4.89304 4.44778,26.21506 26.22964,-16.52319 c 0,0 11.89283,13.9973 17.88539,15.01285 5.9926,1.01557 -3.84951,12.82731 -3.84951,12.82731 0,0 13.09141,14.2004 15.16567,17.54736 -4.72512,9.68327 -15.76552,21.29171 -15.76552,21.29171 l 49.27708,29.31921 -21.54975,-26.11788 27.26668,-14.84943 -16.59453,-26.77593 7.6752,-3.19273 -18.43845,-21.0974 16.48005,-16.67761 -13.41407,-11.2595 8.32087,-9.07413 10.8555,12.32392 5.46303,-27.53129 19.4989,0.30905 18.324,-22.35594 2.1323,-21.70278 19.9298,-13.5795 -2.8876,-32.95783 23.8781,-13.49158 -8.2048,-38.8564 3.2779,-37.70088 -15.2579,-5.5812 18.7157,-14.80114 -19.8907,-7.86405 45.6007,-24.65614 -25.7066,-45.4444 14.453,-37.54932 -16.8595,-8.38341 15.6154,-21.06978 c -11.1632,1.60287 -9.2037,-9.5899 -9.2037,-9.5899 0,0 -122.91904,-2.31614 -196.64115,0.57235 z"
       style="color:#000000;display:inline;overflow:visible;visibility:visible;fill:#000000;fill-opacity:1;fill-rule:nonzero;stroke:none;stroke-width:1px;marker:none;enable-background:accumulate" />
    <text
       transform="scale(0.92299533,1.0834291)"
       id="text4246-9-0-9-2"
       y="186.04254"
       x="1051.0415"
       style="font-style:normal;font-variant:normal;font-weight:normal;font-stretch:normal;line-height:0%;font-family:Lavi;-inkscape-font-specification:Lavi;text-align:center;letter-spacing:0px;word-spacing:0px;text-anchor:middle;fill:#ffffff;fill-opacity:1;stroke:#ffffff;stroke-width:1.59634;stroke-miterlimit:4;stroke-dasharray:none;stroke-opacity:1"
       xml:space="preserve"><tspan
         id="tspan4206-3-2"
         y="186.04254"
         x="1051.0415"
         style="font-style:normal;font-variant:normal;font-weight:normal;font-stretch:normal;font-size:52.7338px;line-height:1.25;font-family:'Drukaatie burti';-inkscape-font-specification:'Drukaatie burti';fill:#ffffff;stroke:#ffffff;stroke-width:1.59634;stroke-miterlimit:4;stroke-dasharray:none;stroke-opacity:1"
         sodipodi:role="line"> MUAH</tspan><tspan
         id="tspan4331"
         y="251.95982"
         x="1051.0415"
         style="font-style:normal;font-variant:normal;font-weight:normal;font-stretch:normal;font-size:52.7338px;line-height:1.25;font-family:'Drukaatie burti';-inkscape-font-specification:'Drukaatie burti';fill:#ffffff;stroke:#ffffff;stroke-width:1.59634;stroke-miterlimit:4;stroke-dasharray:none;stroke-opacity:1"
         sodipodi:role="line">HAHA</tspan><tspan
         id="tspan4333"
         y="317.87711"
         x="1051.0415"
         style="font-style:normal;font-variant:normal;font-weight:normal;font-stretch:normal;font-size:52.7338px;line-height:1.25;font-family:'Drukaatie burti';-inkscape-font-specification:'Drukaatie burti';fill:#ffffff;stroke:#ffffff;stroke-width:1.59634;stroke-miterlimit:4;stroke-dasharray:none;stroke-opacity:1"
         sodipodi:role="line">HAHA</tspan><tspan
         id="tspan4335"
         y="383.7944"
         x="1051.0415"
         style="font-style:normal;font-variant:normal;font-weight:normal;font-stretch:normal;font-size:52.7338px;line-height:1.25;font-family:'Drukaatie burti';-inkscape-font-specification:'Drukaatie burti';fill:#ffffff;stroke:#ffffff;stroke-width:1.59634;stroke-miterlimit:4;stroke-dasharray:none;stroke-opacity:1"
         sodipodi:role="line">!!!</tspan></text>
    <path
       sodipodi:nodetypes="ccccccccccccccccccc"
       inkscape:connector-curvature="0"
       id="path3549-3-7"
       d="m 1998.3497,1012.7696 c -8.6666,27.6364 -57.5473,29.954 -75.5414,24.3362 36.2723,30.9166 35.0079,50.1255 -14.2399,53.1079 82.589,55.7198 15.0984,47.288 1.7865,61.4169 64.8476,19.2024 35.834,43.0999 24.289,66.8896 74.536,0.817 44.4908,29.8002 30.6733,53.0542 19.5092,-12.218 69.1012,-64.5251 70.9075,-16.2153 42.8689,-43.5767 67.4263,-50.1928 80.8416,5.419 22.3659,-45.6974 59.9356,-34.6169 69.251,2.5142 34.1639,-71.7954 77.2998,-12.0293 115.0036,6.5491 -10.9126,-24.709 -16.1601,-95.7594 58.558,-50.8003 -29.9538,-34.8603 13.9896,-40.6804 42.8159,-48.3672 -38.3055,-11.3751 -45.3653,-23.1084 25.7598,-35.735 -54.1219,-1.2215 -104.5911,-3.7239 -41.0941,-46.7847 -19.9208,-1.0421 -73.7131,11.9429 -24.8459,-85.4033 -136.2467,97.354 -79.9897,-118.76302 -71.5633,-245.99907 -59.3332,203.38972 -77.8121,319.52357 -129.5899,242.24467 -20.1523,50.1693 -64.9686,46.7732 -87.3323,5.1153 -14.0864,27.8429 -35.1584,46.6468 -75.6794,8.6578 z"
       style="color:#000000;display:inline;overflow:visible;visibility:visible;fill:#ffffff;fill-opacity:1;fill-rule:nonzero;stroke:none;stroke-width:1.03241909px;marker:none;enable-background:accumulate" />
    <path
       sodipodi:nodetypes="ccccccccccccccc"
       inkscape:connector-curvature="0"
       id="path3549-3-6"
       d="m 1729.8159,539.26594 c 46.7749,-243.52358 56.0215,-217.3243 61.228,-177.34797 37.2184,-53.36968 76.6554,-35.69967 115.9664,-22.06754 8.529,-16.02938 7.5022,-40.23882 40.2775,-35.51254 -5.9514,-15.46821 3.932,-26.50583 27.9443,-33.59054 -33.5466,-8.47116 -26.3367,-18.9561 33.3916,-31.18493 -46.2714,0.33388 -62.2978,-21.16508 -11.3871,-58.41694 -17.0763,-0.36792 -96.0287,52.19167 -85.2046,-35.46859 -26.6733,28.73942 -56.4362,45.03697 -100.8924,-12.24102 -9.9066,23.41628 -26.4446,39.51444 -63.9007,9.05052 -5.2978,23.11038 -46.8438,26.22072 -62.6233,22.0144 33.2944,24.71024 33.6882,40.65055 -8.1052,44.34592 74.6953,44.1063 16.4722,38.82523 6.186,50.86101 56.7871,14.29526 33.8414,34.78688 25.7955,54.78204 63.6588,-1.17633 47.3712,32.45594 21.324,224.77618 z"
       style="color:#000000;display:inline;overflow:visible;visibility:visible;fill:#ffffff;fill-opacity:1;fill-rule:nonzero;stroke:none;stroke-width:1px;marker:none;enable-background:accumulate" />
    <text
       transform="scale(0.88838522,1.1256378)"
       id="text4246-9-0-9-5"
       y="247.88857"
       x="2046.1486"
       style="font-style:normal;font-variant:normal;font-weight:normal;font-stretch:normal;line-height:0%;font-family:Lavi;-inkscape-font-specification:Lavi;text-align:center;letter-spacing:0px;word-spacing:0px;text-anchor:middle;fill:#000000;fill-opacity:1;stroke:#000000;stroke-width:2.57092;stroke-miterlimit:4;stroke-dasharray:none;stroke-opacity:1"
       xml:space="preserve"><tspan
         id="tspan4206-3-4"
         y="247.88857"
         x="2046.1486"
         style="font-size:67.7927px;line-height:1.25;stroke:#000000;stroke-width:2.57092;stroke-miterlimit:4;stroke-dasharray:none;stroke-opacity:1"
         sodipodi:role="line"><tspan
           id="tspan4275-0"
           style="font-size:84.9283px;stroke-width:2.57092"> G</tspan><tspan
           style="font-size:64.8758px;stroke-width:2.57092"
           id="tspan4391">RR</tspan><tspan
           style="font-size:76.6714px;stroke-width:2.57092"
           id="tspan4389">!</tspan><tspan
           style="font-size:82.5692px;stroke-width:2.57092"
           id="tspan4387">!</tspan><tspan
           style="font-size:88.467px;stroke-width:2.57092"
           id="tspan4385">!</tspan></tspan></text>
    <text
       transform="matrix(0.8951569,0,-0.33294841,1.1171226,0,0)"
       xml:space="preserve"
       style="font-style:normal;font-variant:normal;font-weight:normal;font-stretch:normal;line-height:0%;font-family:Lavi;-inkscape-font-specification:Lavi;text-align:center;letter-spacing:0px;word-spacing:0px;text-anchor:middle;fill:#000000;fill-opacity:1;stroke:none"
       x="2948.1389"
       y="995.3399"
       id="text4437"><tspan
         sodipodi:role="line"
         style="font-size:57.3314px;line-height:1.25;text-align:end;text-anchor:end;stroke:#000000;stroke-width:2.42066;stroke-miterlimit:4;stroke-dasharray:none;stroke-opacity:1"
         x="2948.1389"
         y="995.3399"
         id="tspan4439"><tspan
           id="tspan4231"
           style="font-size:44.8314px;text-align:end;text-anchor:end;stroke-width:2.42066">TY A WRA     </tspan></tspan><tspan
         id="tspan3619"
         sodipodi:role="line"
         style="font-size:57.3314px;line-height:1.25;text-align:end;text-anchor:end;stroke:#000000;stroke-width:2.42066;stroke-miterlimit:4;stroke-dasharray:none;stroke-opacity:1"
         x="2948.1389"
         y="1067.0042">ATTYLI! ...</tspan></text>
    <text
       xml:space="preserve"
       style="color:#000000;font-style:normal;font-variant:normal;font-weight:normal;font-stretch:normal;line-height:0%;font-family:Arial;-inkscape-font-specification:Arial;letter-spacing:0.0273496px;word-spacing:0px;clip-rule:nonzero;display:inline;overflow:visible;visibility:visible;opacity:1;isolation:auto;mix-blend-mode:normal;color-interpolation:sRGB;color-interpolation-filters:linearRGB;solid-color:#000000;solid-opacity:1;fill:#ffffff;fill-opacity:1;fill-rule:nonzero;stroke:#ffffff;stroke-width:1.1156;stroke-linecap:butt;stroke-linejoin:miter;stroke-miterlimit:4;stroke-dasharray:none;stroke-dashoffset:0;stroke-opacity:1;marker:none;filter:url(#filter5561);color-rendering:auto;image-rendering:auto;shape-rendering:auto;text-rendering:auto;enable-background:accumulate"
       x="1705.2566"
       y="1742.2045"
       id="text4443"
       transform="matrix(1.0367088,-0.54286285,-0.02673176,2.0753496,137.71231,-926.71154)"><tspan
         sodipodi:role="line"
         id="tspan4445"
         x="1705.2566"
         y="1742.2045"
         style="font-style:normal;font-variant:normal;font-weight:normal;font-stretch:normal;font-size:160.12px;line-height:1.25;font-family:Lavi;-inkscape-font-specification:Lavi"><tspan
           id="tspan4451"
           style="font-size:60.7695px">KLING</tspan><tspan
           id="tspan4455"
           style="font-size:45.5771px"> ! </tspan><tspan
           id="tspan4457"
           style="font-size:72.5136px">!</tspan></tspan></text>
    <text
       transform="matrix(1.2754967,0.26029613,-0.64379413,2.706703,1069.1753,-1958.4847)"
       id="text4459"
       y="1742.2045"
       x="1705.2566"
       style="color:#000000;font-style:normal;font-variant:normal;font-weight:normal;font-stretch:normal;line-height:0%;font-family:Arial;-inkscape-font-specification:Arial;letter-spacing:0.0273496px;word-spacing:0px;clip-rule:nonzero;display:inline;overflow:visible;visibility:visible;opacity:1;isolation:auto;mix-blend-mode:normal;color-interpolation:sRGB;color-interpolation-filters:linearRGB;solid-color:#000000;solid-opacity:1;fill:#ffffff;fill-opacity:1;fill-rule:nonzero;stroke:#ffffff;stroke-width:1.1156;stroke-linecap:butt;stroke-linejoin:miter;stroke-miterlimit:4;stroke-dasharray:none;stroke-dashoffset:0;stroke-opacity:1;marker:none;filter:url(#filter5561);color-rendering:auto;image-rendering:auto;shape-rendering:auto;text-rendering:auto;enable-background:accumulate"
       xml:space="preserve"><tspan
         style="font-style:normal;font-variant:normal;font-weight:normal;font-stretch:normal;font-size:160.12px;line-height:1.25;font-family:Lavi;-inkscape-font-specification:Lavi"
         y="1742.2045"
         x="1705.2566"
         id="tspan4461"
         sodipodi:role="line"><tspan
           style="font-size:45.5771px"
           id="tspan4465">P<tspan
   id="tspan4477"
   style="font-size:39.4193px">LO<tspan
   id="tspan4479"
   style="font-size:32.8494px">NK</tspan>!</tspan>!</tspan><tspan
           style="font-size:72.5136px"
           id="tspan4467" /></tspan></text>
    <text
       inkscape:transform-center-y="36.699667"
       inkscape:transform-center-x="14.686271"
       xml:space="preserve"
       style="color:#000000;font-style:normal;font-variant:normal;font-weight:normal;font-stretch:normal;line-height:0%;font-family:Arial;-inkscape-font-specification:Arial;letter-spacing:0.0273496px;word-spacing:0px;clip-rule:nonzero;display:inline;overflow:visible;visibility:visible;opacity:1;isolation:auto;mix-blend-mode:normal;color-interpolation:sRGB;color-interpolation-filters:linearRGB;solid-color:#000000;solid-opacity:1;fill:#ffffff;fill-opacity:1;fill-rule:nonzero;stroke:#ffffff;stroke-width:1.1156;stroke-linecap:butt;stroke-linejoin:miter;stroke-miterlimit:4;stroke-dasharray:none;stroke-dashoffset:0;stroke-opacity:1;marker:none;filter:url(#filter5561);color-rendering:auto;image-rendering:auto;shape-rendering:auto;text-rendering:auto;enable-background:accumulate"
       x="1705.2566"
       y="1742.2045"
       id="text4469"
       transform="matrix(0.9799019,-0.52733317,-0.09273463,2.8026154,152.09075,-625.87526)"><tspan
         sodipodi:role="line"
         id="tspan4471"
         x="1705.2566"
         y="1742.2045"
         style="font-style:normal;font-variant:normal;font-weight:normal;font-stretch:normal;font-size:160.12px;line-height:1.25;font-family:Lavi;-inkscape-font-specification:Lavi"><tspan
           id="tspan4473"
           style="font-size:45.5771px">P<tspan
   id="tspan4481"
   style="font-size:40.0763px">AFF!</tspan>!</tspan><tspan
           id="tspan4475"
           style="font-size:72.5136px" /></tspan></text>
    <text
       transform="scale(0.97756652,1.0229483)"
       id="text4246-3-9"
       y="2970.5303"
       x="683.80658"
       style="font-style:normal;font-variant:normal;font-weight:normal;font-stretch:normal;line-height:0%;font-family:Lavi;-inkscape-font-specification:Lavi;text-align:center;letter-spacing:0px;word-spacing:0px;text-anchor:middle;fill:#000000;fill-opacity:1;stroke:none;stroke-width:1.9;stroke-miterlimit:4;stroke-dasharray:none"
       xml:space="preserve"><tspan
         id="tspan4152-3-4"
         y="2970.5303"
         x="683.80658"
         style="font-size:54.2427px;line-height:1.25;stroke:#000000;stroke-width:2.29025;stroke-miterlimit:4;stroke-dasharray:none;stroke-opacity:1"
         sodipodi:role="line"> CARROT!</tspan></text>
  </g>
</svg>
