<?xml version="1.0" encoding="UTF-8" standalone="no"?>
<!-- Created with Inkscape (http://www.inkscape.org/) -->

<svg
   xmlns:dc="http://purl.org/dc/elements/1.1/"
   xmlns:cc="http://creativecommons.org/ns#"
   xmlns:rdf="http://www.w3.org/1999/02/22-rdf-syntax-ns#"
   xmlns:svg="http://www.w3.org/2000/svg"
   xmlns="http://www.w3.org/2000/svg"
   xmlns:xlink="http://www.w3.org/1999/xlink"
   xmlns:sodipodi="http://sodipodi.sourceforge.net/DTD/sodipodi-0.dtd"
   xmlns:inkscape="http://www.inkscape.org/namespaces/inkscape"
   id="svg2"
   version="1.1"
   inkscape:version="0.92.3 (2405546, 2018-03-11)"
   width="2481"
   height="3503"
   sodipodi:docname="E31P07.svg">
  <metadata
     id="metadata8">
    <rdf:RDF>
      <cc:Work
         rdf:about="">
        <dc:format>image/svg+xml</dc:format>
        <dc:type
           rdf:resource="http://purl.org/dc/dcmitype/StillImage" />
        <dc:title />
      </cc:Work>
    </rdf:RDF>
  </metadata>
  <defs
     id="defs6">
    <filter
       style="color-interpolation-filters:sRGB"
       id="filter4375-4-1-1-1-9-6-9-2-1-7-1"
       inkscape:label="deevad outline effect">
      <feFlood
         id="feFlood4377-7-9-0-8-1-0-2-2-06-3-9"
         flood-opacity="1"
         flood-color="rgb(0,0,0)"
         result="flood" />
      <feComposite
         id="feComposite4379-3-8-8-2-77-6-0-8-3-6-4"
         in2="SourceGraphic"
         in="flood"
         operator="in"
         result="composite1" />
      <feMorphology
         id="feMorphology4393-1-0-49-8-9-2-2-9-2-1-7"
         operator="dilate"
         radius="4"
         result="result3" />
      <feComposite
         id="feComposite4385-9-5-7-0-8-6-3-7-0-2-8"
         in2="result3"
         in="SourceGraphic"
         operator="over"
         result="composite2" />
    </filter>
    <filter
       style="color-interpolation-filters:sRGB"
       id="filter4375-4-1-1-1-9-6-9-2-1-7-1-3"
       inkscape:label="deevad outline effect">
      <feFlood
         id="feFlood4377-7-9-0-8-1-0-2-2-06-3-9-6"
         flood-opacity="1"
         flood-color="rgb(0,0,0)"
         result="flood" />
      <feComposite
         id="feComposite4379-3-8-8-2-77-6-0-8-3-6-4-7"
         in2="SourceGraphic"
         in="flood"
         operator="in"
         result="composite1" />
      <feMorphology
         id="feMorphology4393-1-0-49-8-9-2-2-9-2-1-7-5"
         operator="dilate"
         radius="4"
         result="result3" />
      <feComposite
         id="feComposite4385-9-5-7-0-8-6-3-7-0-2-8-3"
         in2="result3"
         in="SourceGraphic"
         operator="over"
         result="composite2" />
    </filter>
    <filter
       inkscape:collect="always"
       style="color-interpolation-filters:sRGB"
       id="filter4213"
       x="-0.0010298714"
       width="1.0020597"
       y="-0.0014578935"
       height="1.0029159">
      <feGaussianBlur
         inkscape:collect="always"
         stdDeviation="0.24308766"
         id="feGaussianBlur4215" />
    </filter>
    <filter
       inkscape:collect="always"
       style="color-interpolation-filters:sRGB"
       id="filter4213-8"
       x="-0.0010298714"
       width="1.0020597"
       y="-0.0014578935"
       height="1.0029159">
      <feGaussianBlur
         inkscape:collect="always"
         stdDeviation="0.24308766"
         id="feGaussianBlur4215-7" />
    </filter>
    <filter
       inkscape:collect="always"
       style="color-interpolation-filters:sRGB"
       id="filter1266"
       x="-0.013221323"
       width="1.0264426"
       y="-0.024911748"
       height="1.0498235">
      <feGaussianBlur
         inkscape:collect="always"
         stdDeviation="0.78825367"
         id="feGaussianBlur1268" />
    </filter>
    <filter
       inkscape:collect="always"
       style="color-interpolation-filters:sRGB"
       id="filter4213-0"
       x="-0.0010298714"
       width="1.0020597"
       y="-0.0014578935"
       height="1.0029159">
      <feGaussianBlur
         inkscape:collect="always"
         stdDeviation="0.24308766"
         id="feGaussianBlur4215-2" />
    </filter>
    <filter
       inkscape:collect="always"
       style="color-interpolation-filters:sRGB"
       id="filter1266-5"
       x="-0.013221323"
       width="1.0264426"
       y="-0.024911748"
       height="1.0498235">
      <feGaussianBlur
         inkscape:collect="always"
         stdDeviation="0.78825367"
         id="feGaussianBlur1268-9" />
    </filter>
    <filter
       inkscape:collect="always"
       style="color-interpolation-filters:sRGB"
       id="filter4213-8-8"
       x="-0.0010298714"
       width="1.0020597"
       y="-0.0014578935"
       height="1.0029159">
      <feGaussianBlur
         inkscape:collect="always"
         stdDeviation="0.24308766"
         id="feGaussianBlur4215-7-9" />
    </filter>
    <filter
       inkscape:collect="always"
       style="color-interpolation-filters:sRGB"
       id="filter1266-5-1"
       x="-0.013221323"
       width="1.0264426"
       y="-0.024911748"
       height="1.0498235">
      <feGaussianBlur
         inkscape:collect="always"
         stdDeviation="0.78825367"
         id="feGaussianBlur1268-9-2" />
    </filter>
    <filter
       inkscape:collect="always"
       style="color-interpolation-filters:sRGB"
       id="filter1395"
       x="-0.01195875"
       width="1.0239175"
       y="-0.014728761"
       height="1.0294575">
      <feGaussianBlur
         inkscape:collect="always"
         stdDeviation="0.26634151"
         id="feGaussianBlur1397" />
    </filter>
    <filter
       inkscape:collect="always"
       style="color-interpolation-filters:sRGB"
       id="filter1639"
       x="-0.022949615"
       width="1.0458992"
       y="-0.048711938"
       height="1.0974239">
      <feGaussianBlur
         inkscape:collect="always"
         stdDeviation="0.45636794"
         id="feGaussianBlur1641" />
    </filter>
  </defs>
  <sodipodi:namedview
     pagecolor="#ffffff"
     bordercolor="#666666"
     borderopacity="1"
     objecttolerance="10"
     gridtolerance="10"
     guidetolerance="10"
     inkscape:pageopacity="0"
     inkscape:pageshadow="2"
     inkscape:window-width="1680"
     inkscape:window-height="987"
     id="namedview4"
     showgrid="false"
     inkscape:zoom="0.23351413"
     inkscape:cx="1240.5"
     inkscape:cy="1751.5"
     inkscape:window-x="-8"
     inkscape:window-y="24"
     inkscape:window-maximized="1"
     inkscape:current-layer="layer3"
     inkscape:snap-global="false" />
  <g
     inkscape:groupmode="layer"
     id="layer2"
     inkscape:label="artwork"
     sodipodi:insensitive="true">
    <image
       sodipodi:absref="C:\Users\ato\OneDrive - Høgskulen i Volda\Vevsida\Teikneseriesida\Pepar &amp; Gulrot\ep31_The-Fight_lang-pack\lang\nn\../gfx_Pepper-and-Carrot_by-David-Revoy_E31P07.png"
       xlink:href="../gfx_Pepper-and-Carrot_by-David-Revoy_E31P07.png"
       y="0"
       x="0"
       id="image10"
       height="3503"
       width="2481" />
  </g>
  <g
     inkscape:groupmode="layer"
     id="layer3"
     inkscape:label="speechbubbles"
     style="opacity:1">
    <path
       style="fill:#ffffff;stroke:none;stroke-width:1"
       d="m 1106.0698,2364.2966 c -11.6691,-1.8294 -24.0895,-4.612 -32.8712,-13.0801 -5.3332,-4.801 -7.3799,-11.8865 -9.0134,-18.6167 -1.7512,-7.2534 -4.0169,-15.0959 -10.2535,-19.8117 -8.1983,-7.1963 -20.6303,-6.3017 -28.5569,-13.9283 -7.9089,-11.2207 -5.5612,-26.5213 -13.792,-37.5876 -6.0341,-8.2415 -13.21645,-15.534 -20.08555,-23.0643 -3.25505,3.9734 -0.85984,9.2711 -1.37949,13.849 -0.8446,4.1744 -0.45106,8.5017 -0.35229,12.7431 0.56185,11.6716 3.48347,23.4796 10.14381,33.2232 3.53272,5.8733 6.60632,12.8834 13.20942,15.8976 6.8374,2.8369 14.9959,5.2953 20.9776,7.1591 5.9817,1.8638 11.038,1.7891 13.084,6.9271 2.3464,5.0542 4.4303,10.2451 6.6776,15.3527 2.545,5.7563 6.3126,11.1817 11.8226,14.4395 11.7632,7.9059 26.7924,8.5572 40.3893,6.4974 z"
       id="path3023-4"
       inkscape:connector-curvature="0"
       sodipodi:nodetypes="ccccccccccczcccc" />
    <path
       style="display:inline;fill:#ffffff;fill-rule:evenodd;stroke:none;stroke-width:1px;stroke-linecap:butt;stroke-linejoin:miter;stroke-opacity:1"
       d="m 631.07063,1022.9303 c -73.3336,55.9324 -104.4071,93.2206 -116.8365,150.3959 -12.4294,57.1754 -21.13,118.0795 47.2318,190.1701 -79.5483,-68.3618 -74.5765,-141.6953 -72.0907,-162.8253 2.4859,-21.1301 16.1583,-95.7066 60.9042,-147.9101 44.7459,-52.2036 93.2206,-87.00582 93.2206,-87.00582 l 6.2147,34.80222 z"
       id="path1094"
       inkscape:connector-curvature="0" />
    <path
       style="color:#000000;display:inline;overflow:visible;visibility:visible;opacity:1;fill:#ffffff;fill-opacity:1;fill-rule:nonzero;stroke:none;stroke-width:1.04278314px;marker:none;enable-background:accumulate"
       d="m 854.92117,2226.3441 c 1.10502,-20.6601 26.59284,-56.9158 139.82185,-55.0806 80.52788,1.305 111.74068,-0.5082 120.92608,31.6484 8.5123,35.4858 -9.5794,59.9112 -32.0216,74.3973 -27.9685,18.053 -41.7144,13.0011 -87.9782,13.8153 -53.44807,0.034 -86.15874,9.9041 -120.00293,-11.0211 -19.608,-11.5746 -20.58263,-36.1773 -20.7452,-53.7593 z"
       id="path3365-7"
       inkscape:connector-curvature="0"
       sodipodi:nodetypes="cscsccc" />
    <path
       style="fill:#ffffff;stroke:none;stroke-width:0.86387056"
       d="m 1083.9971,2114.0927 c -1.3076,37.8984 -42.7485,71.4216 -134.90014,74.1119 -134.66593,3.9315 -155.86154,-22.3778 -154.6022,-91.3148 0.86994,-47.6212 75.07195,-63.889 148.23393,-63.3874 127.45871,0.8738 143.04821,28.9495 141.26841,80.5903 z"
       id="path3280-8-0-3"
       inkscape:connector-curvature="0"
       sodipodi:nodetypes="csssc" />
    <path
       style="color:#000000;display:inline;overflow:visible;visibility:visible;opacity:1;fill:#ffffff;fill-opacity:1;fill-rule:nonzero;stroke:none;stroke-width:0.69203198px;marker:none;enable-background:accumulate"
       d="m 785.30007,1963.0178 c 14.73193,-14.8523 176.97614,-25.4308 218.95793,8.1616 29.2575,23.4112 11.5023,63.0739 -13.57491,74.7614 -25.07713,11.6864 -129.93618,17.6635 -164.34662,11.7125 -30.94376,-5.3526 -63.42379,-16.8721 -65.13623,-47.533 -0.69889,-12.5142 9.36783,-32.2491 24.09983,-47.1025 z"
       id="path4040-3"
       inkscape:connector-curvature="0"
       sodipodi:nodetypes="zssssz" />
    <path
       style="color:#000000;display:inline;overflow:visible;visibility:visible;fill:#ffffff;fill-opacity:1;fill-rule:nonzero;stroke:none;stroke-width:1px;marker:none;enable-background:accumulate"
       d="m 540.24309,1562.7479 c -20.56334,-38.6246 30.41574,-79.0088 76.08739,-66.2175 -11.0856,-9.0468 -62.14969,-43.6193 -114.25657,32.0263 -28.17045,40.8962 25.40397,34.0641 25.40397,34.0641 z"
       id="path4035-4"
       inkscape:connector-curvature="0"
       sodipodi:nodetypes="ccscc" />
    <path
       style="color:#000000;display:inline;overflow:visible;visibility:visible;fill:#ffffff;fill-opacity:1;fill-rule:nonzero;stroke:none;stroke-width:1px;marker:none;enable-background:accumulate"
       d="m 1740.924,1775.3534 c -41.7501,-3.5977 -88.1678,-42.8204 -86.1303,-69.3756 2.5752,-3.8294 -6.743,-13.959 -6.743,-13.959 0,0 11.5715,-1.9717 8.445,-14.2491 -3.1266,-12.2775 7.4012,-18.3398 7.4012,-18.3398 0,0 25.5919,16.6709 34.0315,24.716 -7.3672,10.1082 -10.0408,16.3402 -13.7565,18.4792 -17.0299,6.8863 32.2595,66.9357 56.7521,72.7283 z"
       id="path4456-8"
       inkscape:connector-curvature="0"
       sodipodi:nodetypes="cccccccc" />
    <path
       style="color:#000000;display:inline;overflow:visible;visibility:visible;fill:#ffffff;fill-opacity:1;fill-rule:nonzero;stroke:none;stroke-width:0.78177148px;marker:none;enable-background:accumulate"
       d="m 541.91388,829.61618 c 18.02925,-19.69173 45.88759,-28.32614 72.75275,-30.55582 34.39322,-3.74765 129.98536,-10.90777 181.94121,2.23009 35.0497,10.67312 68.89657,36.15197 77.1969,68.1024 11.0559,36.72891 16.32914,94.55192 -5.69003,127.40701 -39.89568,50.03634 -123.2695,48.64324 -185.96799,46.59874 -24.23661,-0.9973 -48.49001,-1.9435 -72.66478,-3.8637 -18.60107,-1.66 -37.26766,-7.0933 -51.69144,-18.5859 -35.0499,-24.35604 -53.61656,-68.38406 -44.04566,-108.45712 2.18808,-29.03049 7.02142,-60.10393 28.16904,-82.8757 z"
       id="path4040-57"
       inkscape:connector-curvature="0"
       sodipodi:nodetypes="cccccccccc" />
    <path
       style="color:#000000;display:inline;overflow:visible;visibility:visible;fill:#ffffff;fill-opacity:1;fill-rule:nonzero;stroke:none;stroke-width:1.06767321px;marker:none;enable-background:accumulate"
       d="m 290.0094,1595.5725 c 7.37969,-50.7624 23.39859,-103.9002 175.59353,-95.9698 152.19506,7.9306 173.09549,48.7761 174.08912,101.3339 1.30171,68.8472 -24.7502,84.7542 -46.956,93.3792 -22.20565,8.6251 -74.30224,18.2587 -111.80908,21.0309 -20.1666,1.4912 -142.5862,-5.8058 -165.78707,-32.0085 -23.1182,-26.1087 -26.86284,-51.2906 -25.1305,-87.7657 z"
       id="path3365-90"
       inkscape:connector-curvature="0"
       sodipodi:nodetypes="csssssc" />
    <path
       style="color:#000000;display:inline;overflow:visible;visibility:visible;fill:#ffffff;fill-opacity:1;fill-rule:nonzero;stroke:none;stroke-width:0.99211502px;marker:none;enable-background:accumulate"
       d="m 1606.8483,1730.6574 c -38.0268,-1.3204 -54.0865,-16.8899 -63.4651,-40.1414 -9.3785,-23.2524 -1.5888,-60.7919 14.8881,-74.0842 16.477,-13.2925 38.7699,-14.6393 64.5742,-12.8804 46.6272,3.1808 78.9229,13.2015 82.5737,49.2585 3.6251,35.8003 0.7153,54.794 -33.5593,71.843 -32.2654,9.8114 -65.0116,6.0045 -65.0116,6.0045 z"
       id="path3970-36-4"
       inkscape:connector-curvature="0"
       sodipodi:nodetypes="cccsscc" />
    <path
       style="fill:#ffffff;fill-rule:evenodd;stroke:none;stroke-width:1px;stroke-linecap:butt;stroke-linejoin:miter;stroke-opacity:1"
       d="m 2215.285,1175.982 c -0.8172,-29.9933 24.7571,-40.6219 36.1986,-42.3867 11.4416,-1.7637 54.5166,-5.2494 72.4962,8.8648 17.9796,14.1143 24.1191,23.9247 14.7106,46.7543 -14.9701,19.4933 -34.3247,22.0532 -50.6698,22.9351 -16.345,0.8819 -51.487,-4.4104 -62.9285,-16.7609 -11.4416,-12.3495 -9.8071,-19.4066 -9.8071,-19.4066 z"
       id="path1365"
       inkscape:connector-curvature="0"
       sodipodi:nodetypes="ccscscc" />
    <path
       style="fill:#ffffff;fill-rule:evenodd;stroke:none;stroke-width:1px;stroke-linecap:butt;stroke-linejoin:miter;stroke-opacity:1"
       d="m 2248.1828,1172.5234 c 0,0 -7.5732,20.9817 -15.7293,27.1738 -8.1561,6.192 -28.7528,17.5708 -43.9083,15.729 27.8126,9.0205 51.8926,-0.7427 58.6764,-5.0743 6.7848,-4.3317 21.7457,-26.0926 21.7457,-26.0926 z"
       id="path1367"
       inkscape:connector-curvature="0"
       sodipodi:nodetypes="cccccc" />
  </g>
  <g
     inkscape:groupmode="layer"
     id="layer1"
     inkscape:label="txt">
    <text
       xml:space="preserve"
       style="font-style:normal;font-variant:normal;font-weight:normal;font-stretch:normal;line-height:0%;font-family:Lavi;-inkscape-font-specification:Lavi;letter-spacing:0px;word-spacing:0px;display:inline;fill:#ffffff;fill-opacity:1;stroke:#000000;stroke-width:7.85655832;stroke-miterlimit:4;stroke-dasharray:none;stroke-opacity:1;paint-order:stroke markers fill;filter:url(#filter4375-4-1-1-1-9-6-9-2-1-7-1)"
       x="787.65729"
       y="1584.5073"
       id="text4580-1-7-3-6-9-4"
       transform="matrix(0.46131079,-0.15363757,-0.08516477,0.59026719,536.76709,-149.68307)"><tspan
         sodipodi:role="line"
         id="tspan4582-8-5-6-1-3-5"
         x="787.65729"
         y="1584.5073"
         style="font-size:70px;line-height:1.25;fill:#ffffff;fill-opacity:1;stroke:#000000;stroke-width:7.85655832;stroke-miterlimit:4;stroke-dasharray:none;stroke-opacity:1;paint-order:stroke markers fill">Dunk!</tspan></text>
    <text
       xml:space="preserve"
       style="font-style:normal;font-variant:normal;font-weight:normal;font-stretch:normal;line-height:0%;font-family:Lavi;-inkscape-font-specification:Lavi;letter-spacing:0px;word-spacing:0px;display:inline;fill:#ffffff;fill-opacity:1;stroke:#000000;stroke-width:7.85655832;stroke-miterlimit:4;stroke-dasharray:none;stroke-opacity:1;paint-order:stroke markers fill;filter:url(#filter4375-4-1-1-1-9-6-9-2-1-7-1-3)"
       x="787.65729"
       y="1584.5073"
       id="text4580-1-7-3-6-9-4-5"
       transform="matrix(0.45087839,-0.18199128,-0.04834106,0.59441697,1007.0439,-136.51326)"><tspan
         sodipodi:role="line"
         x="787.65729"
         y="1584.5073"
         style="font-size:70px;line-height:1.25;fill:#ffffff;fill-opacity:1;stroke:#000000;stroke-width:7.85655832;stroke-miterlimit:4;stroke-dasharray:none;stroke-opacity:1;paint-order:stroke markers fill"
         id="tspan907">Dunk!</tspan></text>
    <text
       xml:space="preserve"
       style="font-style:normal;font-variant:normal;font-weight:normal;font-stretch:normal;font-size:10.4081316px;line-height:0%;font-family:Lavi;-inkscape-font-specification:'Lavi, Normal';text-align:center;letter-spacing:0px;word-spacing:0px;writing-mode:lr-tb;text-anchor:middle;display:inline;fill:#000000;fill-opacity:1;stroke:none;stroke-width:0.99999994"
       x="696.81274"
       y="854.73804"
       id="text4246-2-3-1-3-9-9-36"><tspan
         sodipodi:role="line"
         x="703.06274"
         y="854.73804"
         style="font-size:40px;line-height:1.25;stroke-width:0.99999994"
         id="tspan132">Det er tre </tspan><tspan
         sodipodi:role="line"
         x="703.06274"
         y="904.73804"
         style="font-size:40px;line-height:1.25;stroke-width:0.99999994"
         id="tspan7019">år sidan du sa </tspan><tspan
         sodipodi:role="line"
         x="703.06274"
         y="954.73804"
         style="font-size:40px;line-height:1.25;stroke-width:0.99999994"
         id="tspan7021">«berre ein siste </tspan><tspan
         sodipodi:role="line"
         x="696.81274"
         y="1004.738"
         style="font-size:40px;line-height:1.25;stroke-width:0.99999994"
         id="tspan7031">prøve» ...</tspan></text>
    <text
       xml:space="preserve"
       style="font-style:normal;font-variant:normal;font-weight:normal;font-stretch:normal;line-height:0%;font-family:Lavi;-inkscape-font-specification:Lavi;text-align:center;letter-spacing:0px;word-spacing:0px;text-anchor:middle;fill:#000000;fill-opacity:1;stroke:none"
       x="463.96753"
       y="1573.1382"
       id="text4246-10"><tspan
         sodipodi:role="line"
         style="font-size:40px;line-height:1.25"
         x="470.21753"
         y="1573.1382"
         id="tspan143">Me har ikkje </tspan><tspan
         sodipodi:role="line"
         style="font-size:40px;line-height:1.25"
         x="470.21753"
         y="1623.1382"
         id="tspan7042">tenkt å vera her </tspan><tspan
         sodipodi:role="line"
         style="font-size:40px;line-height:1.25"
         x="463.96753"
         y="1673.1382"
         id="tspan7044">heile natta!</tspan></text>
    <text
       xml:space="preserve"
       style="font-style:normal;font-variant:normal;font-weight:normal;font-stretch:normal;line-height:0%;font-family:Lavi;-inkscape-font-specification:Lavi;text-align:center;letter-spacing:0px;word-spacing:0px;text-anchor:middle;fill:#000000;fill-opacity:1;stroke:none"
       x="1622.8656"
       y="1685.5371"
       id="text4246-10-2"><tspan
         sodipodi:role="line"
         style="font-style:normal;font-variant:normal;font-weight:bold;font-stretch:normal;font-size:46.66666794px;line-height:1.25;font-family:Lavi;-inkscape-font-specification:'Lavi Bold'"
         x="1622.8656"
         y="1685.5371"
         id="tspan933-1">No?</tspan></text>
    <text
       xml:space="preserve"
       style="font-style:normal;font-variant:normal;font-weight:normal;font-stretch:normal;line-height:0%;font-family:Lavi;-inkscape-font-specification:Lavi;text-align:center;letter-spacing:0px;word-spacing:0px;text-anchor:middle;fill:#000000;fill-opacity:1;stroke:none"
       x="2281.0439"
       y="1178.2853"
       id="text4246-3-7-7-6-7-2-9-6-1-4-3-1"><tspan
         sodipodi:role="line"
         style="font-size:45px;line-height:1.20000005"
         x="2281.0439"
         y="1178.2853"
         id="tspan1249-3">...</tspan></text>
    <text
       xml:space="preserve"
       style="font-style:normal;font-variant:normal;font-weight:normal;font-stretch:normal;font-size:15.03510189px;line-height:0%;font-family:Lavi;-inkscape-font-specification:Lavi;text-align:center;letter-spacing:0px;word-spacing:0px;text-anchor:middle;fill:#000000;fill-opacity:1;stroke:none;stroke-width:1"
       x="1180.7048"
       y="1849.4548"
       id="text4246-10-27"
       transform="matrix(0.91367473,0,-0.09878305,1.0944814,0,0)"
       inkscape:transform-center-x="3.7807182"
       inkscape:transform-center-y="17.013232"><tspan
         sodipodi:role="line"
         style="font-style:normal;font-variant:normal;font-weight:bold;font-stretch:normal;font-size:50.11700439px;line-height:1.25;font-family:Lavi;-inkscape-font-specification:'Lavi Bold';stroke-width:1"
         x="1180.7048"
         y="1849.4548"
         id="tspan933-9">Greitt ...</tspan></text>
    <text
       xml:space="preserve"
       style="font-style:normal;font-variant:normal;font-weight:normal;font-stretch:normal;line-height:0%;font-family:Lavi;-inkscape-font-specification:Lavi;text-align:center;letter-spacing:0px;word-spacing:0px;text-anchor:middle;fill:#000000;fill-opacity:1;stroke:none"
       x="935.0791"
       y="2100.4707"
       id="text4246-10-3"><tspan
         sodipodi:role="line"
         style="font-size:40px;line-height:1.25"
         x="935.0791"
         y="2100.4707"
         id="tspan152">Ho kan få</tspan><tspan
         sodipodi:role="line"
         style="font-size:40px;line-height:1.25"
         x="935.0791"
         y="2150.4707"
         id="tspan7051">vitnemål ...</tspan></text>
    <text
       xml:space="preserve"
       style="font-style:normal;font-variant:normal;font-weight:normal;font-stretch:normal;font-size:10.14146709px;line-height:0%;font-family:Lavi;-inkscape-font-specification:Lavi;text-align:center;letter-spacing:0px;word-spacing:0px;text-anchor:middle;fill:#000000;fill-opacity:1;stroke:none;stroke-width:1"
       x="979.41382"
       y="2225.3677"
       id="text4246-10-3-6"><tspan
         sodipodi:role="line"
         style="font-size:33.80488968px;line-height:1.25;stroke-width:1"
         x="979.41382"
         y="2225.3677"
         id="tspan156">... men berre</tspan><tspan
         sodipodi:role="line"
         style="font-size:33.80488968px;line-height:1.25;stroke-width:1"
         x="979.41382"
         y="2267.6238"
         id="tspan7055">så vidt.</tspan></text>
    <text
       xml:space="preserve"
       style="font-style:normal;font-variant:normal;font-weight:normal;font-stretch:normal;line-height:0%;font-family:Lavi;-inkscape-font-specification:Lavi;text-align:center;letter-spacing:0px;word-spacing:0px;text-anchor:middle;display:inline;opacity:0.6;fill:#000000;fill-opacity:1;stroke:none;stroke-width:1.27569795;filter:url(#filter4213)"
       x="-447.29675"
       y="2872.5061"
       id="text4246-85"
       transform="matrix(0.49538922,0.04333477,-0.1206987,0.54468947,2125.931,1107.457)"><tspan
         sodipodi:role="line"
         style="font-style:normal;font-variant:normal;font-weight:normal;font-stretch:normal;font-size:68.81560516px;line-height:1;font-family:Fondamento;-inkscape-font-specification:Fondamento;stroke:#000000;stroke-width:1.4631319;stroke-opacity:1"
         x="-447.29675"
         y="2872.5061"
         id="tspan4172">Kaosah-</tspan><tspan
         sodipodi:role="line"
         style="font-style:normal;font-variant:normal;font-weight:normal;font-stretch:normal;font-size:68.81560516px;line-height:1;font-family:Fondamento;-inkscape-font-specification:Fondamento;stroke:#000000;stroke-width:1.4631319;stroke-opacity:1"
         x="-447.29675"
         y="2941.3218"
         id="tspan7059">vitnemål</tspan></text>
    <text
       xml:space="preserve"
       style="font-style:normal;font-variant:normal;font-weight:normal;font-stretch:normal;line-height:0%;font-family:Lavi;-inkscape-font-specification:Lavi;text-align:center;letter-spacing:0px;word-spacing:0px;text-anchor:middle;display:inline;opacity:0.6;fill:#000000;fill-opacity:1;stroke:none;stroke-width:1.53380978;filter:url(#filter4213-0)"
       x="-447.29675"
       y="2872.5061"
       id="text4246-85-3"
       transform="matrix(0.50868854,0.04111458,-0.08930267,0.56819347,2027.5133,1108.2178)"><tspan
         sodipodi:role="line"
         style="font-style:normal;font-variant:normal;font-weight:normal;font-stretch:normal;font-size:68.81560516px;line-height:1.26999998;font-family:Fondamento;-inkscape-font-specification:Fondamento;stroke:#000000;stroke-width:1.75916731;stroke-opacity:1"
         x="-447.29675"
         y="2876.0037"
         id="tspan4172-7" /></text>
    <text
       xml:space="preserve"
       style="font-style:normal;font-variant:normal;font-weight:normal;font-stretch:normal;line-height:0%;font-family:Lavi;-inkscape-font-specification:Lavi;text-align:center;letter-spacing:0px;word-spacing:0px;text-anchor:middle;display:inline;opacity:0.69899998;fill:#202020;fill-opacity:1;stroke:#000000;stroke-width:0.72288066;stroke-miterlimit:4;stroke-dasharray:none;stroke-opacity:1;filter:url(#filter1266-5)"
       x="903.31201"
       y="2924.6372"
       id="text4246-8-3-7-2"
       transform="matrix(0.52010547,-0.08051244,-0.02237175,0.62243785,1164.5527,1043.6516)"><tspan
         sodipodi:role="line"
         style="font-size:38.3127861px;line-height:1.25;fill:#202020;fill-opacity:1;stroke:#000000;stroke-width:0.72288066;stroke-miterlimit:4;stroke-dasharray:none;stroke-opacity:1"
         x="903.31201"
         y="2924.6372"
         id="tspan4150-8-6-5-2">Karve</tspan></text>
    <path
       style="opacity:0.69899998;fill:none;fill-rule:evenodd;stroke:#202020;stroke-width:2.29999995;stroke-linecap:butt;stroke-linejoin:miter;stroke-miterlimit:4;stroke-dasharray:none;stroke-opacity:1;filter:url(#filter1639)"
       d="m 1547.1934,2802.853 c 3.8646,-3.5133 9.3102,-3.689 12.2965,-3.5133 2.9863,0.1757 7.0265,-4.7429 9.8371,-5.6212 2.8106,-0.8783 12.8234,0.1756 13.8774,-0.8783 1.054,-1.054 11.2425,-2.108 11.5938,-3.8646 0.3513,-1.7567 -0.086,-5.8644 -0.086,-5.8644"
       id="path1409"
       inkscape:connector-curvature="0"
       transform="rotate(7.8868356,1569.0759,2784.5832)"
       sodipodi:nodetypes="cssccc" />
    <text
       xml:space="preserve"
       style="font-style:normal;font-variant:normal;font-weight:normal;font-stretch:normal;line-height:0%;font-family:Lavi;-inkscape-font-specification:Lavi;text-align:center;letter-spacing:0px;word-spacing:0px;text-anchor:middle;display:inline;opacity:0.69899998;fill:#202020;fill-opacity:1;stroke:#000000;stroke-width:0.74788481;stroke-miterlimit:4;stroke-dasharray:none;stroke-opacity:1;filter:url(#filter1266)"
       x="903.31201"
       y="2924.6372"
       id="text4246-8-3-7"
       transform="matrix(0.41826414,-0.24552176,0.14450977,0.63425309,687.71852,1181.2551)"><tspan
         sodipodi:role="line"
         style="font-style:normal;font-variant:normal;font-weight:normal;font-stretch:normal;font-size:51.00867081px;line-height:1.25;font-family:Cursivah;-inkscape-font-specification:Cursivah;fill:#202020;fill-opacity:1;stroke:#000000;stroke-width:0.74788481;stroke-miterlimit:4;stroke-dasharray:none;stroke-opacity:1"
         x="903.31201"
         y="2924.6372"
         id="tspan4150-8-6-5">Kajenne</tspan></text>
    <path
       style="opacity:0.69899998;vector-effect:none;fill:none;fill-opacity:1;fill-rule:evenodd;stroke:#202020;stroke-width:0.70999998;stroke-linecap:butt;stroke-linejoin:miter;stroke-miterlimit:4;stroke-dasharray:none;stroke-dashoffset:0;stroke-opacity:1;filter:url(#filter1395)"
       d="m 1518.1939,2790.4659 c 0.8783,-6.4995 5.6852,-7.2186 2.699,3.8482 -2.9863,11.0668 -52.5234,35.3083 -52.5234,35.3083"
       id="path910"
       inkscape:connector-curvature="0"
       sodipodi:nodetypes="ccc" />
    <text
       xml:space="preserve"
       style="font-style:normal;font-variant:normal;font-weight:normal;font-stretch:normal;line-height:0%;font-family:Lavi;-inkscape-font-specification:Lavi;text-align:center;letter-spacing:-0.03348966px;word-spacing:0px;text-anchor:middle;display:inline;opacity:0.69899998;fill:#202020;fill-opacity:1;stroke:#000000;stroke-width:0.68679875;stroke-miterlimit:4;stroke-dasharray:none;stroke-opacity:1;filter:url(#filter1266-5-1)"
       x="903.31201"
       y="2924.6372"
       id="text4246-8-3-7-2-9"
       transform="matrix(0.6182392,-0.01052647,-0.270757,0.58148539,1772.6628,1144.8642)"><tspan
         sodipodi:role="line"
         style="font-style:normal;font-variant:normal;font-weight:normal;font-stretch:normal;font-size:38.3127861px;line-height:1.25;font-family:Fondamento;-inkscape-font-specification:Fondamento;letter-spacing:-0.03348966px;fill:#202020;fill-opacity:1;stroke:#000000;stroke-width:0.68679875;stroke-miterlimit:4;stroke-dasharray:none;stroke-opacity:1"
         x="903.29529"
         y="2924.6372"
         id="tspan4150-8-6-5-2-3">Timian</tspan></text>
    <text
       xml:space="preserve"
       style="font-style:normal;font-variant:normal;font-weight:normal;font-stretch:normal;line-height:0%;font-family:Lavi;-inkscape-font-specification:Lavi;text-align:center;letter-spacing:0px;word-spacing:0px;text-anchor:middle;display:inline;opacity:0.6;fill:#000000;fill-opacity:1;stroke:none;stroke-width:1.61567485;filter:url(#filter4213-8-8)"
       x="-447.29675"
       y="2872.5061"
       id="text4246-85-9-7"
       transform="matrix(0.47831841,0.01305834,-0.01239099,0.55116529,1776.7967,1303.9127)"><tspan
         sodipodi:role="line"
         style="font-style:normal;font-variant:normal;font-weight:normal;font-stretch:normal;font-size:49.19388962px;line-height:1.26999998;font-family:Fondamento;-inkscape-font-specification:Fondamento;stroke:#000000;stroke-width:1.8530606;stroke-opacity:1"
         x="-447.29675"
         y="2872.5061"
         id="tspan1120-6">~ for Pepar ~</tspan></text>
    <text
       xml:space="preserve"
       style="font-style:normal;font-variant:normal;font-weight:normal;font-stretch:normal;line-height:0%;font-family:Lavi;-inkscape-font-specification:Lavi;text-align:center;letter-spacing:0px;word-spacing:0px;text-anchor:middle;display:inline;opacity:0.6;fill:#000000;fill-opacity:1;stroke:none;stroke-width:1.52892983;filter:url(#filter4213-8)"
       x="-447.29675"
       y="2872.5061"
       id="text4246-85-9"
       transform="matrix(0.55026081,0.01267562,-0.01425468,0.53501165,1808.7467,1385.9743)"><tspan
         sodipodi:role="line"
         style="font-style:normal;font-variant:normal;font-weight:normal;font-stretch:normal;font-size:49.19388962px;line-height:1.26999998;font-family:Fondamento;-inkscape-font-specification:Fondamento;stroke:#000000;stroke-width:1.75357032;stroke-opacity:1"
         x="-447.29675"
         y="2872.5061"
         id="tspan1120">Godkjend</tspan><tspan
         sodipodi:role="line"
         style="font-style:normal;font-variant:normal;font-weight:normal;font-stretch:normal;font-size:49.19388962px;line-height:1.26999998;font-family:Fondamento;-inkscape-font-specification:Fondamento;stroke:#000000;stroke-width:1.75357032;stroke-opacity:1"
         x="-447.29675"
         y="2934.9824"
         id="tspan7105">heks</tspan></text>
    <text
       xml:space="preserve"
       style="font-style:normal;font-variant:normal;font-weight:normal;font-stretch:normal;font-size:10.76311207px;line-height:0%;font-family:Lavi;-inkscape-font-specification:Lavi;text-align:center;letter-spacing:0px;word-spacing:0px;text-anchor:middle;display:inline;opacity:1;fill:#241c1c;fill-opacity:1;stroke:#000000;stroke-width:0;stroke-miterlimit:4;stroke-dasharray:none;stroke-opacity:1"
       x="2426.4905"
       y="2903.1548"
       id="text4213-7"
       transform="matrix(0.85852879,0,-0.29243083,1.1647833,0,0)"><tspan
         sodipodi:role="line"
         id="tspan3562-5"
         x="2426.4905"
         y="2903.1548"
         style="font-style:normal;font-variant:normal;font-weight:bold;font-stretch:normal;font-size:64.74081421px;line-height:1.25;font-family:Lavi;-inkscape-font-specification:'Lavi Bold';fill:#000000;fill-opacity:1;stroke:none;stroke-width:0;stroke-miterlimit:4;stroke-dasharray:none">– SLUTT –</tspan></text>
  </g>
</svg>
