<?xml version="1.0" encoding="UTF-8" standalone="no"?>
<!-- Created with Inkscape (http://www.inkscape.org/) -->

<svg
   xmlns:dc="http://purl.org/dc/elements/1.1/"
   xmlns:cc="http://creativecommons.org/ns#"
   xmlns:rdf="http://www.w3.org/1999/02/22-rdf-syntax-ns#"
   xmlns:svg="http://www.w3.org/2000/svg"
   xmlns="http://www.w3.org/2000/svg"
   xmlns:xlink="http://www.w3.org/1999/xlink"
   xmlns:sodipodi="http://sodipodi.sourceforge.net/DTD/sodipodi-0.dtd"
   xmlns:inkscape="http://www.inkscape.org/namespaces/inkscape"
   id="svg2"
   version="1.1"
   inkscape:version="0.91 r13725"
   width="2481"
   height="2479"
   sodipodi:docname="Pepper-and-Carrot_by-David-Revoy_E08P07.svg">
  <metadata
     id="metadata8">
    <rdf:RDF>
      <cc:Work
         rdf:about="">
        <dc:format>image/svg+xml</dc:format>
        <dc:type
           rdf:resource="http://purl.org/dc/dcmitype/StillImage" />
        <dc:title />
      </cc:Work>
    </rdf:RDF>
  </metadata>
  <defs
     id="defs6" />
  <sodipodi:namedview
     pagecolor="#ffffff"
     bordercolor="#666666"
     borderopacity="1"
     objecttolerance="10"
     gridtolerance="10"
     guidetolerance="10"
     inkscape:pageopacity="0"
     inkscape:pageshadow="2"
     inkscape:window-width="1920"
     inkscape:window-height="1028"
     id="namedview4"
     showgrid="false"
     inkscape:zoom="0.30245747"
     inkscape:cx="1393.4725"
     inkscape:cy="1136.4338"
     inkscape:window-x="-8"
     inkscape:window-y="-8"
     inkscape:window-maximized="1"
     inkscape:current-layer="layer2"
     inkscape:object-nodes="true"
     showguides="true"
     inkscape:guide-bbox="true">
    <sodipodi:guide
       orientation="0,1"
       position="-488.74998,2363.2499"
       id="guide3080" />
  </sodipodi:namedview>
  <g
     inkscape:groupmode="layer"
     id="layer1"
     inkscape:label="artwork"
     style="display:inline"
     sodipodi:insensitive="true">
    <image
       sodipodi:absref="D:\小辣椒与萝卜头翻译资料\peppercarrot_ep08_translation-master\cn\..\gfx_Pepper-and-Carrot_by-David-Revoy_E08P07.png"
       xlink:href="../gfx_Pepper-and-Carrot_by-David-Revoy_E08P07.png"
       width="2481"
       height="2479"
       id="image10"
       x="0"
       y="0" />
  </g>
  <g
     inkscape:groupmode="layer"
     id="layer3"
     inkscape:label="speechbubbles"
     style="display:inline">
    <path
       style="fill:#ffffff;stroke:none"
       d="m -2021.8885,646.19917 c 1.0628,-51.0158 26.5707,-103.09442 170.0526,-112.65988 143.4819,-9.56546 203.0004,48.89014 207.2517,90.34047 4.2513,41.45033 -82.9007,96.71744 -162.6129,97.78027 -79.7121,1.06282 -214.6914,-11.69112 -214.6914,-75.46086 z"
       id="path4279"
       inkscape:connector-curvature="0" />
    <path
       style="fill:#ffffff;stroke:none"
       d="m -1788.0661,898.08964 c 70.1467,-44.63882 88.2148,-124.35099 45.7016,-190.24639 -42.5132,-65.8954 -82.9007,-54.20428 -82.9007,-54.20428 l 35.0734,41.45033 c 0,0 97.7803,97.78027 2.1257,203.00034 z"
       id="path4281"
       inkscape:connector-curvature="0"
       sodipodi:nodetypes="csccc" />
  </g>
  <g
     inkscape:groupmode="layer"
     id="layer2"
     inkscape:label="text"
     style="display:inline">
    <flowRoot
       xml:space="preserve"
       id="flowRoot3027"
       style="font-style:normal;font-variant:normal;font-weight:normal;font-stretch:normal;font-size:12px;line-height:125%;font-family:'WenQuanYi Micro Hei';-inkscape-font-specification:'WenQuanYi Micro Hei';text-align:center;letter-spacing:0px;word-spacing:0px;text-anchor:middle;display:inline;fill:#000000;fill-opacity:1;stroke:none"
       transform="matrix(1.2334095,0,0,1.2851851,-454.93128,-177.51674)"><flowRegion
         id="flowRegion3029"><rect
           id="rect3031"
           width="2475.8752"
           height="241.27675"
           x="135.21135"
           y="219.33444"
           style="font-style:normal;font-variant:normal;font-weight:normal;font-stretch:normal;font-family:'WenQuanYi Micro Hei';-inkscape-font-specification:'WenQuanYi Micro Hei';text-align:center;text-anchor:middle" /></flowRegion><flowPara
         id="flowPara3033" /><flowPara
         style="font-style:normal;font-variant:normal;font-weight:normal;font-stretch:normal;font-size:48px;font-family:'WenQuanYi Micro Hei';-inkscape-font-specification:'WenQuanYi Micro Hei';text-align:center;text-anchor:middle"
         id="flowPara3044">小辣椒与萝卜头是完全免费且开源的，项目资金由读者捐助。</flowPara><flowPara
         style="font-style:normal;font-variant:normal;font-weight:normal;font-stretch:normal;font-size:48px;font-family:'WenQuanYi Micro Hei';-inkscape-font-specification:'WenQuanYi Micro Hei';text-align:center;text-anchor:middle"
         id="flowPara3413">本集有354位捐助者：</flowPara></flowRoot>    <flowRoot
       xml:space="preserve"
       id="flowRoot3027-8-8"
       style="font-style:normal;font-variant:normal;font-weight:normal;font-stretch:normal;font-size:12px;line-height:125%;font-family:Arial;-inkscape-font-specification:Arial;text-align:center;letter-spacing:0px;word-spacing:0px;text-anchor:middle;display:inline;fill:#a72f14;fill-opacity:1;stroke:none"
       transform="matrix(1.2234224,0,0,1.2506407,-315.63878,1711.4025)"><flowRegion
         id="flowRegion3029-9-3"><rect
           id="rect3031-9-1"
           width="2230.314"
           height="376.21677"
           x="135.21135"
           y="219.33444"
           style="text-align:center;text-anchor:middle;fill:#a72f14;fill-opacity:1" /></flowRegion><flowPara
         id="flowPara3033-3-0" /><flowPara
         style="font-style:normal;font-variant:normal;font-weight:normal;font-stretch:normal;font-size:48px;font-family:Lavi;-inkscape-font-specification:Lavi;text-align:center;text-anchor:middle;fill:#a72f14;fill-opacity:1"
         id="flowPara3067-4">https://www.patreon.com/davidrevoy</flowPara></flowRoot>    <flowRoot
       xml:space="preserve"
       id="flowRoot3027-8-8-2"
       style="font-style:normal;font-variant:normal;font-weight:normal;font-stretch:normal;font-size:12px;line-height:125%;font-family:'WenQuanYi Micro Hei';-inkscape-font-specification:'WenQuanYi Micro Hei';text-align:center;letter-spacing:0px;word-spacing:0px;text-anchor:middle;display:inline;fill:#000000;fill-opacity:1;stroke:none"
       transform="matrix(0.91226779,0,0,0.94129239,70.456771,1729.4482)"><flowRegion
         id="flowRegion3029-9-3-5"><rect
           id="rect3031-9-1-6"
           width="2230.314"
           height="376.21677"
           x="135.21135"
           y="219.33444"
           style="font-style:normal;font-variant:normal;font-weight:normal;font-stretch:normal;font-family:'WenQuanYi Micro Hei';-inkscape-font-specification:'WenQuanYi Micro Hei';text-align:center;text-anchor:middle" /></flowRegion><flowPara
         style="font-style:normal;font-variant:normal;font-weight:normal;font-stretch:normal;font-size:48px;font-family:'WenQuanYi Micro Hei';-inkscape-font-specification:'WenQuanYi Micro Hei';text-align:center;text-anchor:middle"
         id="flowPara3055">您也可以成为下一集小辣椒与萝卜头的捐助者</flowPara></flowRoot>    <flowRoot
       xml:space="preserve"
       id="flowRoot3027-8-8-2-8"
       style="font-style:normal;font-variant:normal;font-weight:normal;font-stretch:normal;font-size:12px;line-height:125%;font-family:'WenQuanYi Micro Hei';-inkscape-font-specification:'WenQuanYi Micro Hei';text-align:center;letter-spacing:0px;word-spacing:0px;text-anchor:middle;display:inline;fill:#000000;fill-opacity:1;stroke:none"
       transform="matrix(0.78840156,0,0,0.8341601,244.19737,2093.5071)"><flowRegion
         id="flowRegion3029-9-3-5-1"><rect
           id="rect3031-9-1-6-8"
           width="2230.314"
           height="376.21677"
           x="135.21135"
           y="219.33444"
           style="font-style:normal;font-variant:normal;font-weight:normal;font-stretch:normal;font-family:'WenQuanYi Micro Hei';-inkscape-font-specification:'WenQuanYi Micro Hei';text-align:center;text-anchor:middle" /></flowRegion><flowPara
         style="font-style:normal;font-variant:normal;font-weight:normal;font-stretch:normal;font-size:48px;font-family:'WenQuanYi Micro Hei';-inkscape-font-specification:'WenQuanYi Micro Hei';text-align:center;text-anchor:middle"
         id="flowPara3231-9">软件：本集100%使用开源软件绘制 </flowPara><flowPara
         style="font-style:normal;font-variant:normal;font-weight:normal;font-stretch:normal;font-size:48px;font-family:'WenQuanYi Micro Hei';-inkscape-font-specification:'WenQuanYi Micro Hei';text-align:center;text-anchor:middle"
         id="flowPara3279">Krita, Inkscape sur GNU/Linux</flowPara><flowPara
         style="font-style:normal;font-variant:normal;font-weight:normal;font-stretch:normal;font-size:48px;font-family:'WenQuanYi Micro Hei';-inkscape-font-specification:'WenQuanYi Micro Hei';text-align:center;text-anchor:middle"
         id="flowPara3233-6" /></flowRoot>    <flowRoot
       xml:space="preserve"
       id="flowRoot3027-8-8-2-8-6"
       style="font-style:normal;font-variant:normal;font-weight:normal;font-stretch:normal;font-size:12px;line-height:125%;font-family:'WenQuanYi Micro Hei';-inkscape-font-specification:'WenQuanYi Micro Hei';text-align:center;letter-spacing:0px;word-spacing:0px;text-anchor:middle;display:inline;fill:#000000;fill-opacity:1;stroke:none"
       transform="matrix(0.78840156,0,0,0.81820527,234.36172,2026.5752)"><flowRegion
         id="flowRegion3029-9-3-5-1-2"><rect
           id="rect3031-9-1-6-8-7"
           width="2230.314"
           height="376.21677"
           x="135.21135"
           y="219.33444"
           style="font-style:normal;font-variant:normal;font-weight:normal;font-stretch:normal;font-family:'WenQuanYi Micro Hei';-inkscape-font-specification:'WenQuanYi Micro Hei';text-align:center;text-anchor:middle" /></flowRegion><flowPara
         style="font-style:normal;font-variant:normal;font-weight:normal;font-stretch:normal;font-size:48px;font-family:'WenQuanYi Micro Hei';-inkscape-font-specification:'WenQuanYi Micro Hei';text-align:center;text-anchor:middle"
         id="flowPara3233-6-14">开源：所有资源，使用字体，图层文件均可在官方网站上下载</flowPara></flowRoot>    <flowRoot
       xml:space="preserve"
       id="flowRoot3027-8-8-2-8-6-3"
       style="font-style:normal;font-variant:normal;font-weight:normal;font-stretch:normal;font-size:12px;line-height:125%;font-family:'WenQuanYi Micro Hei';-inkscape-font-specification:'WenQuanYi Micro Hei';text-align:center;letter-spacing:0px;word-spacing:0px;text-anchor:middle;display:inline;fill:#000000;fill-opacity:1;stroke:none"
       transform="matrix(0.78840156,0,0,0.83353067,211.70767,1894.3866)"><flowRegion
         id="flowRegion3029-9-3-5-1-2-8"><rect
           id="rect3031-9-1-6-8-7-4"
           width="2230.314"
           height="376.21677"
           x="135.21135"
           y="219.33444"
           style="font-style:normal;font-variant:normal;font-weight:normal;font-stretch:normal;font-family:'WenQuanYi Micro Hei';-inkscape-font-specification:'WenQuanYi Micro Hei';text-align:center;text-anchor:middle" /></flowRegion><flowPara
         id="flowPara3033-3-0-2-4-3-2" /><flowPara
         style="font-style:normal;font-variant:normal;font-weight:normal;font-stretch:normal;font-size:48px;font-family:'WenQuanYi Micro Hei';-inkscape-font-specification:'WenQuanYi Micro Hei';text-align:center;text-anchor:middle"
         id="flowPara3278-7">授权许可 : Creative Commons Attribution</flowPara><flowPara
         style="font-style:normal;font-variant:normal;font-weight:normal;font-stretch:normal;font-size:48px;font-family:'WenQuanYi Micro Hei';-inkscape-font-specification:'WenQuanYi Micro Hei';text-align:center;text-anchor:middle"
         id="flowPara3233-6-14-6">您有权修改，分享，发售等等……</flowPara></flowRoot>    <flowRoot
       xml:space="preserve"
       id="flowRoot2987"
       style="font-size:12px;font-style:normal;font-variant:normal;font-weight:normal;font-stretch:normal;text-align:justify;line-height:125%;letter-spacing:0px;word-spacing:0px;text-anchor:start;fill:#000000;fill-opacity:1;stroke:none;display:inline;font-family:Arial;-inkscape-font-specification:Arial"
       transform="matrix(0.77545721,0,0,0.80077696,171.51118,-29.655795)"><flowRegion
         id="flowRegion2989"><rect
           id="rect2991"
           width="2996.0627"
           height="2440.8586"
           x="-141.0901"
           y="266.68515"
           style="text-align:justify;text-anchor:start" /></flowRegion><flowPara
         style="font-size:47.11256409px;font-style:normal;font-variant:normal;font-weight:normal;font-stretch:normal;text-align:justify;line-height:150%;writing-mode:lr-tb;text-anchor:start;font-family:Lavi;-inkscape-font-specification:Lavi"
         id="flowPara3241" /><flowPara
         style="font-size:44.41537476px;font-style:normal;font-variant:normal;font-weight:normal;font-stretch:normal;text-align:center;line-height:120.00000477%;writing-mode:lr-tb;text-anchor:middle;font-family:Lavi;-inkscape-font-specification:Lavi"
         id="flowPara3095" /><flowPara
         style="font-size:44.41537476px;font-style:normal;font-variant:normal;font-weight:normal;font-stretch:normal;text-align:center;line-height:120.00000477%;writing-mode:lr-tb;text-anchor:middle;font-family:Lavi;-inkscape-font-specification:Lavi"
         id="flowPara3099">Глеб Бузало - 獨孤欣 &amp; 獨弧悦 - Adam - Addison Lewis - A Distinguished Robot - Adrian Lord - Ahmad Ali - Aina Reich - al - Alandran </flowPara><flowPara
         style="font-size:44.41537476px;font-style:normal;font-variant:normal;font-weight:normal;font-stretch:normal;text-align:center;line-height:120.00000477%;writing-mode:lr-tb;text-anchor:middle;font-family:Lavi;-inkscape-font-specification:Lavi"
         id="flowPara3319">Alan Hardman - Albert Westra - Alcide - Alex - Alexander Bülow Tomassen - AlexanderKennedy - Alexander Sopicki - Alexandra Jordan</flowPara><flowPara
         style="font-size:44.41537476px;font-style:normal;font-variant:normal;font-weight:normal;font-stretch:normal;text-align:center;line-height:120.00000477%;writing-mode:lr-tb;text-anchor:middle;font-family:Lavi;-inkscape-font-specification:Lavi"
         id="flowPara3321">Alex Bradaric - Alexey Golubev - Alex Kotenko - Alex Lusco - Alex Silver - Alex V - Alfredo - Ali Poulton (Aunty Pol) - Allan Zieser - Alok Baikadi</flowPara><flowPara
         style="font-size:44.41537476px;font-style:normal;font-variant:normal;font-weight:normal;font-stretch:normal;text-align:center;line-height:120.00000477%;writing-mode:lr-tb;text-anchor:middle;font-family:Lavi;-inkscape-font-specification:Lavi"
         id="flowPara3323">Andreas Rieger - Andreas Ulmer - Andrej Kwadrin - Andrew - Andrew Godfrey - Andrey Alekseenko - Andy Gelme - Anna Orlova - anonymous </flowPara><flowPara
         style="font-size:44.41537476px;font-style:normal;font-variant:normal;font-weight:normal;font-stretch:normal;text-align:center;line-height:120.00000477%;writing-mode:lr-tb;text-anchor:middle;font-family:Lavi;-inkscape-font-specification:Lavi"
         id="flowPara3325">Antan Karmola - Anthony Edlin - Antoine - Antonio Mendoza - Antonio Parisi - Ardash Crowfoot - Arjun Chennu - Arne Brix - Arnulf - Arturo J. Pérez</flowPara><flowPara
         style="font-size:44.41537476px;font-style:normal;font-variant:normal;font-weight:normal;font-stretch:normal;text-align:center;line-height:120.00000477%;writing-mode:lr-tb;text-anchor:middle;font-family:Lavi;-inkscape-font-specification:Lavi"
         id="flowPara3327"> Axel Bordelon - Axel Philipsenburg - Ayaskull - barbix - BataMoth - Bela Bargel - Ben Evans - Bernd - Bernhard Saumweber - Betsy Luntao</flowPara><flowPara
         style="font-size:44.41537476px;font-style:normal;font-variant:normal;font-weight:normal;font-stretch:normal;text-align:center;line-height:120.00000477%;writing-mode:lr-tb;text-anchor:middle;font-family:Lavi;-inkscape-font-specification:Lavi"
         id="flowPara3329">Birger Tuer Thorvaldsen - blacksheep33512 - Boonsak Watanavisit - Boris Fauret - Boudewijn Rempt - BoxBoy - Brent Houghton - Brett</flowPara><flowPara
         style="font-size:44.41537476px;font-style:normal;font-variant:normal;font-weight:normal;font-stretch:normal;text-align:center;line-height:120.00000477%;writing-mode:lr-tb;text-anchor:middle;font-family:Lavi;-inkscape-font-specification:Lavi"
         id="flowPara3331">Brett Smith - Brian Behnke - Bryan Butler - Bryan Rosander - BS - Bui Dang Hai Trieu - BXS - carlos levischi - Cedric Wohlleber - Charles</flowPara><flowPara
         style="font-size:44.41537476px;font-style:normal;font-variant:normal;font-weight:normal;font-stretch:normal;text-align:center;line-height:120.00000477%;writing-mode:lr-tb;text-anchor:middle;font-family:Lavi;-inkscape-font-specification:Lavi"
         id="flowPara3333">Charlotte Lacombe-bar - Chris - Chris Radcliff - Chris Sakkas - Christian Gruenwaldner - Christophe Carré - Christopher Bates</flowPara><flowPara
         style="font-size:44.41537476px;font-style:normal;font-variant:normal;font-weight:normal;font-stretch:normal;text-align:center;line-height:120.00000477%;writing-mode:lr-tb;text-anchor:middle;font-family:Lavi;-inkscape-font-specification:Lavi"
         id="flowPara3335">Christopher Rodriguez - Clara Dexter - codl - Colby Driedger - Conway Scott Smith - Coppin Olivier - Cuthbert Williams - Cyol</flowPara><flowPara
         style="font-size:44.41537476px;font-style:normal;font-variant:normal;font-weight:normal;font-stretch:normal;text-align:center;line-height:120.00000477%;writing-mode:lr-tb;text-anchor:middle;font-family:Lavi;-inkscape-font-specification:Lavi"
         id="flowPara3337">Cyrille Largillier - Cyril Paciullo - Damien - Daniel - Daniel Björkman - Daniel Lynn - Danny Grimm - Dan Stolyarov - David - David Kerdudo</flowPara><flowPara
         style="font-size:44.41537476px;font-style:normal;font-variant:normal;font-weight:normal;font-stretch:normal;text-align:center;line-height:120.00000477%;writing-mode:lr-tb;text-anchor:middle;font-family:Lavi;-inkscape-font-specification:Lavi"
         id="flowPara3339">David Tang - Davi Na - Davis Aites - Dawn Blair - DecMoon - Dezponia Veil - DiCola Jamn - Dmitry - Donald Hayward - Douglas Oliveira Pessoa</flowPara><flowPara
         style="font-size:44.41537476px;font-style:normal;font-variant:normal;font-weight:normal;font-stretch:normal;text-align:center;line-height:120.00000477%;writing-mode:lr-tb;text-anchor:middle;font-family:Lavi;-inkscape-font-specification:Lavi"
         id="flowPara3341">Doug Moen - Duke - Eitan Goldshtrom - Ejner Fergo - Enrico Billich - Enrique Lopez - epsilon - Eric Schulz - Erik Moeller</flowPara><flowPara
         style="font-size:44.41537476px;font-style:normal;font-variant:normal;font-weight:normal;font-stretch:normal;text-align:center;line-height:120.00000477%;writing-mode:lr-tb;text-anchor:middle;font-family:Lavi;-inkscape-font-specification:Lavi"
         id="flowPara3343">Esteban Manchado Velázquez - Faolan Grady - Fen Yun Fat - Francois Schnell - francou - freecultureftw - Garret Patterson - Gary Thomas</flowPara><flowPara
         style="font-size:44.41537476px;font-style:normal;font-variant:normal;font-weight:normal;font-stretch:normal;text-align:center;line-height:120.00000477%;writing-mode:lr-tb;text-anchor:middle;font-family:Lavi;-inkscape-font-specification:Lavi"
         id="flowPara3345">Ginny Hendricks - GreenAngel5 - Grigory Petrov - G. S. Davis - Guillaume - Gustav Strömbom - Happy Mimic - Helmar Suschka - Henning Döscher</flowPara><flowPara
         style="font-size:44.41537476px;font-style:normal;font-variant:normal;font-weight:normal;font-stretch:normal;text-align:center;line-height:120.00000477%;writing-mode:lr-tb;text-anchor:middle;font-family:Lavi;-inkscape-font-specification:Lavi"
         id="flowPara3347">Henry Ståhle - HobbyThor - Igor - Ilyas - Irina Rempt - Ivan Korotkov - Jacob - James Frazier - Jamie Sutherland - Janusz - Jared Tritsch</flowPara><flowPara
         style="font-size:44.41537476px;font-style:normal;font-variant:normal;font-weight:normal;font-stretch:normal;text-align:center;line-height:120.00000477%;writing-mode:lr-tb;text-anchor:middle;font-family:Lavi;-inkscape-font-specification:Lavi"
         id="flowPara3349">Jason - JDB - Jean-Baptiste Hebbrecht - Jean-Gabriel Loquet - Jeffrey Schneider - Jessey Wright - Jessica Gadling - Jhonny Rosa - Jim</flowPara><flowPara
         style="font-size:44.41537476px;font-style:normal;font-variant:normal;font-weight:normal;font-stretch:normal;text-align:center;line-height:120.00000477%;writing-mode:lr-tb;text-anchor:middle;font-family:Lavi;-inkscape-font-specification:Lavi"
         id="flowPara3351">Jim Street - Jiska - Joao Luiz - Joerg Raidt - Joern Konopka - joe rutledge - John - John - John Gholson - John Urquhart Ferguson</flowPara><flowPara
         style="font-size:44.41537476px;font-style:normal;font-variant:normal;font-weight:normal;font-stretch:normal;text-align:center;line-height:120.00000477%;writing-mode:lr-tb;text-anchor:middle;font-family:Lavi;-inkscape-font-specification:Lavi"
         id="flowPara3353">Jónatan Nilsson - Jonathan Leroy - Jonathan Ringstad - Jon Brake - Jorge Bernal - Joseph Bowman - Josh Cavalier - Juju Mendivil - Julia Velkova</flowPara><flowPara
         style="font-size:44.41537476px;font-style:normal;font-variant:normal;font-weight:normal;font-stretch:normal;text-align:center;line-height:120.00000477%;writing-mode:lr-tb;text-anchor:middle;font-family:Lavi;-inkscape-font-specification:Lavi"
         id="flowPara3355">Julio Avila - Justus Kat - Kailyce - Kai-Ting (Danil) Ko - Kate - Kathryn Wuerstl - Ken Mingyuan Xia - Kevin Estalella - Kevin Trévien - Kingsquee</flowPara><flowPara
         style="font-size:44.41537476px;font-style:normal;font-variant:normal;font-weight:normal;font-stretch:normal;text-align:center;line-height:120.00000477%;writing-mode:lr-tb;text-anchor:middle;font-family:Lavi;-inkscape-font-specification:Lavi"
         id="flowPara3357">Kroet - Kurain - La Plume - Lars Ivar Igesund - Lenod - Levi Kornelsen - Liang - Liselle - Lise-Lotte Pesonen - Lloyd Ash Pyne - Lorentz Grip</flowPara><flowPara
         style="font-size:44.41537476px;font-style:normal;font-variant:normal;font-weight:normal;font-stretch:normal;text-align:center;line-height:120.00000477%;writing-mode:lr-tb;text-anchor:middle;font-family:Lavi;-inkscape-font-specification:Lavi"
         id="flowPara3359">Lorenzo Leonini - Louis Yung - Luc Stepniewski - Luke Hochrein - Magnus Kronnäs - Mahwiii - Manuel - Manu Järvinen - Marc et Rick</flowPara><flowPara
         style="font-size:44.41537476px;font-style:normal;font-variant:normal;font-weight:normal;font-stretch:normal;text-align:center;line-height:120.00000477%;writing-mode:lr-tb;text-anchor:middle;font-family:Lavi;-inkscape-font-specification:Lavi"
         id="flowPara3361">Marco Sousa - marcus - Martin Owens - Mary Brownlee - Masked Admirer - Matthew Reynolds - Matt Lichtenwalner - mefflin ross bullis-bates</flowPara><flowPara
         style="font-size:44.41537476px;font-style:normal;font-variant:normal;font-weight:normal;font-stretch:normal;text-align:center;line-height:120.00000477%;writing-mode:lr-tb;text-anchor:middle;font-family:Lavi;-inkscape-font-specification:Lavi"
         id="flowPara3363">Michael - Michael F. SChönitzer - Michael Gill - Michael Pureka - Michelle Pereira Garcia - Mike Mosher - Miriam Varón - Miroslav - mjkj</flowPara><flowPara
         style="font-size:44.41537476px;font-style:normal;font-variant:normal;font-weight:normal;font-stretch:normal;text-align:center;line-height:120.00000477%;writing-mode:lr-tb;text-anchor:middle;font-family:Lavi;-inkscape-font-specification:Lavi"
         id="flowPara3365">Moritz Fuchs - Muriah Summer - Nazhif - Nicholas DeLateur - Nicholas Terranova - Nicki Aya - Nicola Angel - Nicolae Berbece - Nicole Heersema</flowPara><flowPara
         style="font-size:44.41537476px;font-style:normal;font-variant:normal;font-weight:normal;font-stretch:normal;text-align:center;line-height:120.00000477%;writing-mode:lr-tb;text-anchor:middle;font-family:Lavi;-inkscape-font-specification:Lavi"
         id="flowPara3367">Nielas Sinclair - NinjaKnight Comics - Noble Hays - Noelia Calles Marcos - Nora Czaykowski - No Reward - Nyx - Oleg Schelykalnov</flowPara><flowPara
         style="font-size:44.41537476px;font-style:normal;font-variant:normal;font-weight:normal;font-stretch:normal;text-align:center;line-height:120.00000477%;writing-mode:lr-tb;text-anchor:middle;font-family:Lavi;-inkscape-font-specification:Lavi"
         id="flowPara3369">Olga Bikmullina - Olivier Amrein - Olivier Brun - Olivier De Rop - Olivier Gavrois - Omar Willey - Oscar Moreno - Öykü Su Gürler - Ozone S.</flowPara><flowPara
         style="font-size:44.41537476px;font-style:normal;font-variant:normal;font-weight:normal;font-stretch:normal;text-align:center;line-height:120.00000477%;writing-mode:lr-tb;text-anchor:middle;font-family:Lavi;-inkscape-font-specification:Lavi"
         id="flowPara3371">Pat David - Patrick Dezothez - Patrick Gamblin - Paul - Paul - Pavel Semenov - Pet0r - Peter - Peter Moonen - Petr Vlašic</flowPara><flowPara
         style="font-size:44.41537476px;font-style:normal;font-variant:normal;font-weight:normal;font-stretch:normal;text-align:center;line-height:120.00000477%;writing-mode:lr-tb;text-anchor:middle;font-family:Lavi;-inkscape-font-specification:Lavi"
         id="flowPara3373">Philippe Jean Edward Bateman - Pierre Geier - Pierre Vuillemin - Pranab Shenoy - Praveen Bhamidipati - Pyves &amp; Ran - Raghavendra Kamath</flowPara><flowPara
         style="font-size:44.41537476px;font-style:normal;font-variant:normal;font-weight:normal;font-stretch:normal;text-align:center;line-height:120.00000477%;writing-mode:lr-tb;text-anchor:middle;font-family:Lavi;-inkscape-font-specification:Lavi"
         id="flowPara3375">Rajul Gupta - Ramel Hill - Raymond Fullon - Ray Powell - Rebecca Morris - Reorx Meng - Ret Samys - Reuben Tracey - Ricardo Muggli - rictic</flowPara><flowPara
         style="font-size:44.41537476px;font-style:normal;font-variant:normal;font-weight:normal;font-stretch:normal;text-align:center;line-height:120.00000477%;writing-mode:lr-tb;text-anchor:middle;font-family:Lavi;-inkscape-font-specification:Lavi"
         id="flowPara3377">RJ van der Weide - Roberto Zaghis - Robin Moussu - Roman  Burdun - Rose “flash” Flashis - Rumiko Hoshino - Rustin Simons - Sally Bridgewater</flowPara><flowPara
         style="font-size:44.41537476px;font-style:normal;font-variant:normal;font-weight:normal;font-stretch:normal;text-align:center;line-height:120.00000477%;writing-mode:lr-tb;text-anchor:middle;font-family:Lavi;-inkscape-font-specification:Lavi"
         id="flowPara3379">Sami T - Samuel Mitson - Scott Petrovic - Sean Adams - Sebastien - Sevag Bakalian - ShadowMist - shafak - Shawn Meyer - Simon Forster</flowPara><flowPara
         style="font-size:44.41537476px;font-style:normal;font-variant:normal;font-weight:normal;font-stretch:normal;text-align:center;line-height:120.00000477%;writing-mode:lr-tb;text-anchor:middle;font-family:Lavi;-inkscape-font-specification:Lavi"
         id="flowPara3381">Simon Isenberg - Sonja Reimann-Klieber - Sonny W. - Soriac - Stanislav German-Evtushenko - Stanislav Vodetskyi - Stephan Theelke</flowPara><flowPara
         style="font-size:44.41537476px;font-style:normal;font-variant:normal;font-weight:normal;font-stretch:normal;text-align:center;line-height:120.00000477%;writing-mode:lr-tb;text-anchor:middle;font-family:Lavi;-inkscape-font-specification:Lavi"
         id="flowPara3383">Stephen Bates - Stephen Smoogen - Steven Bennett - Stuart Dickson - surt - Taedirk - TamaskanLEM - tar8156 - Tas Kartas - Terry Hancock</flowPara><flowPara
         style="font-size:44.41537476px;font-style:normal;font-variant:normal;font-weight:normal;font-stretch:normal;text-align:center;line-height:120.00000477%;writing-mode:lr-tb;text-anchor:middle;font-family:Lavi;-inkscape-font-specification:Lavi"
         id="flowPara3385">TheFaico - thibhul - Thomas Citharel - Thomas Courbon - Thomas Schwery - Thor Galle - Thornae - Tim Burbank - Tim J. - Tomas Hajek</flowPara><flowPara
         style="font-size:44.41537476px;font-style:normal;font-variant:normal;font-weight:normal;font-stretch:normal;text-align:center;line-height:120.00000477%;writing-mode:lr-tb;text-anchor:middle;font-family:Lavi;-inkscape-font-specification:Lavi"
         id="flowPara3387">Tom Savage - Travis Humble - tree - Tristy - Tyson Tan - uglyheroes - Urm - usfreitas - Vera Vukovic - Victoria - Victoria White</flowPara><flowPara
         style="font-size:44.41537476px;font-style:normal;font-variant:normal;font-weight:normal;font-stretch:normal;text-align:center;line-height:120.00000477%;writing-mode:lr-tb;text-anchor:middle;font-family:Lavi;-inkscape-font-specification:Lavi"
         id="flowPara3389">Vladislav Kurdyukov - Vlad Tomash - WakoTabacco - Wander - Westen Curry - Wilhelmine Faust - Xavier Claude - Yalyn Vinkindo - Yaroslav</flowPara><flowPara
         style="font-size:44.41537476px;font-style:normal;font-variant:normal;font-weight:normal;font-stretch:normal;text-align:center;line-height:120.00000477%;writing-mode:lr-tb;text-anchor:middle;font-family:Lavi;-inkscape-font-specification:Lavi"
         id="flowPara3391">Yasmin - Zeni Pong - Źmicier Kušnaroŭ - zubr kabbi.</flowPara><flowPara
         style="font-size:44.41537476px;font-style:normal;font-variant:normal;font-weight:normal;font-stretch:normal;text-align:center;line-height:120.00000477%;writing-mode:lr-tb;text-anchor:middle;font-family:Lavi;-inkscape-font-specification:Lavi"
         id="flowPara3113" /></flowRoot>  </g>
</svg>
