<?xml version="1.0" encoding="UTF-8" standalone="no"?>
<!-- Created with Inkscape (http://www.inkscape.org/) -->

<svg
   xmlns:dc="http://purl.org/dc/elements/1.1/"
   xmlns:cc="http://creativecommons.org/ns#"
   xmlns:rdf="http://www.w3.org/1999/02/22-rdf-syntax-ns#"
   xmlns:svg="http://www.w3.org/2000/svg"
   xmlns="http://www.w3.org/2000/svg"
   xmlns:xlink="http://www.w3.org/1999/xlink"
   xmlns:sodipodi="http://sodipodi.sourceforge.net/DTD/sodipodi-0.dtd"
   xmlns:inkscape="http://www.inkscape.org/namespaces/inkscape"
   id="svg2"
   version="1.1"
   inkscape:version="0.92.3 (2405546, 2018-03-11)"
   width="2481"
   height="3503"
   sodipodi:docname="E24P02.svg"
   inkscape:export-filename="/home/calimero/peppercarrot/webcomics/ep24_The-Unity-Tree/lang/en/E24P02.svg.png"
   inkscape:export-xdpi="45"
   inkscape:export-ydpi="45">
  <metadata
     id="metadata8">
    <rdf:RDF>
      <cc:Work
         rdf:about="">
        <dc:format>image/svg+xml</dc:format>
        <dc:type
           rdf:resource="http://purl.org/dc/dcmitype/StillImage" />
        <dc:title />
      </cc:Work>
    </rdf:RDF>
  </metadata>
  <defs
     id="defs6">
    <filter
       style="color-interpolation-filters:sRGB"
       id="filter4375-4-1-1-1-9"
       inkscape:label="deevad outline effect">
      <feFlood
         id="feFlood4377-7-9-0-8-1"
         flood-opacity="1"
         flood-color="rgb(0,0,0)"
         result="flood" />
      <feComposite
         id="feComposite4379-3-8-8-2-77"
         in2="SourceGraphic"
         in="flood"
         operator="in"
         result="composite1" />
      <feMorphology
         id="feMorphology4393-1-0-49-8-9"
         operator="dilate"
         radius="4"
         result="result3" />
      <feComposite
         id="feComposite4385-9-5-7-0-8"
         in2="result3"
         in="SourceGraphic"
         operator="over"
         result="composite2" />
    </filter>
  </defs>
  <sodipodi:namedview
     pagecolor="#ffffff"
     bordercolor="#666666"
     borderopacity="1"
     objecttolerance="10"
     gridtolerance="10"
     guidetolerance="10"
     inkscape:pageopacity="0"
     inkscape:pageshadow="2"
     inkscape:window-width="1920"
     inkscape:window-height="1015"
     id="namedview4"
     showgrid="false"
     inkscape:zoom="0.54874333"
     inkscape:cx="1197.1815"
     inkscape:cy="749.15779"
     inkscape:window-x="0"
     inkscape:window-y="0"
     inkscape:window-maximized="1"
     inkscape:current-layer="layer1"
     inkscape:snap-global="false"
     showguides="true" />
  <g
     inkscape:groupmode="layer"
     id="layer2"
     inkscape:label="artwork"
     sodipodi:insensitive="true">
    <image
       sodipodi:absref="/home/rafael/Documents/Pepper&amp;Carrot/lang/ca/ep-24-ca/ca/../.././../gfx_Pepper-and-Carrot_by-David-Revoy_E24P02.png"
       xlink:href="../gfx_Pepper-and-Carrot_by-David-Revoy_E24P02.png"
       width="2481"
       height="3503"
       id="image10"
       x="0"
       y="0" />
  </g>
  <g
     inkscape:groupmode="layer"
     id="layer3"
     inkscape:label="speechbubbles">
    <path
       style="fill:#ffffff;stroke:none;stroke-width:1"
       d="m 982.44668,963.21044 c 66.78462,-8.3585 124.60912,2.64527 139.88052,10.79944 15.2714,8.15417 30.4649,23.90227 39.0915,30.01622 28.7973,20.4096 19.5754,129.0627 7.271,140.3007 -9.6554,8.8186 -16.2763,36.2571 -57.0181,45.4147 -40.7418,9.1577 -115.6983,13.464 -140.74321,4.9601 -25.04495,-8.5039 -78.22363,-2.3232 -92.93153,-56.8555 -14.70791,-54.5324 -1.80053,-140.64367 45.30823,-158.5729 26.55736,-10.10749 59.14159,-16.06276 59.14159,-16.06276 z"
       id="path3286"
       inkscape:connector-curvature="0"
       sodipodi:nodetypes="csssssssc" />
    <path
       style="color:#000000;display:inline;overflow:visible;visibility:visible;fill:#ffffff;fill-opacity:1;fill-rule:nonzero;stroke:none;stroke-width:1px;marker:none;enable-background:accumulate"
       d="m 2235.2039,1351.7255 c -166.3352,-2.9996 -213.7021,-13.1279 -212.7392,-167.961 0.9628,-154.833 62.36,-194.30637 151.8783,-197.39467 86.9037,-3.08819 154.5086,16.01507 172.0646,58.90887 20.2832,45.8237 12.8475,98.6049 18.9072,139.7183 9.3188,35.253 -0.5678,105.5352 -18.8001,125.4809 -18.1675,19.875 -77.4171,42.0993 -111.3108,41.2476 z"
       id="path3365"
       inkscape:connector-curvature="0"
       sodipodi:nodetypes="cscccsc" />
    <path
       style="color:#000000;display:inline;overflow:visible;visibility:visible;fill:#ffffff;fill-opacity:1;fill-rule:nonzero;stroke:none;stroke-width:1px;marker:none;enable-background:accumulate"
       d="m 1190.4458,1312.0824 c -70.0617,-6.5837 -91.3329,-16.7984 -111.4751,-72.4567 -20.1421,-55.6582 0.6832,-59.9839 0.6832,-59.9839 0,0 10.9679,110.8571 110.7919,132.4406 z"
       id="path5002"
       inkscape:connector-curvature="0" />
    <path
       style="color:#000000;display:inline;overflow:visible;visibility:visible;fill:#ffffff;fill-opacity:1;fill-rule:nonzero;stroke:none;stroke-width:1px;marker:none;enable-background:accumulate"
       d="m 2050.7762,1376.6106 c 37.4574,14.4492 67.4988,-7.5666 86.7222,-51.9063 19.2234,-44.3397 35.3495,-35.8085 35.3495,-35.8085 l 5.0926,33.3889 c 0,0 -35.4044,96.209 -127.1643,54.3259 z"
       id="path3072"
       inkscape:connector-curvature="0"
       sodipodi:nodetypes="csccc" />
    <path
       style="color:#000000;display:inline;overflow:visible;visibility:visible;fill:#ffffff;fill-opacity:1;fill-rule:nonzero;stroke:none;stroke-width:1.00945306px;marker:none;enable-background:accumulate"
       d="M 65.403388,2359.5834 C 55.172407,2230.2853 -53.502477,2147.4272 321.77182,2137.0377 c 101.24878,-2.8031 218.14975,-19.1857 234.29382,170.0757 16.14392,189.2612 -147.13283,205.6778 -180.16511,214.4694 -33.03226,8.7919 -189.30752,10.8258 -241.37058,-37.9632 -29.24172,-27.4029 -64.701043,-84.1561 -69.126562,-124.0362 z"
       id="path4546"
       inkscape:connector-curvature="0"
       sodipodi:nodetypes="cssssc" />
    <path
       style="color:#000000;display:inline;overflow:visible;visibility:visible;fill:#ffffff;fill-opacity:1;fill-rule:nonzero;stroke:none;stroke-width:1px;marker:none;enable-background:accumulate"
       d="m 935.06872,2693.2348 c -73.26968,4.6276 -184.4751,-7.0537 -217.4971,-66.2392 -33.02183,-59.1854 -44.28265,-139.1493 -9.85087,-182.8415 34.43163,-43.6923 99.56735,-88.4495 163.61004,-89.7847 64.0426,-1.3355 153.36141,24.4018 184.40991,79.9537 31.0486,55.5516 38.9697,186.1594 -35.5187,227.4867 -74.48855,41.3274 -85.15328,31.425 -85.15328,31.425 z"
       id="path3970"
       inkscape:connector-curvature="0" />
    <path
       style="color:#000000;display:inline;overflow:visible;visibility:visible;fill:#ffffff;fill-opacity:1;fill-rule:nonzero;stroke:none;stroke-width:0.99999994px;marker:none;enable-background:accumulate"
       d="m 971.46656,3000.6782 c -52.77098,3.2636 -132.86433,-4.9743 -156.64773,-46.7134 -23.78327,-41.7388 -31.89364,-98.1313 -7.09487,-128.944 24.79865,-30.8128 71.71127,-62.3766 117.83667,-63.3182 46.12532,-0.9418 110.45537,17.2086 132.81737,56.3852 22.3621,39.1762 28.067,131.2839 -25.5816,160.4288 -53.64882,29.1451 -61.32984,22.1616 -61.32984,22.1616 z"
       id="path3970-4"
       inkscape:connector-curvature="0" />
    <path
       style="fill:#ffffff;fill-rule:evenodd;stroke:none;stroke-width:1px;stroke-linecap:butt;stroke-linejoin:miter;stroke-opacity:1"
       d="m 346.57119,2616.5493 c -63.2798,-44.5839 -68.79168,-98.8369 -22.99541,-144.2951 18.90772,-28.5006 -29.49137,-44.6932 -49.46806,0.8803 2.52314,18.0735 -60.406,94.8559 72.46347,143.4148 z"
       id="path4278"
       inkscape:connector-curvature="0"
       sodipodi:nodetypes="cccc" />
    <path
       style="color:#000000;display:inline;overflow:visible;visibility:visible;fill:#ffffff;fill-opacity:1;fill-rule:nonzero;stroke:none;stroke-width:1px;marker:none;enable-background:accumulate"
       d="m 759.98513,2733.1259 c 40.56205,-7.5931 54.44696,-12.612 63.67875,-60.0495 9.2317,-47.4376 26.81589,-42.5763 26.81589,-42.5763 l 12.15811,31.5107 c 0,0 -26.74612,99.3801 -102.65275,71.1151 z"
       id="path3072-5"
       inkscape:connector-curvature="0" />
    <path
       style="color:#000000;display:inline;overflow:visible;visibility:visible;fill:#ffffff;fill-opacity:1;fill-rule:nonzero;stroke:none;stroke-width:1px;marker:none;enable-background:accumulate"
       d="m 739.08809,2819.3997 c 21.8597,19.4259 25.84476,19.8547 38.08065,11.9234 12.23579,-7.9313 27.1542,-23.1621 53.13132,-17.7581 84.05943,-18.1201 113.76084,72.1324 -3.48563,23.5751 -17.33625,-6.3711 -39.16416,13.5701 -53.85665,11.2775 -14.69258,-2.2926 -25.60297,-17.6945 -33.86969,-29.0179 z"
       id="path4538"
       inkscape:connector-curvature="0"
       sodipodi:nodetypes="cccccc" />
    <path
       style="fill:#ffffff;fill-rule:evenodd;stroke:none;stroke-width:0.89071083px;stroke-linecap:butt;stroke-linejoin:miter;stroke-opacity:1"
       d="m 1306.2376,3127.8607 c 0.4511,10.4744 -0.09,23.6329 -7.8756,30.0553 -9.4874,5.1653 -19.206,-3.1255 -26.8134,-9.3933 -2.4939,-2.7404 0.4401,3.3653 0.2388,4.9057 1.8436,9.271 2.8737,21.7394 -3.9402,28.3296 -8.4057,6.3827 -19.0096,0.906 -26.9504,-3.162 3.2852,10.5219 7.2857,23.7411 1.6927,34.1459 -3.679,4.8605 -9.9226,4.7389 -14.5785,3.7188 3.6613,7.7867 4.1172,20.5116 -3.4626,24.9576 -3.4328,2.4985 -8.6899,1.9958 -11.6295,2.1307 6.4252,8.223 12.3177,21.3496 7.187,32.4552 -2.8138,5.6104 -7.5499,9.2526 -12.372,11.8075 7.5226,1.4638 17.0329,6.897 17.0908,17.699 0.2476,6.2044 -3.9535,12.6724 -6.1173,16.3021 8.7637,-3.657 19.4761,-8.0578 28.053,-1.6865 3.8901,4.3376 4.8569,11.3206 4.1808,17.4659 8.9935,-6.7451 18.3794,-3.1032 29.2048,1.8665 6.6095,4.2687 10.0798,13.1731 11.7325,21.7415 11.7311,-10.3056 25.8412,-22.2696 41.0253,-17.5322 10.7553,3.8127 17.4026,15.884 24.175,25.9104 3.2929,-10.9197 9.4103,-23.586 19.8256,-24.7084 10.3395,0.893 15.2094,14.1398 20.1005,23.4681 0.9499,4.7372 3.4584,8.3689 4.4225,6.2627 4.3458,-11.4025 10.2481,-24.5647 20.933,-27.8824 11.1642,-0.713 18.7348,11.7618 24.7834,21.4821 2.5313,-11.9549 7.7048,-26.1665 18.6169,-28.8733 10.855,-0.3696 17.6973,12.2415 22.7291,22.3163 2.2979,4.0011 4.1731,8.3384 6.4232,12.3783 1.7748,-10.476 5.8143,-31.4008 15.5667,-31.6483 9.1161,0.042 16.2674,8.1687 22.9383,14.7361 0.077,-11.7615 9.9387,-22.7171 19.528,-18.7604 12.2722,3.1866 23.6626,1.9502 34.0523,9.7419 -3.0367,-8.8412 -5.5961,-21.9949 1.7191,-28.7949 4.1155,-3.1806 9.3042,-2.7263 13.8359,-1.4012 -4.2914,-9.4286 -3.7719,-23.7535 4.6321,-29.4501 4.5726,-3.7818 10.1236,-4.9573 15.3065,-6.8545 -9.3268,-8.1121 -23.8571,-18.531 -21.1798,-33.6239 0.9131,-6.7661 10.6412,-16.0495 12.9148,-20.6553 -24.6187,10.0843 -23.3922,-4.7448 -8.1259,-20.9795 1.8605,-4.0947 1.0417,-4.0272 -2.0613,-1.2676 -8.4343,5.9221 -17.5517,13.2363 -27.6126,12.5342 -7.3868,-3.9731 -5.2481,-24.6408 -0.2836,-31.1349 -11.3609,5.4243 -23.9786,12.0428 -36.3213,7.7328 -8.0242,-6.361 -7.0602,-20.5119 -3.2368,-29.7637 1.3942,-3.7857 -0.4775,-1.2802 -2.2147,0.4924 -6.6212,6.5677 -14.3186,14.1483 -23.2017,13.9181 -8.2831,-3.2638 -9.9437,-16.5572 -7.1085,-25.4179 0.025,-2.2162 2.1044,-8.5102 -0.638,-4.0524 -5.3234,6.5087 -14.3604,23.2331 -22.4257,21.0586 -3.9236,-1.9101 -4.4615,-15.6961 -5.6665,-20.4596 -3.8493,7.596 -12.5234,24.2342 -20.6052,21.0402 -7.4604,-4.129 -8.5046,-15.5551 -8.7345,-24.3988 -2.6813,8.1531 -7.8843,14.4007 -16.1739,14.8017 -8.6516,-0.9284 -12.3455,-35.0387 -14.2909,-43.9573 -0.6013,-2.7677 -3.0526,-8.8656 -1.9101,4.4042 -2.3917,7.6932 -7.5454,39.4139 -15.1491,37.0392 -9.2705,-3.9107 -10.4065,-11.7297 -13.1536,-21.7233 -2.2902,8.8678 -7.9105,19.6049 -16.5233,18.5393 -10.6057,-2.4059 -14.7491,-17.0643 -19.358,-26.8331 -0.7828,11.3796 -3.2692,25.5407 -12.5012,30.8533 -9.3717,2.7867 -16.8648,-7.4797 -21.3763,-16.2296 -3.3841,-5.4437 -6.4047,-11.2099 -9.3821,-16.9956 l 0.05,1.0273 z m 140.9062,240.3398 c 0,0.015 0.01,-0.05 0,0 z"
       id="path1504"
       inkscape:connector-curvature="0"
       sodipodi:nodetypes="cccccccccccccccccccccccccccccccccccccccccccccccccccccccccccccccccc" />
    <path
       style="fill:#ffffff;stroke:none;stroke-width:0.99999994"
       d="m 1452.7195,2949.0485 c 13.6365,51.0487 1.8285,73.4399 -12.8291,87.351 -14.6575,13.9112 -29.2574,24.6287 -30.4169,39.0049 -1.1585,14.3763 4.3679,32.4449 9.991,45.1906 5.6233,12.7459 -8.7567,28.7391 -16.1641,41.0823 -7.4074,12.3434 -32.4176,87.9891 -32.4176,87.9891 0,0 45.6605,-29.3056 57.0155,-43.5686 11.3552,-14.2629 -1.5936,-24.3112 1.6003,-31.5097 3.1938,-7.1984 16.2252,-28.4819 13.3417,-43.3703 -2.8832,-14.8884 -6.8861,-37.3598 -11.1969,-47.9831 -4.3108,-10.6233 8.1814,-20.8918 17.4263,-34.2439 9.2448,-13.3519 26.0549,-36.6775 19.2727,-60.0623 -6.7821,-23.3848 -15.6229,-39.88 -15.6229,-39.88 z"
       id="path3023"
       inkscape:connector-curvature="0"
       sodipodi:nodetypes="csssscssssssc" />
    <path
       style="color:#000000;display:inline;overflow:visible;visibility:visible;fill:#ffffff;fill-opacity:1;fill-rule:nonzero;stroke:none;stroke-width:1px;marker:none;enable-background:accumulate"
       d="m 1805.1943,2316.7331 c -1.7851,-38.0564 -1.1108,-75.183 73.8621,-100.0361 74.9731,-24.8531 206.044,-12.5854 233.8709,-10.8732 45.4203,2.7946 165.0863,9.9363 191.8623,37.8962 26.7761,27.9597 30.7956,61.2059 28.085,91.3412 -2.4971,27.7618 -14.3082,67.5414 -46.4395,76.8613 -32.1314,9.32 -262.0499,23.1758 -299.5364,16.9626 -37.4865,-6.2132 -95.3203,-14.9135 -127.4513,-33.5534 -32.5747,-18.897 -52.4681,-40.5422 -54.2531,-78.5986 z"
       id="path3373"
       inkscape:connector-curvature="0"
       sodipodi:nodetypes="zsssssssz" />
    <path
       style="color:#000000;display:inline;overflow:visible;visibility:visible;fill:#ffffff;fill-opacity:1;fill-rule:nonzero;stroke:none;stroke-width:1px;marker:none;enable-background:accumulate"
       d="m 2031.8102,2507.7263 c 30.9235,-44.7181 56.4448,-90.7801 41.0641,-127.8508 -21.7419,-52.4025 -15.1545,-27.3052 -15.1545,-27.3052 l 48.1596,27.1477 c 4.0617,-2.2231 16.5042,46.8286 -74.0692,128.0083 z"
       id="path3072-1"
       inkscape:connector-curvature="0"
       sodipodi:nodetypes="csccc" />
    <path
       style="display:inline;fill:#ffffff;stroke:none;stroke-width:1.01886857"
       d="m 1762.0393,3261.697 c 3.9014,-84.5952 41.8248,-125.1369 96.1639,-145.7776 54.3391,-20.6409 374.6537,-14.9071 439.5589,8.0272 64.9047,22.9343 70.1852,81.939 72.5145,146.924 0.8823,75.2476 -75.4081,106.9055 -113.1437,116.0792 -37.7354,9.1737 -340.4482,16.4894 -421.3876,-17.2734 -73.706,-30.8304 -73.706,-107.9794 -73.706,-107.9794 z"
       id="path3008"
       inkscape:connector-curvature="0"
       sodipodi:nodetypes="ccccccc" />
    <path
       style="color:#000000;display:inline;overflow:visible;visibility:visible;fill:#ffffff;fill-opacity:1;fill-rule:nonzero;stroke:none;stroke-width:1px;marker:none;enable-background:accumulate"
       d="m 2046.452,3138.2749 c 31.2021,-26.3616 74.0861,-59.4473 33.587,-95.3422 1.3128,2.6276 75.7675,26.7026 -7.7455,112.4393 -83.5133,85.7365 -101.538,90.3039 -101.538,90.3039 z"
       id="path4064"
       inkscape:connector-curvature="0"
       sodipodi:nodetypes="ccscc"
       inkscape:transform-center-x="86.439437"
       inkscape:transform-center-y="119.77252" />
    <g
       id="g5381"
       transform="matrix(-1.943999,-0.03507888,0.02110171,-1.1694129,2814.7591,4709.8659)"
       style="display:inline;fill:#ffffff;stroke-width:0.82700133">
      <path
         inkscape:connector-curvature="0"
         id="path5263"
         d="m 1231.4261,3164.2107 c -4.7051,-6.6655 -8.3522,-20.2367 -8.3522,-21.805 0,-1.5684 0.3921,-7.4497 0.3921,-7.4497 l -3.1367,-1.1763 2.7446,-5.0971 -3.1367,0.3921 c 0,0 8.4753,-16.4011 10.0436,-19.1457 1.5684,-2.7446 4.313,-9.018 4.313,-9.018 0,0 11.2013,-0.9423 14.338,-2.1186 3.1367,-1.1762 12.5468,-11.3705 12.5468,-11.3705 0,0 11.3706,5.4892 15.6836,6.2734 4.3129,0.7842 24.3095,1.9604 27.8383,0 3.5288,-1.9605 7.0576,-4.7051 7.0576,-4.7051 0,0 9.018,-0.7841 11.3705,-1.9604 2.3526,-1.1763 6.6655,-3.9209 6.6655,-3.9209 0,0 7.4497,0.7842 10.5864,0.3921 3.1367,-0.3921 17.644,0 19.2124,0 1.5683,0 12.5468,6.6655 12.5468,6.6655 l 7.0576,6.6655 c 0,0 5.8813,-0.3921 8.626,-1.1763 2.7446,-0.7841 5.0971,3.1367 5.0971,3.1367 0,0 10.3649,28.9788 11.9333,33.6838 1.5683,4.7051 2.3525,14.1152 2.3525,14.1152 0,0 -4.313,7.4497 -6.6655,10.5864 -2.3525,3.1367 -9.018,10.5864 -12.5468,13.331 -3.5288,2.7446 -7.8418,7.0576 -12.1548,4.313 -4.313,-2.7446 -8.6259,-2.3525 -10.1943,-0.3921 -1.5684,1.9604 -12.9389,15.6836 -16.8598,14.1152 -3.9209,-1.5684 -17.2519,-3.9209 -21.1728,-7.4497 -3.9209,-3.5288 -10.1943,4.7051 -12.9389,2.3525 -2.7446,-2.3525 -6.6655,-6.6655 -9.4102,-6.6655 -2.7446,0 -40.639,11.3296 -44.5599,9.7612 -3.9209,-1.5684 -13.5936,-9.7859 -15.9461,-11.3542 -2.3526,-1.5684 -8.2339,-10.9785 -8.2339,-10.9785 z"
         style="color:#000000;display:inline;overflow:visible;visibility:visible;fill:#ffffff;fill-opacity:1;fill-rule:nonzero;stroke:none;stroke-width:0.82700133px;marker:none;enable-background:accumulate"
         sodipodi:nodetypes="cscccccccccccccssccccccsssssscssccc" />
    </g>
    <path
       style="color:#000000;display:inline;overflow:visible;visibility:visible;fill:#ffffff;fill-opacity:1;fill-rule:nonzero;stroke:none;stroke-width:1px;marker:none;enable-background:accumulate"
       d="m 214.82896,1030.4867 c 6.80442,0.878 -13.01369,58.3529 -13.01369,58.3529 0,0 37.57996,20.9895 40.57677,25.605 -3.12032,14.3994 -21.44854,49.3771 -21.44854,49.3771 l 47.969,66.5041 -32.27308,-66.6621 30.22524,-55.2358 -42.64068,-25.4823 18.48922,-41.6529 z"
       id="path4448-7"
       inkscape:connector-curvature="0"
       sodipodi:nodetypes="cccccccccc" />
    <path
       style="color:#000000;display:inline;overflow:visible;visibility:visible;fill:#ffffff;fill-opacity:1;fill-rule:nonzero;stroke:none;stroke-width:1px;marker:none;enable-background:accumulate"
       d="m 1181.3418,1264.7261 c -13.8665,-3.5055 -55.1437,-19.0159 -6.106,-17.5657 -59.3797,-25.0538 -32.5866,-43.8491 -10.6916,-63.0001 -18.1994,-6.138 -47.6034,-8.1294 -37.3738,-24.7898 -19.517,1.4993 -31.4964,-4.8263 -36.7506,-18.1339 -14.8623,16.6729 -27.349,19.2808 -33.8988,-13.2573 -5.9732,24.2527 -19.7877,28.8493 -57.79865,-1.6874 -2.7979,8.899 11.59785,29.2427 -92.86732,14.4217 31.06193,16.9622 71.33888,54.7798 -4.02112,72.0652 26.93842,7.6306 44.11746,17.9678 2.13299,34.3899 27.2039,5.1866 25.23782,27.2561 17.97888,35.0755 34.45627,-14.845 53.77794,-13.3862 52.4848,8.8739 63.60652,-34.4878 49.19912,-4.5663 62.32942,2.0745 25.1052,-28.2285 46.7116,-14.0788 69.7714,-7.7794 7.3512,-33.4408 43.8059,-20.6979 74.8104,-20.6871 z"
       id="path3549-3-78"
       inkscape:connector-curvature="0"
       sodipodi:nodetypes="ccccccccccccccc" />
  </g>
  <g
     inkscape:groupmode="layer"
     id="layer1"
     inkscape:label="txt"
     style="display:inline">
    <text
       xml:space="preserve"
       style="font-style:normal;font-variant:normal;font-weight:normal;font-stretch:normal;line-height:0%;font-family:Lavi;-inkscape-font-specification:Lavi;letter-spacing:0px;word-spacing:0px;fill:#000000;fill-opacity:1;stroke:#000000;stroke-width:1.03244162;stroke-miterlimit:4;stroke-dasharray:none;stroke-opacity:1;filter:url(#filter4375-4-1-1-1-9)"
       x="787.65729"
       y="1584.5073"
       id="text4580"
       transform="matrix(0.99628009,-0.49104872,-0.18392799,1.3011878,1393.6124,-1187.4855)"><tspan
         sodipodi:role="line"
         id="tspan4582"
         x="787.65729"
         y="1584.5073"
         style="font-size:70px;line-height:1.25;fill:#ffffff;stroke-width:1.03244162"><tspan
           style="font-size:80.40014648px;stroke-width:1.03244162"
           id="tspan4617">Blam !</tspan></tspan></text>
    <text
       xml:space="preserve"
       style="font-style:normal;font-variant:normal;font-weight:normal;font-stretch:normal;line-height:0%;font-family:Lavi;-inkscape-font-specification:Lavi;text-align:center;letter-spacing:0px;word-spacing:0px;text-anchor:middle;fill:#000000;fill-opacity:1;stroke:none;stroke-width:1.60000002;stroke-miterlimit:4;stroke-dasharray:none"
       x="1023.5315"
       y="1034.0934"
       id="text4246-7-6-2-04"><tspan
         sodipodi:role="line"
         style="font-size:45px;line-height:1.25;stroke:none;stroke-width:1.60000002;stroke-miterlimit:4;stroke-dasharray:none;stroke-opacity:1"
         x="1023.5315"
         y="1034.0934"
         id="tspan1010">Un hivern</tspan><tspan
         sodipodi:role="line"
         style="font-size:45px;line-height:1.25;stroke:none;stroke-width:1.60000002;stroke-miterlimit:4;stroke-dasharray:none;stroke-opacity:1"
         x="1023.5315"
         y="1090.3434"
         id="tspan941">sense Arbre</tspan><tspan
         sodipodi:role="line"
         style="font-size:45px;line-height:1.25;stroke:none;stroke-width:1.60000002;stroke-miterlimit:4;stroke-dasharray:none;stroke-opacity:1"
         x="1023.5315"
         y="1146.5934"
         id="tspan943">de la Unitat?</tspan></text>
    <text
       xml:space="preserve"
       style="font-style:normal;font-variant:normal;font-weight:normal;font-stretch:normal;line-height:0%;font-family:Lavi;-inkscape-font-specification:Lavi;text-align:center;letter-spacing:0px;word-spacing:0px;text-anchor:middle;fill:#000000;fill-opacity:1;stroke:none;stroke-width:1.60000002;stroke-miterlimit:4;stroke-dasharray:none"
       x="2196.6575"
       y="1073.6553"
       id="text4246-7-6-2-04-3"><tspan
         sodipodi:role="line"
         style="font-size:45px;line-height:1.25;stroke:none;stroke-width:1.60000002;stroke-miterlimit:4;stroke-dasharray:none;stroke-opacity:1"
         x="2196.6575"
         y="1073.6553"
         id="tspan1525">I perquè</tspan><tspan
         sodipodi:role="line"
         style="font-size:45px;line-height:1.25;stroke:none;stroke-width:1.60000002;stroke-miterlimit:4;stroke-dasharray:none;stroke-opacity:1"
         x="2196.6575"
         y="1129.9053"
         id="tspan926">no usar la</tspan><tspan
         sodipodi:role="line"
         style="font-size:45px;line-height:1.25;stroke:none;stroke-width:1.60000002;stroke-miterlimit:4;stroke-dasharray:none;stroke-opacity:1"
         x="2196.6575"
         y="1186.1553"
         id="tspan930">màgia per</tspan><tspan
         sodipodi:role="line"
         style="font-size:45px;line-height:1.25;stroke:none;stroke-width:1.60000002;stroke-miterlimit:4;stroke-dasharray:none;stroke-opacity:1"
         x="2196.6575"
         y="1242.4053"
         id="tspan932">fabricar-la</tspan><tspan
         sodipodi:role="line"
         style="font-size:45px;line-height:1.25;stroke:none;stroke-width:1.60000002;stroke-miterlimit:4;stroke-dasharray:none;stroke-opacity:1"
         x="2196.6575"
         y="1298.6553"
         id="tspan934">jo mateixa?</tspan></text>
    <text
       xml:space="preserve"
       style="font-style:normal;font-variant:normal;font-weight:normal;font-stretch:normal;line-height:0%;font-family:Lavi;-inkscape-font-specification:Lavi;text-align:center;letter-spacing:0px;word-spacing:0px;text-anchor:middle;fill:#000000;fill-opacity:1;stroke:none;stroke-width:1.60000002;stroke-miterlimit:4;stroke-dasharray:none"
       x="320.74161"
       y="2256.5608"
       id="text4246-7-6-2-04-3-5"><tspan
         sodipodi:role="line"
         style="font-size:45px;line-height:1.25;stroke:none;stroke-width:1.60000002;stroke-miterlimit:4;stroke-dasharray:none;stroke-opacity:1"
         x="320.74161"
         y="2256.5608"
         id="tspan1139">Ei! Potser</tspan><tspan
         sodipodi:role="line"
         style="font-size:45px;line-height:1.25;stroke:none;stroke-width:1.60000002;stroke-miterlimit:4;stroke-dasharray:none;stroke-opacity:1"
         x="320.74161"
         y="2312.8108"
         id="tspan989">podria combinar</tspan><tspan
         sodipodi:role="line"
         style="font-size:45px;line-height:1.25;stroke:none;stroke-width:1.60000002;stroke-miterlimit:4;stroke-dasharray:none;stroke-opacity:1"
         x="320.74161"
         y="2369.0608"
         id="tspan999">les màgies d'Hippiah</tspan><tspan
         sodipodi:role="line"
         style="font-size:45px;line-height:1.25;stroke:none;stroke-width:1.60000002;stroke-miterlimit:4;stroke-dasharray:none;stroke-opacity:1"
         x="320.74161"
         y="2425.3108"
         id="tspan991">i de Chaosah,</tspan><tspan
         sodipodi:role="line"
         style="font-size:45px;line-height:1.25;stroke:none;stroke-width:1.60000002;stroke-miterlimit:4;stroke-dasharray:none;stroke-opacity:1"
         x="320.74161"
         y="2481.5608"
         id="tspan993">una pionera!</tspan></text>
    <text
       xml:space="preserve"
       style="font-style:normal;font-variant:normal;font-weight:normal;font-stretch:normal;line-height:0%;font-family:Lavi;-inkscape-font-specification:Lavi;text-align:center;letter-spacing:0px;word-spacing:0px;text-anchor:middle;fill:#000000;fill-opacity:1;stroke:none;stroke-width:1.60000002;stroke-miterlimit:4;stroke-dasharray:none"
       x="881.23981"
       y="2423.783"
       id="text4246-7-6-2-04-3-5-0"><tspan
         sodipodi:role="line"
         style="font-size:45px;line-height:1.25;stroke:none;stroke-width:1.60000002;stroke-miterlimit:4;stroke-dasharray:none;stroke-opacity:1"
         x="881.23981"
         y="2423.783"
         id="tspan1263">Un gran</tspan><tspan
         sodipodi:role="line"
         style="font-size:45px;line-height:1.25;stroke:none;stroke-width:1.60000002;stroke-miterlimit:4;stroke-dasharray:none;stroke-opacity:1"
         x="881.23981"
         y="2480.033"
         id="tspan1011">arbre verd, tot</tspan><tspan
         sodipodi:role="line"
         style="font-size:45px;line-height:1.25;stroke:none;stroke-width:1.60000002;stroke-miterlimit:4;stroke-dasharray:none;stroke-opacity:1"
         x="881.23981"
         y="2536.283"
         id="tspan1019">ple d'estels i de</tspan><tspan
         sodipodi:role="line"
         style="font-size:45px;line-height:1.25;stroke:none;stroke-width:1.60000002;stroke-miterlimit:4;stroke-dasharray:none;stroke-opacity:1"
         x="881.23981"
         y="2592.533"
         id="tspan1023">mini sistemes</tspan><tspan
         sodipodi:role="line"
         style="font-size:45px;line-height:1.25;stroke:none;stroke-width:1.60000002;stroke-miterlimit:4;stroke-dasharray:none;stroke-opacity:1"
         x="881.23981"
         y="2648.783"
         id="tspan1037">solars!</tspan></text>
    <text
       xml:space="preserve"
       style="font-style:normal;font-variant:normal;font-weight:normal;font-stretch:normal;line-height:0%;font-family:Lavi;-inkscape-font-specification:Lavi;text-align:center;letter-spacing:0px;word-spacing:0px;text-anchor:middle;fill:#000000;fill-opacity:1;stroke:none;stroke-width:1.60000002;stroke-miterlimit:4;stroke-dasharray:none"
       x="940.15674"
       y="2842.6753"
       id="text4246-7-6-2-04-3-5-0-7"><tspan
         sodipodi:role="line"
         style="font-size:45px;line-height:1.25;stroke:none;stroke-width:1.60000002;stroke-miterlimit:4;stroke-dasharray:none;stroke-opacity:1"
         x="940.15674"
         y="2842.6753"
         id="tspan1257">Clar que sí,</tspan><tspan
         sodipodi:role="line"
         style="font-size:45px;line-height:1.25;stroke:none;stroke-width:1.60000002;stroke-miterlimit:4;stroke-dasharray:none;stroke-opacity:1"
         x="940.15674"
         y="2898.9253"
         id="tspan1048">seria</tspan><tspan
         sodipodi:role="line"
         style="font-size:45px;line-height:1.25;stroke:none;stroke-width:1.60000002;stroke-miterlimit:4;stroke-dasharray:none;stroke-opacity:1"
         x="940.15674"
         y="2955.1753"
         id="tspan1050">perfecte!</tspan></text>
    <flowRoot
       xml:space="preserve"
       id="flowRoot1245"
       style="font-style:normal;font-variant:normal;font-weight:normal;font-stretch:normal;font-size:0.66666669px;line-height:318.00000668%;font-family:Neuropolitical;-inkscape-font-specification:Neuropolitical;text-align:center;letter-spacing:0px;word-spacing:0px;writing-mode:lr-tb;text-anchor:middle;fill:#000000;fill-opacity:1;stroke:none;stroke-width:1px;stroke-linecap:butt;stroke-linejoin:miter;stroke-opacity:1"><flowRegion
         id="flowRegion1247"><rect
           id="rect1249"
           width="13.224999"
           height="3.3062499"
           x="790.19373"
           y="2848.3625" /></flowRegion><flowPara
         id="flowPara1251" /></flowRoot>    <text
       xml:space="preserve"
       style="font-style:normal;font-variant:normal;font-weight:normal;font-stretch:normal;line-height:0%;font-family:Lavi;-inkscape-font-specification:Lavi;text-align:center;letter-spacing:0px;word-spacing:0px;text-anchor:middle;fill:#000000;fill-opacity:1;stroke:none"
       x="1410.1737"
       y="3233.3367"
       id="text4246"><tspan
         sodipodi:role="line"
         style="font-size:45px;line-height:1.25"
         x="1410.1737"
         y="3233.3367"
         id="tspan4252">I, sobretot,</tspan></text>
    <text
       xml:space="preserve"
       style="font-style:normal;font-variant:normal;font-weight:normal;font-stretch:normal;line-height:0%;font-family:Lavi;-inkscape-font-specification:Lavi;text-align:center;letter-spacing:0px;word-spacing:0px;text-anchor:middle;fill:#000000;fill-opacity:1;stroke:none"
       x="2281.2227"
       y="3300.3694"
       id="text4246-6"
       transform="skewX(-14.861122)"><tspan
         sodipodi:role="line"
         style="font-size:74.66666412px;line-height:1.25"
         x="2281.2227"
         y="3300.3694"
         id="tspan4252-1">creatiu!</tspan></text>
    <text
       xml:space="preserve"
       style="font-style:normal;font-variant:normal;font-weight:normal;font-stretch:normal;line-height:0%;font-family:Lavi;-inkscape-font-specification:Lavi;text-align:center;letter-spacing:0px;word-spacing:0px;text-anchor:middle;fill:#000000;fill-opacity:1;stroke:none"
       x="2065.5322"
       y="2280.3386"
       id="text4246-2"><tspan
         sodipodi:role="line"
         style="font-size:45px;line-height:1.25"
         x="2065.5322"
         y="2280.3386"
         id="tspan1426">Però de cap manera</tspan><tspan
         sodipodi:role="line"
         style="font-size:45px;line-height:1.25"
         x="2065.5322"
         y="2336.5886"
         id="tspan1059">puc praticar aquesta</tspan><tspan
         sodipodi:role="line"
         style="font-size:45px;line-height:1.25"
         x="2065.5322"
         y="2392.8386"
         id="tspan1063">màgia aquí…</tspan></text>
    <text
       xml:space="preserve"
       style="font-style:normal;font-variant:normal;font-weight:normal;font-stretch:normal;line-height:0%;font-family:Lavi;-inkscape-font-specification:Lavi;text-align:center;letter-spacing:0px;word-spacing:0px;text-anchor:middle;fill:#000000;fill-opacity:1;stroke:none"
       x="2064.7913"
       y="3177.5769"
       id="text4246-2-3"><tspan
         sodipodi:role="line"
         style="font-size:45px;line-height:1.25"
         x="2064.7913"
         y="3177.5769"
         id="tspan1436">…les meves padrines</tspan><tspan
         sodipodi:role="line"
         style="font-size:45px;line-height:1.25"
         x="2064.7913"
         y="3233.8269"
         id="tspan1076">veurien de seguida que no</tspan><tspan
         sodipodi:role="line"
         style="font-size:45px;line-height:1.25"
         x="2064.7913"
         y="3290.0769"
         id="tspan1082">estudio els meus «Encanteris</tspan><tspan
         sodipodi:role="line"
         style="font-size:45px;line-height:1.25"
         x="2064.7913"
         y="3346.3269"
         id="tspan93">de Destrucció».</tspan></text>
    <text
       xml:space="preserve"
       style="font-style:normal;font-variant:normal;font-weight:normal;font-stretch:normal;font-size:9.86460209px;line-height:0%;font-family:Lavi;-inkscape-font-specification:Lavi;text-align:center;letter-spacing:0px;word-spacing:0px;text-anchor:middle;opacity:0.553;fill:#ffffff;fill-opacity:1;stroke:#ffffff;stroke-width:0.41015577;stroke-miterlimit:4;stroke-dasharray:none;stroke-opacity:1"
       x="1723.8367"
       y="993.6333"
       id="text4246-8"
       transform="matrix(1.0148684,-0.23351779,-0.23771225,1.0400462,0,0)"><tspan
         sodipodi:role="line"
         style="font-size:25.28764343px;line-height:1.25;fill:#ffffff;stroke:#ffffff;stroke-width:0.41015577;stroke-miterlimit:4;stroke-dasharray:none;stroke-opacity:1"
         x="1723.8367"
         y="993.6333"
         id="tspan4150-8">tap</tspan></text>
    <text
       xml:space="preserve"
       style="font-style:normal;font-variant:normal;font-weight:normal;font-stretch:normal;font-size:9.86460209px;line-height:0%;font-family:Lavi;-inkscape-font-specification:Lavi;text-align:center;letter-spacing:0px;word-spacing:0px;text-anchor:middle;opacity:0.553;fill:#ffffff;fill-opacity:1;stroke:#ffffff;stroke-width:0.41015577;stroke-miterlimit:4;stroke-dasharray:none;stroke-opacity:1"
       x="659.43341"
       y="516.69019"
       id="text4246-8-3"
       transform="matrix(1.0294788,0.15704104,-0.60436617,0.87917276,0,0)"><tspan
         sodipodi:role="line"
         style="font-size:25.28764343px;line-height:1.25;fill:#ffffff;stroke:#ffffff;stroke-width:0.41015577;stroke-miterlimit:4;stroke-dasharray:none;stroke-opacity:1"
         x="659.43341"
         y="516.69019"
         id="tspan4150-8-6">Ffff</tspan></text>
    <text
       xml:space="preserve"
       style="font-style:normal;font-variant:normal;font-weight:normal;font-stretch:normal;font-size:13.87211895px;line-height:0%;font-family:Lavi;-inkscape-font-specification:Lavi;text-align:center;letter-spacing:0px;word-spacing:0px;text-anchor:middle;fill:#000000;fill-opacity:1;stroke:#000000;stroke-width:1.60000002;stroke-miterlimit:4;stroke-dasharray:none;stroke-opacity:1"
       x="1265.1823"
       y="1197.7053"
       id="text4246-7-6-2-04-7"
       transform="skewX(-10.479117)"><tspan
         sodipodi:role="line"
         style="font-size:52.02044678px;line-height:1.25;stroke:#000000;stroke-width:1.60000002;stroke-miterlimit:4;stroke-dasharray:none;stroke-opacity:1"
         x="1265.1823"
         y="1201.6571"
         id="tspan1006-5" /><tspan
         sodipodi:role="line"
         style="font-size:52.02044678px;line-height:1.25;stroke:#000000;stroke-width:1.60000002;stroke-miterlimit:4;stroke-dasharray:none;stroke-opacity:1"
         x="1265.1823"
         y="1201.6571"
         id="tspan1008-6" /><tspan
         sodipodi:role="line"
         style="font-size:52.02044678px;line-height:1.25;stroke:#000000;stroke-width:1.60000002;stroke-miterlimit:4;stroke-dasharray:none;stroke-opacity:1"
         x="1271.9388"
         y="1245.0375"
         id="tspan1010-2">Mai! </tspan></text>
    <text
       xml:space="preserve"
       style="font-style:normal;font-variant:normal;font-weight:normal;font-stretch:normal;line-height:0%;font-family:Lavi;-inkscape-font-specification:Lavi;text-align:center;letter-spacing:0px;word-spacing:0px;text-anchor:middle;display:inline;fill:#000000;fill-opacity:1;stroke:#000000;stroke-width:1.10000002;stroke-miterlimit:4;stroke-dasharray:none;stroke-opacity:1"
       x="811.54419"
       y="1010.7184"
       id="text4246-7-6-2"
       transform="skewX(-26.235822)"><tspan
         sodipodi:role="line"
         style="font-size:45px;line-height:1.25;stroke:#000000;stroke-width:1.10000002;stroke-miterlimit:4;stroke-dasharray:none;stroke-opacity:1"
         x="811.54419"
         y="1010.7184"
         id="tspan1069-6">Grrrrr… !!!</tspan></text>
  </g>
</svg>
