<?xml version="1.0" encoding="UTF-8" standalone="no"?>
<!-- Created with Inkscape (http://www.inkscape.org/) -->

<svg
   xmlns:dc="http://purl.org/dc/elements/1.1/"
   xmlns:cc="http://creativecommons.org/ns#"
   xmlns:rdf="http://www.w3.org/1999/02/22-rdf-syntax-ns#"
   xmlns:svg="http://www.w3.org/2000/svg"
   xmlns="http://www.w3.org/2000/svg"
   xmlns:xlink="http://www.w3.org/1999/xlink"
   xmlns:sodipodi="http://sodipodi.sourceforge.net/DTD/sodipodi-0.dtd"
   xmlns:inkscape="http://www.inkscape.org/namespaces/inkscape"
   id="svg2"
   version="1.1"
   inkscape:version="0.92.4 5da689c313, 2019-01-14"
   width="2481"
   height="3503"
   sodipodi:docname="E28P05.svg">
  <metadata
     id="metadata8">
    <rdf:RDF>
      <cc:Work
         rdf:about="">
        <dc:format>image/svg+xml</dc:format>
        <dc:type
           rdf:resource="http://purl.org/dc/dcmitype/StillImage" />
        <dc:title />
      </cc:Work>
    </rdf:RDF>
  </metadata>
  <defs
     id="defs6" />
  <sodipodi:namedview
     pagecolor="#ffffff"
     bordercolor="#666666"
     borderopacity="1"
     objecttolerance="10"
     gridtolerance="10"
     guidetolerance="10"
     inkscape:pageopacity="0"
     inkscape:pageshadow="2"
     inkscape:window-width="1920"
     inkscape:window-height="1001"
     id="namedview4"
     showgrid="false"
     inkscape:zoom="0.51498715"
     inkscape:cx="1276.6679"
     inkscape:cy="758.72906"
     inkscape:window-x="0"
     inkscape:window-y="45"
     inkscape:window-maximized="1"
     inkscape:current-layer="layer1" />
  <g
     inkscape:groupmode="layer"
     id="layer2"
     inkscape:label="artwork"
     sodipodi:insensitive="true">
    <image
       sodipodi:absref="/home/ambernite/peppercarrot/webcomics/ep28_The-Festivities/lang/kr/../gfx_Pepper-and-Carrot_by-David-Revoy_E28P05.png"
       xlink:href="../gfx_Pepper-and-Carrot_by-David-Revoy_E28P05.png"
       y="0"
       x="0"
       id="image10"
       height="3503"
       width="2481" />
  </g>
  <g
     inkscape:groupmode="layer"
     id="layer3"
     inkscape:label="speechbubbles">
    <path
       style="fill:#ffffff;fill-rule:evenodd;stroke:none;stroke-width:0.79355079px;stroke-linecap:butt;stroke-linejoin:miter;stroke-opacity:1"
       d="m 243.43035,191.73154 c 19.16043,-20.86573 47.65695,-31.51149 75.45748,-38.28791 26.01231,-6.45594 53.1159,-6.61008 79.80051,-5.20857 33.83898,1.84871 68.11376,4.1249 100.74781,13.26996 9.97751,2.67402 19.37224,7.55552 25.57618,15.52439 26.27156,26.98416 45.30044,62.12006 44.65834,99.31402 -2.64305,54.65972 -3.96525,109.38838 -7.72353,163.99676 -1.14085,17.98163 -5.59551,36.94445 -19.61797,50.16165 -16.10303,15.88464 -37.45386,26.60462 -60.20579,31.36374 -36.19941,8.04125 -73.62496,10.8792 -110.76975,10.26654 -14.51788,-1.47345 -29.0287,-3.43872 -43.50414,-5.39678 -31.01771,-5.0018 -64.32937,-12.69295 -86.57367,-35.14046 -17.66156,-17.89769 -27.44166,-42.04848 -29.25797,-66.17674 0.13741,-50.74069 3.77154,-101.40859 6.17053,-152.08507 0.85535,-13.67955 0.18484,-27.65854 5.38604,-40.73075 4.73613,-14.31292 10.88496,-28.40054 19.85593,-40.87078 z"
       id="path1006"
       inkscape:connector-curvature="0" />
    <path
       style="fill:#ffffff;fill-rule:evenodd;stroke:none;stroke-width:1px;stroke-linecap:butt;stroke-linejoin:miter;stroke-opacity:1"
       d="M 333.27358,346.17986 C 395.90659,299.25879 684.65819,123.37673 1012.4941,266.75583 759.55842,143.42811 491.69794,181.66189 330.00219,300.24071 Z"
       id="path1008"
       inkscape:connector-curvature="0"
       sodipodi:nodetypes="cccc" />
    <path
       style="fill:#ffffff;fill-rule:evenodd;stroke:none;stroke-width:1px;stroke-linecap:butt;stroke-linejoin:miter;stroke-opacity:1"
       d="m 1819.6761,521.16397 c 116.7092,-13.15033 182.4608,-4.93138 226.8431,52.60129 44.3824,57.53267 34.5196,90.40848 23.0131,80.54574 -11.5065,-9.86274 -23.0131,-151.22873 -249.8562,-133.14703 z"
       id="path1011"
       inkscape:connector-curvature="0" />
    <path
       style="fill:#ffffff;fill-rule:evenodd;stroke:none;stroke-width:0.91679978px;stroke-linecap:butt;stroke-linejoin:miter;stroke-opacity:1"
       d="m 2115.2002,553.08252 c 73.5033,1.63761 112.3353,13.10089 127.5907,29.47701 15.2554,16.37611 36.0582,60.59164 29.124,86.7934 -6.9343,26.20179 -33.2846,68.77971 -109.5616,65.50448 -76.277,-3.27523 -131.7512,-19.65134 -149.7803,-52.40357 -18.0291,-32.75224 6.9343,-101.53192 36.0582,-112.99521 29.124,-11.46327 33.2846,-14.7385 66.569,-16.37611 z"
       id="path1013"
       inkscape:connector-curvature="0" />
    <path
       style="fill:#ffffff;fill-rule:evenodd;stroke:none;stroke-width:0.91752619px;stroke-linecap:butt;stroke-linejoin:miter;stroke-opacity:1"
       d="m 2004.5665,734.25711 c 52.2051,-49.31372 115.6054,-46.02614 132.5721,-42.73856 16.9666,3.28759 59.5106,8.29912 91.2802,11.50654 14.6901,1.48309 68.5486,32.97559 72.4116,87.12089 2.3398,32.79479 0,65.75163 -36.5435,78.90195 -36.5436,13.15032 -90.2899,13.15032 -135.9695,11.50653 -45.6794,-1.64379 -97.6484,0 -125.0561,-29.58823 -27.4076,-29.58823 -35.2384,-70.68299 1.3052,-116.70912 z"
       id="path1015"
       inkscape:connector-curvature="0"
       sodipodi:nodetypes="cssssssc" />
    <path
       style="fill:#ffffff;fill-rule:evenodd;stroke:none;stroke-width:1px;stroke-linecap:butt;stroke-linejoin:miter;stroke-opacity:1"
       d="m 308.74674,1071.6194 c 90.05114,1.4294 161.52029,1.4294 181.53165,15.7232 20.01137,14.2939 58.60471,47.1697 60.03409,78.6161 1.42939,31.4464 -1.42938,77.1867 -28.58766,98.6274 -27.15828,21.4408 -75.7573,38.5934 -124.35633,45.7403 -48.59902,7.1469 -145.79707,7.1469 -178.67288,0 -32.87581,-7.1469 -90.05113,-31.4464 -97.19805,-55.7459 -7.14691,-24.2996 -10.00568,-84.3336 -1.42938,-108.6332 8.5763,-24.2995 50.02841,-54.3165 91.48051,-62.8928 41.45211,-8.5763 97.19805,-11.4351 97.19805,-11.4351 z"
       id="path1017"
       inkscape:connector-curvature="0" />
    <path
       style="fill:#ffffff;fill-rule:evenodd;stroke:none;stroke-width:1px;stroke-linecap:butt;stroke-linejoin:miter;stroke-opacity:1"
       d="m 464.5495,1496.1462 c 57.17532,-75.7573 57.17532,-148.6559 4.28815,-244.4245 -52.88717,-95.7687 -80.04545,-97.1981 -80.04545,-97.1981 l -4.28815,52.8872 c 0,0 168.6672,128.6445 80.04545,288.7354 z"
       id="path1019"
       inkscape:connector-curvature="0" />
    <path
       style="fill:#ffffff;fill-rule:evenodd;stroke:none;stroke-width:0.93831289px;stroke-linecap:butt;stroke-linejoin:miter;stroke-opacity:1"
       d="m 1953.453,1181.6164 c -2.9588,-54.1268 73.9917,-99.5753 175.0696,-99.9637 101.0777,-0.3882 188.9714,22.2488 188.4166,78.152 -0.5547,55.9032 -17.8345,103.0846 -147.8039,103.3563 -129.9695,0.2718 -210.227,-14.7742 -215.6823,-81.5446 z"
       id="path1021"
       inkscape:connector-curvature="0" />
    <path
       style="fill:#ffffff;fill-rule:evenodd;stroke:none;stroke-width:1px;stroke-linecap:butt;stroke-linejoin:miter;stroke-opacity:1"
       d="m 2223.4008,1243.0202 c 9.6724,22.1135 -3.7615,81.471 -16.6581,91.9459 -8.9785,11.3235 4.9225,16.0942 9.6724,15.1304 4.2989,-2.9097 37.6151,-18.04 42.9887,-9.3111 5.3736,8.7291 -48.8996,51.2105 -42.9887,57.0298 5.911,5.8194 27.9427,-8.1471 30.6294,-3.4916 2.6868,4.6554 -4.2988,17.4581 -16.6581,25.6052 20.957,-6.9833 30.0921,-18.6219 25.7932,-26.769 -4.2988,-8.1471 -12.3592,-6.9833 -17.7328,-5.8194 10.2098,-8.7291 49.9875,-38.2659 39.7777,-53.9782 -10.2098,-15.7122 -36.0426,-12.0787 -41.9536,-9.169 14.5087,-12.8026 28.0737,-53.8649 21.6254,-85.8713 -6.4483,-32.0065 -34.4955,4.6983 -34.4955,4.6983 z"
       id="path1023"
       inkscape:connector-curvature="0"
       sodipodi:nodetypes="ccccsccccccsc" />
    <path
       style="fill:#ffffff;fill-rule:evenodd;stroke:none;stroke-width:1px;stroke-linecap:butt;stroke-linejoin:miter;stroke-opacity:1"
       d="m 826.50706,2344.762 c 9.78488,-40.2573 52.11355,-55.2416 84.72982,-52.849 32.61627,2.3928 81.25075,23.5682 76.17711,56.2586 -5.07364,32.6904 -43.85076,50.2768 -71.17595,51.6227 -27.32519,1.3458 -89.15114,-3.9181 -89.73098,-55.0323 z"
       id="path1025"
       inkscape:connector-curvature="0" />
    <path
       style="fill:#ffffff;fill-rule:evenodd;stroke:none;stroke-width:1px;stroke-linecap:butt;stroke-linejoin:miter;stroke-opacity:1"
       d="m 891.05439,2384.5928 c 8.97846,20.1058 2.08504,29.2013 -7.53169,42.2988 -9.61674,13.0974 -3.91478,26.6928 6.89341,31.8628 10.80819,5.1701 22.50997,25.1418 21.87169,42.5477 -2.42546,-50.8389 -20.08451,-46.2816 -21.10575,-59.2259 -1.02125,-12.9442 20.21215,-24.3759 22.42485,-32.7054 2.2127,-8.3295 0.51063,-29.1055 -5.14877,-40.9009 -5.65941,-11.7954 -17.40374,16.1229 -17.40374,16.1229 z"
       id="path1027"
       inkscape:connector-curvature="0"
       sodipodi:nodetypes="cccccssc" />
  </g>
  <g
     inkscape:groupmode="layer"
     id="layer1"
     inkscape:label="txt">
    <text
       id="text860"
       y="249.88713"
       x="397.10077"
       style="font-style:normal;font-variant:normal;font-weight:normal;font-stretch:normal;font-size:14.39944077px;line-height:100%;font-family:'Nanum Pen Script OTF';-inkscape-font-specification:'Nanum Pen Script OTF';text-align:center;letter-spacing:0px;word-spacing:0px;text-anchor:middle;fill:#000000;fill-opacity:1;stroke:none;stroke-width:1.19995344"
       xml:space="preserve"><tspan
         id="tspan858"
         y="249.88713"
         x="397.10077"
         style="font-style:normal;font-variant:normal;font-weight:normal;font-stretch:normal;font-size:53.99790192px;line-height:100%;font-family:'Nanum Pen Script OTF';-inkscape-font-specification:'Nanum Pen Script OTF';stroke-width:1.19995344"
         sodipodi:role="line">내 친구들은 전부</tspan><tspan
         y="303.88504"
         x="397.10077"
         style="font-style:normal;font-variant:normal;font-weight:normal;font-stretch:normal;font-size:53.99790192px;line-height:100%;font-family:'Nanum Pen Script OTF';-inkscape-font-specification:'Nanum Pen Script OTF';stroke-width:1.19995344"
         sodipodi:role="line"
         id="tspan912">다 성공했는데,</tspan><tspan
         y="357.88293"
         x="397.10077"
         style="font-style:normal;font-variant:normal;font-weight:normal;font-stretch:normal;font-size:53.99790192px;line-height:100%;font-family:'Nanum Pen Script OTF';-inkscape-font-specification:'Nanum Pen Script OTF';stroke-width:1.19995344"
         sodipodi:role="line"
         id="tspan914">가끔 나도</tspan><tspan
         y="411.88083"
         x="397.10077"
         style="font-style:normal;font-variant:normal;font-weight:normal;font-stretch:normal;font-size:53.99790192px;line-height:100%;font-family:'Nanum Pen Script OTF';-inkscape-font-specification:'Nanum Pen Script OTF';stroke-width:1.19995344"
         sodipodi:role="line"
         id="tspan916">친구들을 조금이나마</tspan><tspan
         y="465.87872"
         x="397.10077"
         style="font-style:normal;font-variant:normal;font-weight:normal;font-stretch:normal;font-size:53.99790192px;line-height:100%;font-family:'Nanum Pen Script OTF';-inkscape-font-specification:'Nanum Pen Script OTF';stroke-width:1.19995344"
         sodipodi:role="line"
         id="tspan918">닮았으면 해.</tspan></text>
    <text
       id="text866"
       y="629.16797"
       x="2139.5979"
       style="font-style:normal;font-variant:normal;font-weight:normal;font-stretch:normal;font-size:15.62636948px;line-height:100%;font-family:'Nanum Pen Script OTF';-inkscape-font-specification:'Nanum Pen Script OTF';text-align:center;letter-spacing:0px;word-spacing:0px;text-anchor:middle;fill:#000000;fill-opacity:1;stroke:none;stroke-width:1.30219746"
       xml:space="preserve"><tspan
         y="629.16797"
         x="2147.7812"
         style="font-style:normal;font-variant:normal;font-weight:normal;font-stretch:normal;font-size:58.5988884px;line-height:100%;font-family:'Nanum Pen Script OTF';-inkscape-font-specification:'Nanum Pen Script OTF';stroke-width:1.30219746"
         sodipodi:role="line"
         id="tspan922">고수는 </tspan><tspan
         y="687.76685"
         x="2139.5979"
         style="font-style:normal;font-variant:normal;font-weight:normal;font-stretch:normal;font-size:58.5988884px;line-height:100%;font-family:'Nanum Pen Script OTF';-inkscape-font-specification:'Nanum Pen Script OTF';stroke-width:1.30219746"
         sodipodi:role="line"
         id="tspan943">여왕이지.</tspan></text>
    <text
       id="text872"
       y="782.13373"
       x="2146.7466"
       style="font-style:normal;font-variant:normal;font-weight:normal;font-stretch:normal;font-size:14.91404533px;line-height:100%;font-family:'Nanum Pen Script OTF';-inkscape-font-specification:'Nanum Pen Script OTF';text-align:center;letter-spacing:0px;word-spacing:0px;text-anchor:middle;fill:#000000;fill-opacity:1;stroke:none;stroke-width:1.24283707"
       xml:space="preserve"><tspan
         id="tspan870"
         y="782.13373"
         x="2146.7466"
         style="font-style:normal;font-variant:normal;font-weight:normal;font-stretch:normal;font-size:55.92766571px;line-height:100%;font-family:'Nanum Pen Script OTF';-inkscape-font-specification:'Nanum Pen Script OTF';stroke-width:1.24283707"
         sodipodi:role="line">사프란은 부자</tspan><tspan
         y="838.0614"
         x="2146.7466"
         style="font-style:normal;font-variant:normal;font-weight:normal;font-stretch:normal;font-size:55.92766571px;line-height:100%;font-family:'Nanum Pen Script OTF';-inkscape-font-specification:'Nanum Pen Script OTF';stroke-width:1.24283707"
         sodipodi:role="line"
         id="tspan926">슈퍼스타지.</tspan></text>
    <text
       id="text880"
       y="1152.9303"
       x="335.90341"
       style="font-style:normal;font-variant:normal;font-weight:normal;font-stretch:normal;font-size:14.74134159px;line-height:100%;font-family:'Nanum Pen Script OTF';-inkscape-font-specification:'Nanum Pen Script OTF';text-align:center;letter-spacing:0px;word-spacing:0px;text-anchor:middle;fill:#000000;fill-opacity:1;stroke:none;stroke-width:1.22844517"
       xml:space="preserve"><tspan
         id="tspan878"
         y="1152.9303"
         x="335.90341"
         style="font-style:normal;font-variant:normal;font-weight:normal;font-stretch:normal;font-size:55.28003311px;line-height:100%;font-family:'Nanum Pen Script OTF';-inkscape-font-specification:'Nanum Pen Script OTF';stroke-width:1.22844517"
         sodipodi:role="line">심지어 칠미도</tspan><tspan
         y="1208.2103"
         x="335.90341"
         style="font-style:normal;font-variant:normal;font-weight:normal;font-stretch:normal;font-size:55.28003311px;line-height:100%;font-family:'Nanum Pen Script OTF';-inkscape-font-specification:'Nanum Pen Script OTF';stroke-width:1.22844517"
         sodipodi:role="line"
         id="tspan935">자기 학교에서</tspan><tspan
         y="1263.4904"
         x="335.90341"
         style="font-style:normal;font-variant:normal;font-weight:normal;font-stretch:normal;font-size:55.28003311px;line-height:100%;font-family:'Nanum Pen Script OTF';-inkscape-font-specification:'Nanum Pen Script OTF';stroke-width:1.22844517"
         sodipodi:role="line"
         id="tspan937">완벽하게 지내지.</tspan></text>
    <text
       id="text886"
       y="1160.2008"
       x="2139.646"
       style="font-style:normal;font-variant:normal;font-weight:normal;font-stretch:normal;font-size:16.01369667px;line-height:100%;font-family:'Nanum Pen Script OTF';-inkscape-font-specification:'Nanum Pen Script OTF';text-align:center;letter-spacing:0px;word-spacing:0px;text-anchor:middle;fill:#000000;fill-opacity:1;stroke:none;stroke-width:1.33447468"
       xml:space="preserve"><tspan
         id="tspan884"
         y="1160.2008"
         x="2139.646"
         style="font-style:normal;font-variant:normal;font-weight:normal;font-stretch:normal;font-size:60.05136108px;line-height:100%;font-family:'Nanum Pen Script OTF';-inkscape-font-specification:'Nanum Pen Script OTF';stroke-width:1.33447468"
         sodipodi:role="line">근데 나는?</tspan><tspan
         y="1220.2522"
         x="2139.646"
         style="font-style:normal;font-variant:normal;font-weight:normal;font-stretch:normal;font-size:60.05136108px;line-height:100%;font-family:'Nanum Pen Script OTF';-inkscape-font-specification:'Nanum Pen Script OTF';stroke-width:1.33447468"
         sodipodi:role="line"
         id="tspan941">난 어떠냐고?</tspan></text>
    <text
       id="text890"
       y="2364.0122"
       x="910.383"
       style="font-style:normal;font-variant:normal;font-weight:normal;font-stretch:normal;font-size:15.11505032px;line-height:100%;font-family:'Nanum Pen Script OTF';-inkscape-font-specification:'Nanum Pen Script OTF';text-align:center;letter-spacing:0px;word-spacing:0px;text-anchor:middle;fill:#000000;fill-opacity:1;stroke:none;stroke-width:1.25958753"
       xml:space="preserve"><tspan
         id="tspan888"
         y="2364.0122"
         x="910.383"
         style="font-style:normal;font-variant:normal;font-weight:normal;font-stretch:normal;font-size:56.68143845px;line-height:100%;font-family:'Nanum Pen Script OTF';-inkscape-font-specification:'Nanum Pen Script OTF';stroke-width:1.25958753"
         sodipodi:role="line">이래.</tspan></text>
  </g>
</svg>
