<?xml version="1.0" encoding="UTF-8" standalone="no"?>
<svg
   xmlns:dc="http://purl.org/dc/elements/1.1/"
   xmlns:cc="http://creativecommons.org/ns#"
   xmlns:rdf="http://www.w3.org/1999/02/22-rdf-syntax-ns#"
   xmlns:svg="http://www.w3.org/2000/svg"
   xmlns="http://www.w3.org/2000/svg"
   xmlns:xlink="http://www.w3.org/1999/xlink"
   xmlns:sodipodi="http://sodipodi.sourceforge.net/DTD/sodipodi-0.dtd"
   xmlns:inkscape="http://www.inkscape.org/namespaces/inkscape"
   sodipodi:docname="E22P06.svg"
   height="3503"
   width="2481"
   inkscape:version="1.0 (4035a4fb49, 2020-05-01)"
   version="1.1"
   id="svg2">
  <sodipodi:namedview
     inkscape:window-maximized="0"
     inkscape:window-y="0"
     inkscape:window-x="0"
     inkscape:document-rotation="0"
     inkscape:current-layer="layer1"
     inkscape:cy="2631.0156"
     inkscape:cx="1172.7553"
     inkscape:zoom="0.36246547"
     showgrid="false"
     id="namedview70"
     inkscape:window-height="955"
     inkscape:window-width="1125"
     inkscape:pageshadow="2"
     inkscape:pageopacity="0"
     bordercolor="#666666"
     pagecolor="#ffffff" />
  <metadata
     id="metadata8">
    <rdf:RDF>
      <cc:Work
         rdf:about="">
        <dc:format>image/svg+xml</dc:format>
        <dc:type
           rdf:resource="http://purl.org/dc/dcmitype/StillImage" />
        <dc:title />
      </cc:Work>
    </rdf:RDF>
  </metadata>
  <defs
     id="defs6">
    <linearGradient
       inkscape:collect="always"
       id="linearGradient4480">
      <stop
         style="stop-color:#ff0505;stop-opacity:1"
         offset="0"
         id="stop4482" />
      <stop
         style="stop-color:#ff9898;stop-opacity:1"
         offset="1"
         id="stop4484" />
    </linearGradient>
    <linearGradient
       id="linearGradient4546"
       inkscape:collect="always">
      <stop
         id="stop4548"
         offset="0"
         style="stop-color:#ffffff;stop-opacity:1;" />
      <stop
         id="stop4550"
         offset="1"
         style="stop-color:#fffad3;stop-opacity:1" />
    </linearGradient>
    <filter
       inkscape:label="fx-red"
       id="filter4375-4-1-1-1-9-5-8-8-0"
       style="color-interpolation-filters:sRGB">
      <feFlood
         result="flood"
         flood-color="rgb(198,65,60)"
         flood-opacity="1"
         id="feFlood4377-7-9-0-8-1-7-3-1-4" />
      <feComposite
         baseFrequency="0.053999999999999999 0.053999999999999999"
         result="composite1"
         operator="in"
         in="flood"
         in2="SourceGraphic"
         id="feComposite4379-3-8-8-2-77-4-1-0-1" />
      <feMorphology
         result="result3"
         radius="5"
         operator="dilate"
         id="feMorphology4393-1-0-49-8-9-3-0-1-3" />
      <feComposite
         result="fbSourceGraphic"
         operator="over"
         in="SourceGraphic"
         in2="result3"
         id="feComposite4385-9-5-7-0-8-8-7-5-02" />
      <feColorMatrix
         id="feColorMatrix4544-9-9"
         values="0 0 0 -1 0 0 0 0 -1 0 0 0 0 -1 0 0 0 0 1 0"
         in="fbSourceGraphic"
         result="fbSourceGraphicAlpha" />
      <feTurbulence
         result="turbulence"
         baseFrequency="0 0"
         seed="174"
         numOctaves="5"
         type="fractalNoise"
         id="feTurbulence4546-3-6" />
      <feDisplacementMap
         result="fbSourceGraphic"
         xChannelSelector="R"
         yChannelSelector="G"
         scale="0"
         in="fbSourceGraphic"
         in2="turbulence"
         id="feDisplacementMap4548-8-0" />
      <feColorMatrix
         id="feColorMatrix4670-7-93"
         values="0 0 0 -1 0 0 0 0 -1 0 0 0 0 -1 0 0 0 0 1 0"
         in="fbSourceGraphic"
         result="fbSourceGraphicAlpha" />
      <feFlood
         stdDeviation="2.7999999999999998"
         in="fbSourceGraphic"
         result="flood"
         flood-color="rgb(255,255,255)"
         flood-opacity="1"
         id="feFlood4672-4-5" />
      <feComposite
         result="composite1"
         operator="in"
         in="flood"
         in2="fbSourceGraphic"
         id="feComposite4674-8-4" />
      <feGaussianBlur
         result="blur"
         stdDeviation="0.90000000000000002"
         in="composite1"
         id="feGaussianBlur4676-3-3" />
      <feOffset
         result="offset"
         dy="0"
         dx="0"
         id="feOffset4678-6-6" />
      <feComposite
         result="composite2"
         operator="over"
         in="fbSourceGraphic"
         in2="offset"
         id="feComposite4680-4-4" />
    </filter>
    <filter
       inkscape:label="fx-green"
       id="filter4375-4-1-1-1-9-5-8-8"
       style="color-interpolation-filters:sRGB">
      <feFlood
         result="flood"
         flood-color="rgb(104,199,61)"
         flood-opacity="1"
         id="feFlood4377-7-9-0-8-1-7-3-1" />
      <feComposite
         baseFrequency="0.053999999999999999 0.053999999999999999"
         result="composite1"
         operator="in"
         in="flood"
         in2="SourceGraphic"
         id="feComposite4379-3-8-8-2-77-4-1-0" />
      <feMorphology
         result="result3"
         radius="5"
         operator="dilate"
         id="feMorphology4393-1-0-49-8-9-3-0-1" />
      <feComposite
         result="fbSourceGraphic"
         operator="over"
         in="SourceGraphic"
         in2="result3"
         id="feComposite4385-9-5-7-0-8-8-7-5" />
      <feColorMatrix
         id="feColorMatrix4544-9"
         values="0 0 0 -1 0 0 0 0 -1 0 0 0 0 -1 0 0 0 0 1 0"
         in="fbSourceGraphic"
         result="fbSourceGraphicAlpha" />
      <feTurbulence
         result="turbulence"
         baseFrequency="0 0"
         seed="174"
         numOctaves="5"
         type="fractalNoise"
         id="feTurbulence4546-3" />
      <feDisplacementMap
         result="fbSourceGraphic"
         xChannelSelector="R"
         yChannelSelector="G"
         scale="0"
         in="fbSourceGraphic"
         in2="turbulence"
         id="feDisplacementMap4548-8" />
      <feColorMatrix
         id="feColorMatrix4670-7"
         values="0 0 0 -1 0 0 0 0 -1 0 0 0 0 -1 0 0 0 0 1 0"
         in="fbSourceGraphic"
         result="fbSourceGraphicAlpha" />
      <feFlood
         stdDeviation="2.7999999999999998"
         in="fbSourceGraphic"
         result="flood"
         flood-color="rgb(255,255,255)"
         flood-opacity="1"
         id="feFlood4672-4" />
      <feComposite
         result="composite1"
         operator="in"
         in="flood"
         in2="fbSourceGraphic"
         id="feComposite4674-8" />
      <feGaussianBlur
         result="blur"
         stdDeviation="0.90000000000000002"
         in="composite1"
         id="feGaussianBlur4676-3" />
      <feOffset
         result="offset"
         dy="0"
         dx="0"
         id="feOffset4678-6" />
      <feComposite
         result="composite2"
         operator="over"
         in="fbSourceGraphic"
         in2="offset"
         id="feComposite4680-4" />
    </filter>
    <filter
       style="color-interpolation-filters:sRGB"
       inkscape:label="thumb-glow"
       id="filter4761">
      <feFlood
         flood-opacity="1"
         flood-color="rgb(255,255,255)"
         result="flood"
         id="feFlood4763" />
      <feComposite
         in="flood"
         in2="SourceGraphic"
         operator="in"
         result="composite1"
         id="feComposite4765" />
      <feGaussianBlur
         in="composite1"
         stdDeviation="6.5"
         result="blur"
         id="feGaussianBlur4767" />
      <feOffset
         dx="0"
         dy="0"
         result="offset"
         id="feOffset4769" />
      <feComposite
         in="SourceGraphic"
         in2="offset"
         operator="over"
         result="composite2"
         id="feComposite4771" />
    </filter>
    <filter
       style="color-interpolation-filters:sRGB"
       inkscape:label="thumb-glow"
       id="filter4279">
      <feFlood
         flood-opacity="1"
         flood-color="rgb(255,255,255)"
         result="flood"
         id="feFlood4281" />
      <feComposite
         in="flood"
         in2="SourceGraphic"
         operator="in"
         result="composite1"
         id="feComposite4283" />
      <feGaussianBlur
         in="composite1"
         stdDeviation="6.5"
         result="blur"
         id="feGaussianBlur4285" />
      <feOffset
         dx="0"
         dy="0"
         result="offset"
         id="feOffset4287" />
      <feComposite
         in="SourceGraphic"
         in2="offset"
         operator="over"
         result="composite2"
         id="feComposite4289" />
    </filter>
    <filter
       style="color-interpolation-filters:sRGB"
       inkscape:label="thumb-glow"
       id="filter4291">
      <feFlood
         flood-opacity="1"
         flood-color="rgb(255,255,255)"
         result="flood"
         id="feFlood4293" />
      <feComposite
         in="flood"
         in2="SourceGraphic"
         operator="in"
         result="composite1"
         id="feComposite4295" />
      <feGaussianBlur
         in="composite1"
         stdDeviation="6.5"
         result="blur"
         id="feGaussianBlur4297" />
      <feOffset
         dx="0"
         dy="0"
         result="offset"
         id="feOffset4299" />
      <feComposite
         in="SourceGraphic"
         in2="offset"
         operator="over"
         result="composite2"
         id="feComposite4301" />
    </filter>
    <filter
       id="filter4610"
       inkscape:label="OSD glow"
       style="color-interpolation-filters:sRGB">
      <feFlood
         id="feFlood4612"
         result="flood"
         flood-color="rgb(155,255,249)"
         flood-opacity="1" />
      <feComposite
         id="feComposite4614"
         result="composite1"
         operator="in"
         in2="SourceGraphic"
         in="flood" />
      <feGaussianBlur
         id="feGaussianBlur4616"
         result="blur"
         stdDeviation="6.5"
         in="composite1" />
      <feOffset
         id="feOffset4618"
         result="offset"
         dy="0"
         dx="0" />
      <feComposite
         id="feComposite4620"
         result="composite2"
         operator="over"
         in2="offset"
         in="SourceGraphic" />
    </filter>
    <filter
       inkscape:label="deevad outline effect"
       id="filter4375-4-1-1-1-9-6-9-2-1"
       style="color-interpolation-filters:sRGB">
      <feFlood
         result="flood"
         flood-color="rgb(0,0,0)"
         flood-opacity="1"
         id="feFlood4377-7-9-0-8-1-0-2-2-06" />
      <feComposite
         result="composite1"
         operator="in"
         in="flood"
         in2="SourceGraphic"
         id="feComposite4379-3-8-8-2-77-6-0-8-3" />
      <feMorphology
         result="result3"
         radius="4"
         operator="dilate"
         id="feMorphology4393-1-0-49-8-9-2-2-9-2" />
      <feComposite
         result="composite2"
         operator="over"
         in="SourceGraphic"
         in2="result3"
         id="feComposite4385-9-5-7-0-8-6-3-7-0" />
    </filter>
    <filter
       y="-0.1"
       id="filter4265-7"
       style="color-interpolation-filters:sRGB"
       inkscape:menu-tooltip="Horizontal rippling of edges"
       inkscape:menu="Distort"
       inkscape:label="Ripple">
      <feTurbulence
         id="feTurbulence4267-7"
         baseFrequency="0.0089999999999999993 0.107"
         numOctaves="1" />
      <feColorMatrix
         id="feColorMatrix4269-1"
         result="result91"
         values="5 0 0 0 0 0 0 0 0 0 0 0 0 0 0 0 0 0 4 0 " />
      <feDisplacementMap
         id="feDisplacementMap4271-2"
         in2="result91"
         in="SourceGraphic"
         scale="14.3"
         xChannelSelector="R"
         yChannelSelector="A" />
    </filter>
    <filter
       y="-0.1"
       id="filter4265-7-3"
       style="color-interpolation-filters:sRGB"
       inkscape:menu-tooltip="Horizontal rippling of edges"
       inkscape:menu="Distort"
       inkscape:label="Ripple">
      <feTurbulence
         seed="451"
         type="turbulence"
         id="feTurbulence4267-7-5"
         baseFrequency="0.0040000000000000001 0.107"
         numOctaves="1" />
      <feColorMatrix
         id="feColorMatrix4269-1-6"
         result="result91"
         values="5 0 0 0 0 0 0 0 0 0 0 0 0 0 0 0 0 0 4 0 " />
      <feDisplacementMap
         id="feDisplacementMap4271-2-2"
         in2="result91"
         in="SourceGraphic"
         scale="14.3"
         xChannelSelector="R"
         yChannelSelector="A" />
    </filter>
    <filter
       y="-0.1"
       id="filter4265-7-0"
       style="color-interpolation-filters:sRGB"
       inkscape:menu-tooltip="Horizontal rippling of edges"
       inkscape:menu="Distort"
       inkscape:label="Ripple">
      <feTurbulence
         id="feTurbulence4267-7-9"
         baseFrequency="0.0089999999999999993 0.107"
         numOctaves="1" />
      <feColorMatrix
         id="feColorMatrix4269-1-3"
         result="result91"
         values="5 0 0 0 0 0 0 0 0 0 0 0 0 0 0 0 0 0 4 0 " />
      <feDisplacementMap
         id="feDisplacementMap4271-2-6"
         in2="result91"
         in="SourceGraphic"
         scale="14.3"
         xChannelSelector="R"
         yChannelSelector="A" />
    </filter>
    <filter
       inkscape:label="fx-red"
       id="filter4375-4-1-1-1-9-5-8-8-0-2"
       style="color-interpolation-filters:sRGB">
      <feFlood
         result="flood"
         flood-color="rgb(198,65,60)"
         flood-opacity="1"
         id="feFlood4377-7-9-0-8-1-7-3-1-4-8" />
      <feComposite
         baseFrequency="0.053999999999999999 0.053999999999999999"
         result="composite1"
         operator="in"
         in="flood"
         in2="SourceGraphic"
         id="feComposite4379-3-8-8-2-77-4-1-0-1-9" />
      <feMorphology
         result="result3"
         radius="5"
         operator="dilate"
         id="feMorphology4393-1-0-49-8-9-3-0-1-3-7" />
      <feComposite
         result="fbSourceGraphic"
         operator="over"
         in="SourceGraphic"
         in2="result3"
         id="feComposite4385-9-5-7-0-8-8-7-5-02-3" />
      <feColorMatrix
         id="feColorMatrix4544-9-9-6"
         values="0 0 0 -1 0 0 0 0 -1 0 0 0 0 -1 0 0 0 0 1 0"
         in="fbSourceGraphic"
         result="fbSourceGraphicAlpha" />
      <feTurbulence
         result="turbulence"
         baseFrequency="0 0"
         seed="174"
         numOctaves="5"
         type="fractalNoise"
         id="feTurbulence4546-3-6-1" />
      <feDisplacementMap
         result="fbSourceGraphic"
         xChannelSelector="R"
         yChannelSelector="G"
         scale="0"
         in="fbSourceGraphic"
         in2="turbulence"
         id="feDisplacementMap4548-8-0-2" />
      <feColorMatrix
         id="feColorMatrix4670-7-93-9"
         values="0 0 0 -1 0 0 0 0 -1 0 0 0 0 -1 0 0 0 0 1 0"
         in="fbSourceGraphic"
         result="fbSourceGraphicAlpha" />
      <feFlood
         stdDeviation="2.7999999999999998"
         in="fbSourceGraphic"
         result="flood"
         flood-color="rgb(255,255,255)"
         flood-opacity="1"
         id="feFlood4672-4-5-3" />
      <feComposite
         result="composite1"
         operator="in"
         in="flood"
         in2="fbSourceGraphic"
         id="feComposite4674-8-4-1" />
      <feGaussianBlur
         result="blur"
         stdDeviation="0.90000000000000002"
         in="composite1"
         id="feGaussianBlur4676-3-3-9" />
      <feOffset
         result="offset"
         dy="0"
         dx="0"
         id="feOffset4678-6-6-4" />
      <feComposite
         result="composite2"
         operator="over"
         in="fbSourceGraphic"
         in2="offset"
         id="feComposite4680-4-4-7" />
    </filter>
    <filter
       inkscape:label="fx-green"
       id="filter4375-4-1-1-1-9-5-8-8-8"
       style="color-interpolation-filters:sRGB">
      <feFlood
         result="flood"
         flood-color="rgb(104,199,61)"
         flood-opacity="1"
         id="feFlood4377-7-9-0-8-1-7-3-1-45" />
      <feComposite
         baseFrequency="0.053999999999999999 0.053999999999999999"
         result="composite1"
         operator="in"
         in="flood"
         in2="SourceGraphic"
         id="feComposite4379-3-8-8-2-77-4-1-0-0" />
      <feMorphology
         result="result3"
         radius="5"
         operator="dilate"
         id="feMorphology4393-1-0-49-8-9-3-0-1-36" />
      <feComposite
         result="fbSourceGraphic"
         operator="over"
         in="SourceGraphic"
         in2="result3"
         id="feComposite4385-9-5-7-0-8-8-7-5-1" />
      <feColorMatrix
         id="feColorMatrix4544-9-0"
         values="0 0 0 -1 0 0 0 0 -1 0 0 0 0 -1 0 0 0 0 1 0"
         in="fbSourceGraphic"
         result="fbSourceGraphicAlpha" />
      <feTurbulence
         result="turbulence"
         baseFrequency="0 0"
         seed="174"
         numOctaves="5"
         type="fractalNoise"
         id="feTurbulence4546-3-63" />
      <feDisplacementMap
         result="fbSourceGraphic"
         xChannelSelector="R"
         yChannelSelector="G"
         scale="0"
         in="fbSourceGraphic"
         in2="turbulence"
         id="feDisplacementMap4548-8-2" />
      <feColorMatrix
         id="feColorMatrix4670-7-0"
         values="0 0 0 -1 0 0 0 0 -1 0 0 0 0 -1 0 0 0 0 1 0"
         in="fbSourceGraphic"
         result="fbSourceGraphicAlpha" />
      <feFlood
         stdDeviation="2.7999999999999998"
         in="fbSourceGraphic"
         result="flood"
         flood-color="rgb(255,255,255)"
         flood-opacity="1"
         id="feFlood4672-4-6" />
      <feComposite
         result="composite1"
         operator="in"
         in="flood"
         in2="fbSourceGraphic"
         id="feComposite4674-8-1" />
      <feGaussianBlur
         result="blur"
         stdDeviation="0.90000000000000002"
         in="composite1"
         id="feGaussianBlur4676-3-5" />
      <feOffset
         result="offset"
         dy="0"
         dx="0"
         id="feOffset4678-6-5" />
      <feComposite
         result="composite2"
         operator="over"
         in="fbSourceGraphic"
         in2="offset"
         id="feComposite4680-4-47" />
    </filter>
    <filter
       style="color-interpolation-filters:sRGB"
       inkscape:label="thumb-glow"
       id="filter4761-6">
      <feFlood
         flood-opacity="1"
         flood-color="rgb(255,255,255)"
         result="flood"
         id="feFlood4763-5" />
      <feComposite
         in="flood"
         in2="SourceGraphic"
         operator="in"
         result="composite1"
         id="feComposite4765-6" />
      <feGaussianBlur
         in="composite1"
         stdDeviation="6.5"
         result="blur"
         id="feGaussianBlur4767-9" />
      <feOffset
         dx="0"
         dy="0"
         result="offset"
         id="feOffset4769-3" />
      <feComposite
         in="SourceGraphic"
         in2="offset"
         operator="over"
         result="composite2"
         id="feComposite4771-7" />
    </filter>
    <filter
       style="color-interpolation-filters:sRGB"
       inkscape:label="thumb-glow"
       id="filter4677">
      <feFlood
         flood-opacity="1"
         flood-color="rgb(255,255,255)"
         result="flood"
         id="feFlood4679" />
      <feComposite
         in="flood"
         in2="SourceGraphic"
         operator="in"
         result="composite1"
         id="feComposite4681" />
      <feGaussianBlur
         in="composite1"
         stdDeviation="6.5"
         result="blur"
         id="feGaussianBlur4683" />
      <feOffset
         dx="0"
         dy="0"
         result="offset"
         id="feOffset4685" />
      <feComposite
         in="SourceGraphic"
         in2="offset"
         operator="over"
         result="composite2"
         id="feComposite4687" />
    </filter>
    <filter
       style="color-interpolation-filters:sRGB"
       inkscape:label="thumb-glow"
       id="filter4689">
      <feFlood
         flood-opacity="1"
         flood-color="rgb(255,255,255)"
         result="flood"
         id="feFlood4691" />
      <feComposite
         in="flood"
         in2="SourceGraphic"
         operator="in"
         result="composite1"
         id="feComposite4693" />
      <feGaussianBlur
         in="composite1"
         stdDeviation="6.5"
         result="blur"
         id="feGaussianBlur4695" />
      <feOffset
         dx="0"
         dy="0"
         result="offset"
         id="feOffset4697" />
      <feComposite
         in="SourceGraphic"
         in2="offset"
         operator="over"
         result="composite2"
         id="feComposite4699" />
    </filter>
    <filter
       id="filter4610-4"
       inkscape:label="OSD glow"
       style="color-interpolation-filters:sRGB">
      <feFlood
         id="feFlood4612-5"
         result="flood"
         flood-color="rgb(155,255,249)"
         flood-opacity="1" />
      <feComposite
         id="feComposite4614-2"
         result="composite1"
         operator="in"
         in2="SourceGraphic"
         in="flood" />
      <feGaussianBlur
         id="feGaussianBlur4616-5"
         result="blur"
         stdDeviation="6.5"
         in="composite1" />
      <feOffset
         id="feOffset4618-4"
         result="offset"
         dy="0"
         dx="0" />
      <feComposite
         id="feComposite4620-7"
         result="composite2"
         operator="over"
         in2="offset"
         in="SourceGraphic" />
    </filter>
    <linearGradient
       gradientUnits="userSpaceOnUse"
       y2="414.89822"
       x2="1292.6337"
       y1="356.86307"
       x1="1294.5955"
       id="linearGradient4203"
       xlink:href="#linearGradient4480"
       inkscape:collect="always" />
    <linearGradient
       id="linearGradient4197"
       inkscape:collect="always">
      <stop
         id="stop4199"
         offset="0"
         style="stop-color:#ffd005;stop-opacity:1" />
      <stop
         id="stop4201"
         offset="1"
         style="stop-color:#fff798;stop-opacity:1" />
    </linearGradient>
    <filter
       inkscape:label="Score-style"
       id="filter4375-4-1-1-1-9-5-8-8-8-3"
       style="color-interpolation-filters:sRGB">
      <feFlood
         result="flood"
         flood-color="rgb(210,55,0)"
         flood-opacity="1"
         id="feFlood4377-7-9-0-8-1-7-3-1-45-6" />
      <feComposite
         baseFrequency="0.053999999999999999 0.053999999999999999"
         result="composite1"
         operator="in"
         in="flood"
         in2="SourceGraphic"
         id="feComposite4379-3-8-8-2-77-4-1-0-0-7" />
      <feMorphology
         result="result3"
         radius="3.7999999999999998"
         operator="dilate"
         id="feMorphology4393-1-0-49-8-9-3-0-1-36-5" />
      <feComposite
         result="fbSourceGraphic"
         operator="over"
         in="SourceGraphic"
         in2="result3"
         id="feComposite4385-9-5-7-0-8-8-7-5-1-3" />
      <feColorMatrix
         id="feColorMatrix4544-9-0-5"
         values="0 0 0 -1 0 0 0 0 -1 0 0 0 0 -1 0 0 0 0 1 0"
         in="fbSourceGraphic"
         result="fbSourceGraphicAlpha" />
      <feTurbulence
         result="turbulence"
         baseFrequency="0 0"
         seed="174"
         numOctaves="5"
         type="fractalNoise"
         id="feTurbulence4546-3-63-6" />
      <feDisplacementMap
         result="fbSourceGraphic"
         xChannelSelector="R"
         yChannelSelector="G"
         scale="0"
         in="fbSourceGraphic"
         in2="turbulence"
         id="feDisplacementMap4548-8-2-2" />
      <feColorMatrix
         id="feColorMatrix4670-7-0-9"
         values="0 0 0 -1 0 0 0 0 -1 0 0 0 0 -1 0 0 0 0 1 0"
         in="fbSourceGraphic"
         result="fbSourceGraphicAlpha" />
      <feFlood
         stdDeviation="2.7999999999999998"
         in="fbSourceGraphic"
         result="flood"
         flood-color="rgb(255,255,255)"
         flood-opacity="1"
         id="feFlood4672-4-6-1" />
      <feComposite
         result="composite1"
         operator="in"
         in="flood"
         in2="fbSourceGraphic"
         id="feComposite4674-8-1-2" />
      <feGaussianBlur
         result="blur"
         stdDeviation="0.01"
         in="composite1"
         id="feGaussianBlur4676-3-5-7" />
      <feOffset
         stdDeviation="4.7000000000000002"
         result="offset"
         dy="0"
         dx="0"
         id="feOffset4678-6-5-0" />
      <feComposite
         result="composite2"
         operator="over"
         in="fbSourceGraphic"
         in2="offset"
         id="feComposite4680-4-47-9" />
    </filter>
    <linearGradient
       gradientUnits="userSpaceOnUse"
       y2="414.89822"
       x2="1292.6337"
       y1="356.86307"
       x1="1294.5955"
       id="linearGradient4203-3"
       xlink:href="#linearGradient4197"
       inkscape:collect="always" />
    <filter
       inkscape:label="Score-style"
       id="filter4375-4-1-1-1-9-5-8-8-8-6"
       style="color-interpolation-filters:sRGB">
      <feFlood
         result="flood"
         flood-color="rgb(210,55,0)"
         flood-opacity="1"
         id="feFlood4377-7-9-0-8-1-7-3-1-45-2" />
      <feComposite
         baseFrequency="0.053999999999999999 0.053999999999999999"
         result="composite1"
         operator="in"
         in="flood"
         in2="SourceGraphic"
         id="feComposite4379-3-8-8-2-77-4-1-0-0-6" />
      <feMorphology
         result="result3"
         radius="3.7999999999999998"
         operator="dilate"
         id="feMorphology4393-1-0-49-8-9-3-0-1-36-1" />
      <feComposite
         result="fbSourceGraphic"
         operator="over"
         in="SourceGraphic"
         in2="result3"
         id="feComposite4385-9-5-7-0-8-8-7-5-1-8" />
      <feColorMatrix
         id="feColorMatrix4544-9-0-7"
         values="0 0 0 -1 0 0 0 0 -1 0 0 0 0 -1 0 0 0 0 1 0"
         in="fbSourceGraphic"
         result="fbSourceGraphicAlpha" />
      <feTurbulence
         result="turbulence"
         baseFrequency="0 0"
         seed="174"
         numOctaves="5"
         type="fractalNoise"
         id="feTurbulence4546-3-63-9" />
      <feDisplacementMap
         result="fbSourceGraphic"
         xChannelSelector="R"
         yChannelSelector="G"
         scale="0"
         in="fbSourceGraphic"
         in2="turbulence"
         id="feDisplacementMap4548-8-2-20" />
      <feColorMatrix
         id="feColorMatrix4670-7-0-2"
         values="0 0 0 -1 0 0 0 0 -1 0 0 0 0 -1 0 0 0 0 1 0"
         in="fbSourceGraphic"
         result="fbSourceGraphicAlpha" />
      <feFlood
         stdDeviation="2.7999999999999998"
         in="fbSourceGraphic"
         result="flood"
         flood-color="rgb(255,255,255)"
         flood-opacity="1"
         id="feFlood4672-4-6-3" />
      <feComposite
         result="composite1"
         operator="in"
         in="flood"
         in2="fbSourceGraphic"
         id="feComposite4674-8-1-7" />
      <feGaussianBlur
         result="blur"
         stdDeviation="0.01"
         in="composite1"
         id="feGaussianBlur4676-3-5-5" />
      <feOffset
         stdDeviation="4.7000000000000002"
         result="offset"
         dy="0"
         dx="0"
         id="feOffset4678-6-5-9" />
      <feComposite
         result="composite2"
         operator="over"
         in="fbSourceGraphic"
         in2="offset"
         id="feComposite4680-4-47-2" />
    </filter>
    <linearGradient
       gradientUnits="userSpaceOnUse"
       y2="414.89822"
       x2="1292.6337"
       y1="356.86307"
       x1="1294.5955"
       id="linearGradient4402"
       xlink:href="#linearGradient4197"
       inkscape:collect="always" />
    <linearGradient
       gradientUnits="userSpaceOnUse"
       y2="414.89822"
       x2="1292.6337"
       y1="356.86307"
       x1="1294.5955"
       id="linearGradient4410"
       xlink:href="#linearGradient4197"
       inkscape:collect="always" />
    <filter
       inkscape:label="deevad outline effect"
       id="filter4375-4-1-1-1-9-6-9-2-1-7"
       style="color-interpolation-filters:sRGB">
      <feFlood
         result="flood"
         flood-color="rgb(0,0,0)"
         flood-opacity="1"
         id="feFlood4377-7-9-0-8-1-0-2-2-06-3" />
      <feComposite
         result="composite1"
         operator="in"
         in="flood"
         in2="SourceGraphic"
         id="feComposite4379-3-8-8-2-77-6-0-8-3-6" />
      <feMorphology
         result="result3"
         radius="4"
         operator="dilate"
         id="feMorphology4393-1-0-49-8-9-2-2-9-2-1" />
      <feComposite
         result="composite2"
         operator="over"
         in="SourceGraphic"
         in2="result3"
         id="feComposite4385-9-5-7-0-8-6-3-7-0-2" />
    </filter>
    <filter
       inkscape:label="deevad outline effect"
       id="filter4375-4-1-1-1-9-6-9-2-1-7-1"
       style="color-interpolation-filters:sRGB">
      <feFlood
         result="flood"
         flood-color="rgb(0,0,0)"
         flood-opacity="1"
         id="feFlood4377-7-9-0-8-1-0-2-2-06-3-9" />
      <feComposite
         result="composite1"
         operator="in"
         in="flood"
         in2="SourceGraphic"
         id="feComposite4379-3-8-8-2-77-6-0-8-3-6-4" />
      <feMorphology
         result="result3"
         radius="4"
         operator="dilate"
         id="feMorphology4393-1-0-49-8-9-2-2-9-2-1-7" />
      <feComposite
         result="composite2"
         operator="over"
         in="SourceGraphic"
         in2="result3"
         id="feComposite4385-9-5-7-0-8-6-3-7-0-2-8" />
    </filter>
    <radialGradient
       gradientUnits="userSpaceOnUse"
       gradientTransform="matrix(1,0,0,0.11122065,0,160.66102)"
       r="544.37616"
       fy="180.76592"
       fx="654.19264"
       cy="180.76592"
       cx="654.19264"
       id="radialGradient4552"
       xlink:href="#linearGradient4546"
       inkscape:collect="always" />
    <radialGradient
       gradientUnits="userSpaceOnUse"
       gradientTransform="matrix(1,0,0,0.10216258,0,159.26524)"
       r="549.30536"
       fy="177.3876"
       fx="678.74664"
       cy="177.3876"
       cx="678.74664"
       id="radialGradient4560"
       xlink:href="#linearGradient4546"
       inkscape:collect="always" />
    <linearGradient
       gradientUnits="userSpaceOnUse"
       y2="1552.0063"
       x2="1186.035"
       y1="1552.0063"
       x1="754.64325"
       id="linearGradient4294"
       xlink:href="#linearGradient4546"
       inkscape:collect="always" />
    <filter
       inkscape:label="soundFX-Kraken"
       id="filter4375-4-1-1-1-9-5-8-8-5"
       style="color-interpolation-filters:sRGB">
      <feFlood
         result="flood"
         flood-color="rgb(243,227,152)"
         flood-opacity="1"
         id="feFlood4377-7-9-0-8-1-7-3-1-2" />
      <feComposite
         baseFrequency="0.053999999999999999 0.053999999999999999"
         result="composite1"
         operator="in"
         in="flood"
         in2="SourceGraphic"
         id="feComposite4379-3-8-8-2-77-4-1-0-6" />
      <feMorphology
         result="result3"
         radius="6.2000000000000002"
         operator="dilate"
         id="feMorphology4393-1-0-49-8-9-3-0-1-9" />
      <feComposite
         result="fbSourceGraphic"
         operator="over"
         in="SourceGraphic"
         in2="result3"
         id="feComposite4385-9-5-7-0-8-8-7-5-4" />
      <feColorMatrix
         id="feColorMatrix4544-9-4"
         values="0 0 0 -1 0 0 0 0 -1 0 0 0 0 -1 0 0 0 0 1 0"
         in="fbSourceGraphic"
         result="fbSourceGraphicAlpha" />
      <feTurbulence
         result="turbulence"
         baseFrequency="0.053999999999999999 0.054054054054054057"
         seed="174"
         numOctaves="5"
         type="fractalNoise"
         id="feTurbulence4546-3-6-0" />
      <feDisplacementMap
         result="fbSourceGraphic"
         xChannelSelector="R"
         yChannelSelector="G"
         scale="6.6"
         in="fbSourceGraphic"
         in2="turbulence"
         id="feDisplacementMap4548-8-0-3" />
      <feColorMatrix
         id="feColorMatrix4670-7-7"
         values="0 0 0 -1 0 0 0 0 -1 0 0 0 0 -1 0 0 0 0 1 0"
         in="fbSourceGraphic"
         result="fbSourceGraphicAlpha" />
      <feFlood
         in="fbSourceGraphic"
         result="flood"
         flood-color="rgb(175,144,94)"
         flood-opacity="1"
         id="feFlood4672-4-4" />
      <feComposite
         result="composite1"
         operator="in"
         in="flood"
         in2="fbSourceGraphic"
         id="feComposite4674-8-3" />
      <feGaussianBlur
         result="blur"
         stdDeviation="0"
         in="composite1"
         id="feGaussianBlur4676-3-7" />
      <feOffset
         result="offset"
         dy="6"
         dx="6"
         id="feOffset4678-6-9" />
      <feComposite
         result="composite2"
         operator="over"
         in="fbSourceGraphic"
         in2="offset"
         id="feComposite4680-4-0" />
    </filter>
    <filter
       inkscape:label="deevad outline effect"
       id="filter4375-4-1-1-1-9-6-9-2-1-7-6"
       style="color-interpolation-filters:sRGB">
      <feFlood
         result="flood"
         flood-color="rgb(0,0,0)"
         flood-opacity="1"
         id="feFlood4377-7-9-0-8-1-0-2-2-06-3-1" />
      <feComposite
         result="composite1"
         operator="in"
         in="flood"
         in2="SourceGraphic"
         id="feComposite4379-3-8-8-2-77-6-0-8-3-6-0" />
      <feMorphology
         result="result3"
         radius="4"
         operator="dilate"
         id="feMorphology4393-1-0-49-8-9-2-2-9-2-1-6" />
      <feComposite
         result="composite2"
         operator="over"
         in="SourceGraphic"
         in2="result3"
         id="feComposite4385-9-5-7-0-8-6-3-7-0-2-3" />
    </filter>
    <filter
       inkscape:label="deevad outline effect"
       id="filter4375-4-1-1-1-9-6-9-2-1-7-1-6"
       style="color-interpolation-filters:sRGB">
      <feFlood
         result="flood"
         flood-color="rgb(0,0,0)"
         flood-opacity="1"
         id="feFlood4377-7-9-0-8-1-0-2-2-06-3-9-1" />
      <feComposite
         result="composite1"
         operator="in"
         in="flood"
         in2="SourceGraphic"
         id="feComposite4379-3-8-8-2-77-6-0-8-3-6-4-5" />
      <feMorphology
         result="result3"
         radius="4"
         operator="dilate"
         id="feMorphology4393-1-0-49-8-9-2-2-9-2-1-7-5" />
      <feComposite
         result="composite2"
         operator="over"
         in="SourceGraphic"
         in2="result3"
         id="feComposite4385-9-5-7-0-8-6-3-7-0-2-8-4" />
    </filter>
    <filter
       inkscape:label="deevad outline effect"
       id="filter4375-4-1-1-1-9-6-9-2-1-7-5"
       style="color-interpolation-filters:sRGB">
      <feFlood
         result="flood"
         flood-color="rgb(0,0,0)"
         flood-opacity="1"
         id="feFlood4377-7-9-0-8-1-0-2-2-06-3-6" />
      <feComposite
         result="composite1"
         operator="in"
         in="flood"
         in2="SourceGraphic"
         id="feComposite4379-3-8-8-2-77-6-0-8-3-6-9" />
      <feMorphology
         result="result3"
         radius="4"
         operator="dilate"
         id="feMorphology4393-1-0-49-8-9-2-2-9-2-1-3" />
      <feComposite
         result="composite2"
         operator="over"
         in="SourceGraphic"
         in2="result3"
         id="feComposite4385-9-5-7-0-8-6-3-7-0-2-7" />
    </filter>
    <filter
       inkscape:label="deevad outline effect"
       id="filter4375-4-1-1-1-9-6-9-2-1-5"
       style="color-interpolation-filters:sRGB">
      <feFlood
         result="flood"
         flood-color="rgb(0,0,0)"
         flood-opacity="1"
         id="feFlood4377-7-9-0-8-1-0-2-2-06-4" />
      <feComposite
         result="composite1"
         operator="in"
         in="flood"
         in2="SourceGraphic"
         id="feComposite4379-3-8-8-2-77-6-0-8-3-7" />
      <feMorphology
         result="result3"
         radius="4"
         operator="dilate"
         id="feMorphology4393-1-0-49-8-9-2-2-9-2-4" />
      <feComposite
         result="composite2"
         operator="over"
         in="SourceGraphic"
         in2="result3"
         id="feComposite4385-9-5-7-0-8-6-3-7-0-4" />
    </filter>
    <filter
       inkscape:label="deevad outline effect"
       id="filter4375-4-1-1-1-9-6-9-2-1-7-6-3"
       style="color-interpolation-filters:sRGB">
      <feFlood
         result="flood"
         flood-color="rgb(0,0,0)"
         flood-opacity="1"
         id="feFlood4377-7-9-0-8-1-0-2-2-06-3-1-6" />
      <feComposite
         result="composite1"
         operator="in"
         in="flood"
         in2="SourceGraphic"
         id="feComposite4379-3-8-8-2-77-6-0-8-3-6-0-7" />
      <feMorphology
         result="result3"
         radius="4"
         operator="dilate"
         id="feMorphology4393-1-0-49-8-9-2-2-9-2-1-6-5" />
      <feComposite
         result="composite2"
         operator="over"
         in="SourceGraphic"
         in2="result3"
         id="feComposite4385-9-5-7-0-8-6-3-7-0-2-3-3" />
    </filter>
    <filter
       inkscape:label="deevad outline effect"
       id="filter4375-4-1-1-1-9-6-9-2-1-7-1-6-2"
       style="color-interpolation-filters:sRGB">
      <feFlood
         result="flood"
         flood-color="rgb(0,0,0)"
         flood-opacity="1"
         id="feFlood4377-7-9-0-8-1-0-2-2-06-3-9-1-9" />
      <feComposite
         result="composite1"
         operator="in"
         in="flood"
         in2="SourceGraphic"
         id="feComposite4379-3-8-8-2-77-6-0-8-3-6-4-5-1" />
      <feMorphology
         result="result3"
         radius="4"
         operator="dilate"
         id="feMorphology4393-1-0-49-8-9-2-2-9-2-1-7-5-2" />
      <feComposite
         result="composite2"
         operator="over"
         in="SourceGraphic"
         in2="result3"
         id="feComposite4385-9-5-7-0-8-6-3-7-0-2-8-4-7" />
    </filter>
    <filter
       inkscape:label="deevad outline effect"
       id="filter4375-4-1-1-1-9-6-9-2-1-7-6-3-3"
       style="color-interpolation-filters:sRGB">
      <feFlood
         result="flood"
         flood-color="rgb(0,0,0)"
         flood-opacity="1"
         id="feFlood4377-7-9-0-8-1-0-2-2-06-3-1-6-6" />
      <feComposite
         result="composite1"
         operator="in"
         in="flood"
         in2="SourceGraphic"
         id="feComposite4379-3-8-8-2-77-6-0-8-3-6-0-7-0" />
      <feMorphology
         result="result3"
         radius="4"
         operator="dilate"
         id="feMorphology4393-1-0-49-8-9-2-2-9-2-1-6-5-6" />
      <feComposite
         result="composite2"
         operator="over"
         in="SourceGraphic"
         in2="result3"
         id="feComposite4385-9-5-7-0-8-6-3-7-0-2-3-3-2" />
    </filter>
  </defs>
  <sodipodi:namedview
     inkscape:current-layer="layer1"
     inkscape:window-maximized="1"
     inkscape:window-y="26"
     inkscape:window-x="0"
     inkscape:cy="2984.0226"
     inkscape:cx="1109.9332"
     inkscape:zoom="0.33118508"
     showgrid="false"
     id="namedview4"
     inkscape:window-height="1025"
     inkscape:window-width="1920"
     inkscape:pageshadow="2"
     inkscape:pageopacity="0"
     guidetolerance="10"
     gridtolerance="10"
     objecttolerance="10"
     borderopacity="1"
     bordercolor="#666666"
     pagecolor="#ffffff" />
  <g
     sodipodi:insensitive="true"
     inkscape:label="artwork"
     id="layer2"
     inkscape:groupmode="layer">
    <image
       sodipodi:absref="C:\Users\stero\Documents\Kernewek\Pepper and Carrot\webcomics\ep22_The-Voting-System\lang\gfx_Pepper-and-Carrot_by-David-Revoy_E22P06.png"
       xlink:href="../gfx_Pepper-and-Carrot_by-David-Revoy_E22P06.png"
       width="2481"
       height="3503"
       id="image10"
       x="0"
       y="0" />
  </g>
  <g
     inkscape:label="speechbubbles"
     id="layer3"
     inkscape:groupmode="layer">
    <path
       inkscape:connector-curvature="0"
       id="path4667"
       d="m 2082.5244,1106.2004 c -49.5644,6.792 -98.9933,14.6952 -148.7699,19.8383 8.3969,7.7366 16.794,15.4729 25.191,23.2095 -23.2715,7.5492 -47.5525,11.7753 -71.9685,13.0699 -9.8022,0.7149 -19.6149,1.4443 -29.3441,2.8732 5.5496,7.841 11.0993,15.6822 16.6489,23.5232 40.362,-5.1289 80.7161,-12.7936 118.7949,-27.4799 -9.2243,-9.0788 -18.4485,-18.1573 -27.6727,-27.236 39.789,-5.8392 78.0817,-18.5609 117.1204,-27.7982 z"
       style="fill:#fffbdc;fill-opacity:1;fill-rule:evenodd;stroke:none;stroke-width:1px;stroke-linecap:butt;stroke-linejoin:miter;stroke-opacity:1" />
    <path
       inkscape:connector-curvature="0"
       id="path4496"
       d="m 1026.7912,1065.8189 c -13.972,11.3523 -28.67848,23.0046 -37.06438,39.337 -2.2861,4.6934 -4.32524,9.7091 -4.92594,14.8968 0.5776,5.5346 5.21664,9.6174 10.31494,11.1669 7.20598,2.7534 15.92118,2.6524 21.72488,8.3175 4.1247,4.2262 3.0845,10.4634 2.6743,15.7683 -1.3108,13.5012 -4.458,26.9039 -3.6079,40.545 -0.041,15.4205 1.0337,31.6492 8.8771,45.3214 3.1941,5.3578 7.2847,10.5159 13.0751,13.1892 14.5433,7.5315 33.6212,6.8284 46.7267,-3.3879 7.7413,-7.3103 8.7991,-21.2603 0.7369,-28.7248 -4.1968,-4.0039 -10.4189,-4.5285 -15.8408,-3.379 -10.3614,0.2507 -20.2435,-5.5478 -25.8813,-14.1038 -4.7682,-6.9849 -7.2939,-15.3946 -7.594,-23.8201 -3.4335,-11.3499 1.3715,-22.7628 3.5114,-33.8519 0.9021,-5.0807 1.5175,-10.5463 -0.11,-15.5125 -4.0054,-6.5294 -12.1667,-8.0114 -19.2156,-8.4684 -7.2577,-0.6586 -15.7509,-0.6026 -21.04548,-6.4488 -4.2204,-3.5623 -0.8235,-9.1073 0.045,-13.4558 4.62308,-13.6368 13.44638,-25.6553 24.20098,-35.1054 1.0918,-0.8238 2.2426,-1.5546 3.3984,-2.2837 z"
       style="color:#000000;display:inline;overflow:visible;visibility:visible;fill:#fffbdd;fill-opacity:1;fill-rule:nonzero;stroke:none;stroke-width:1px;marker:none;enable-background:accumulate" />
    <path
       sodipodi:nodetypes="ccscc"
       inkscape:connector-curvature="0"
       id="path4064"
       d="m 998.57835,2699.741 c -18.11058,32.9889 -42.55588,74.2017 -130.45463,75.3298 3.16242,1.4167 109.37636,9.5202 156.34138,-47.7118 68.8673,-83.9224 63.6805,-107.3184 63.6805,-107.3184 z"
       style="color:#000000;display:inline;overflow:visible;visibility:visible;fill:#ffffff;fill-opacity:1;fill-rule:nonzero;stroke:none;stroke-width:1px;marker:none;enable-background:accumulate" />
    <path
       sodipodi:nodetypes="zsssssssz"
       inkscape:connector-curvature="0"
       id="path3373"
       d="m 951.00762,2611.7072 c -1.82721,-52.7442 11.96768,-86.5426 91.19948,-115.0615 74.5152,-26.8213 150.7178,-20.1367 209.0061,-17.2481 54.2938,2.6907 109.9609,1.0028 174.0591,43.0211 39.9959,26.2185 63.8824,64.4376 60.6045,101.9768 -3.5761,40.9543 1.9976,84.5006 -43.376,107.8698 -65.2129,33.5872 -265.7973,23.1075 -305.1277,21.5282 -51.7118,-2.0765 -106.0507,-14.0316 -133.3791,-36.598 -32.67664,-26.9827 -51.15937,-52.7441 -52.98638,-105.4883 z"
       style="color:#000000;display:inline;overflow:visible;visibility:visible;fill:#ffffff;fill-opacity:1;fill-rule:nonzero;stroke:none;stroke-width:1px;marker:none;enable-background:accumulate" />
    <path
       sodipodi:nodetypes="cccccccccc"
       inkscape:connector-curvature="0"
       id="path4230"
       d="m 1170.0855,2142.6148 1.5347,-74.0217 1.0972,-33.4302 15.1052,3.4822 c 0,0 11.6887,-96.1189 15.5481,-138.7593 -0.3194,24.7561 -3.9965,156.6802 -3.9965,156.6802 l -14.3147,1.8172 1.1424,56.8143 7.3473,16.2331 c -5.1555,40.2332 -15.9615,97.7133 -23.4637,11.1842 z"
       style="fill:#ffffff;fill-rule:evenodd;stroke:none;stroke-width:1px;stroke-linecap:butt;stroke-linejoin:miter;stroke-opacity:1" />
    <path
       sodipodi:nodetypes="ccccccccccccccccccccccccccc"
       inkscape:connector-curvature="0"
       id="path3549"
       d="m 932.7259,2140.051 c 31.27597,10.0096 63.15915,19.8838 9.22577,48.9003 51.90059,-8.4642 20.54028,7.6285 8.11845,18.1355 92.42828,-22.5411 33.47562,11.5149 11.32565,31.8115 21.17731,-8.8961 80.69363,-57.0891 45.54663,-6.4824 39.0101,-35.7163 38.4599,-23.6846 31.7075,3.1777 11.3186,-15.8194 21.6008,-29.935 13.5144,-1.6592 10.2987,-16.0436 20.8819,-33.3891 35.6557,-8.7827 6.7093,-11.2635 14.8963,-13.4432 26.5865,3.2448 16.7069,-20.0366 20.1429,-13.0789 27.2988,-0.442 5.7797,-21.2467 41.2039,-22.4104 51.1961,-3.4315 0.1044,-25.4949 28.4753,-13.8256 69.3502,0.7119 -18.2713,-13.2225 10.824,-20.0245 42.3893,-10.2667 -19.974,-17.3964 4.9035,-15.2558 32.8488,-11.3309 -20.6863,-9.3335 -21.9344,-14.9188 25.3901,-11.1384 -33.1503,-7.2248 -63.723,-14.5161 -13.0769,-23.9041 -12.0453,-2.8971 -50.7679,5.6491 -9.3623,-33.8277 -30.0779,9.2534 -57.5805,12.1658 -67.2999,-21.8492 -24.6204,17.4862 -49.6708,29.0697 -49.0809,-5.94 -22.3541,36.7127 -17.2265,12.7169 -24.7279,2.3189 -2.1821,10.6697 -36.8177,28.7812 -64.1004,-0.026 6.3562,16.6095 2.9624,43.4139 -29.1812,0.098 -0.33,7.6878 13.7545,49.0862 -73.2562,1.2358 11.8376,33.3052 -17.1571,14.4966 -39.91259,3.6511 11.83809,20.7675 -4.77886,22.8261 -41.66404,11.5585 28.8349,19.2648 -0.27298,14.4918 -18.49157,14.2363 z"
       style="color:#000000;display:inline;overflow:visible;visibility:visible;fill:#ffffff;fill-opacity:1;fill-rule:nonzero;stroke:none;stroke-width:1.17086px;marker:none;enable-background:accumulate" />
    <path
       inkscape:connector-curvature="0"
       id="path4456-8"
       d="m 834.01101,1760.1401 c -31.72549,-21.6006 -34.15669,-39.6087 -37.06983,-52.4078 3.11714,-1.8969 8.05908,-6.4842 8.05908,-6.4842 0,0 -7.70161,-24.6325 -8.00481,-34.9819 -0.3032,-10.3492 10.46694,-10.934 10.46694,-10.934 0,0 15.98622,47.5057 21.96595,56.683 -8.74314,4.7938 -12.44327,8.45 -16.24448,8.6563 -0.40613,7.7964 9.80434,31.4289 20.82715,39.4686 z"
       style="color:#000000;display:inline;overflow:visible;visibility:visible;fill:#ffffff;fill-opacity:1;fill-rule:nonzero;stroke:none;stroke-width:1px;marker:none;enable-background:accumulate" />
    <path
       transform="matrix(0.09931213,-0.21370155,4.3329587,0.00454022,904.25452,1304.7021)"
       sodipodi:nodetypes="cssssscc"
       inkscape:connector-curvature="0"
       id="path3986-3-0"
       d="m 262.0114,208.63346 c -35.48977,-11.8529 -54.02759,-26.1605 -30.55267,-38.85187 23.47491,-12.69136 113.19042,-24.77619 158.27354,-28.01661 84.1072,-6.04532 610.40713,-15.66699 648.60633,-8.72926 64.4396,11.7035 87.957,13.44299 97.1891,33.50327 5.212,11.32491 -9.1743,26.62193 -75.7834,35.59355 -66.60906,8.97162 -227.84487,17.33156 -320.44413,21.35707 -283.76843,2.36127 -433.28322,-1.35102 -477.28877,-14.85615 z"
       style="color:#000000;display:inline;overflow:visible;visibility:visible;fill:url(#radialGradient4560);fill-opacity:1;fill-rule:nonzero;stroke:none;stroke-width:1px;marker:none;filter:url(#filter4265-7-0);enable-background:accumulate" />
    <rect
       rx="40"
       ry="40"
       y="154.66127"
       x="204.65326"
       height="195.11687"
       width="558.61505"
       id="rect4632-8-6-1-3-6-7"
       style="color:#000000;clip-rule:nonzero;display:inline;overflow:visible;visibility:visible;opacity:1;isolation:auto;mix-blend-mode:normal;color-interpolation:sRGB;color-interpolation-filters:linearRGB;solid-color:#000000;solid-opacity:1;fill:#fff6d5;fill-opacity:1;fill-rule:nonzero;stroke:none;stroke-width:2.5999999;stroke-linecap:butt;stroke-linejoin:miter;stroke-miterlimit:4;stroke-dasharray:none;stroke-dashoffset:0;stroke-opacity:1;marker:none;color-rendering:auto;image-rendering:auto;shape-rendering:auto;text-rendering:auto;enable-background:accumulate" />
    <path
       inkscape:transform-center-y="26.525964"
       inkscape:transform-center-x="-6.523784"
       sodipodi:nodetypes="cccscccc"
       inkscape:connector-curvature="0"
       id="path4456"
       d="m 165.63052,127.12294 c -2.26649,25.82279 8.71397,36.08371 14.2253,40.40328 2.26971,-1.03908 11.47004,-18.18406 11.47004,-18.18406 0,0 12.95776,37.68521 23.50024,40.17102 6.21214,1.46471 19.02856,-17.33036 19.02856,-17.33036 -2.13689,2.99903 -40.07366,-34.078 -39.73148,-43.84826 -6.26809,3.57883 -13.69909,17.63759 -15.46656,19.53988 -7.08112,-0.99516 -14.19625,-12.57886 -13.0261,-20.7515 z"
       style="color:#000000;display:inline;overflow:visible;visibility:visible;fill:#fff6d5;fill-opacity:1;fill-rule:nonzero;stroke:none;stroke-width:1px;marker:none;enable-background:accumulate" />
    <path
       transform="matrix(0.06023752,-0.1763248,2.6281452,0.00374612,562.31086,1413.756)"
       sodipodi:nodetypes="cssssssc"
       inkscape:connector-curvature="0"
       id="path3986-3"
       d="m 213.49778,207.92788 c -35.48977,-11.8529 10.70226,-23.10032 34.17718,-35.79169 23.47491,-12.69136 24.23271,-26.82668 69.31583,-30.0671 84.1072,-6.04532 696.79851,-21.84774 735.54961,-2.24684 38.751,19.601 53.3013,7.11522 55.2886,46.31702 1.9872,39.2018 -280.09703,40.15044 -368.52883,37.35034 -88.4319,-2.8002 -256.32624,12.81654 -340.37668,5.98599 -88.6791,-7.20671 -147.99848,-0.19474 -185.42571,-21.54772 z"
       style="color:#000000;display:inline;overflow:visible;visibility:visible;fill:url(#radialGradient4552);fill-opacity:1;fill-rule:nonzero;stroke:none;stroke-width:1px;marker:none;filter:url(#filter4265-7);enable-background:accumulate" />
    <path
       sodipodi:nodetypes="ccccccccccccccc"
       inkscape:connector-curvature="0"
       id="path3549-3"
       d="m 755.75493,1706.3502 c 4.71801,-4.677 25.10847,-18.3882 22.10929,-1.3929 32.75968,-19.6102 55.6107,-9.5094 79.02487,-1.0974 8.11438,-6.0745 11.31497,-16.2186 31.89745,-11.9674 -1.40254,-6.8505 6.79581,-10.7538 23.56099,-12.0276 -20.48625,-5.863 -23.44491,-10.3144 17.39467,-11.2386 -30.17768,-3.0867 -58.22428,-6.446 -19.12628,-18.3959 -11.05839,-1.3434 -40.48209,8.9097 -19.42587,-26.8073 -21.95821,10.0978 -43.93942,14.8037 -63.72824,-12.1261 -10.19182,9.0519 -23.53134,14.5968 -43.04799,-0.6889 -7.1424,9.2459 -34.68733,7.6438 -44.28816,4.7938 17.7268,12.6017 15.4357,19.2612 -12.36387,17.8853 41.58047,23.5576 4.51926,17.3017 -4.10096,21.5922 34.6858,9.9062 16.4725,16.8324 8.03885,24.5906 41.63207,3.9481 24.81851,16.0971 24.05525,26.8802 z"
       style="color:#000000;display:inline;overflow:visible;visibility:visible;fill:#ffffff;fill-opacity:1;fill-rule:nonzero;stroke:none;stroke-width:1px;marker:none;enable-background:accumulate" />
    <path
       sodipodi:nodetypes="ccccccccccccccc"
       inkscape:connector-curvature="0"
       id="path3549-3-0"
       d="m 348.86252,1895.4334 c -6.13885,10.3972 -89.0034,97.6042 -76.91643,51.5251 -33.09527,34.7226 -43.50091,27.5251 -62.14192,-0.4761 -0.49201,23.9419 -6.92714,36.6459 -32.44055,23.1816 11.47674,11.2807 11.35043,28.0018 -18.75016,24.4279 21.03136,3.4269 24.49032,7.5017 -15.9609,13.1959 30.33159,-0.4639 58.5786,-0.4078 21.14649,16.0328 11.13962,0.041 39.16225,-13.5831 22.42778,24.3514 20.62655,-12.5966 41.90653,-19.841 64.70909,4.5896 9.06323,-10.1818 21.66269,-17.2487 42.83313,-4.3504 6.01205,-10.0179 33.55531,-11.6482 43.42359,-9.9407 -19.07897,-10.442 -17.58245,-17.3237 10.18725,-19.2085 -44.05026,-18.533 -6.51174,-16.6545 1.54753,-21.9237 -35.60633,-5.7816 -18.32808,-14.7903 -10.85966,-23.4816 -79.73537,25.4892 4.82605,-62.9374 10.79476,-77.9233 z"
       style="color:#000000;display:inline;overflow:visible;visibility:visible;fill:#ffffff;fill-opacity:1;fill-rule:nonzero;stroke:none;stroke-width:1px;marker:none;enable-background:accumulate" />
    <rect
       rx="40"
       ry="40"
       y="2333.5691"
       x="1703.0493"
       height="251.67365"
       width="629.32043"
       id="rect4632-8-6-1-3-6-7-1"
       style="color:#000000;clip-rule:nonzero;display:inline;overflow:visible;visibility:visible;opacity:1;isolation:auto;mix-blend-mode:normal;color-interpolation:sRGB;color-interpolation-filters:linearRGB;solid-color:#000000;solid-opacity:1;fill:#fff6d5;fill-opacity:1;fill-rule:nonzero;stroke:none;stroke-width:2.5999999;stroke-linecap:butt;stroke-linejoin:miter;stroke-miterlimit:4;stroke-dasharray:none;stroke-dashoffset:0;stroke-opacity:1;marker:none;color-rendering:auto;image-rendering:auto;shape-rendering:auto;text-rendering:auto;enable-background:accumulate" />
    <path
       inkscape:transform-center-y="25.198843"
       inkscape:transform-center-x="-41.34282"
       sodipodi:nodetypes="cccscccc"
       inkscape:connector-curvature="0"
       id="path4456-4"
       d="m 1644.1218,2330.2702 c 38.9835,14.2625 44.2392,25.4117 52.393,40.1253 -2.8585,2.2491 -19.8483,9.4822 -19.8483,9.4822 0,0 74.1053,55.2391 71.4861,70.557 -1.5435,9.0261 -15.6077,40.8471 -15.6077,40.8471 5.637,-0.7716 -65.7448,-110.7362 -80.1892,-116.8005 10.2087,-3.1786 20.3381,-8.7761 24.1575,-9.7993 2.7425,-9.8394 -19.7853,-30.4847 -32.3914,-34.4118 z"
       style="color:#000000;display:inline;overflow:visible;visibility:visible;fill:#fff6d5;fill-opacity:1;fill-rule:nonzero;stroke:none;stroke-width:1px;marker:none;enable-background:accumulate" />
  </g>
  <g
     inkscape:label="txt"
     id="layer1"
     inkscape:groupmode="layer">
    <text
       id="text4246-2-3-1-3-9-9"
       y="210.75658"
       x="485.89062"
       style="font-style:normal;font-variant:normal;font-weight:normal;font-stretch:normal;line-height:0%;font-family:Lavi;-inkscape-font-specification:Lavi;text-align:center;letter-spacing:0px;word-spacing:0px;text-anchor:middle;display:inline;fill:#000000;fill-opacity:1;stroke:none"
       xml:space="preserve"><tspan
         id="tspan4449"
         y="210.75658"
         x="485.89062"
         style="font-size:45px;line-height:1.25"
         sodipodi:role="line">Camomile a gyv </tspan><tspan
         id="tspan323"
         y="267.00659"
         x="485.89062"
         style="font-size:45px;line-height:1.25"
         sodipodi:role="line">sommen fest da! </tspan><tspan
         id="tspan325"
         y="323.25659"
         x="485.89062"
         style="font-size:45px;line-height:1.25"
         sodipodi:role="line">Tro Shichimi yw lemmyn!</tspan></text>
    <text
       transform="matrix(1.6804587,0,0,1.6667549,-1664.1309,-160.33991)"
       id="text4246-3-8-2"
       y="286.89603"
       x="1276.0023"
       style="font-style:normal;font-variant:normal;font-weight:normal;font-stretch:normal;line-height:0%;font-family:Lavi;-inkscape-font-specification:Lavi;text-align:center;letter-spacing:0px;word-spacing:0px;text-anchor:middle;opacity:0.702;fill:url(#linearGradient4203-3);fill-opacity:1;stroke:#ffffff;stroke-width:2.68883;stroke-linecap:round;stroke-miterlimit:4;stroke-dasharray:none;stroke-opacity:1;filter:url(#filter4375-4-1-1-1-9-5-8-8-8-6)"
       xml:space="preserve"><tspan
         id="tspan4252-5-6-8"
         y="286.89603"
         x="1304.9219"
         style="font-style:normal;font-variant:normal;font-weight:normal;font-stretch:normal;font-size:91.2551px;line-height:1.25;font-family:Fondamento;-inkscape-font-specification:Fondamento;letter-spacing:17.78px;fill:url(#linearGradient4203-3);fill-opacity:1;stroke:#ffffff;stroke-width:2.68883;stroke-linecap:round;stroke-miterlimit:4;stroke-dasharray:none;stroke-opacity:1"
         sodipodi:role="line"> </tspan><tspan
         id="tspan5535-8-9"
         y="407.63681"
         x="1280.4836"
         style="font-style:normal;font-variant:normal;font-weight:normal;font-stretch:normal;font-size:91.2551px;line-height:1.25;font-family:Combat;-inkscape-font-specification:Combat;letter-spacing:8.96275px;fill:url(#linearGradient4203-3);fill-opacity:1;stroke:#ffffff;stroke-width:2.68883;stroke-linecap:round;stroke-miterlimit:4;stroke-dasharray:none;stroke-opacity:1"
         sodipodi:role="line">5861</tspan></text>
    <use
       style="stroke:#ffffff;stroke-opacity:1;stroke-width:7.8859206;stroke-miterlimit:4;stroke-dasharray:none;fill:#ffffff;fill-opacity:1"
       height="100%"
       width="100%"
       transform="matrix(0.63079792,0,0,0.6472822,806.73729,518.69465)"
       id="use4300"
       xlink:href="#text4580-1-7-3-6"
       y="0"
       x="0" />
    <use
       height="100%"
       width="100%"
       transform="matrix(0.90187341,0,0,0.88205133,140.5335,190.97283)"
       id="use4302"
       xlink:href="#use4300"
       y="0"
       x="0" />
    <use
       height="100%"
       width="100%"
       transform="matrix(1.1804172,0,0,1.1342206,-768.88603,-150.6649)"
       id="use4304"
       xlink:href="#use4302"
       y="0"
       x="0" />
    <use
       height="100%"
       width="100%"
       transform="matrix(0.75763055,0,0,0.78553034,560.85604,316.25779)"
       id="use4306"
       xlink:href="#use4304"
       y="0"
       x="0" />
    <use
       height="100%"
       width="100%"
       transform="matrix(0.72733437,0,0,0.76170038,34.931813,239.34201)"
       id="use4308"
       xlink:href="#use4304"
       y="0"
       x="0" />
    <use
       height="100%"
       width="100%"
       transform="translate(-451.24998,14.750003)"
       id="use4310"
       xlink:href="#use4306"
       y="0"
       x="0" />
    <text
       id="text4246-2-3-1-3-9-9-3"
       y="1322.106"
       x="1079.8777"
       style="font-style:normal;font-variant:normal;font-weight:normal;font-stretch:normal;line-height:0%;font-family:Lavi;-inkscape-font-specification:Lavi;text-align:center;letter-spacing:0px;word-spacing:0px;text-anchor:middle;display:inline;fill:#8f5902;fill-opacity:1;stroke:none"
       xml:space="preserve"><tspan
         id="tspan4341-5"
         y="1322.106"
         x="1079.8777"
         style="font-style:normal;font-variant:normal;font-weight:normal;font-stretch:normal;font-size:73.8335px;line-height:1.25;font-family:'Drukaatie burti';-inkscape-font-specification:'Drukaatie burti';fill:#8f5902;fill-opacity:1"
         sodipodi:role="line">LUX…</tspan></text>
    <text
       transform="matrix(0.98074575,-0.82465511,0.10674066,1.2040962,1130.4954,-856.60582)"
       id="text4580-6-0-0-0"
       y="1584.5073"
       x="787.65729"
       style="font-style:normal;font-variant:normal;font-weight:normal;font-stretch:normal;line-height:0%;font-family:Lavi;-inkscape-font-specification:Lavi;letter-spacing:0px;word-spacing:0px;fill:url(#linearGradient4294);fill-opacity:1;stroke:none;stroke-width:0.763978;stroke-miterlimit:4;stroke-dasharray:none;stroke-opacity:0;filter:url(#filter4375-4-1-1-1-9-5-8-8-5)"
       xml:space="preserve"><tspan
         style="font-size:93.1495px;line-height:1.25;fill:url(#linearGradient4294);fill-opacity:1;stroke:none;stroke-width:0.763978;stroke-miterlimit:4;stroke-dasharray:none;stroke-opacity:0"
         y="1584.5073"
         x="787.65729"
         id="tspan4582-1-1-0-2"
         sodipodi:role="line">Fii<tspan
   id="tspan4630"
   style="font-size:70.7783px;fill:url(#linearGradient4294);fill-opacity:1">iiiii</tspan><tspan
   id="tspan4638"
   style="font-size:55.9281px;fill:url(#linearGradient4294);fill-opacity:1">zz!!</tspan></tspan></text>
    <text
       id="text4246-2-3-1-3-9-9-3-2"
       y="1183.5892"
       x="1745.0958"
       style="font-style:normal;font-variant:normal;font-weight:normal;font-stretch:normal;line-height:0%;font-family:Lavi;-inkscape-font-specification:Lavi;text-align:center;letter-spacing:0px;word-spacing:0px;text-anchor:middle;display:inline;fill:#8f5902;fill-opacity:1;stroke:none"
       xml:space="preserve"><tspan
         id="tspan4341-5-7"
         y="1183.5892"
         x="1745.0958"
         style="font-style:normal;font-variant:normal;font-weight:normal;font-stretch:normal;font-size:73.8335px;line-height:1.25;font-family:'Drukaatie burti';-inkscape-font-specification:'Drukaatie burti';fill:#8f5902;fill-opacity:1"
         sodipodi:role="line">MAXIMA!</tspan></text>
    <text
       id="text4246-2-3-1-3-9-9-6"
       y="1673.9493"
       x="819.75671"
       style="font-style:normal;font-variant:normal;font-weight:normal;font-stretch:normal;line-height:0%;font-family:Lavi;-inkscape-font-specification:Lavi;text-align:center;letter-spacing:0px;word-spacing:0px;text-anchor:middle;display:inline;fill:#000000;fill-opacity:1;stroke:none"
       xml:space="preserve"><tspan
         id="tspan4341-1"
         y="1673.9493"
         x="819.75671"
         style="font-size:45px;line-height:1.25"
         sodipodi:role="line">Agh!!</tspan></text>
    <text
       id="text4246-2-3-1-3-9-9-6-2"
       y="2020.4244"
       x="257.68674"
       style="font-style:normal;font-variant:normal;font-weight:normal;font-stretch:normal;line-height:0%;font-family:Lavi;-inkscape-font-specification:Lavi;text-align:center;letter-spacing:0px;word-spacing:0px;text-anchor:middle;display:inline;fill:#000000;fill-opacity:1;stroke:none"
       xml:space="preserve"><tspan
         id="tspan4341-1-3"
         y="2020.4244"
         x="257.68674"
         style="font-size:45px;line-height:1.25"
         sodipodi:role="line">Ogh!!</tspan></text>
    <text
       id="text4246-2-3-1-3-9-9-6-9"
       y="2182.5535"
       x="1142.2045"
       style="font-style:normal;font-variant:normal;font-weight:normal;font-stretch:normal;line-height:0%;font-family:Lavi;-inkscape-font-specification:Lavi;text-align:center;letter-spacing:0px;word-spacing:0px;text-anchor:middle;display:inline;fill:#000000;fill-opacity:1;stroke:none"
       xml:space="preserve"><tspan
         id="tspan4341-1-2"
         y="2182.5535"
         x="1142.2045"
         style="font-size:45px;line-height:1.25"
         sodipodi:role="line">Ow dewlagas!!!</tspan></text>
    <text
       id="text4246-2-3-1-3-9-9-7"
       y="2544.9819"
       x="1212.7345"
       style="font-style:normal;font-variant:normal;font-weight:normal;font-stretch:normal;line-height:0%;font-family:Lavi;-inkscape-font-specification:Lavi;text-align:center;letter-spacing:0px;word-spacing:0px;text-anchor:middle;display:inline;fill:#000000;fill-opacity:1;stroke:none"
       xml:space="preserve"><tspan
         id="tspan4341-2"
         y="2544.9819"
         x="1212.7345"
         style="font-size:45px;line-height:1.25"
         sodipodi:role="line">Carrot…</tspan><tspan
         id="tspan4881"
         y="2601.2319"
         x="1212.7345"
         style="font-size:45px;line-height:1.25"
         sodipodi:role="line">ro dhedhi meus gwyrdh </tspan><tspan
         id="tspan334"
         y="2657.4819"
         x="1212.7345"
         style="font-size:45px;line-height:1.25"
         sodipodi:role="line">byttegyns; kowethes </tspan><tspan
         id="tspan338"
         y="2713.7319"
         x="1212.7345"
         style="font-size:45px;line-height:1.25"
         sodipodi:role="line">dhyn yw hi.</tspan></text>
    <text
       transform="matrix(0.4834259,-0.25133535,-0.08924755,0.66599199,986.55613,2279.2739)"
       id="text4580-1-7-3-6-3"
       y="1584.5073"
       x="787.65729"
       style="font-style:normal;font-variant:normal;font-weight:normal;font-stretch:normal;line-height:0%;font-family:Lavi;-inkscape-font-specification:Lavi;letter-spacing:0px;word-spacing:0px;display:inline;fill:#ffffff;fill-opacity:1;stroke:#ffffff;stroke-width:1.82718;stroke-miterlimit:4;stroke-dasharray:none;stroke-opacity:1;filter:url(#filter4375-4-1-1-1-9-6-9-2-1-5)"
       xml:space="preserve"><tspan
         style="font-size:70px;line-height:1.25;fill:#ffffff;fill-opacity:1;stroke:#ffffff;stroke-width:1.82718;stroke-miterlimit:4;stroke-dasharray:none;stroke-opacity:1"
         y="1584.5073"
         x="787.65729"
         id="tspan4582-8-5-6-1-0"
         sodipodi:role="line">Pok</tspan></text>
    <text
       transform="matrix(0.59995716,-0.22362522,-0.11076094,0.85915594,-158.57776,1939.1304)"
       id="text4580-1-7-3-6-9-2-5-6"
       y="1584.5073"
       x="787.65729"
       style="font-style:normal;font-variant:normal;font-weight:normal;font-stretch:normal;line-height:0%;font-family:Lavi;-inkscape-font-specification:Lavi;letter-spacing:0px;word-spacing:0px;display:inline;fill:#ffffff;fill-opacity:1;stroke:#ffffff;stroke-width:1.42757;stroke-miterlimit:4;stroke-dasharray:none;stroke-opacity:1;filter:url(#filter4375-4-1-1-1-9-6-9-2-1-7-6-3-3)"
       xml:space="preserve"><tspan
         style="font-size:70px;line-height:1.25;fill:#ffffff;fill-opacity:1;stroke:#ffffff;stroke-width:1.42757;stroke-miterlimit:4;stroke-dasharray:none;stroke-opacity:1"
         y="1584.5073"
         x="787.65729"
         id="tspan4582-8-5-6-1-3-0-6-1"
         sodipodi:role="line">Bou!</tspan></text>
    <text
       transform="matrix(0.7453695,-0.25536587,-0.1376062,0.98110181,-196.25442,1849.6598)"
       id="text4580-1-7-3-6-9-4-7-0"
       y="1584.5073"
       x="787.65729"
       style="font-style:normal;font-variant:normal;font-weight:normal;font-stretch:normal;line-height:0%;font-family:Lavi;-inkscape-font-specification:Lavi;letter-spacing:0px;word-spacing:0px;display:inline;fill:#ffffff;fill-opacity:1;stroke:#ffffff;stroke-width:1.19853;stroke-miterlimit:4;stroke-dasharray:none;stroke-opacity:1;filter:url(#filter4375-4-1-1-1-9-6-9-2-1-7-1-6-2)"
       xml:space="preserve"><tspan
         style="font-size:70px;line-height:1.25;fill:#ffffff;fill-opacity:1;stroke:#ffffff;stroke-width:1.19853;stroke-miterlimit:4;stroke-dasharray:none;stroke-opacity:1"
         y="1584.5073"
         x="787.65729"
         id="tspan4582-8-5-6-1-3-5-6-9"
         sodipodi:role="line">Bouu!</tspan></text>
    <text
       transform="matrix(0.64838801,-0.24791768,-0.11970199,0.95248627,1094.7966,1701.3912)"
       id="text4580-1-7-3-6-9-45"
       y="1584.5073"
       x="787.65729"
       style="font-style:normal;font-variant:normal;font-weight:normal;font-stretch:normal;line-height:0%;font-family:Lavi;-inkscape-font-specification:Lavi;letter-spacing:0px;word-spacing:0px;display:inline;fill:#ffffff;fill-opacity:1;stroke:#ffffff;stroke-width:1.30421;stroke-miterlimit:4;stroke-dasharray:none;stroke-opacity:1;filter:url(#filter4375-4-1-1-1-9-6-9-2-1-7-5)"
       xml:space="preserve"><tspan
         style="font-size:70px;line-height:1.25;fill:#ffffff;fill-opacity:1;stroke:#ffffff;stroke-width:1.30421;stroke-miterlimit:4;stroke-dasharray:none;stroke-opacity:1"
         y="1584.5073"
         x="787.65729"
         id="tspan4582-8-5-6-1-3-2"
         sodipodi:role="line">Bouu!</tspan></text>
    <text
       transform="matrix(0.7453695,-0.25536587,-0.1376062,0.98110181,1067.9492,1736.7404)"
       id="text4580-1-7-3-6-9-4-7"
       y="1584.5073"
       x="787.65729"
       style="font-style:normal;font-variant:normal;font-weight:normal;font-stretch:normal;line-height:0%;font-family:Lavi;-inkscape-font-specification:Lavi;letter-spacing:0px;word-spacing:0px;display:inline;fill:#ffffff;fill-opacity:1;stroke:#ffffff;stroke-width:1.19853;stroke-miterlimit:4;stroke-dasharray:none;stroke-opacity:1;filter:url(#filter4375-4-1-1-1-9-6-9-2-1-7-1-6)"
       xml:space="preserve"><tspan
         style="font-size:70px;line-height:1.25;fill:#ffffff;fill-opacity:1;stroke:#ffffff;stroke-width:1.19853;stroke-miterlimit:4;stroke-dasharray:none;stroke-opacity:1"
         y="1584.5073"
         x="787.65729"
         id="tspan4582-8-5-6-1-3-5-6"
         sodipodi:role="line">Bouu!</tspan></text>
    <text
       id="text4246-2-3-1-3-9-9-9"
       y="2385.7378"
       x="2022.6879"
       style="font-style:normal;font-variant:normal;font-weight:normal;font-stretch:normal;line-height:0%;font-family:Lavi;-inkscape-font-specification:Lavi;text-align:center;letter-spacing:0px;word-spacing:0px;text-anchor:middle;display:inline;fill:#000000;fill-opacity:1;stroke:none"
       xml:space="preserve"><tspan
         id="tspan351"
         y="2385.7378"
         x="2022.6879"
         style="font-size:45px;line-height:1.25"
         sodipodi:role="line">A, dell hevel ny veu an bagas </tspan><tspan
         id="tspan353"
         y="2441.9878"
         x="2022.6879"
         style="font-size:45px;line-height:1.25"
         sodipodi:role="line">ma kemerys gans an </tspan><tspan
         id="tspan349"
         y="2498.2378"
         x="2022.6879"
         style="font-size:45px;line-height:1.25"
         sodipodi:role="line">displetyans &quot;splann&quot; ma! </tspan><tspan
         id="tspan367"
         y="2554.4878"
         x="2022.6879"
         style="font-size:45px;line-height:1.25"
         sodipodi:role="line">Treylya a wren dhe Spirulina!</tspan></text>
    <text
       transform="matrix(1.6804587,0,0,1.6667549,-168.49262,2049.5396)"
       id="text4246-3-8"
       y="286.89603"
       x="1276.0023"
       style="font-style:normal;font-variant:normal;font-weight:normal;font-stretch:normal;line-height:0%;font-family:Lavi;-inkscape-font-specification:Lavi;text-align:center;letter-spacing:0px;word-spacing:0px;text-anchor:middle;opacity:0.702;fill:url(#linearGradient4203);fill-opacity:1;stroke:#ffffff;stroke-width:2.68883;stroke-linecap:round;stroke-miterlimit:4;stroke-dasharray:none;stroke-opacity:1;filter:url(#filter4375-4-1-1-1-9-5-8-8-8-3)"
       xml:space="preserve"><tspan
         id="tspan4252-5-6"
         y="286.89603"
         x="1304.9219"
         style="font-style:normal;font-variant:normal;font-weight:normal;font-stretch:normal;font-size:91.2551px;line-height:1.25;font-family:Fondamento;-inkscape-font-specification:Fondamento;letter-spacing:17.78px;fill:url(#linearGradient4203);fill-opacity:1;stroke:#ffffff;stroke-width:2.68883;stroke-linecap:round;stroke-miterlimit:4;stroke-dasharray:none;stroke-opacity:1"
         sodipodi:role="line"> </tspan><tspan
         id="tspan5535-8"
         y="407.63681"
         x="1280.4836"
         style="font-style:normal;font-variant:normal;font-weight:normal;font-stretch:normal;font-size:91.2551px;line-height:1.25;font-family:Combat;-inkscape-font-specification:Combat;letter-spacing:8.96275px;fill:url(#linearGradient4203);fill-opacity:1;stroke:#ffffff;stroke-width:2.68883;stroke-linecap:round;stroke-miterlimit:4;stroke-dasharray:none;stroke-opacity:1"
         sodipodi:role="line">-42</tspan></text>
    <text
       transform="matrix(0.71367437,-0.24008968,-0.13175481,0.92241152,1291.2405,1981.9638)"
       id="text4580-1-7-3-6-9"
       y="1584.5073"
       x="787.65729"
       style="font-style:normal;font-variant:normal;font-weight:normal;font-stretch:normal;line-height:0%;font-family:Lavi;-inkscape-font-specification:Lavi;letter-spacing:0px;word-spacing:0px;display:inline;fill:#ffffff;fill-opacity:1;stroke:#ffffff;stroke-width:1.26323;stroke-miterlimit:4;stroke-dasharray:none;stroke-opacity:1;filter:url(#filter4375-4-1-1-1-9-6-9-2-1-7)"
       xml:space="preserve"><tspan
         style="font-size:70px;line-height:1.25;fill:#ffffff;fill-opacity:1;stroke:#ffffff;stroke-width:1.26323;stroke-miterlimit:4;stroke-dasharray:none;stroke-opacity:1"
         y="1584.5073"
         x="787.65729"
         id="tspan4582-8-5-6-1-3"
         sodipodi:role="line">Bouuu!</tspan></text>
    <text
       transform="matrix(0.7453695,-0.25536587,-0.1376062,0.98110181,1340.2437,1949.6409)"
       id="text4580-1-7-3-6-9-4"
       y="1584.5073"
       x="787.65729"
       style="font-style:normal;font-variant:normal;font-weight:normal;font-stretch:normal;line-height:0%;font-family:Lavi;-inkscape-font-specification:Lavi;letter-spacing:0px;word-spacing:0px;display:inline;fill:#ffffff;fill-opacity:1;stroke:#ffffff;stroke-width:1.19853;stroke-miterlimit:4;stroke-dasharray:none;stroke-opacity:1;filter:url(#filter4375-4-1-1-1-9-6-9-2-1-7-1)"
       xml:space="preserve"><tspan
         style="font-size:70px;line-height:1.25;fill:#ffffff;fill-opacity:1;stroke:#ffffff;stroke-width:1.19853;stroke-miterlimit:4;stroke-dasharray:none;stroke-opacity:1"
         y="1584.5073"
         x="787.65729"
         id="tspan4582-8-5-6-1-3-5"
         sodipodi:role="line">Bouu!</tspan></text>
    <text
       transform="matrix(0.59995716,-0.22362522,-0.11076094,0.85915594,1946.3737,2072.7756)"
       id="text4580-1-7-3-6-9-2"
       y="1584.5073"
       x="787.65729"
       style="font-style:normal;font-variant:normal;font-weight:normal;font-stretch:normal;line-height:0%;font-family:Lavi;-inkscape-font-specification:Lavi;letter-spacing:0px;word-spacing:0px;display:inline;fill:#ffffff;fill-opacity:1;stroke:#ffffff;stroke-width:1.42757;stroke-miterlimit:4;stroke-dasharray:none;stroke-opacity:1;filter:url(#filter4375-4-1-1-1-9-6-9-2-1-7-6)"
       xml:space="preserve"><tspan
         style="font-size:70px;line-height:1.25;fill:#ffffff;fill-opacity:1;stroke:#ffffff;stroke-width:1.42757;stroke-miterlimit:4;stroke-dasharray:none;stroke-opacity:1"
         y="1584.5073"
         x="787.65729"
         id="tspan4582-8-5-6-1-3-0"
         sodipodi:role="line">Bouu!</tspan></text>
    <text
       transform="matrix(0.59995716,-0.22362522,-0.11076094,0.85915594,1358.9363,2205.0256)"
       id="text4580-1-7-3-6-9-2-5"
       y="1584.5073"
       x="787.65729"
       style="font-style:normal;font-variant:normal;font-weight:normal;font-stretch:normal;line-height:0%;font-family:Lavi;-inkscape-font-specification:Lavi;letter-spacing:0px;word-spacing:0px;display:inline;fill:#ffffff;fill-opacity:1;stroke:#ffffff;stroke-width:1.42757;stroke-miterlimit:4;stroke-dasharray:none;stroke-opacity:1;filter:url(#filter4375-4-1-1-1-9-6-9-2-1-7-6-3)"
       xml:space="preserve"><tspan
         style="font-size:70px;line-height:1.25;fill:#ffffff;fill-opacity:1;stroke:#ffffff;stroke-width:1.42757;stroke-miterlimit:4;stroke-dasharray:none;stroke-opacity:1"
         y="1584.5073"
         x="787.65729"
         id="tspan4582-8-5-6-1-3-0-6"
         sodipodi:role="line">Bou!</tspan></text>
  </g>
  <g
     style="display:inline"
     inkscape:label="notes"
     id="layer4"
     inkscape:groupmode="layer">
    <path
       inkscape:connector-curvature="0"
       id="rect4191-6"
       d="m -453.76586,1080.7442 0,189.0351 203.83,0 0,-90.9805 10,0 0,15.6308 30.9825,-26.9824 -30.9825,-26.9804 0,16.6171 -10,0 0,-76.3397 -203.83,0 z"
       style="color:#000000;clip-rule:nonzero;display:inline;overflow:visible;visibility:visible;opacity:0.481;isolation:auto;mix-blend-mode:normal;color-interpolation:sRGB;color-interpolation-filters:linearRGB;solid-color:#000000;solid-opacity:1;fill:#ffe680;fill-opacity:1;fill-rule:nonzero;stroke:#565656;stroke-width:1.20000005;stroke-linecap:butt;stroke-linejoin:miter;stroke-miterlimit:4;stroke-dasharray:none;stroke-dashoffset:0;stroke-opacity:1;marker:none;color-rendering:auto;image-rendering:auto;shape-rendering:auto;text-rendering:auto;enable-background:accumulate" />
    <flowRoot
       transform="translate(-224.07546,72.500608)"
       style="font-style:normal;font-variant:normal;font-weight:normal;font-stretch:normal;line-height:0.01%;font-family:Lavi;-inkscape-font-specification:'Lavi, Normal';text-align:center;letter-spacing:0px;word-spacing:0px;writing-mode:lr-tb;text-anchor:middle;display:inline;opacity:0.481;fill:#000000;fill-opacity:1;stroke:none;stroke-width:1px;stroke-linecap:butt;stroke-linejoin:miter;stroke-opacity:1"
       id="flowRoot4212-7"
       xml:space="preserve"><flowRegion
         id="flowRegion4214-5"><rect
           y="1061.6674"
           x="-275.14545"
           height="247.52747"
           width="291.95547"
           id="rect4216-3" /></flowRegion><flowPara
         style="font-size:25.3242px;line-height:1.25"
         id="flowPara4218-5">Edit this one,</flowPara><flowPara
         style="font-size:25.3242px;line-height:1.25"
         id="flowPara4562">all others</flowPara><flowPara
         style="font-size:25.3242px;line-height:1.25"
         id="flowPara4564">are linked</flowPara></flowRoot>
    <text
       transform="matrix(0.96380061,-0.56217228,-0.1779318,1.4896521,-669.59156,-686.85141)"
       id="text4580-1-7-3-6"
       y="1584.5073"
       x="787.65729"
       style="font-style:normal;font-variant:normal;font-weight:normal;font-stretch:normal;line-height:0%;font-family:Lavi;-inkscape-font-specification:Lavi;letter-spacing:0px;word-spacing:0px;display:inline;fill:#ffffff;fill-opacity:1;stroke:#ffffff;stroke-width:0.865258;stroke-miterlimit:4;stroke-dasharray:none;stroke-opacity:1;filter:url(#filter4375-4-1-1-1-9-6-9-2-1)"
       xml:space="preserve"><tspan
         style="font-size:70px;line-height:1.25;fill:#ffffff;fill-opacity:1;stroke:#ffffff;stroke-width:0.865258;stroke-miterlimit:4;stroke-dasharray:none;stroke-opacity:1"
         y="1584.5073"
         x="787.65729"
         id="tspan4582-8-5-6-1"
         sodipodi:role="line">Tack</tspan></text>
  </g>
</svg>
