{
   "id": 31,
   "original-language": "fr",
   "supporters": 971,
   "published": "2019-12-20",
   "pluxmlID": 464,
   "background-color": "#FFFFFF",
   "credits": {
      "art":[
         "David Revoy <https://framagit.org/Deevad>"
      ],
      "scenario":[
         "David Revoy <https://framagit.org/Deevad>"
      ],
      "beta-readers":[
         "Craig Maloney <https://framagit.org/craigmaloney>",
         "Martin Disch <https://framagit.org/martindisch>",
         "Arlo James Barnes",
         "Nicolas Artance <https://framagit.org/Nartance>",
         "Valvin <https://framagit.org/valvin>"
      ],
      "editing":[
         "David Revoy <https://framagit.org/Deevad>",
         "CalimeroTeknik <https://framagit.org/calimeroteknik>",
         "Midgard <https://framagit.org/Midgard>"
      ]
   },
   "software":[
      {
         "name": "Krita",
         "version": "4.2.6appimage"
      },
      {
         "name": "Inkscape",
         "version": "0.92.3"
      },
      {
         "name": "Kubuntu",
         "version": "18.04-LTS"
      }
   ]
}
