<?xml version="1.0" encoding="UTF-8" standalone="no"?>
<!-- Created with Inkscape (http://www.inkscape.org/) -->

<svg
   xmlns:dc="http://purl.org/dc/elements/1.1/"
   xmlns:cc="http://creativecommons.org/ns#"
   xmlns:rdf="http://www.w3.org/1999/02/22-rdf-syntax-ns#"
   xmlns:svg="http://www.w3.org/2000/svg"
   xmlns="http://www.w3.org/2000/svg"
   xmlns:xlink="http://www.w3.org/1999/xlink"
   xmlns:sodipodi="http://sodipodi.sourceforge.net/DTD/sodipodi-0.dtd"
   xmlns:inkscape="http://www.inkscape.org/namespaces/inkscape"
   id="svg2"
   version="1.1"
   inkscape:version="0.92.4 (5da689c313, 2019-01-14)"
   width="2481"
   height="3503"
   sodipodi:docname="E28P05.svg">
  <metadata
     id="metadata8">
    <rdf:RDF>
      <cc:Work
         rdf:about="">
        <dc:format>image/svg+xml</dc:format>
        <dc:type
           rdf:resource="http://purl.org/dc/dcmitype/StillImage" />
        <dc:title />
      </cc:Work>
    </rdf:RDF>
  </metadata>
  <defs
     id="defs6" />
  <sodipodi:namedview
     pagecolor="#ffffff"
     bordercolor="#666666"
     borderopacity="1"
     objecttolerance="10"
     gridtolerance="10"
     guidetolerance="10"
     inkscape:pageopacity="0"
     inkscape:pageshadow="2"
     inkscape:window-width="1850"
     inkscape:window-height="1016"
     id="namedview4"
     showgrid="false"
     inkscape:zoom="0.51498715"
     inkscape:cx="1154.3978"
     inkscape:cy="2617.8202"
     inkscape:window-x="70"
     inkscape:window-y="27"
     inkscape:window-maximized="1"
     inkscape:current-layer="layer1"
     showguides="true" />
  <g
     inkscape:groupmode="layer"
     id="layer2"
     inkscape:label="artwork"
     sodipodi:insensitive="true">
    <image
       sodipodi:absref="/home/emmiline/Documents/git/webcomics/ep28_The-Festivities/lang/da/../gfx_Pepper-and-Carrot_by-David-Revoy_E28P05.png"
       xlink:href="../gfx_Pepper-and-Carrot_by-David-Revoy_E28P05.png"
       y="0"
       x="0"
       id="image10"
       height="3503"
       width="2481" />
  </g>
  <g
     inkscape:groupmode="layer"
     id="layer3"
     inkscape:label="speechbubbles">
    <path
       style="fill:#ffffff;fill-rule:evenodd;stroke:none;stroke-width:0.87945914px;stroke-linecap:butt;stroke-linejoin:miter;stroke-opacity:1"
       d="m 157.52442,202.50417 c 24.20553,-20.28645 60.20542,-30.63666 95.32605,-37.22495 32.86157,-6.27671 67.10176,-6.42657 100.81265,-5.06397 42.74906,1.79739 86.04868,4.01038 127.27554,12.90155 12.60467,2.59979 24.47312,7.34577 32.3106,15.0934 33.18909,26.23502 57.22843,60.39547 56.41726,96.55684 -3.33899,53.14225 -5.00934,106.35153 -9.7572,159.44386 -1.44125,17.48241 -7.06886,35.91878 -24.78355,48.76904 -20.34309,15.44365 -47.31577,25.86602 -76.05847,30.49301 -45.73102,7.81801 -93.01103,10.57718 -139.93635,9.98153 -18.34055,-1.43255 -36.67219,-3.34326 -54.95913,-5.24696 -39.18493,-4.86294 -81.26783,-12.34057 -109.36924,-34.16488 -22.312,-17.40081 -34.66728,-40.88112 -36.96184,-64.33953 0.17359,-49.33202 4.76462,-98.59327 7.79528,-147.86285 1.08057,-13.29977 0.23352,-26.89068 6.80423,-39.59997 5.9832,-13.91556 13.75107,-27.61208 25.08417,-39.73612 z"
       id="path1006"
       inkscape:connector-curvature="0" />
    <path
       style="fill:#ffffff;fill-rule:evenodd;stroke:none;stroke-width:1px;stroke-linecap:butt;stroke-linejoin:miter;stroke-opacity:1"
       d="M 333.27358,346.17986 C 395.90659,299.25879 684.65819,123.37673 1012.4941,266.75583 759.55842,143.42811 491.69794,181.66189 330.00219,300.24071 Z"
       id="path1008"
       inkscape:connector-curvature="0"
       sodipodi:nodetypes="cccc" />
    <path
       style="fill:#ffffff;fill-rule:evenodd;stroke:none;stroke-width:1px;stroke-linecap:butt;stroke-linejoin:miter;stroke-opacity:1"
       d="m 1819.6761,521.16397 c 116.7092,-13.15033 182.4608,-4.93138 226.8431,52.60129 44.3824,57.53267 34.5196,90.40848 23.0131,80.54574 -11.5065,-9.86274 -23.0131,-151.22873 -249.8562,-133.14703 z"
       id="path1011"
       inkscape:connector-curvature="0" />
    <path
       style="fill:#ffffff;fill-rule:evenodd;stroke:none;stroke-width:1.04797184px;stroke-linecap:butt;stroke-linejoin:miter;stroke-opacity:1"
       d="m 2111.6361,552.39599 c 95.6801,1.64379 146.2282,13.15032 166.0863,29.58823 19.8581,16.4379 46.9373,60.82025 37.911,87.12089 -9.0265,26.30065 -43.3268,69.03921 -142.6176,65.75163 -99.2907,-3.28759 -171.502,-19.72549 -194.9708,-52.6013 -23.4685,-32.87581 9.0265,-101.91501 46.9375,-113.42155 37.911,-11.50653 43.3268,-14.79411 86.6536,-16.4379 z"
       id="path1013"
       inkscape:connector-curvature="0" />
    <path
       style="fill:#ffffff;fill-rule:evenodd;stroke:none;stroke-width:0.91506511px;stroke-linecap:butt;stroke-linejoin:miter;stroke-opacity:1"
       d="m 2009.1792,734.25711 c 51.9255,-49.31372 114.9861,-46.02614 131.862,-42.73856 16.8756,3.28759 59.1917,8.29912 90.7911,11.50654 14.6114,1.48309 68.1814,32.97559 72.0236,87.12089 2.3273,32.79479 0,65.75163 -36.3477,78.90195 -36.3478,13.15032 -89.8061,13.15032 -135.2409,11.50653 -45.4348,-1.64379 -97.1254,0 -124.3863,-29.58823 -27.2608,-29.58823 -35.0496,-70.68299 1.2982,-116.70912 z"
       id="path1015"
       inkscape:connector-curvature="0"
       sodipodi:nodetypes="cssssssc" />
    <path
       style="fill:#ffffff;fill-rule:evenodd;stroke:none;stroke-width:1.00209248px;stroke-linecap:butt;stroke-linejoin:miter;stroke-opacity:1"
       d="m 315.83116,1067.7358 c 78.01471,1.6568 139.93115,1.6568 157.26775,18.2251 17.33661,16.5683 50.77148,54.6753 52.0098,91.1255 1.23834,36.4501 -1.23832,89.4686 -24.76657,114.3209 -23.52825,24.8525 -65.63142,44.7344 -107.7346,53.0185 -42.10318,8.2841 -126.30952,8.2841 -154.79109,0 -28.48155,-8.2841 -78.0147,-36.4501 -84.20635,-64.6162 -6.19164,-28.1661 -8.6683,-97.7527 -1.23832,-125.9189 7.42997,-28.166 43.3415,-62.9593 79.25303,-72.9002 35.91153,-9.941 84.20635,-13.2547 84.20635,-13.2547 z"
       id="path1017"
       inkscape:connector-curvature="0" />
    <path
       style="fill:#ffffff;fill-rule:evenodd;stroke:none;stroke-width:1px;stroke-linecap:butt;stroke-linejoin:miter;stroke-opacity:1"
       d="m 464.5495,1496.1462 c 57.17532,-75.7573 57.17532,-148.6559 4.28815,-244.4245 -52.88717,-95.7687 -80.04545,-97.1981 -80.04545,-97.1981 l -4.28815,52.8872 c 0,0 168.6672,128.6445 80.04545,288.7354 z"
       id="path1019"
       inkscape:connector-curvature="0" />
    <path
       style="fill:#ffffff;fill-rule:evenodd;stroke:none;stroke-width:1.0773319px;stroke-linecap:butt;stroke-linejoin:miter;stroke-opacity:1"
       d="m 1920.9838,1164.2756 c -3.4243,-61.6542 85.6321,-113.4232 202.6116,-113.8656 116.9793,-0.4422 218.7005,25.343 218.0584,89.0205 -0.642,63.6776 -20.6402,117.4205 -171.0565,117.73 -150.4164,0.3096 -243.3,-16.8288 -249.6135,-92.8849 z"
       id="path1021"
       inkscape:connector-curvature="0" />
    <path
       style="fill:#ffffff;fill-rule:evenodd;stroke:none;stroke-width:1px;stroke-linecap:butt;stroke-linejoin:miter;stroke-opacity:1"
       d="m 2223.4008,1243.0202 c 9.6724,22.1135 -3.7615,81.471 -16.6581,91.9459 -8.9785,11.3235 4.9225,16.0942 9.6724,15.1304 4.2989,-2.9097 37.6151,-18.04 42.9887,-9.3111 5.3736,8.7291 -48.8996,51.2105 -42.9887,57.0298 5.911,5.8194 27.9427,-8.1471 30.6294,-3.4916 2.6868,4.6554 -4.2988,17.4581 -16.6581,25.6052 20.957,-6.9833 30.0921,-18.6219 25.7932,-26.769 -4.2988,-8.1471 -12.3592,-6.9833 -17.7328,-5.8194 10.2098,-8.7291 49.9875,-38.2659 39.7777,-53.9782 -10.2098,-15.7122 -36.0426,-12.0787 -41.9536,-9.169 14.5087,-12.8026 28.0737,-53.8649 21.6254,-85.8713 -6.4483,-32.0065 -34.4955,4.6983 -34.4955,4.6983 z"
       id="path1023"
       inkscape:connector-curvature="0"
       sodipodi:nodetypes="ccccsccccccsc" />
    <path
       style="fill:#ffffff;fill-rule:evenodd;stroke:none;stroke-width:1.11930656px;stroke-linecap:butt;stroke-linejoin:miter;stroke-opacity:1"
       d="m 807.0891,2344.762 c 12.25896,-40.2573 65.29032,-55.2416 106.15352,-52.849 40.8632,2.3928 101.79478,23.5682 95.43828,56.2586 -6.3565,32.6904 -54.9383,50.2768 -89.17259,51.6227 -34.23429,1.3458 -111.69276,-3.9181 -112.41921,-55.0323 z"
       id="path1025"
       inkscape:connector-curvature="0" />
    <path
       style="fill:#ffffff;fill-rule:evenodd;stroke:none;stroke-width:1px;stroke-linecap:butt;stroke-linejoin:miter;stroke-opacity:1"
       d="m 891.05439,2384.5928 c 8.97846,20.1058 2.08504,29.2013 -7.53169,42.2988 -9.61674,13.0974 -3.91478,26.6928 6.89341,31.8628 10.80819,5.1701 22.50997,25.1418 21.87169,42.5477 -2.42546,-50.8389 -20.08451,-46.2816 -21.10575,-59.2259 -1.02125,-12.9442 20.21215,-24.3759 22.42485,-32.7054 2.2127,-8.3295 0.51063,-29.1055 -5.14877,-40.9009 -5.65941,-11.7954 -17.40374,16.1229 -17.40374,16.1229 z"
       id="path1027"
       inkscape:connector-curvature="0"
       sodipodi:nodetypes="cccccssc" />
  </g>
  <g
     inkscape:groupmode="layer"
     id="layer1"
     inkscape:label="txt">
    <text
       xml:space="preserve"
       style="font-style:normal;font-variant:normal;font-weight:normal;font-stretch:normal;line-height:0%;font-family:Lavi;-inkscape-font-specification:Lavi;text-align:center;letter-spacing:0px;word-spacing:0px;text-anchor:middle;fill:#000000;fill-opacity:1;stroke:none"
       x="343.16214"
       y="239.86371"
       id="text4246"><tspan
         sodipodi:role="line"
         style="font-size:45px;line-height:1.20000005"
         x="343.16214"
         y="239.86371"
         id="tspan870">Alle mine venner</tspan><tspan
         sodipodi:role="line"
         style="font-size:45px;line-height:1.20000005"
         x="350.19339"
         y="293.86371"
         id="tspan878">er succesfulde, og </tspan><tspan
         sodipodi:role="line"
         style="font-size:45px;line-height:1.20000005"
         x="350.19339"
         y="347.86371"
         id="tspan59">nogle gange ville jeg </tspan><tspan
         sodipodi:role="line"
         style="font-size:45px;line-height:1.20000005"
         x="343.16214"
         y="401.86371"
         id="tspan63">gerne have bare en</tspan><tspan
         sodipodi:role="line"
         style="font-size:45px;line-height:1.20000005"
         x="343.16214"
         y="455.86371"
         id="tspan44">brøkdel af det,</tspan><tspan
         sodipodi:role="line"
         style="font-size:45px;line-height:1.20000005"
         x="343.16214"
         y="509.86371"
         id="tspan60">de har.</tspan></text>
    <text
       xml:space="preserve"
       style="font-style:normal;font-variant:normal;font-weight:normal;font-stretch:normal;line-height:0%;font-family:Lavi;-inkscape-font-specification:Lavi;text-align:center;letter-spacing:0px;word-spacing:0px;text-anchor:middle;fill:#000000;fill-opacity:1;stroke:none"
       x="2143.3313"
       y="622.23462"
       id="text4246-3"><tspan
         sodipodi:role="line"
         style="font-size:45px;line-height:1.20000005"
         x="2150.3625"
         y="622.23462"
         id="tspan898">Koriander </tspan><tspan
         sodipodi:role="line"
         style="font-size:45px;line-height:1.20000005"
         x="2143.3313"
         y="676.23462"
         id="tspan892">er dronning.</tspan></text>
    <text
       xml:space="preserve"
       style="font-style:normal;font-variant:normal;font-weight:normal;font-stretch:normal;line-height:0%;font-family:Lavi;-inkscape-font-specification:Lavi;text-align:center;letter-spacing:0px;word-spacing:0px;text-anchor:middle;fill:#000000;fill-opacity:1;stroke:none"
       x="2144.4858"
       y="782.11542"
       id="text4246-3-9"><tspan
         sodipodi:role="line"
         style="font-size:45px;line-height:1.20000005"
         x="2144.4858"
         y="782.11542"
         id="tspan901">Safran er rig</tspan><tspan
         sodipodi:role="line"
         style="font-size:45px;line-height:1.20000005"
         x="2144.4858"
         y="836.11542"
         id="tspan67">og berømt.</tspan></text>
    <text
       xml:space="preserve"
       style="font-style:normal;font-variant:normal;font-weight:normal;font-stretch:normal;line-height:0%;font-family:Lavi;-inkscape-font-specification:Lavi;text-align:center;letter-spacing:0px;word-spacing:0px;text-anchor:middle;fill:#000000;fill-opacity:1;stroke:none"
       x="327.58185"
       y="1151.152"
       id="text4246-3-9-7"><tspan
         sodipodi:role="line"
         style="font-size:45px;line-height:1.20000005"
         x="327.58185"
         y="1151.152"
         id="tspan74">Selv Shichimi</tspan><tspan
         sodipodi:role="line"
         style="font-size:45px;line-height:1.20000005"
         x="327.58185"
         y="1205.152"
         id="tspan66">passer perfekt</tspan><tspan
         sodipodi:role="line"
         style="font-size:45px;line-height:1.20000005"
         x="327.58185"
         y="1259.152"
         id="tspan68">ind i sin</tspan><tspan
         sodipodi:role="line"
         style="font-size:45px;line-height:1.20000005"
         x="327.58185"
         y="1313.152"
         id="tspan76">skole.</tspan></text>
    <text
       xml:space="preserve"
       style="font-style:normal;font-variant:normal;font-weight:normal;font-stretch:normal;line-height:0%;font-family:Lavi;-inkscape-font-specification:Lavi;text-align:center;letter-spacing:0px;word-spacing:0px;text-anchor:middle;fill:#000000;fill-opacity:1;stroke:none"
       x="2134.5269"
       y="1151.4224"
       id="text4246-3-9-7-3"><tspan
         sodipodi:role="line"
         style="font-size:45px;line-height:1.20000005"
         x="2141.5581"
         y="1151.4224"
         id="tspan981">Og hvad med mig? </tspan><tspan
         sodipodi:role="line"
         style="font-size:45px;line-height:1.20000005"
         x="2134.5269"
         y="1205.4224"
         id="tspan914">Hvad har jeg?</tspan></text>
    <text
       xml:space="preserve"
       style="font-style:normal;font-variant:normal;font-weight:normal;font-stretch:normal;line-height:0%;font-family:Lavi;-inkscape-font-specification:Lavi;text-align:center;letter-spacing:0px;word-spacing:0px;text-anchor:middle;fill:#000000;fill-opacity:1;stroke:none"
       x="910.00488"
       y="2360.6299"
       id="text4246-3-9-7-3-2"><tspan
         sodipodi:role="line"
         style="font-size:45px;line-height:1.20000005"
         x="910.00488"
         y="2360.6299"
         id="tspan981-1">Det dér.</tspan></text>
    <flowRoot
       xml:space="preserve"
       id="flowRoot74"
       style="fill:black;fill-opacity:1;stroke:none;font-family:sans-serif;font-style:normal;font-weight:normal;font-size:40px;line-height:1.25;letter-spacing:0px;word-spacing:0px"><flowRegion
         id="flowRegion76"><rect
           id="rect78"
           width="370.88303"
           height="390.30099"
           x="992.25775"
           y="1238.8658" /></flowRegion><flowPara
         id="flowPara80" /></flowRoot>    <flowRoot
       xml:space="preserve"
       id="flowRoot82"
       style="fill:black;fill-opacity:1;stroke:none;font-family:sans-serif;font-style:normal;font-weight:normal;font-size:40px;line-height:1.25;letter-spacing:0px;word-spacing:0px"><flowRegion
         id="flowRegion84"><rect
           id="rect86"
           width="1066.046"
           height="588.3642"
           x="-231.07373"
           y="584.48059" /></flowRegion><flowPara
         id="flowPara88" /></flowRoot>    <flowRoot
       xml:space="preserve"
       id="flowRoot90"
       style="fill:black;fill-opacity:1;stroke:none;font-family:sans-serif;font-style:normal;font-weight:normal;font-size:40px;line-height:1.25;letter-spacing:0px;word-spacing:0px"><flowRegion
         id="flowRegion92"><rect
           id="rect94"
           width="450.49667"
           height="299.03659"
           x="-681.57043"
           y="704.87195" /></flowRegion><flowPara
         id="flowPara96" /></flowRoot>    <flowRoot
       xml:space="preserve"
       id="flowRoot98"
       style="fill:black;fill-opacity:1;stroke:none;font-family:sans-serif;font-style:normal;font-weight:normal;font-size:40px;line-height:1.25;letter-spacing:0px;word-spacing:0px"><flowRegion
         id="flowRegion100"><rect
           id="rect102"
           width="54.370289"
           height="44.661308"
           x="-477.68182"
           y="974.78156" /></flowRegion><flowPara
         id="flowPara104" /></flowRoot>  </g>
</svg>
