<?xml version="1.0" encoding="UTF-8" standalone="no"?>
<!-- Created with Inkscape (http://www.inkscape.org/) -->

<svg
   xmlns:dc="http://purl.org/dc/elements/1.1/"
   xmlns:cc="http://creativecommons.org/ns#"
   xmlns:rdf="http://www.w3.org/1999/02/22-rdf-syntax-ns#"
   xmlns:svg="http://www.w3.org/2000/svg"
   xmlns="http://www.w3.org/2000/svg"
   xmlns:xlink="http://www.w3.org/1999/xlink"
   xmlns:sodipodi="http://sodipodi.sourceforge.net/DTD/sodipodi-0.dtd"
   xmlns:inkscape="http://www.inkscape.org/namespaces/inkscape"
   id="svg2"
   version="1.1"
   inkscape:version="0.91 r13725"
   width="2481"
   height="3503"
   sodipodi:docname="Pepper-and-Carrot_by-David-Revoy_E17P07.svg">
  <metadata
     id="metadata8">
    <rdf:RDF>
      <cc:Work
         rdf:about="">
        <dc:format>image/svg+xml</dc:format>
        <dc:type
           rdf:resource="http://purl.org/dc/dcmitype/StillImage" />
        <dc:title />
      </cc:Work>
    </rdf:RDF>
  </metadata>
  <defs
     id="defs6">
    <filter
       style="color-interpolation-filters:sRGB;"
       inkscape:label="Drop Shadow"
       id="filter5522">
      <feFlood
         flood-opacity="1"
         flood-color="rgb(0,0,0)"
         result="flood"
         id="feFlood5524" />
      <feComposite
         in="flood"
         in2="SourceGraphic"
         operator="in"
         result="composite1"
         id="feComposite5526" />
      <feGaussianBlur
         in="composite1"
         stdDeviation="1"
         result="blur"
         id="feGaussianBlur5528" />
      <feOffset
         dx="2.5"
         dy="2.5"
         result="offset"
         id="feOffset5530" />
      <feComposite
         in="SourceGraphic"
         in2="offset"
         operator="over"
         result="composite2"
         id="feComposite5532" />
    </filter>
    <filter
       style="color-interpolation-filters:sRGB;"
       inkscape:label="Drop Shadow"
       id="filter5534">
      <feFlood
         flood-opacity="1"
         flood-color="rgb(0,0,0)"
         result="flood"
         id="feFlood5536" />
      <feComposite
         in="flood"
         in2="SourceGraphic"
         operator="in"
         result="composite1"
         id="feComposite5538" />
      <feGaussianBlur
         in="composite1"
         stdDeviation="1"
         result="blur"
         id="feGaussianBlur5540" />
      <feOffset
         dx="2.5"
         dy="2.5"
         result="offset"
         id="feOffset5542" />
      <feComposite
         in="SourceGraphic"
         in2="offset"
         operator="over"
         result="composite2"
         id="feComposite5544" />
    </filter>
    <filter
       style="color-interpolation-filters:sRGB;"
       inkscape:label="Drop Shadow"
       id="filter5546">
      <feFlood
         flood-opacity="1"
         flood-color="rgb(0,0,0)"
         result="flood"
         id="feFlood5548" />
      <feComposite
         in="flood"
         in2="SourceGraphic"
         operator="in"
         result="composite1"
         id="feComposite5550" />
      <feGaussianBlur
         in="composite1"
         stdDeviation="1"
         result="blur"
         id="feGaussianBlur5552" />
      <feOffset
         dx="2.5"
         dy="2.5"
         result="offset"
         id="feOffset5554" />
      <feComposite
         in="SourceGraphic"
         in2="offset"
         operator="over"
         result="composite2"
         id="feComposite5556" />
    </filter>
    <filter
       style="color-interpolation-filters:sRGB;"
       inkscape:label="Drop Shadow"
       id="filter5558">
      <feFlood
         flood-opacity="1"
         flood-color="rgb(0,0,0)"
         result="flood"
         id="feFlood5560" />
      <feComposite
         in="flood"
         in2="SourceGraphic"
         operator="in"
         result="composite1"
         id="feComposite5562" />
      <feGaussianBlur
         in="composite1"
         stdDeviation="1"
         result="blur"
         id="feGaussianBlur5564" />
      <feOffset
         dx="2.5"
         dy="2.5"
         result="offset"
         id="feOffset5566" />
      <feComposite
         in="SourceGraphic"
         in2="offset"
         operator="over"
         result="composite2"
         id="feComposite5568" />
    </filter>
  </defs>
  <sodipodi:namedview
     pagecolor="#ffffff"
     bordercolor="#666666"
     borderopacity="1"
     objecttolerance="10"
     gridtolerance="10"
     guidetolerance="10"
     inkscape:pageopacity="0"
     inkscape:pageshadow="2"
     inkscape:window-width="1600"
     inkscape:window-height="822"
     id="namedview4"
     showgrid="false"
     inkscape:zoom="0.40000001"
     inkscape:cx="1084.012"
     inkscape:cy="2479.4305"
     inkscape:window-x="0"
     inkscape:window-y="0"
     inkscape:window-maximized="1"
     inkscape:current-layer="layer3" />
  <g
     inkscape:groupmode="layer"
     id="layer2"
     inkscape:label="artwork"
     sodipodi:insensitive="true">
    <image
       sodipodi:absref="/home/deevad/peppercarrot/webcomics/New/lang/nl/../gfx_Pepper-and-Carrot_by-David-Revoy_E17P07.png"
       xlink:href="../gfx_Pepper-and-Carrot_by-David-Revoy_E17P07.png"
       width="2481"
       height="3503"
       id="image10"
       x="0"
       y="0" />
  </g>
  <g
     inkscape:groupmode="layer"
     id="layer3"
     inkscape:label="speechbubbles"
     style="opacity:1">
    <path
       style="color:#000000;display:inline;overflow:visible;visibility:visible;fill:#ffffff;fill-opacity:1;fill-rule:nonzero;stroke:none;stroke-width:1px;marker:none;enable-background:accumulate"
       d="m 1005.0408,426.11963 c 30.5624,-29.55472 436.7952,-49.07664 521.8793,-2.46023 96.1016,52.65267 54.9356,167.7971 -21.0447,191.37154 -71.8214,22.2841 -354.9654,32.87117 -449.0347,10.37822 -94.0696,-22.49294 -102.20787,-50.395 -106.41838,-117.55427 -1.71876,-27.41037 24.05608,-52.18054 54.61848,-81.73526 z"
       id="path4040"
       inkscape:connector-curvature="0"
       sodipodi:nodetypes="zssssz" />
    <path
       style="color:#000000;display:inline;overflow:visible;visibility:visible;fill:#ffffff;fill-opacity:1;fill-rule:nonzero;stroke:none;stroke-width:1px;marker:none;enable-background:accumulate"
       d="m 1718.5209,507.4842 c -7.7418,16.19807 -15.5076,33.1973 -32.4434,44.53252 -4.9282,3.13091 -10.3949,6.06413 -16.7951,7.55715 -7.4315,0.34787 -14.9982,-3.69945 -19.5221,-8.64539 -7.1207,-6.8955 -11.3036,-15.81586 -21.4899,-20.78482 -7.4974,-3.49757 -15.0354,-1.37767 -21.6815,-0.0597 -16.7822,3.62734 -32.5282,9.11411 -50.5605,10.55753 -19.8886,2.65529 -41.3726,4.30783 -62.9062,-1.38774 -8.498,-2.35513 -17.1818,-5.65988 -23.4987,-11.12248 -16.9211,-13.58117 -25.455,-33.19058 -18.7509,-48.31082 5.6068,-9.14761 23.0937,-12.59261 36.7206,-5.62125 7.2465,3.60893 11.003,9.87667 12.2022,15.6104 4.8041,10.62809 13.5292,16.17886 27.3657,20.48853 11.3777,3.68742 23.4851,4.84238 34.5115,3.72094 16.3526,1.58414 28.7095,-5.25897 41.9672,-9.32447 6.1131,-1.78274 14.7425,-0.81807 21.9596,0.003 10.4123,2.98538 18.6964,8.13329 22.7748,15.25714 4.4423,7.30296 9.0427,15.99488 19.2106,20.41309 6.6879,3.70799 9.9042,1.61642 15.0888,-0.007 15.318,-7.03414 27.7026,-16.42843 34.5809,-29.01708 0.5231,-1.25492 0.8972,-2.55454 1.2667,-3.85901 z"
       id="path4496-6"
       inkscape:connector-curvature="0"
       sodipodi:nodetypes="cccccccccccccccccccccc" />
    <path
       style="fill:#ffffff;stroke:none"
       d="m 615.73259,222.64665 c 48.48935,-84.8638 141.35271,-77.07536 240.5029,-81.27277 125.44111,-5.08826 337.04651,-20.22193 397.71431,20.54598 96.6989,70.92378 48.0871,126.27859 -48.5753,143.16022 -154.4391,23.73706 -391.18134,17.79275 -544.17437,-7.63101 -28.43658,-6.21182 -60.69957,-45.67665 -45.46754,-74.80242 z"
       id="path3100"
       inkscape:connector-curvature="0"
       sodipodi:nodetypes="cccccc" />
    <path
       style="color:#000000;display:inline;overflow:visible;visibility:visible;fill:#ffffff;fill-opacity:1;fill-rule:nonzero;stroke:none;stroke-width:1px;marker:none;enable-background:accumulate"
       d="m 761.51638,473.48308 c 62.14532,-15.46238 90.41803,-57.45848 101.98459,-137.356 11.48796,-79.35455 42.62521,-38.24498 42.62521,-38.24498 0,0 -10.34632,164.58521 -144.6098,175.60098 z"
       id="path3984"
       inkscape:connector-curvature="0"
       sodipodi:nodetypes="cscc" />
    <text
       xml:space="preserve"
       style="font-style:normal;font-variant:normal;font-weight:normal;font-stretch:normal;font-size:9.72782516px;line-height:125%;font-family:Arial;-inkscape-font-specification:Arial;text-align:center;letter-spacing:0px;word-spacing:0px;text-anchor:middle;display:inline;opacity:0.85500004;fill:#ffffff;fill-opacity:1;stroke:#ffffff;filter:url(#filter5558)"
       x="1240.6473"
       y="3388.5505"
       id="text4229"
       sodipodi:linespacing="125%"><tspan
         sodipodi:role="line"
         x="1240.6473"
         y="3388.5505"
         style="font-style:normal;font-variant:normal;font-weight:normal;font-stretch:normal;font-size:27.5px;font-family:Lavi;-inkscape-font-specification:Lavi;fill:#ffffff;stroke:#ffffff"
         id="tspan4169">Licentie: Creative Commons Naamsvermelding 4.0, Software: Krita, G'MIC, Inkscape op Ubuntu</tspan></text>
    <text
       xml:space="preserve"
       style="color:#000000;font-style:normal;font-variant:normal;font-weight:normal;font-stretch:normal;font-size:28.75px;line-height:125%;font-family:Lavi;-inkscape-font-specification:Lavi;text-indent:0;text-align:center;text-decoration:none;text-decoration-line:none;letter-spacing:0px;word-spacing:0px;text-transform:none;direction:ltr;block-progression:tb;writing-mode:lr-tb;baseline-shift:baseline;text-anchor:middle;display:inline;overflow:visible;visibility:visible;opacity:0.85500004;fill:#ffffff;fill-opacity:1;fill-rule:nonzero;stroke:#ffffff;filter:url(#filter5546);enable-background:accumulate"
       x="1242.353"
       y="3350.7795"
       id="text4246-42-4"
       sodipodi:linespacing="125%"><tspan
         sodipodi:role="line"
         style="color:#000000;font-style:normal;font-variant:normal;font-weight:normal;font-stretch:normal;font-size:27.5px;line-height:125%;font-family:Lavi;-inkscape-font-specification:Lavi;text-indent:0;text-align:center;text-decoration:none;text-decoration-line:none;letter-spacing:0px;word-spacing:0px;text-transform:none;direction:ltr;block-progression:tb;writing-mode:lr-tb;baseline-shift:baseline;text-anchor:middle;display:inline;overflow:visible;visibility:visible;fill:#ffffff;fill-opacity:1;fill-rule:nonzero;stroke:#ffffff;enable-background:accumulate"
         x="1242.353"
         y="3350.7795"
         id="tspan4252-9-9">Gebaseerd op het universum van Hereva gecreëerd door David Revoy met bijdragen van Craig Maloney. Verbeteringen door Willem Sonke, Moini, Hali, CGand en Alex Gryson.</tspan></text>
    <text
       xml:space="preserve"
       style="font-style:normal;font-variant:normal;font-weight:normal;font-stretch:normal;font-size:63.55184174px;line-height:125%;font-family:Lavi;-inkscape-font-specification:Lavi;text-align:center;letter-spacing:0px;word-spacing:0px;text-anchor:middle;opacity:1;fill:#ffffff;fill-opacity:1;stroke:#ffffff;stroke-width:3.82200003;stroke-miterlimit:4;stroke-dasharray:none;stroke-opacity:1;filter:url(#filter5534)"
       x="2028.7821"
       y="2443.6147"
       id="text4213"
       sodipodi:linespacing="125%"
       transform="matrix(0.75304346,0,-0.11971288,1.3279446,0,27.158278)"><tspan
         sodipodi:role="line"
         id="tspan4215"
         x="2028.7821"
         y="2443.6147"
         style="fill:#ffffff;stroke:#ffffff;stroke-width:3.82200003;stroke-miterlimit:4;stroke-dasharray:none">- EINDE -</tspan></text>
    <text
       xml:space="preserve"
       style="font-style:normal;font-variant:normal;font-weight:normal;font-stretch:normal;font-size:9.79592609px;line-height:125%;font-family:Lavi;-inkscape-font-specification:Lavi;text-align:center;letter-spacing:0px;word-spacing:0px;text-anchor:middle;opacity:1;fill:#ffffff;fill-opacity:1;stroke:#ffffff;filter:url(#filter5522)"
       x="1240.0964"
       y="3314.6868"
       id="text4246-42"
       sodipodi:linespacing="125%"><tspan
         sodipodi:role="line"
         style="font-size:36.73472214px;fill:#ffffff;stroke:#ffffff"
         x="1240.0964"
         y="3314.6868"
         id="tspan4252-9">06/2016 - www.peppercarrot.com - Tekeningen &amp; verhaal: David Revoy - Vertaling: Willem Sonke &amp; Midgard</tspan></text>
  </g>
  <g
     inkscape:groupmode="layer"
     id="layer1"
     inkscape:label="txt">
    <text
       xml:space="preserve"
       style="font-style:normal;font-variant:normal;font-weight:normal;font-stretch:normal;font-size:12px;line-height:125%;font-family:Lavi;-inkscape-font-specification:Lavi;text-align:center;letter-spacing:0px;word-spacing:0px;text-anchor:middle;fill:#000000;fill-opacity:1;stroke:none"
       x="955.94354"
       y="213.56387"
       id="text4246-0"
       sodipodi:linespacing="125%"><tspan
         sodipodi:role="line"
         style="font-size:45px"
         x="955.94354"
         y="213.56387"
         id="tspan5570">… en zo ben ik hier uiteindelijk</tspan><tspan
         sodipodi:role="line"
         style="font-size:45px"
         x="955.94354"
         y="269.81387"
         id="tspan4320">toch heelhuids aangekomen.</tspan></text>
    <text
       xml:space="preserve"
       style="font-style:normal;font-variant:normal;font-weight:normal;font-stretch:normal;font-size:12px;line-height:125%;font-family:Lavi;-inkscape-font-specification:Lavi;text-align:center;letter-spacing:0px;word-spacing:0px;text-anchor:middle;fill:#000000;fill-opacity:1;stroke:none"
       x="1273.17"
       y="477.65073"
       id="text4246-0-2"
       sodipodi:linespacing="125%"><tspan
         sodipodi:role="line"
         style="font-size:45px"
         x="1273.17"
         y="477.65073"
         id="tspan4166-2">En je zegt dat je hierheen</tspan><tspan
         sodipodi:role="line"
         style="font-size:45px"
         x="1273.17"
         y="533.90076"
         id="tspan4211">bent gekomen omdat ze</tspan><tspan
         sodipodi:role="line"
         style="font-size:45px"
         x="1273.17"
         y="590.15076"
         id="tspan4213">je niets geleerd hebben?</tspan></text>
  </g>
</svg>
