<?xml version="1.0" encoding="UTF-8" standalone="no"?>
<!-- Created with Inkscape (http://www.inkscape.org/) -->

<svg
   xmlns:dc="http://purl.org/dc/elements/1.1/"
   xmlns:cc="http://creativecommons.org/ns#"
   xmlns:rdf="http://www.w3.org/1999/02/22-rdf-syntax-ns#"
   xmlns:svg="http://www.w3.org/2000/svg"
   xmlns="http://www.w3.org/2000/svg"
   xmlns:xlink="http://www.w3.org/1999/xlink"
   xmlns:sodipodi="http://sodipodi.sourceforge.net/DTD/sodipodi-0.dtd"
   xmlns:inkscape="http://www.inkscape.org/namespaces/inkscape"
   id="svg2"
   version="1.1"
   inkscape:version="0.92.1 r15371"
   width="2481"
   height="3503"
   sodipodi:docname="E29P04.svg"
   inkscape:export-filename="/home/dash/Downloads/pepper carrot EPS/ep29_Destroyer-of-Worlds_lang-pack/lang/ph/E29P04.svg.png"
   inkscape:export-xdpi="90"
   inkscape:export-ydpi="90">
  <metadata
     id="metadata8">
    <rdf:RDF>
      <cc:Work
         rdf:about="">
        <dc:format>image/svg+xml</dc:format>
        <dc:type
           rdf:resource="http://purl.org/dc/dcmitype/StillImage" />
        <dc:title />
      </cc:Work>
    </rdf:RDF>
  </metadata>
  <defs
     id="defs6">
    <filter
       style="color-interpolation-filters:sRGB"
       id="filter4375-4-1-1-1-9"
       inkscape:label="deevad outline effect">
      <feFlood
         id="feFlood4377-7-9-0-8-1"
         flood-opacity="1"
         flood-color="rgb(0,0,0)"
         result="flood" />
      <feComposite
         id="feComposite4379-3-8-8-2-77"
         in2="SourceGraphic"
         in="flood"
         operator="in"
         result="composite1" />
      <feMorphology
         id="feMorphology4393-1-0-49-8-9"
         operator="dilate"
         radius="3.5"
         result="result3" />
      <feComposite
         id="feComposite4385-9-5-7-0-8"
         in2="result3"
         in="SourceGraphic"
         operator="over"
         result="composite2" />
    </filter>
  </defs>
  <sodipodi:namedview
     pagecolor="#ffffff"
     bordercolor="#666666"
     borderopacity="1"
     objecttolerance="10"
     gridtolerance="10"
     guidetolerance="10"
     inkscape:pageopacity="0"
     inkscape:pageshadow="2"
     inkscape:window-width="1920"
     inkscape:window-height="997"
     id="namedview4"
     showgrid="false"
     inkscape:zoom="0.47935747"
     inkscape:cx="1156.9795"
     inkscape:cy="288.27847"
     inkscape:window-x="0"
     inkscape:window-y="0"
     inkscape:window-maximized="1"
     inkscape:current-layer="layer1"
     inkscape:snap-global="false" />
  <g
     inkscape:groupmode="layer"
     id="layer2"
     inkscape:label="artwork"
     sodipodi:insensitive="true">
    <image
       sodipodi:absref="/home/dash/Downloads/pepper carrot EPS/ep29_Destroyer-of-Worlds_lang-pack/lang/ph/../gfx_Pepper-and-Carrot_by-David-Revoy_E29P04.png"
       xlink:href="../gfx_Pepper-and-Carrot_by-David-Revoy_E29P04.png"
       width="2481"
       height="3503"
       id="image10"
       x="0"
       y="0" />
  </g>
  <g
     inkscape:groupmode="layer"
     id="layer3"
     inkscape:label="speechbubbles">
    <path
       style="color:#000000;display:inline;overflow:visible;visibility:visible;fill:#ffffff;fill-opacity:1;fill-rule:nonzero;stroke:none;stroke-width:0.96058857px;marker:none;enable-background:accumulate"
       d="m 2333.2749,143.87608 c 29.1118,20.21802 47.064,283.62162 -15.8677,320.16125 -39.934,23.18671 -190.955,14.11421 -219.893,-15.49168 -34.0569,-34.84303 -24.8272,-229.58406 -5.8439,-278.56151 18.0608,-46.59702 79.9223,-48.31838 140.0175,-50.66843 24.5273,-0.95911 72.4754,4.34227 101.5871,24.56037 z"
       id="path4040-4-0"
       inkscape:connector-curvature="0"
       sodipodi:nodetypes="zssssz" />
    <path
       style="color:#000000;display:inline;overflow:visible;visibility:visible;fill:#ffffff;fill-opacity:1;fill-rule:nonzero;stroke:none;stroke-width:1.03149903px;marker:none;enable-background:accumulate"
       d="m 1796.1209,755.57948 c 33.7427,1.37978 73.5528,-3.79935 125.9638,32.95612 37.314,26.16815 37.4296,56.1338 39.9846,166.17002 5.328,101.51598 -66.2625,189.70238 -188.2143,161.16548 -98.8006,-3.1309 -89.4577,-129.54771 -93.5139,-155.96504 -4.0563,-26.41735 -2.8751,-153.08603 29.0041,-178.12015 19.9553,-15.67082 45.5236,-26.07003 86.7757,-26.20643 z"
       id="path4546-6"
       inkscape:connector-curvature="0"
       sodipodi:nodetypes="csccssc" />
    <path
       style="fill:#ffffff;fill-opacity:1;fill-rule:evenodd;stroke:none;stroke-width:0.94288391px;stroke-linecap:butt;stroke-linejoin:miter;stroke-opacity:1"
       d="m 591.701,455.56114 c -10.47489,3.45864 -23.13104,-0.74899 -30.73917,-8.15263 -6.295,-6.68721 -15.12306,-13.3491 -15.75842,-21.98808 -0.69874,-9.91947 5.28528,-20.77271 -3.30086,-30.02739 -11.96846,-8.53432 -19.12841,-13.91901 -19.49968,-27.44905 -0.4397,-11.53162 4.95977,-22.67415 11.82979,-30.91503 5.74684,-5.69346 2.8732,-13.76292 -1.86617,-19.92549 -4.98198,-9.86661 -8.62039,-22.86862 0.66889,-30.68782 6.02356,-3.72535 12.60659,-5.01355 13.16682,-12.81183 1.55519,-10.85262 -5.49201,-20.78415 -6.66396,-31.53175 -5.65672,-10.72007 -2.50333,-39.81777 3.53101,-48.54931 4.48732,-6.06044 8.43619,-13.78623 18.81344,-13.93988 17.5866,-4.26035 41.90775,-2.23397 51.59762,-14.54687 6.33551,-6.99684 10.36766,-17.02823 22.26013,-18.85348 13.84881,-2.47843 27.44923,10.42367 40.07545,15.18682 12.31376,-10.36049 34.5145,-8.81162 41.22012,1.57953 3.71725,5.86329 20.89984,31.58085 21.87358,38.10889 3.62416,13.01954 -7.52391,35.1769 2.67257,46.49479 10.86309,8.19818 6.24494,27.91799 3.97425,38.44049 -3.25738,8.3406 1.92826,17.01373 3.13957,25.64816 2.12878,9.20505 -4.6365,19.20189 -2.98765,28.40299 4.65164,13.78778 9.8719,26.16521 5.43088,40.43019 -1.72542,12.46165 -3.0111,17.57342 -14.40152,24.41239 -3.72469,3.06174 -5.79452,8.81564 -6.78587,13.5487 -3.46028,11.6257 -6.36999,17.31781 -15.20436,27.30395 -7.62364,7.39843 -21.58652,9.1082 -33.26223,5.25094 -9.05751,-1.82229 -18.99998,-8.10109 -27.79966,-5.67643 -11.36598,5.27537 -14.41665,22.49725 -29.18674,20.94606 -7.8888,-0.86603 -13.7119,-6.38555 -21.38296,-7.97123 -3.74712,-1.11979 -7.56853,-2.00888 -11.41473,-2.72723 z"
       id="path4367"
       inkscape:connector-curvature="0"
       sodipodi:nodetypes="ccccccccccccccccccccccccccccccc" />
    <path
       style="fill:#ffffff;stroke:none;stroke-width:1.23848867"
       d="m 650.82337,494.7866 c -40.13788,-11.86997 2.36322,-40.3283 15.39241,-49.53778 13.02911,-9.2095 19.52673,-19.1347 19.03143,-27.59531 -0.49532,-8.46061 -8.4461,-17.21425 -15.523,-24.21281 -7.07698,-6.99861 1.36182,-16.71803 8.31005,-24.19003 6.94829,-7.47208 39.49253,-46.21168 39.49253,-46.21168 0,0 -51.86317,12.14437 -62.69844,20.86652 -10.8353,8.72215 -13.62498,16.10827 -16.54677,20.43039 -2.9218,4.32223 -8.33152,20.28888 -3.74262,28.74234 4.58878,8.45347 16.51392,15.12526 22.03702,20.98686 5.52316,5.86151 3.12826,12.29665 -4.56337,20.77153 -7.69164,8.47491 -14.62624,29.71668 3.43944,44.7525 10.70995,8.91376 -21.63242,14.50145 -4.62868,15.19747 z"
       id="path3023"
       inkscape:connector-curvature="0"
       sodipodi:nodetypes="csssscssssssc"
       inkscape:transform-center-x="-20.506011"
       inkscape:transform-center-y="102.37524" />
    <path
       style="fill:#ffffff;fill-opacity:1;fill-rule:evenodd;stroke:none;stroke-width:1px;stroke-linecap:butt;stroke-linejoin:miter;stroke-opacity:1"
       d="m 374.3676,185.74805 c 8.3218,-5.79206 18.7638,1.39884 22.4599,7.13211 6.8744,6.42753 6.8194,14.68565 6.3027,22.40363 -1.352,7.67766 5.27,13.30603 12.1154,18.29141 8.8817,7.89065 11.9296,19.3479 5.4527,28.65929 -4.415,6.92028 -9.8428,14.92276 -4.778,22.50809 5.1258,9.04582 9.611,20.56004 1.1515,29.29148 -9.8244,6.21125 -5.6471,16.52363 -1.7701,24.12218 4.5481,9.75981 7.3093,20.44142 2.8986,30.52218 -2.5816,6.68399 -3.8416,14.9733 -13.568,18.27081 -10.6522,3.98009 -23.368,8.26193 -26.5604,17.58319 -2.7568,6.59787 -4.4272,16.08895 -15.516,17.74994 -9.8954,-0.19334 -44.72983,-0.73652 -53.34833,-3.91366 -11.1665,-9.39343 -2.5793,-23.80101 -5.6713,-35.73026 -1.9912,-7.8 -13.88684,-14.19832 -15.42663,-27.23653 -2.57938,-18.05433 7.09909,-21.72666 2.35549,-32.68569 -4.4331,-12.92394 0.91191,-16.45515 -7.06989,-28.70038 -7.417,-13.94377 -5.0132,-30.3487 6.9075,-42.5837 5.9244,-5.25111 -2.19307,-17.54194 -3.32597,-24.22848 -0.3998,-8.93158 -2.3025,-13.51391 7.8758,-20.11112 7.2593,-5.28858 4.964,-3.86593 13.0375,-7.3887 7.9711,-3.68296 9.7059,-12.23691 19.1363,-14.80815 7.794,-1.96953 39.18983,1.91024 47.34123,0.85236 z"
       id="path4367-3"
       inkscape:connector-curvature="0"
       sodipodi:nodetypes="ccccccccccccccccccccccc" />
    <path
       style="color:#000000;display:inline;overflow:visible;visibility:visible;opacity:1;fill:#ffffff;fill-opacity:1;fill-rule:nonzero;stroke:none;stroke-width:1.57165587px;marker:none;enable-background:accumulate"
       d="m 229.15086,1157.2714 c 34.41792,-1.7138 86.07994,24.3947 107.47377,73.7171 31.77886,73.2645 18.87687,109.6308 17.41481,171.6036 -1.35818,57.5685 -12.2119,149.7033 -50.49474,198.0724 -21.05215,26.5987 -52.56078,46.4741 -80.83612,52.347 -3.71311,-7.6866 -8.34182,-19.5007 -11.66975,-24.3813 0.92009,11.1858 2.40523,17.8597 3.26162,26.1956 -7.05736,0.5643 -16.26582,-0.7384 -22.82566,-2.2931 -36.15566,-8.5696 -84.80681,-32.4392 -94.780893,-96.5617 -10.69704,-68.7721 -1.63966,-183.4229 -3.57877,-248.9763 -1.734426,-58.6292 10.634153,-94.2637 36.156043,-125.1135 25.87391,-31.2756 65.46201,-22.8957 99.87969,-24.6098 z"
       id="path3373"
       inkscape:connector-curvature="0"
       sodipodi:nodetypes="zssscccssssz" />
    <path
       style="fill:#ffffff;fill-rule:evenodd;stroke:none;stroke-width:0.99999994px;stroke-linecap:butt;stroke-linejoin:miter;stroke-opacity:1"
       d="m 1382.5429,1139.0664 c -3.4907,35.4527 13.0192,87.3672 65.5744,58.7052 -26.313,56.5525 -45.8066,102.8842 27.7326,191.7432 -81.4659,-7.5202 -73.8546,32.927 -58.2141,69.391 -27.4139,-34.9953 -43.1229,27.8226 -44.6628,61.613 -59.2943,-71.4804 -67.3435,-32.9699 -76.7065,-0.9035 3.5532,-64.3968 -32.0871,-58.1345 -52.0996,-45.0701 42.8941,-60.2623 17.5824,-145.0466 -12.5816,-135.7844 17.3709,-26.8851 64.3702,-48.1726 -4.554,-114.9273 59.5014,24.5474 53.2559,-7.6288 23.9247,-59.7223 20.2671,8.1642 51.086,56.6877 47.8499,-25.0448 19.2669,51.0516 45.3663,61.7574 83.737,0 z"
       id="path4584"
       inkscape:connector-curvature="0"
       sodipodi:nodetypes="cccccccccccc" />
    <path
       style="fill:#ffffff;stroke:none;stroke-width:1.23848867"
       d="m 348.14532,455.73226 c -40.13788,-11.86997 2.36322,-40.3283 15.39241,-49.53778 13.02911,-9.2095 19.52673,-19.1347 19.03143,-27.59531 -0.49532,-8.46061 -8.4461,-17.21425 -15.523,-24.21281 -7.07698,-6.99861 1.36182,-16.71803 8.31005,-24.19003 6.94829,-7.47208 39.49253,-46.21168 39.49253,-46.21168 0,0 -51.86317,12.14437 -62.69844,20.86652 -10.8353,8.72215 -13.62498,16.10827 -16.54677,20.43039 -2.9218,4.32223 -8.33152,20.28888 -3.74262,28.74234 4.58878,8.45347 16.51392,15.12526 22.03702,20.98686 5.52316,5.86151 3.12826,12.29665 -4.56337,20.77153 -7.69164,8.47491 -14.62624,29.71668 3.43944,44.7525 10.70995,8.91376 -21.63242,14.50145 -4.62868,15.19747 z"
       id="path3023-7"
       inkscape:connector-curvature="0"
       sodipodi:nodetypes="csssscssssssc"
       inkscape:transform-center-x="-20.506011"
       inkscape:transform-center-y="102.37524" />
  </g>
  <g
     inkscape:groupmode="layer"
     id="layer1"
     inkscape:label="txt">
    <text
       xml:space="preserve"
       style="font-style:normal;font-variant:normal;font-weight:normal;font-stretch:normal;line-height:0%;font-family:Lavi;-inkscape-font-specification:Lavi;text-align:center;letter-spacing:0px;word-spacing:0px;text-anchor:middle;fill:#000000;fill-opacity:1;stroke:none"
       x="348.72083"
       y="282.66501"
       id="text4246"><tspan
         sodipodi:role="line"
         style="font-size:37.33333206px;line-height:1.20000005"
         x="355.28333"
         y="282.66501"
         id="tspan4252">Oh </tspan><tspan
         sodipodi:role="line"
         style="font-size:37.33333206px;line-height:1.20000005"
         x="348.72083"
         y="327.465"
         id="tspan4762">yuck</tspan><tspan
         sodipodi:role="line"
         style="font-size:37.33333206px;line-height:1.20000005"
         x="348.72083"
         y="372.26501"
         id="tspan4764">!</tspan></text>
    <text
       xml:space="preserve"
       style="font-style:normal;font-variant:normal;font-weight:normal;font-stretch:normal;font-size:8.14394093px;line-height:0%;font-family:Lavi;-inkscape-font-specification:Lavi;text-align:center;letter-spacing:0px;word-spacing:0px;text-anchor:middle;fill:#000000;fill-opacity:1;stroke:none;stroke-width:0.67866176"
       x="639.84967"
       y="231.41145"
       id="text4246-3"><tspan
         sodipodi:role="line"
         style="font-size:25.33670616px;line-height:1.20000005;stroke-width:0.67866176"
         x="639.84967"
         y="231.41145"
         id="tspan847">Ewwww!</tspan><tspan
         sodipodi:role="line"
         style="font-size:25.33670616px;line-height:1.20000005;stroke-width:0.67866176"
         x="644.30341"
         y="261.81552"
         id="tspan4555">Diba gamit </tspan><tspan
         sodipodi:role="line"
         style="font-size:25.33670616px;line-height:1.20000005;stroke-width:0.67866176"
         x="639.84967"
         y="292.21954"
         id="tspan4561">na yan?</tspan><tspan
         sodipodi:role="line"
         style="font-size:25.33670616px;line-height:1.20000005;stroke-width:0.67866176"
         x="644.30341"
         y="322.6236"
         id="tspan4557">Tignan </tspan><tspan
         sodipodi:role="line"
         style="font-size:25.33670616px;line-height:1.20000005;stroke-width:0.67866176"
         x="644.30341"
         y="353.02765"
         id="tspan4766">mo oh, may </tspan><tspan
         sodipodi:role="line"
         style="font-size:25.33670616px;line-height:1.20000005;stroke-width:0.67866176"
         x="644.30341"
         y="383.4317"
         id="tspan4551">tinga-tinga </tspan><tspan
         sodipodi:role="line"
         style="font-size:25.33670616px;line-height:1.20000005;stroke-width:0.67866176"
         x="639.84967"
         y="413.83575"
         id="tspan4553">pa!</tspan></text>
    <path
       style="color:#000000;display:inline;overflow:visible;visibility:visible;fill:#ffffff;fill-opacity:1;fill-rule:nonzero;stroke:none;stroke-width:0.77212805px;marker:none;enable-background:accumulate"
       d="m 1017.0661,229.94671 c 25.4274,20.20892 49.8227,186.57463 -4.7678,243.64479 -54.59066,57.07017 -117.7646,20.3175 -137.37321,-13.55771 -19.60869,-33.87511 -39.71471,-132.73063 -21.27585,-177.22676 18.43886,-44.49621 45.28851,-78.87887 98.72794,-79.97666 21.81076,-0.44805 39.26154,6.90731 64.68892,27.11634 z"
       id="path4040"
       inkscape:connector-curvature="0"
       sodipodi:nodetypes="zssssz" />
    <path
       style="color:#000000;display:inline;overflow:visible;visibility:visible;fill:#ffffff;fill-opacity:1;fill-rule:nonzero;stroke:none;stroke-width:0.62090462px;marker:none;enable-background:accumulate"
       d="m 940.24419,519.55225 c 20.27132,-1.3579 51.26574,-18.19207 13.01706,-37.50828 -25.44172,-19.72232 -5.98755,-7.73644 -5.98755,-7.73644 l 32.99783,12.43214 c 0,0 53.33907,36.34761 -40.02734,32.81258 z"
       id="path3072-1"
       inkscape:connector-curvature="0"
       sodipodi:nodetypes="ccccc" />
    <text
       xml:space="preserve"
       style="font-style:normal;font-variant:normal;font-weight:normal;font-stretch:normal;font-size:9.27821064px;line-height:0%;font-family:Lavi;-inkscape-font-specification:Lavi;text-align:center;letter-spacing:0px;word-spacing:0px;text-anchor:middle;fill:#000000;fill-opacity:1;stroke:none;stroke-width:0.77318424"
       x="947.68243"
       y="277.33221"
       id="text4246-9"><tspan
         sodipodi:role="line"
         style="font-size:34.79328918px;line-height:1.20000005;stroke-width:0.77318424"
         x="947.68243"
         y="277.33221"
         id="tspan891">Ha ha!</tspan><tspan
         sodipodi:role="line"
         style="font-size:34.79328918px;line-height:1.20000005;stroke-width:0.77318424"
         x="947.68243"
         y="319.08417"
         id="tspan918">Nice one</tspan><tspan
         sodipodi:role="line"
         style="font-size:34.79328918px;line-height:1.20000005;stroke-width:0.77318424"
         x="947.68243"
         y="360.83612"
         id="tspan922">Pepper!</tspan><tspan
         sodipodi:role="line"
         style="font-size:34.79328918px;line-height:1.20000005;stroke-width:0.77318424"
         x="953.79846"
         y="402.58807"
         id="tspan4565">Genius mo </tspan><tspan
         sodipodi:role="line"
         style="font-size:34.79328918px;line-height:1.20000005;stroke-width:0.77318424"
         x="947.68243"
         y="444.34003"
         id="tspan4567">talaga!</tspan></text>
    <path
       style="color:#000000;display:inline;overflow:visible;visibility:visible;fill:#ffffff;fill-opacity:1;fill-rule:nonzero;stroke:none;stroke-width:0.62090462px;marker:none;enable-background:accumulate"
       d="m 2251.4941,501.8469 c 20.2713,-1.3579 51.2657,-18.19207 13.0171,-37.50828 -25.4418,-19.72232 -5.9876,-7.73644 -5.9876,-7.73644 l 32.9978,12.43214 c 0,0 53.3391,36.34761 -40.0273,32.81258 z"
       id="path3072-1-9"
       inkscape:connector-curvature="0"
       sodipodi:nodetypes="ccccc" />
    <text
       xml:space="preserve"
       style="font-style:normal;font-variant:normal;font-weight:normal;font-stretch:normal;font-size:10.02763557px;line-height:0%;font-family:Lavi;-inkscape-font-specification:Lavi;text-align:center;letter-spacing:0px;word-spacing:0px;text-anchor:middle;fill:#000000;fill-opacity:1;stroke:none;stroke-width:0.83563632"
       x="2219.3323"
       y="221.33362"
       id="text4246-9-2"><tspan
         sodipodi:role="line"
         style="font-size:37.60363388px;line-height:1.20000005;stroke-width:0.83563632"
         x="2225.9424"
         y="221.33362"
         id="tspan929">Ok na yan </tspan><tspan
         sodipodi:role="line"
         style="font-size:37.60363388px;line-height:1.20000005;stroke-width:0.83563632"
         x="2225.9424"
         y="266.45798"
         id="tspan4795">Pepper, </tspan><tspan
         sodipodi:role="line"
         style="font-size:37.60363388px;line-height:1.20000005;stroke-width:0.83563632"
         x="2219.3323"
         y="311.58234"
         id="tspan4797">salamat sa</tspan><tspan
         sodipodi:role="line"
         style="font-size:37.60363388px;line-height:1.20000005;stroke-width:0.83563632"
         x="2219.3323"
         y="356.7067"
         id="tspan926">“explanation”</tspan><tspan
         sodipodi:role="line"
         style="font-size:37.60363388px;line-height:1.20000005;stroke-width:0.83563632"
         x="2219.3323"
         y="401.83105"
         id="tspan4799"> mo ha.</tspan></text>
    <text
       xml:space="preserve"
       style="font-style:normal;font-variant:normal;font-weight:normal;font-stretch:normal;font-size:9.97343254px;line-height:0%;font-family:Lavi;-inkscape-font-specification:Lavi;text-align:center;letter-spacing:0px;word-spacing:0px;text-anchor:middle;fill:#000000;fill-opacity:1;stroke:none;stroke-width:0.83111936"
       x="1815.5955"
       y="867.01025"
       id="text4246-9-2-6"><tspan
         sodipodi:role="line"
         style="font-size:37.40037155px;line-height:1;stroke-width:0.83111936"
         x="1815.5955"
         y="867.01025"
         id="tspan4825">Medyo</tspan><tspan
         sodipodi:role="line"
         style="font-size:37.40037155px;line-height:1;stroke-width:0.83111936"
         x="1815.5955"
         y="904.41064"
         id="tspan4833"> late na rin,</tspan><tspan
         sodipodi:role="line"
         style="font-size:37.40037155px;line-height:1;stroke-width:0.83111936"
         x="1822.1698"
         y="941.81097"
         id="tspan4631">oras na para </tspan><tspan
         sodipodi:role="line"
         style="font-size:37.40037155px;line-height:1;stroke-width:0.83111936"
         x="1815.5955"
         y="979.21136"
         id="tspan4633">sa sleep over</tspan><tspan
         sodipodi:role="line"
         style="font-size:37.40037155px;line-height:1;stroke-width:0.83111936"
         x="1822.1698"
         y="1016.6118"
         id="tspan4648"> party natin </tspan></text>
    <text
       xml:space="preserve"
       style="font-style:normal;font-variant:normal;font-weight:normal;font-stretch:normal;font-size:12.17853165px;line-height:0%;font-family:Lavi;-inkscape-font-specification:Lavi;text-align:center;letter-spacing:0px;word-spacing:0px;text-anchor:middle;fill:#000000;fill-opacity:1;stroke:none;stroke-width:1.14974463"
       x="210.00813"
       y="1275.6986"
       id="text4246-3-2"><tspan
         sodipodi:role="line"
         style="font-size:42.92380142px;line-height:1.20000005;stroke-width:1.14974463"
         x="210.00813"
         y="1275.6986"
         id="tspan899">Medyo</tspan><tspan
         sodipodi:role="line"
         style="font-size:42.92380142px;line-height:1.20000005;stroke-width:1.14974463"
         x="217.55333"
         y="1327.2072"
         id="tspan4839">oras </tspan><tspan
         sodipodi:role="line"
         style="font-size:42.92380142px;line-height:1.20000005;stroke-width:1.14974463"
         x="217.55333"
         y="1378.7157"
         id="tspan4837">na rin </tspan><tspan
         sodipodi:role="line"
         style="font-size:42.92380142px;line-height:1.20000005;stroke-width:1.14974463"
         x="217.55333"
         y="1430.2242"
         id="tspan4640">para </tspan><tspan
         sodipodi:role="line"
         style="font-size:42.92380142px;line-height:1.20000005;stroke-width:1.14974463"
         x="217.55333"
         y="1481.7329"
         id="tspan4835">maghugas </tspan><tspan
         sodipodi:role="line"
         style="font-size:42.92380142px;line-height:1.20000005;stroke-width:1.14974463"
         x="210.00813"
         y="1533.2415"
         id="tspan4646">ng kamay</tspan></text>
    <text
       xml:space="preserve"
       style="font-style:normal;font-variant:normal;font-weight:normal;font-stretch:normal;line-height:0%;font-family:Lavi;-inkscape-font-specification:Lavi;text-align:center;letter-spacing:0px;word-spacing:0px;text-anchor:middle;fill:#000000;fill-opacity:1;stroke:none"
       x="1340.8452"
       y="1289.0685"
       id="text4246-9-2-6-2"><tspan
         sodipodi:role="line"
         style="font-size:45px;line-height:1.20000005"
         x="1340.8452"
         y="1289.0685"
         id="tspan1035">Oi!</tspan><tspan
         sodipodi:role="line"
         style="font-size:45px;line-height:1.20000005"
         x="1348.7554"
         y="1343.0685"
         id="tspan4691">Wait </tspan><tspan
         sodipodi:role="line"
         style="font-size:45px;line-height:1.20000005"
         x="1340.8452"
         y="1397.0685"
         id="tspan4841">lang!</tspan></text>
    <text
       xml:space="preserve"
       style="font-style:normal;font-variant:normal;font-weight:normal;font-stretch:normal;font-size:14.62346077px;line-height:0%;font-family:Lavi;-inkscape-font-specification:Lavi;text-align:center;letter-spacing:0px;word-spacing:0px;text-anchor:middle;fill:#ffffff;fill-opacity:0.78431373;stroke:none;stroke-width:0.99999994"
       x="1387.7701"
       y="2189.5938"
       id="text4246-7"
       transform="matrix(0.79017753,-0.5292546,0.38466968,1.0078897,0,0)"><tspan
         sodipodi:role="line"
         style="font-style:normal;font-variant:normal;font-weight:bold;font-stretch:normal;font-size:58.49384308px;line-height:1.20000005;font-family:Lavi;-inkscape-font-specification:'Lavi Bold';fill:#ffffff;fill-opacity:0.78431373;stroke-width:0.82059908"
         x="1387.7701"
         y="2189.5938"
         id="tspan4252-5">Flick!</tspan></text>
    <text
       xml:space="preserve"
       style="font-style:normal;font-variant:normal;font-weight:normal;font-stretch:normal;font-size:11.79470253px;line-height:0%;font-family:Lavi;-inkscape-font-specification:Lavi;text-align:center;letter-spacing:0px;word-spacing:0px;text-anchor:middle;fill:#ffffff;fill-opacity:0.78431373;stroke:none;stroke-width:0.99999994"
       x="-536.53265"
       y="2434.625"
       id="text4246-7-9"
       transform="matrix(0.80236382,-0.52121629,0.39060214,0.99258189,0,0)"><tspan
         sodipodi:role="line"
         style="font-style:normal;font-variant:normal;font-weight:bold;font-stretch:normal;font-size:47.17881012px;line-height:1.20000005;font-family:Lavi;-inkscape-font-specification:'Lavi Bold';fill:#ffffff;fill-opacity:0.78431373;stroke-width:0.82059908"
         x="-536.53265"
         y="2434.625"
         id="tspan4252-5-2">Tuck!</tspan></text>
    <text
       xml:space="preserve"
       style="font-style:normal;font-variant:normal;font-weight:normal;font-stretch:normal;font-size:11.79470253px;line-height:0%;font-family:Lavi;-inkscape-font-specification:Lavi;text-align:center;letter-spacing:0px;word-spacing:0px;text-anchor:middle;fill:#ffffff;fill-opacity:0.78431373;stroke:none;stroke-width:0.99999994"
       x="-363.09036"
       y="2526.7615"
       id="text4246-7-9-2"
       transform="matrix(0.80236382,-0.52121629,0.39060214,0.99258189,0,0)"><tspan
         sodipodi:role="line"
         style="font-style:normal;font-variant:normal;font-weight:bold;font-stretch:normal;font-size:47.17881012px;line-height:1.20000005;font-family:Lavi;-inkscape-font-specification:'Lavi Bold';fill:#ffffff;fill-opacity:0.78431373;stroke-width:0.82059908"
         x="-363.09036"
         y="2526.7615"
         id="tspan4252-5-2-8">Tuck!</tspan></text>
    <text
       xml:space="preserve"
       style="font-style:normal;font-variant:normal;font-weight:normal;font-stretch:normal;line-height:0%;font-family:Lavi;-inkscape-font-specification:Lavi;letter-spacing:0px;word-spacing:0px;fill:#000000;fill-opacity:1;stroke:none;stroke-width:0;stroke-miterlimit:4;stroke-dasharray:none;stroke-opacity:1;filter:url(#filter4375-4-1-1-1-9)"
       x="787.65729"
       y="1584.5073"
       id="text4580"
       transform="matrix(1.0562812,-1.0457132,0.34852463,1.662996,-176.82337,824.6776)"><tspan
         sodipodi:role="line"
         id="tspan4582"
         x="787.65729"
         y="1584.5073"
         style="font-size:70px;line-height:1.25;fill:#ffffff;stroke:none;stroke-width:0;stroke-miterlimit:4;stroke-dasharray:none">P<tspan
   style="font-size:56.01517868px;stroke:none;stroke-width:0;stroke-miterlimit:4;stroke-dasharray:none"
   id="tspan1119">OW</tspan><tspan
   style="font-size:80.40014648px;stroke:none;stroke-width:0;stroke-miterlimit:4;stroke-dasharray:none"
   id="tspan4617">!</tspan></tspan></text>
    <text
       xml:space="preserve"
       style="font-style:normal;font-variant:normal;font-weight:normal;font-stretch:normal;font-size:15.75232887px;line-height:0%;font-family:Lavi;-inkscape-font-specification:Lavi;text-align:center;letter-spacing:0px;word-spacing:0px;text-anchor:middle;opacity:1;fill:#ffffff;fill-opacity:0.84180789;stroke:none;stroke-width:0.99999994"
       x="1881.7031"
       y="2489.1436"
       id="text4246-7-9-2-3"
       transform="matrix(0.98943475,-0.09116349,0.01957156,1.0088748,0,0)"><tspan
         sodipodi:role="line"
         style="font-style:normal;font-variant:normal;font-weight:bold;font-stretch:normal;font-size:63.00931549px;line-height:1.20000005;font-family:Lavi;-inkscape-font-specification:'Lavi Bold';fill:#ffffff;fill-opacity:0.84180789;stroke-width:0.82059902"
         x="1881.7031"
         y="2489.1436"
         id="tspan4252-5-2-8-6">?</tspan></text>
    <text
       xml:space="preserve"
       style="font-style:normal;font-variant:normal;font-weight:normal;font-stretch:normal;line-height:0%;font-family:Lavi;-inkscape-font-specification:Lavi;text-align:center;letter-spacing:0px;word-spacing:0px;text-anchor:middle;fill:#000000;fill-opacity:1;stroke:none"
       x="2821.7812"
       y="636.13031"
       id="text4246-9-2-6-3"><tspan
         sodipodi:role="line"
         style="font-size:45px;line-height:1.20000005"
         x="2821.7812"
         y="636.13031"
         id="tspan935-6">It's time to</tspan><tspan
         sodipodi:role="line"
         style="font-size:45px;line-height:1.20000005"
         x="2821.7812"
         y="690.13031"
         id="tspan911-7">go to sleep now,</tspan><tspan
         sodipodi:role="line"
         style="font-size:45px;line-height:1.20000005"
         x="2821.7812"
         y="744.13031"
         id="tspan913-5">isn't it?</tspan></text>
    <text
       xml:space="preserve"
       style="font-style:normal;font-variant:normal;font-weight:normal;font-stretch:normal;font-size:10.59237862px;line-height:0%;font-family:Lavi;-inkscape-font-specification:Lavi;text-align:center;letter-spacing:0px;word-spacing:0px;text-anchor:middle;fill:#000000;fill-opacity:1;stroke:none;stroke-width:0.99999994"
       x="2805.1213"
       y="898.33667"
       id="text4246-3-2-3"><tspan
         sodipodi:role="line"
         style="font-size:37.33333206px;line-height:1.20000005;stroke-width:0.99999994"
         x="2805.1213"
         y="898.33667"
         id="tspan7378-5">And for</tspan><tspan
         sodipodi:role="line"
         style="font-size:37.33333206px;line-height:1.20000005;stroke-width:0.99999994"
         x="2805.1213"
         y="943.13666"
         id="tspan72-6">someone to wash</tspan><tspan
         sodipodi:role="line"
         style="font-size:37.33333206px;line-height:1.20000005;stroke-width:0.99999994"
         x="2805.1213"
         y="987.93665"
         id="tspan899-2">their hands.</tspan></text>
    <text
       xml:space="preserve"
       style="font-style:normal;font-variant:normal;font-weight:normal;font-stretch:normal;line-height:0%;font-family:Lavi;-inkscape-font-specification:Lavi;text-align:center;letter-spacing:0px;word-spacing:0px;text-anchor:middle;fill:#000000;fill-opacity:1;stroke:none"
       x="2861.0012"
       y="239.50064"
       id="text4246-9-2-9"><tspan
         sodipodi:role="line"
         style="font-size:45px;line-height:1.20000005"
         x="2861.0012"
         y="239.50064"
         id="tspan929-1">Alright Pepper, thanks</tspan><tspan
         sodipodi:role="line"
         style="font-size:45px;line-height:1.20000005"
         x="2861.0012"
         y="293.50064"
         id="tspan926-2">for this… “explanation”.</tspan></text>
    <text
       xml:space="preserve"
       style="font-style:normal;font-variant:normal;font-weight:normal;font-stretch:normal;font-size:20.37431145px;line-height:0%;font-family:Lavi;-inkscape-font-specification:Lavi;text-align:center;letter-spacing:0px;word-spacing:0px;text-anchor:middle;fill:#000000;fill-opacity:1;stroke:none;stroke-width:1.69785929"
       x="432.61618"
       y="1327.5553"
       id="text4246-9-2-6-2-7"><tspan
         sodipodi:role="line"
         style="font-size:76.40367126px;line-height:1.20000005;stroke-width:1.69785929"
         x="432.61618"
         y="1327.5553"
         id="tspan957-9">💢</tspan></text>
    <text
       xml:space="preserve"
       style="font-style:normal;font-variant:normal;font-weight:normal;font-stretch:normal;font-size:10.74695969px;line-height:0%;font-family:Lavi;-inkscape-font-specification:Lavi;text-align:center;letter-spacing:0px;word-spacing:0px;text-anchor:middle;fill:#ffffff;fill-opacity:1;stroke:none;stroke-width:0.89557993;"
       x="1285.9158"
       y="876.41223"
       id="text4246-9-2-6-2-7-3"
       transform="rotate(30.314603)"><tspan
         sodipodi:role="line"
         style="font-size:40.30110168px;line-height:1.20000005;stroke-width:0.89557993;fill:#ffffff;"
         x="1285.9158"
         y="876.41223"
         id="tspan957-9-6">💢</tspan></text>
    <text
       xml:space="preserve"
       style="font-style:normal;font-variant:normal;font-weight:normal;font-stretch:normal;font-size:6.33182669px;line-height:0%;font-family:Lavi;-inkscape-font-specification:Lavi;text-align:center;letter-spacing:0px;word-spacing:0px;text-anchor:middle;fill:#ffffff;fill-opacity:1;stroke:none;stroke-width:0.5276522"
       x="296.32611"
       y="2461.9041"
       id="text4246-9-2-6-2-0"><tspan
         sodipodi:role="line"
         style="font-size:23.74435043px;line-height:1.20000005;fill:#ffffff;stroke-width:0.5276522"
         x="300.49991"
         y="2461.9041"
         id="tspan4747">OO </tspan><tspan
         sodipodi:role="line"
         style="font-size:23.74435043px;line-height:1.20000005;fill:#ffffff;stroke-width:0.5276522"
         x="300.49991"
         y="2490.3972"
         id="tspan4760">NAMAN </tspan><tspan
         sodipodi:role="line"
         style="font-size:23.74435043px;line-height:1.20000005;fill:#ffffff;stroke-width:0.5276522"
         x="296.32611"
         y="2518.8904"
         id="tspan4758">NO ♥</tspan></text>
    <text
       xml:space="preserve"
       style="font-style:normal;font-variant:normal;font-weight:normal;font-stretch:normal;font-size:6.23448992px;line-height:0%;font-family:Lavi;-inkscape-font-specification:Lavi;text-align:center;letter-spacing:0px;word-spacing:0px;text-anchor:middle;fill:#ffffff;fill-opacity:1;stroke:none;stroke-width:0.51954079"
       x="234.90434"
       y="2336.0723"
       id="text4246-9-2-6-2-0-6"><tspan
         sodipodi:role="line"
         style="font-size:23.37933731px;line-height:1.20000005;fill:#ffffff;stroke-width:0.51954079"
         x="239.01399"
         y="2336.0723"
         id="tspan4691-2-8">Gusto mo ba </tspan><tspan
         sodipodi:role="line"
         style="font-size:23.37933731px;line-height:1.20000005;fill:#ffffff;stroke-width:0.51954079"
         x="239.01399"
         y="2364.1274"
         id="tspan4739">ulit magboard </tspan><tspan
         sodipodi:role="line"
         style="font-size:23.37933731px;line-height:1.20000005;fill:#ffffff;stroke-width:0.51954079"
         x="234.90434"
         y="2392.1826"
         id="tspan4741">games?</tspan></text>
    <text
       xml:space="preserve"
       style="font-style:normal;font-weight:normal;font-size:40px;line-height:1.25;font-family:sans-serif;letter-spacing:0px;word-spacing:0px;fill:#ffffff;fill-opacity:1;stroke:none;"
       x="377.58878"
       y="2538.1667"
       id="text4751"><tspan
         sodipodi:role="line"
         id="tspan4749"
         x="377.58878"
         y="2538.1667"> </tspan></text>
    <path
       style="color:#000000;display:inline;overflow:visible;visibility:visible;fill:#ffffff;fill-opacity:1;fill-rule:nonzero;stroke:none;stroke-width:0.62090462px;marker:none;enable-background:accumulate"
       d="m 1374.7368,1519.3301 c -20.2713,-1.3579 -51.2657,-18.192 -13.0171,-37.5083 25.4418,-19.7223 5.9876,-7.7364 5.9876,-7.7364 l -32.9978,12.4321 c 0,0 -53.3391,36.3477 40.0273,32.8126 z"
       id="path3072-1-9-2"
       inkscape:connector-curvature="0"
       sodipodi:nodetypes="ccccc" />
    <text
       xml:space="preserve"
       style="font-style:normal;font-variant:normal;font-weight:normal;font-stretch:normal;font-size:5.88035583px;line-height:0%;font-family:Lavi;-inkscape-font-specification:Lavi;text-align:center;letter-spacing:0px;word-spacing:0px;text-anchor:middle;fill:#ffffff;fill-opacity:1;stroke:none;stroke-width:0.49002966"
       x="125.09655"
       y="2170.7725"
       id="text4246-9-2-6-2-02"
       transform="matrix(0.83127503,-0.83519954,0.46585944,0.7349125,0,0)"><tspan
         sodipodi:role="line"
         style="font-size:22.05133438px;line-height:1.20000005;fill:#ffffff;stroke-width:0.49002966"
         x="128.97276"
         y="2170.7725"
         id="tspan4841-5">Hee </tspan><tspan
         sodipodi:role="line"
         style="font-size:22.05133438px;line-height:1.20000005;fill:#ffffff;stroke-width:0.49002966"
         x="125.09655"
         y="2197.2341"
         id="tspan4886">       hee</tspan></text>
  </g>
</svg>
