<?xml version="1.0" encoding="UTF-8" standalone="no"?>
<!-- Created with Inkscape (http://www.inkscape.org/) -->

<svg
   xmlns:dc="http://purl.org/dc/elements/1.1/"
   xmlns:cc="http://creativecommons.org/ns#"
   xmlns:rdf="http://www.w3.org/1999/02/22-rdf-syntax-ns#"
   xmlns:svg="http://www.w3.org/2000/svg"
   xmlns="http://www.w3.org/2000/svg"
   xmlns:xlink="http://www.w3.org/1999/xlink"
   xmlns:sodipodi="http://sodipodi.sourceforge.net/DTD/sodipodi-0.dtd"
   xmlns:inkscape="http://www.inkscape.org/namespaces/inkscape"
   id="svg2"
   version="1.1"
   inkscape:version="0.92.3 (2405546, 2018-03-11)"
   width="2481"
   height="3503"
   sodipodi:docname="E28P08.svg">
  <metadata
     id="metadata8">
    <rdf:RDF>
      <cc:Work
         rdf:about="">
        <dc:format>image/svg+xml</dc:format>
        <dc:type
           rdf:resource="http://purl.org/dc/dcmitype/StillImage" />
        <dc:title />
      </cc:Work>
    </rdf:RDF>
  </metadata>
  <defs
     id="defs6" />
  <sodipodi:namedview
     pagecolor="#ffffff"
     bordercolor="#666666"
     borderopacity="1"
     objecttolerance="10"
     gridtolerance="10"
     guidetolerance="10"
     inkscape:pageopacity="0"
     inkscape:pageshadow="2"
     inkscape:window-width="1920"
     inkscape:window-height="1022"
     id="namedview4"
     showgrid="false"
     inkscape:zoom="0.51498715"
     inkscape:cx="1263.8016"
     inkscape:cy="798.07819"
     inkscape:window-x="0"
     inkscape:window-y="0"
     inkscape:window-maximized="1"
     inkscape:current-layer="layer1" />
  <g
     inkscape:groupmode="layer"
     id="layer2"
     inkscape:label="artwork"
     sodipodi:insensitive="true">
    <image
       xlink:href="../gfx_Pepper-and-Carrot_by-David-Revoy_E28P08.png"
       width="2481"
       height="3503"
       id="image10"
       x="0"
       y="0" />
  </g>
  <g
     inkscape:groupmode="layer"
     id="layer3"
     inkscape:label="speechbubbles">
    <path
       style="fill:#ffffff;fill-rule:evenodd;stroke:none;stroke-width:1.12087822px;stroke-linecap:butt;stroke-linejoin:miter;stroke-opacity:1"
       d="m 144.97452,1259.5581 c 21.21607,-43.0433 64.89619,-61.0432 78.62422,-65.7388 13.72802,-4.6956 78.62421,-13.3042 98.59228,-13.3042 19.96806,0 195.93653,-3.9131 230.88065,1.5652 34.94407,5.4782 99.84026,21.9129 119.8083,44.6083 19.96805,22.6955 36.67567,63.1975 34.94411,91.5647 -2.21686,36.3176 6.3837,52.8993 -44.64486,87.2456 -49.29189,33.1774 -267.35602,27.0146 -317.27615,25.4494 -49.92013,-1.5652 -126.46709,3.8542 -167.6512,-14.9283 -41.18412,-18.7825 -55.74141,-68.0278 -54.49341,-94.6363 1.24801,-26.6084 21.21606,-61.8256 21.21606,-61.8256 z"
       id="path1079"
       inkscape:connector-curvature="0"
       sodipodi:nodetypes="cssccsssssc" />
    <path
       style="fill:#ffffff;fill-rule:evenodd;stroke:none;stroke-width:1px;stroke-linecap:butt;stroke-linejoin:miter;stroke-opacity:1"
       d="m 227.53576,1416.2623 c -20.60902,44.7713 -22.74099,55.4311 -24.1623,72.4869 -1.42132,17.0557 14.92377,43.35 35.5328,50.4565 20.60902,7.1066 33.40083,29.8476 24.1623,45.482 -9.23853,15.6345 -46.19264,77.4615 23.45165,96.6493 -66.80167,-29.1369 -24.16231,-76.7509 -17.05575,-87.4107 7.10656,-10.6599 19.89837,-34.8222 -8.52787,-60.4058 -28.42624,-25.5836 -38.37542,-39.7967 0,-89.5427 38.37542,-49.7459 -33.40083,-27.7155 -33.40083,-27.7155 z"
       id="path1081"
       inkscape:connector-curvature="0"
       sodipodi:nodetypes="ccccccssc" />
    <path
       style="fill:#ffffff;fill-rule:evenodd;stroke:none;stroke-width:0.97023606px;stroke-linecap:butt;stroke-linejoin:miter;stroke-opacity:1"
       d="m 371.96475,2090.3614 c 18.38342,-33.5164 49.34497,-45.5479 78.37143,-44.6885 29.02646,0.8594 97.7224,7.7345 114.17073,7.7345 16.44832,0 89.98202,-4.297 123.84621,-2.5782 33.8642,1.7188 56.11781,13.7503 65.7933,29.2195 9.67549,15.469 16.44832,34.3757 12.57813,59.2981 -3.8702,24.9224 -27.09136,55.8607 -61.9231,63.5951 -34.83175,7.7346 -131.58661,7.7346 -181.89914,8.594 -50.31251,0.8594 -112.23562,-12.0315 -134.48923,-30.0788 -22.25362,-18.0472 -39.6695,-45.5479 -16.44833,-91.0957 z"
       id="path1083"
       inkscape:connector-curvature="0" />
    <path
       style="fill:#ffffff;fill-rule:evenodd;stroke:none;stroke-width:1px;stroke-linecap:butt;stroke-linejoin:miter;stroke-opacity:1"
       d="m 521.52769,2076.2416 c -21.62867,-11.7413 -40.78548,-28.4263 -40.78548,-37.6957 0,-9.2694 14.83108,-37.0777 -11.74127,-37.6957 -26.57236,-0.6179 -37.69567,6.1796 -37.07771,-3.7077 0.61796,-9.8874 8.03351,-25.9544 21.62866,-30.2802 -31.51605,12.3593 -34.60585,34.6059 -27.19031,40.7855 7.41554,6.1796 10.67283,9.5522 36.18391,8.6549 20.28805,2.4824 -29.05118,18.071 7.69137,66.7364 32.13401,21.6287 51.29083,-6.7975 51.29083,-6.7975 z"
       id="path1085"
       inkscape:connector-curvature="0"
       sodipodi:nodetypes="cscscsccc" />
    <path
       style="fill:#ffffff;fill-rule:evenodd;stroke:none;stroke-width:0.99999994px;stroke-linecap:butt;stroke-linejoin:miter;stroke-opacity:1"
       d="m 1196.7567,1374.4067 c -2.0612,-17.5917 -18.7863,-50.2645 -51.4246,-16.1368 13.4861,-40.6864 -2.0483,-45.8436 -20.2475,-47.7381 14.3275,-14.6662 26.8461,-29.914 8.3492,-55.134 24.1301,-8.2443 29.8524,-28.7456 21.6847,-58.496 24.2775,23.2401 46.106,36.0759 52.4648,-16.8093 7.8988,41.4017 36.9104,48.8809 51.4071,4.7067 -2.1364,34.4681 6.0078,43.2805 21.8243,32.946 -9.212,21.6913 -6.6421,38.149 8.3629,49.0828 -25.8737,22.9443 -22.3046,36.8913 4.6106,43.7038 -43.282,5.9825 -37.4678,34.4558 -39.319,55.8065 -20.9277,-33.2159 -62.9528,-0.075 -57.7125,8.0684 z"
       id="path1087"
       inkscape:connector-curvature="0"
       sodipodi:nodetypes="cccccccccccc" />
    <path
       style="fill:#ffffff;fill-rule:evenodd;stroke:none;stroke-width:1px;stroke-linecap:butt;stroke-linejoin:miter;stroke-opacity:1"
       d="m 1191.0392,1352.1713 c -8.4109,39.2505 -9.8127,49.5304 -9.8127,58.8758 0,9.3453 7.2361,5.602 12.611,1.6262 3.5164,-2.5819 16.3596,-20.7842 5.6125,8.1864 -10.7472,28.9706 -24.2979,69.1557 -28.0361,81.7719 10.2799,-22.4289 27.5688,-57.474 32.7088,-68.6884 5.1399,-11.2144 13.3039,-31.7117 15.4198,-37.8487 2.574,-7.4657 2.2967,-14.9288 -5.6521,-13.2604 -12.5951,3.9915 -24.253,31.4839 -4.6278,-16.1775 19.6253,-47.6613 11.2144,-117.2842 11.2144,-117.2842 z"
       id="path1089"
       inkscape:connector-curvature="0"
       sodipodi:nodetypes="csccccscccc" />
    <path
       style="fill:#ffffff;fill-rule:evenodd;stroke:none;stroke-width:0.96909076px;stroke-linecap:butt;stroke-linejoin:miter;stroke-opacity:1"
       d="m 1333.8656,1200.1939 c 1.2616,-32.2368 -10.0929,-33.2137 11.3545,-34.1905 21.4472,-0.9769 249.7988,-0.9769 291.432,-0.9769 41.6332,0 74.4351,18.5606 89.5744,44.9362 15.1394,26.3755 39.8268,77.0157 -10.6377,106.3218 -50.4644,29.3063 -198.7897,16.7643 -255.5622,14.8106 -56.7724,-1.9539 -118.5914,-7.8258 -133.7307,-35.1783 -15.1393,-27.3524 7.5697,-95.7229 7.5697,-95.7229 z"
       id="path1109"
       inkscape:connector-curvature="0"
       sodipodi:nodetypes="ccsccccc" />
    <path
       style="fill:#ffffff;fill-rule:evenodd;stroke:none;stroke-width:1px;stroke-linecap:butt;stroke-linejoin:miter;stroke-opacity:1"
       d="m 1639.998,1307.0864 c 41.353,7.5187 60.1499,15.9773 68.6085,23.4961 8.4586,7.5187 44.1726,33.8343 14.0976,68.6085 46.9921,-37.5937 7.5188,-93.0445 -46.0522,-115.6007 -15.0375,-3.7593 -36.6539,23.4961 -36.6539,23.4961 z"
       id="path1111"
       inkscape:connector-curvature="0"
       sodipodi:nodetypes="ccccc" />
    <path
       style="fill:#ffffff;fill-rule:evenodd;stroke:none;stroke-width:0.99061108px;stroke-linecap:butt;stroke-linejoin:miter;stroke-opacity:1"
       d="m 1996.6592,2039.0074 c -4.0866,-19.2861 2.2035,-40.7619 18.9017,-54.9655 23.3136,-20.124 57.0834,-27.6388 88.5246,-27.8419 14.9504,-0.1104 29.7514,2.0738 43.8643,5.8825 46.8835,6.5091 95.5908,-5.9598 141.9829,3.9456 19.5062,4.2978 38.0598,14.4217 47.8772,29.8988 17.2119,34.7507 16.1508,73.9461 14.3849,111.5101 -0.7778,10.6518 -0.5076,21.367 -1.7867,31.9772 -4.908,25.8222 -24.8992,48.8829 -51.3605,61.3709 -26.4817,12.8754 -57.5198,17.2342 -86.9671,14.4445 -46.5567,2.3768 -94.7106,5.1651 -139.1709,-7.6916 -28.5612,-8.4667 -55.5764,-24.8805 -68.0212,-49.4572 -15.2183,-28.7731 -12.9664,-61.7981 -10.3008,-93.0411 0.7431,-8.6756 1.5487,-17.35 2.0716,-26.0323 z"
       id="path1113"
       inkscape:connector-curvature="0" />
    <path
       style="fill:#ffffff;fill-rule:evenodd;stroke:none;stroke-width:1px;stroke-linecap:butt;stroke-linejoin:miter;stroke-opacity:1"
       d="m 1888.6765,2156.0399 c 42.1519,38.9095 103.7586,57.2834 162.1228,3.2424 58.3643,-54.0409 82.1423,-58.3642 82.1423,-58.3642 0,0 -3.2425,50.7985 -58.3642,83.2231 -55.1218,32.4245 -125.375,41.0711 -185.9009,-28.1013 z"
       id="path1128"
       inkscape:connector-curvature="0" />
  </g>
  <g
     inkscape:groupmode="layer"
     id="layer1"
     inkscape:label="txt">
    <text
       xml:space="preserve"
       style="font-style:normal;font-variant:normal;font-weight:normal;font-stretch:normal;line-height:0%;font-family:Lavi;-inkscape-font-specification:Lavi;text-align:center;letter-spacing:0px;word-spacing:0px;text-anchor:middle;fill:#000000;fill-opacity:1;stroke:none"
       x="408.51514"
       y="1232.4037"
       id="text4246"><tspan
         sodipodi:role="line"
         style="font-size:45px;line-height:1.20000005"
         x="415.54639"
         y="1232.4037"
         id="tspan827">Eadar dà sgeul, </tspan><tspan
         sodipodi:role="line"
         style="font-size:45px;line-height:1.20000005"
         x="415.54639"
         y="1286.4037"
         id="tspan61">a Pheabar, choinnich mi </tspan><tspan
         sodipodi:role="line"
         style="font-size:45px;line-height:1.20000005"
         x="415.54639"
         y="1340.4037"
         id="tspan63">ris na bana-ghoistidhean </tspan><tspan
         sodipodi:role="line"
         style="font-size:45px;line-height:1.20000005"
         x="408.51514"
         y="1394.4037"
         id="tspan65">agad mu dheireadh thall.</tspan></text>
    <text
       xml:space="preserve"
       style="font-style:normal;font-variant:normal;font-weight:normal;font-stretch:normal;line-height:0%;font-family:Lavi;-inkscape-font-specification:Lavi;text-align:center;letter-spacing:0px;word-spacing:0px;text-anchor:middle;fill:#000000;fill-opacity:1;stroke:none"
       x="567.34369"
       y="2114.7688"
       id="text4246-3"><tspan
         sodipodi:role="line"
         style="font-size:45px;line-height:1.20000005"
         x="574.37494"
         y="2114.7688"
         id="tspan872">Tha iad cianail </tspan><tspan
         sodipodi:role="line"
         style="font-size:45px;line-height:1.20000005"
         x="567.34369"
         y="2168.7688"
         id="tspan81">fhèin <tspan
   style="font-style:italic;font-variant:normal;font-weight:normal;font-stretch:normal;font-family:Lavi;-inkscape-font-specification:'Lavi Italic'"
   id="tspan599">sònraichte</tspan>.</tspan></text>
    <text
       xml:space="preserve"
       style="font-style:normal;font-variant:normal;font-weight:normal;font-stretch:normal;font-size:24.34302139px;line-height:0%;font-family:Lavi;-inkscape-font-specification:Lavi;text-align:center;letter-spacing:0px;word-spacing:0px;text-anchor:middle;fill:#000000;fill-opacity:1;stroke:none;stroke-width:0.99999994"
       x="1522.0032"
       y="1199.5613"
       id="text4246-3-5"
       transform="matrix(0.91106211,0,-0.15422983,1.09762,0,0)"><tspan
         sodipodi:role="line"
         style="font-size:91.28633118px;line-height:1.20000005;stroke-width:0.99999994"
         x="1522.0032"
         y="1199.5613"
         id="tspan872-2">!!!</tspan></text>
    <text
       xml:space="preserve"
       style="font-style:normal;font-variant:normal;font-weight:normal;font-stretch:normal;line-height:0%;font-family:Lavi;-inkscape-font-specification:Lavi;text-align:center;letter-spacing:0px;word-spacing:0px;text-anchor:middle;fill:#000000;fill-opacity:1;stroke:none"
       x="1538.0366"
       y="1231.6084"
       id="text4246-3-9"><tspan
         sodipodi:role="line"
         style="font-size:45px;line-height:1.20000005"
         x="1545.0679"
         y="1231.6084"
         id="tspan87">Fhios a’d, tha </tspan><tspan
         sodipodi:role="line"
         style="font-size:45px;line-height:1.20000005"
         x="1538.0366"
         y="1285.6084"
         id="tspan93">thu cho fortanach.</tspan></text>
    <text
       xml:space="preserve"
       style="font-style:normal;font-variant:normal;font-weight:normal;font-stretch:normal;line-height:0%;font-family:Lavi;-inkscape-font-specification:Lavi;text-align:center;letter-spacing:0px;word-spacing:0px;text-anchor:middle;fill:#000000;fill-opacity:1;stroke:none"
       x="2173.0884"
       y="2025.5469"
       id="text4246-3-9-0"><tspan
         sodipodi:role="line"
         style="font-size:45px;line-height:1.20000005"
         x="2180.1196"
         y="2025.5469"
         id="tspan949">Leigidh iad leat </tspan><tspan
         sodipodi:role="line"
         style="font-size:45px;line-height:1.20000005"
         x="2180.1196"
         y="2079.5469"
         id="tspan104">dèanamh na </tspan><tspan
         sodipodi:role="line"
         style="font-size:45px;line-height:1.20000005"
         x="2180.1196"
         y="2133.5469"
         id="tspan106">thogras tu gun </tspan><tspan
         sodipodi:role="line"
         style="font-size:45px;line-height:1.20000005"
         x="2173.0884"
         y="2187.5469"
         id="tspan114">teagamh.</tspan></text>
    <text
       xml:space="preserve"
       style="font-style:normal;font-variant:normal;font-weight:normal;font-stretch:normal;line-height:0%;font-family:Lavi;-inkscape-font-specification:Lavi;text-align:center;letter-spacing:0px;word-spacing:0px;text-anchor:middle;fill:#000000;fill-opacity:1;stroke:none"
       x="601.23407"
       y="2358.322"
       id="text4246-3-9-0-6"><tspan
         sodipodi:role="line"
         style="font-size:42.66666794px;line-height:1.20000005"
         x="607.90076"
         y="2358.322"
         id="tspan6870">Can, dol às </tspan><tspan
         sodipodi:role="line"
         style="font-size:42.66666794px;line-height:1.20000005"
         x="607.90076"
         y="2409.522"
         id="tspan663">àicheadh riochd </tspan><tspan
         sodipodi:role="line"
         style="font-size:42.66666794px;line-height:1.20000005"
         x="607.90076"
         y="2460.7219"
         id="tspan661">is bleadraigidh </tspan><tspan
         sodipodi:role="line"
         style="font-size:42.66666794px;line-height:1.20000005"
         x="607.90076"
         y="2511.9221"
         id="tspan655">fhaoin gun </tspan><tspan
         sodipodi:role="line"
         style="font-size:42.66666794px;line-height:1.20000005"
         x="607.90076"
         y="2563.1221"
         id="tspan675">dragh mun </tspan><tspan
         sodipodi:role="line"
         style="font-size:42.66666794px;line-height:1.20000005"
         x="607.90076"
         y="2614.322"
         id="tspan681">dìoplomasaidh. </tspan></text>
    <text
       xml:space="preserve"
       style="font-style:normal;font-variant:normal;font-weight:normal;font-stretch:normal;line-height:0%;font-family:Lavi;-inkscape-font-specification:Lavi;text-align:center;letter-spacing:0px;word-spacing:0px;text-anchor:middle;fill:#000000;fill-opacity:1;stroke:none"
       x="1378.5385"
       y="2357.9263"
       id="text4246-3-9-0-6-1"><tspan
         sodipodi:role="line"
         style="font-size:42.66666794px;line-height:1.20000005"
         x="1385.2051"
         y="2357.9263"
         id="tspan869">No dannsa is </tspan><tspan
         sodipodi:role="line"
         style="font-size:42.66666794px;line-height:1.20000005"
         x="1385.2051"
         y="2409.1262"
         id="tspan697">gabhail tlachd gun </tspan><tspan
         sodipodi:role="line"
         style="font-size:42.66666794px;line-height:1.20000005"
         x="1385.2051"
         y="2460.3262"
         id="tspan699">diù a’ choin air </tspan><tspan
         sodipodi:role="line"
         style="font-size:42.66666794px;line-height:1.20000005"
         x="1378.5385"
         y="2511.5264"
         id="tspan709">beachdan chàich</tspan><tspan
         sodipodi:role="line"
         style="font-size:42.66666794px;line-height:1.20000005"
         x="1378.5385"
         y="2562.7263"
         id="tspan715">ort.</tspan></text>
    <text
       xml:space="preserve"
       style="font-style:normal;font-variant:normal;font-weight:normal;font-stretch:normal;line-height:0%;font-family:Lavi;-inkscape-font-specification:Lavi;text-align:center;letter-spacing:0px;word-spacing:0px;text-anchor:middle;fill:#000000;fill-opacity:1;stroke:none"
       x="1879.3203"
       y="2358.3428"
       id="text4246-3-9-0-6-1-0"><tspan
         sodipodi:role="line"
         style="font-size:42.66666794px;line-height:1.20000005"
         x="1885.9869"
         y="2358.3428"
         id="tspan881">No feuchainn air </tspan><tspan
         sodipodi:role="line"
         style="font-size:42.66666794px;line-height:1.20000005"
         x="1885.9869"
         y="2409.5427"
         id="tspan735">a h-uile biadh air a’ </tspan><tspan
         sodipodi:role="line"
         style="font-size:42.66666794px;line-height:1.20000005"
         x="1885.9869"
         y="2460.7427"
         id="tspan749">bhuffet gun eagal </tspan><tspan
         sodipodi:role="line"
         style="font-size:42.66666794px;line-height:1.20000005"
         x="1885.9869"
         y="2511.9429"
         id="tspan745">gum faiceadh </tspan><tspan
         sodipodi:role="line"
         style="font-size:42.66666794px;line-height:1.20000005"
         x="1879.3203"
         y="2563.1428"
         id="tspan741">cuideigin thu!</tspan></text>
  </g>
</svg>
